{
  "id": "c097516da9d5",
  "levels": 4,
  "challenges": [
    {
      "type": "options",
      "formInTargetLanguage": "Eu gosto!",
      "meaningInSourceLanguage": "I like it!",
      "id": "0bcc59811406",
      "priority": 0,
      "group": "67452d1366ac"
    },
    {
      "type": "listeningExercise",
      "answer": "Eu gosto!",
      "meaning": "I like it!",
      "audio": "3ed348f6ee4d565be3a58388d70c9bfbe36396f238d361696f150afce442cea9",
      "id": "63f4b94bb617",
      "priority": 1,
      "group": "67452d1366ac"
    },
    {
      "type": "chips",
      "translatesToSourceLanguage": false,
      "phrase": [
        {
          "word": "I",
          "definition": "eu"
        },
        {
          "word": "like",
          "definition": "como\ngosto"
        },
        {
          "word": "it!",
          "definition": "isso\no"
        }
      ],
      "chips": [
        "Eu",
        "gosto",
        "ou",
        "o"
      ],
      "solutions": [
        [
          "Eu",
          "gosto"
        ]
      ],
      "formattedSolution": "Eu gosto!",
      "id": "9b4ab7474f28",
      "priority": 2,
      "group": "67452d1366ac"
    },
    {
      "type": "chips",
      "translatesToSourceLanguage": true,
      "phrase": [
        {
          "word": "Eu",
          "definition": "I\nme"
        },
        {
          "word": "gosto!",
          "definition": "I like\ngusta\nliking\npleasure\ntaste"
        }
      ],
      "chips": [
        "I",
        "like",
        "it",
        "is",
        "in"
      ],
      "solutions": [
        [
          "I",
          "like",
          "it"
        ]
      ],
      "formattedSolution": "I like it!",
      "id": "fe9ff8014ec2",
      "priority": 2,
      "group": "67452d1366ac"
    },
    {
      "type": "options",
      "formInTargetLanguage": "Quanto custa?",
      "meaningInSourceLanguage": "How much is it?",
      "id": "c9fd99c43bfc",
      "priority": 0,
      "group": "a9f56229cd0f"
    },
    {
      "type": "listeningExercise",
      "answer": "Quanto custa?",
      "meaning": "How much is it?",
      "audio": "dd608e8d898d44f8ca4939f74b6e62bf223a25739a9d0fa7d161c7bb1e22c3e5",
      "id": "b4e4d2683747",
      "priority": 1,
      "group": "a9f56229cd0f"
    },
    {
      "type": "chips",
      "translatesToSourceLanguage": false,
      "phrase": [
        {
          "word": "How",
          "definition": "como"
        },
        {
          "word": "much",
          "definition": "muita\nmuito"
        },
        {
          "word": "is",
          "definition": "é"
        },
        {
          "word": "it?",
          "definition": "isso\no"
        }
      ],
      "chips": [
        "Quanto",
        "custa",
        "canta",
        "muito"
      ],
      "solutions": [
        [
          "Quanto",
          "custa"
        ]
      ],
      "formattedSolution": "Quanto custa?",
      "id": "02e0bdc7592c",
      "priority": 2,
      "group": "a9f56229cd0f"
    },
    {
      "type": "chips",
      "translatesToSourceLanguage": true,
      "phrase": [
        {
          "word": "Quanto",
          "definition": "how many\nhow much"
        },
        {
          "word": "custa?",
          "definition": "cost\ncosts"
        }
      ],
      "chips": [
        "How",
        "much",
        "is",
        "it",
        "in",
        "go",
        "to"
      ],
      "solutions": [
        [
          "How",
          "much",
          "is",
          "it"
        ]
      ],
      "formattedSolution": "How much is it?",
      "id": "3a4672b53e60",
      "priority": 2,
      "group": "a9f56229cd0f"
    },
    {
      "type": "options",
      "formInTargetLanguage": "Obrigado",
      "meaningInSourceLanguage": "Thank you",
      "id": "fe03fe235acc",
      "priority": 0,
      "group": "b0d070d3dd51"
    },
    {
      "type": "listeningExercise",
      "answer": "Obrigado",
      "meaning": "Thank you",
      "audio": "cc55e687da00aedabb8a4824d79b1515f31c5a5d9a50a78684c6a44d8b680bc4",
      "id": "44083921a8e9",
      "priority": 1,
      "group": "b0d070d3dd51"
    },
    {
      "type": "options",
      "formInTargetLanguage": "O vestido é bonito",
      "meaningInSourceLanguage": "The dress is beautiful",
      "id": "6cd9e22f5db7",
      "priority": 0,
      "group": "dd8938421bbc"
    },
    {
      "type": "listeningExercise",
      "answer": "O vestido é bonito",
      "meaning": "The dress is beautiful",
      "audio": "6c2f9f11b8f2eee70a218e017f151169972ac780ffa0d9023f5e1830e61a5817",
      "id": "c6fd6cd0abc3",
      "priority": 1,
      "group": "dd8938421bbc"
    },
    {
      "type": "chips",
      "translatesToSourceLanguage": false,
      "phrase": [
        {
          "word": "The",
          "definition": "a\nas\no\nos"
        },
        {
          "word": "dress",
          "definition": "vestido"
        },
        {
          "word": "is",
          "definition": "é"
        },
        {
          "word": "beautiful",
          "definition": "bonita\nbonito"
        }
      ],
      "chips": [
        "O",
        "vestido",
        "é",
        "bonito",
        "o",
        "e",
        "no"
      ],
      "solutions": [
        [
          "O",
          "vestido",
          "é",
          "bonito"
        ]
      ],
      "formattedSolution": "O vestido é bonito",
      "id": "64547873251c",
      "priority": 2,
      "group": "dd8938421bbc"
    },
    {
      "type": "chips",
      "translatesToSourceLanguage": true,
      "phrase": [
        {
          "word": "O",
          "definition": "the"
        },
        {
          "word": "vestido",
          "definition": "dress"
        },
        {
          "word": "é",
          "definition": "is\nyou are"
        },
        {
          "word": "bonito",
          "definition": "beautiful"
        }
      ],
      "chips": [
        "The",
        "dress",
        "is",
        "beautiful",
        "eat",
        "are",
        "the"
      ],
      "solutions": [
        [
          "The",
          "dress",
          "is",
          "beautiful"
        ]
      ],
      "formattedSolution": "The dress is beautiful",
      "id": "750398184173",
      "priority": 2,
      "group": "dd8938421bbc"
    },
    {
      "type": "options",
      "formInTargetLanguage": "Os sapatos são grandes",
      "meaningInSourceLanguage": "The shoes are big",
      "id": "e7187b58920f",
      "priority": 0,
      "group": "b3946c3561cb"
    },
    {
      "type": "listeningExercise",
      "answer": "Os sapatos são grandes",
      "meaning": "The shoes are big",
      "audio": "6e67d0855b1ee590e05cb800dade8ef3d4c1a9e12c5528b68591585dc8f21960",
      "id": "146cbfb40a1c",
      "priority": 1,
      "group": "b3946c3561cb"
    },
    {
      "type": "chips",
      "translatesToSourceLanguage": false,
      "phrase": [
        {
          "word": "The",
          "definition": "a\nas\no\nos"
        },
        {
          "word": "shoes",
          "definition": "sapatos"
        },
        {
          "word": "are",
          "definition": "são"
        },
        {
          "word": "big",
          "definition": "grande\ngrandes"
        }
      ],
      "chips": [
        "Os",
        "sapatos",
        "são",
        "grandes",
        "as",
        "os",
        "patos"
      ],
      "solutions": [
        [
          "Os",
          "sapatos",
          "são",
          "grandes"
        ]
      ],
      "formattedSolution": "Os sapatos são grandes",
      "id": "f6bd43227bfa",
      "priority": 2,
      "group": "b3946c3561cb"
    },
    {
      "type": "chips",
      "translatesToSourceLanguage": true,
      "phrase": [
        {
          "word": "Os",
          "definition": "the"
        },
        {
          "word": "sapatos",
          "definition": "shoes"
        },
        {
          "word": "são",
          "definition": "are"
        },
        {
          "word": "grandes",
          "definition": "big\nbig (plural)"
        }
      ],
      "chips": [
        "The",
        "shoes",
        "are",
        "big",
        "the",
        "She",
        "Are"
      ],
      "solutions": [
        [
          "The",
          "shoes",
          "are",
          "big"
        ]
      ],
      "formattedSolution": "The shoes are big",
      "id": "ebd247d17f7d",
      "priority": 2,
      "group": "b3946c3561cb"
    },
    {
      "type": "options",
      "formInTargetLanguage": "A camiseta é grande",
      "meaningInSourceLanguage": "The t-shirt is big",
      "id": "d376d4473bba",
      "priority": 0,
      "group": "952465c676d8"
    },
    {
      "type": "listeningExercise",
      "answer": "A camiseta é grande",
      "meaning": "The t-shirt is big",
      "audio": "3311266f96d67c49d243bf7f5428191b5c3ea4112bef244f5d9bad5210262d0c",
      "id": "1e5cac3de1fd",
      "priority": 1,
      "group": "952465c676d8"
    },
    {
      "type": "chips",
      "translatesToSourceLanguage": false,
      "phrase": [
        {
          "word": "The",
          "definition": "a\nas\no\nos"
        },
        {
          "word": "t-shirt",
          "definition": "camiseta"
        },
        {
          "word": "is",
          "definition": "é"
        },
        {
          "word": "big",
          "definition": "grande\ngrandes"
        }
      ],
      "chips": [
        "A",
        "camiseta",
        "é",
        "grande",
        "e",
        "a",
        "as"
      ],
      "solutions": [
        [
          "A",
          "camiseta",
          "é",
          "grande"
        ]
      ],
      "formattedSolution": "A camiseta é grande",
      "id": "ec713b758b9c",
      "priority": 2,
      "group": "952465c676d8"
    },
    {
      "type": "chips",
      "translatesToSourceLanguage": true,
      "phrase": [
        {
          "word": "A",
          "definition": "the\nto"
        },
        {
          "word": "camiseta",
          "definition": "t-shirt"
        },
        {
          "word": "é",
          "definition": "is\nyou are"
        },
        {
          "word": "grande",
          "definition": "big"
        }
      ],
      "chips": [
        "The",
        "t-shirt",
        "is",
        "big",
        "it",
        "the",
        "in"
      ],
      "solutions": [
        [
          "The",
          "t-shirt",
          "is",
          "big"
        ]
      ],
      "formattedSolution": "The t-shirt is big",
      "id": "97eb1c72ba17",
      "priority": 2,
      "group": "952465c676d8"
    },
    {
      "type": "options",
      "formInTargetLanguage": "A saia é pequena",
      "meaningInSourceLanguage": "The skirt is small",
      "id": "3491a7ef820c",
      "priority": 0,
      "group": "49ed8b2842f9"
    },
    {
      "type": "listeningExercise",
      "answer": "A saia é pequena",
      "meaning": "The skirt is small",
      "audio": "18e58da65548d2d1f5dfde0b087ab238ae47eb7519f545c808d4726eeefda7b7",
      "id": "70d832567ace",
      "priority": 1,
      "group": "49ed8b2842f9"
    },
    {
      "type": "chips",
      "translatesToSourceLanguage": false,
      "phrase": [
        {
          "word": "The",
          "definition": "a\nas\no\nos"
        },
        {
          "word": "skirt",
          "definition": "saia"
        },
        {
          "word": "is",
          "definition": "é"
        },
        {
          "word": "small",
          "definition": "pequena\npequeno"
        }
      ],
      "chips": [
        "A",
        "saia",
        "é",
        "pequena",
        "a",
        "e",
        "na"
      ],
      "solutions": [
        [
          "A",
          "saia",
          "é",
          "pequena"
        ]
      ],
      "formattedSolution": "A saia é pequena",
      "id": "4422ff48d8df",
      "priority": 2,
      "group": "49ed8b2842f9"
    },
    {
      "type": "chips",
      "translatesToSourceLanguage": true,
      "phrase": [
        {
          "word": "A",
          "definition": "the\nto"
        },
        {
          "word": "saia",
          "definition": "skirt"
        },
        {
          "word": "é",
          "definition": "is\nyou are"
        },
        {
          "word": "pequena",
          "definition": "small"
        }
      ],
      "chips": [
        "The",
        "skirt",
        "is",
        "small",
        "it",
        "ill",
        "are"
      ],
      "solutions": [
        [
          "The",
          "skirt",
          "is",
          "small"
        ]
      ],
      "formattedSolution": "The skirt is small",
      "id": "e03165a58dcd",
      "priority": 2,
      "group": "49ed8b2842f9"
    },
    {
      "type": "cards",
      "pictures": [
        "dress1.jpg",
        "dress2.jpg",
        "dress3.jpg"
      ],
      "formInTargetLanguage": "vestido",
      "meaningInSourceLanguage": "dress",
      "id": "7399df07ff7c",
      "priority": 0,
      "group": "035790896cec"
    },
    {
      "type": "shortInput",
      "pictures": [
        "dress1.jpg",
        "dress2.jpg",
        "dress3.jpg"
      ],
      "formInTargetLanguage": [
        "vestido"
      ],
      "phrase": [
        {
          "word": "dress",
          "definition": "vestido"
        }
      ],
      "id": "88e378563ad7",
      "priority": 1,
      "group": "035790896cec"
    },
    {
      "type": "listeningExercise",
      "answer": "vestido",
      "meaning": "dress",
      "audio": "e1f5b3e1df82870c637507432cc99a14d4f73631382f1977876d435b3d53b3a1",
      "id": "a08208228c98",
      "priority": 1,
      "group": "035790896cec"
    },
    {
      "type": "cards",
      "pictures": [
        "t-shirt1.jpg",
        "t-shirt2.jpg",
        "t-shirt3.jpg"
      ],
      "formInTargetLanguage": "camiseta",
      "meaningInSourceLanguage": "t-shirt",
      "id": "149292658a9b",
      "priority": 0,
      "group": "87215f81fccb"
    },
    {
      "type": "shortInput",
      "pictures": [
        "t-shirt1.jpg",
        "t-shirt2.jpg",
        "t-shirt3.jpg"
      ],
      "formInTargetLanguage": [
        "camiseta"
      ],
      "phrase": [
        {
          "word": "t-shirt",
          "definition": "camiseta"
        }
      ],
      "id": "689f2493a69c",
      "priority": 1,
      "group": "87215f81fccb"
    },
    {
      "type": "listeningExercise",
      "answer": "camiseta",
      "meaning": "t-shirt",
      "audio": "0b342c914d745d350ef8690687fad5c690a771ef97609aaddb1dd12d226cb6be",
      "id": "b073d4a45917",
      "priority": 1,
      "group": "87215f81fccb"
    },
    {
      "type": "cards",
      "pictures": [
        "hat1.jpg",
        "hat2.jpg",
        "hat3.jpg"
      ],
      "formInTargetLanguage": "chapéu",
      "meaningInSourceLanguage": "hat",
      "id": "f9318c0dfee7",
      "priority": 0,
      "group": "f35c78aff8b6"
    },
    {
      "type": "shortInput",
      "pictures": [
        "hat1.jpg",
        "hat2.jpg",
        "hat3.jpg"
      ],
      "formInTargetLanguage": [
        "chapéu"
      ],
      "phrase": [
        {
          "word": "hat",
          "definition": "chapéu"
        }
      ],
      "id": "85bc82fce5c8",
      "priority": 1,
      "group": "f35c78aff8b6"
    },
    {
      "type": "listeningExercise",
      "answer": "chapéu",
      "meaning": "hat",
      "audio": "0390a30ac15843066fffeaafab4d51d8d0907692d0e65cc5a3ad1b42e3176d33",
      "id": "1d035ee4b852",
      "priority": 1,
      "group": "f35c78aff8b6"
    },
    {
      "type": "cards",
      "pictures": [
        "shoes1.jpg",
        "shoes2.jpg",
        "shoes3.jpg"
      ],
      "formInTargetLanguage": "sapatos",
      "meaningInSourceLanguage": "shoes",
      "id": "34a5a1a8f91e",
      "priority": 0,
      "group": "2c357fd1fe59"
    },
    {
      "type": "shortInput",
      "pictures": [
        "shoes1.jpg",
        "shoes2.jpg",
        "shoes3.jpg"
      ],
      "formInTargetLanguage": [
        "sapatos"
      ],
      "phrase": [
        {
          "word": "shoes",
          "definition": "sapatos"
        }
      ],
      "id": "2bc2292b9001",
      "priority": 1,
      "group": "2c357fd1fe59"
    },
    {
      "type": "listeningExercise",
      "answer": "sapatos",
      "meaning": "shoes",
      "audio": "fe7f11d7f1a67f839c9581dcbff53724093beef8d4bea2e61b2a317d7743f30e",
      "id": "8bfaf9d5baf0",
      "priority": 1,
      "group": "2c357fd1fe59"
    },
    {
      "type": "cards",
      "pictures": [
        "shirt1.jpg",
        "shirt2.jpg",
        "shirt3.jpg"
      ],
      "formInTargetLanguage": "camisa",
      "meaningInSourceLanguage": "shirt",
      "id": "90f3413de1c9",
      "priority": 0,
      "group": "9091306eeb40"
    },
    {
      "type": "shortInput",
      "pictures": [
        "shirt1.jpg",
        "shirt2.jpg",
        "shirt3.jpg"
      ],
      "formInTargetLanguage": [
        "camisa"
      ],
      "phrase": [
        {
          "word": "shirt",
          "definition": "camisa"
        }
      ],
      "id": "f16fe8d76d81",
      "priority": 1,
      "group": "9091306eeb40"
    },
    {
      "type": "listeningExercise",
      "answer": "camisa",
      "meaning": "shirt",
      "audio": "5dfdf89347a09d79e34702aef96ec78e96d57da8b668ba1502d478136047b493",
      "id": "5fb78add3adc",
      "priority": 1,
      "group": "9091306eeb40"
    },
    {
      "type": "cards",
      "pictures": [
        "skirt1.jpg",
        "skirt2.jpg",
        "skirt3.jpg"
      ],
      "formInTargetLanguage": "saia",
      "meaningInSourceLanguage": "skirt",
      "id": "1f8420e0c5b2",
      "priority": 0,
      "group": "f35b24c0d17b"
    },
    {
      "type": "shortInput",
      "pictures": [
        "skirt1.jpg",
        "skirt2.jpg",
        "skirt3.jpg"
      ],
      "formInTargetLanguage": [
        "saia"
      ],
      "phrase": [
        {
          "word": "skirt",
          "definition": "saia"
        }
      ],
      "id": "9ba149e75106",
      "priority": 1,
      "group": "f35b24c0d17b"
    },
    {
      "type": "listeningExercise",
      "answer": "saia",
      "meaning": "skirt",
      "audio": "0572b0aca31b93b36f69209a0b38c55d90356f5ab005669663400ed56656e743",
      "id": "7f5aa549bda4",
      "priority": 1,
      "group": "f35b24c0d17b"
    },
    {
      "type": "cards",
      "pictures": [
        "socks1.jpg",
        "socks2.jpg",
        "socks3.jpg"
      ],
      "formInTargetLanguage": "meias",
      "meaningInSourceLanguage": "socks",
      "id": "74aa748b538b",
      "priority": 0,
      "group": "6d6b6823179a"
    },
    {
      "type": "shortInput",
      "pictures": [
        "socks1.jpg",
        "socks2.jpg",
        "socks3.jpg"
      ],
      "formInTargetLanguage": [
        "meias"
      ],
      "phrase": [
        {
          "word": "socks",
          "definition": "meias"
        }
      ],
      "id": "01d6f23384e7",
      "priority": 1,
      "group": "6d6b6823179a"
    },
    {
      "type": "listeningExercise",
      "answer": "meias",
      "meaning": "socks",
      "audio": "906966c4e9b091a54936df6971f044c9deaf5abf2070b43a8ca9661aeacf8e36",
      "id": "a24ce70b286c",
      "priority": 1,
      "group": "6d6b6823179a"
    },
    {
      "type": "cards",
      "pictures": [
        "dress1.jpg",
        "dress2.jpg",
        "dress3.jpg"
      ],
      "formInTargetLanguage": "O vestido",
      "meaningInSourceLanguage": "the dress",
      "id": "c65a94829871",
      "priority": 0,
      "group": "aeea1770aa80"
    },
    {
      "type": "shortInput",
      "pictures": [
        "dress1.jpg",
        "dress2.jpg",
        "dress3.jpg"
      ],
      "formInTargetLanguage": [
        "O vestido"
      ],
      "phrase": [
        {
          "word": "the",
          "definition": "a\nas\no\nos"
        },
        {
          "word": "dress",
          "definition": "vestido"
        }
      ],
      "id": "f42784c1201a",
      "priority": 1,
      "group": "aeea1770aa80"
    },
    {
      "type": "listeningExercise",
      "answer": "O vestido",
      "meaning": "the dress",
      "audio": "4b52971ca66113e16a53a3eccc0cc3086eeb2571d1d5715e11cc98ef5d35dcf5",
      "id": "153e20a3978d",
      "priority": 1,
      "group": "aeea1770aa80"
    },
    {
      "type": "cards",
      "pictures": [
        "t-shirt1.jpg",
        "t-shirt2.jpg",
        "t-shirt3.jpg"
      ],
      "formInTargetLanguage": "A camiseta",
      "meaningInSourceLanguage": "the t-shirt",
      "id": "4f561c36e74a",
      "priority": 0,
      "group": "37ad9127c074"
    },
    {
      "type": "shortInput",
      "pictures": [
        "t-shirt1.jpg",
        "t-shirt2.jpg",
        "t-shirt3.jpg"
      ],
      "formInTargetLanguage": [
        "A camiseta"
      ],
      "phrase": [
        {
          "word": "the",
          "definition": "a\nas\no\nos"
        },
        {
          "word": "t-shirt",
          "definition": "camiseta"
        }
      ],
      "id": "ab7f0fb5d51c",
      "priority": 1,
      "group": "37ad9127c074"
    },
    {
      "type": "listeningExercise",
      "answer": "A camiseta",
      "meaning": "the t-shirt",
      "audio": "abc49dce0b9a16a9bc92db70811a162ec6b551b8f5d6628409aba62665fb9e38",
      "id": "f9a87fa2612e",
      "priority": 1,
      "group": "37ad9127c074"
    },
    {
      "type": "cards",
      "pictures": [
        "hat1.jpg",
        "hat2.jpg",
        "hat3.jpg"
      ],
      "formInTargetLanguage": "um chapéu",
      "meaningInSourceLanguage": "a hat",
      "id": "7188bc713bba",
      "priority": 0,
      "group": "2aed44ce0ca7"
    },
    {
      "type": "shortInput",
      "pictures": [
        "hat1.jpg",
        "hat2.jpg",
        "hat3.jpg"
      ],
      "formInTargetLanguage": [
        "um chapéu"
      ],
      "phrase": [
        {
          "word": "a",
          "definition": "um\numa"
        },
        {
          "word": "hat",
          "definition": "chapéu"
        }
      ],
      "id": "e7f6f3e465e4",
      "priority": 1,
      "group": "2aed44ce0ca7"
    },
    {
      "type": "listeningExercise",
      "answer": "um chapéu",
      "meaning": "a hat",
      "audio": "c2e03235dc59cfa48db4ddf14adf5a72ae7dc1fa5395426aad962bc025da5992",
      "id": "17fd3cf8a37a",
      "priority": 1,
      "group": "2aed44ce0ca7"
    },
    {
      "type": "cards",
      "pictures": [
        "shoes1.jpg",
        "shoes2.jpg",
        "shoes3.jpg"
      ],
      "formInTargetLanguage": "os sapatos",
      "meaningInSourceLanguage": "the shoes",
      "id": "e8264d1b6748",
      "priority": 0,
      "group": "f659957808b1"
    },
    {
      "type": "shortInput",
      "pictures": [
        "shoes1.jpg",
        "shoes2.jpg",
        "shoes3.jpg"
      ],
      "formInTargetLanguage": [
        "os sapatos"
      ],
      "phrase": [
        {
          "word": "the",
          "definition": "a\nas\no\nos"
        },
        {
          "word": "shoes",
          "definition": "sapatos"
        }
      ],
      "id": "853402ca14bb",
      "priority": 1,
      "group": "f659957808b1"
    },
    {
      "type": "listeningExercise",
      "answer": "os sapatos",
      "meaning": "the shoes",
      "audio": "869ecaaa592cecf882c984601512061348a958d9f84e7eb18f40ac5426bcfb15",
      "id": "359e723ecf28",
      "priority": 1,
      "group": "f659957808b1"
    },
    {
      "type": "cards",
      "pictures": [
        "shirt1.jpg",
        "shirt2.jpg",
        "shirt3.jpg"
      ],
      "formInTargetLanguage": "uma camisa",
      "meaningInSourceLanguage": "a shirt",
      "id": "c0b6089bbcec",
      "priority": 0,
      "group": "c616f58c8cee"
    },
    {
      "type": "shortInput",
      "pictures": [
        "shirt1.jpg",
        "shirt2.jpg",
        "shirt3.jpg"
      ],
      "formInTargetLanguage": [
        "uma camisa"
      ],
      "phrase": [
        {
          "word": "a",
          "definition": "um\numa"
        },
        {
          "word": "shirt",
          "definition": "camisa"
        }
      ],
      "id": "d52604d33827",
      "priority": 1,
      "group": "c616f58c8cee"
    },
    {
      "type": "listeningExercise",
      "answer": "uma camisa",
      "meaning": "a shirt",
      "audio": "3da57aa73091e3347a2a794b67a327c76c769f3920932960d31067d67237510b",
      "id": "83b9c9f7d53f",
      "priority": 1,
      "group": "c616f58c8cee"
    },
    {
      "type": "cards",
      "pictures": [
        "skirt1.jpg",
        "skirt2.jpg",
        "skirt3.jpg"
      ],
      "formInTargetLanguage": "A saia",
      "meaningInSourceLanguage": "the skirt",
      "id": "9313135171b6",
      "priority": 0,
      "group": "927ddb0b9b50"
    },
    {
      "type": "shortInput",
      "pictures": [
        "skirt1.jpg",
        "skirt2.jpg",
        "skirt3.jpg"
      ],
      "formInTargetLanguage": [
        "A saia"
      ],
      "phrase": [
        {
          "word": "the",
          "definition": "a\nas\no\nos"
        },
        {
          "word": "skirt",
          "definition": "saia"
        }
      ],
      "id": "a113f1a516ea",
      "priority": 1,
      "group": "927ddb0b9b50"
    },
    {
      "type": "listeningExercise",
      "answer": "A saia",
      "meaning": "the skirt",
      "audio": "8236431cec4cdb32bb74069e6ef231bc28276d85aacf1a49d9b10badac88e1a5",
      "id": "a9173c910ccc",
      "priority": 1,
      "group": "927ddb0b9b50"
    },
    {
      "type": "cards",
      "pictures": [
        "socks1.jpg",
        "socks2.jpg",
        "socks3.jpg"
      ],
      "formInTargetLanguage": "as meias",
      "meaningInSourceLanguage": "the socks",
      "id": "4e1b58835712",
      "priority": 0,
      "group": "fd0662ba6d2e"
    },
    {
      "type": "shortInput",
      "pictures": [
        "socks1.jpg",
        "socks2.jpg",
        "socks3.jpg"
      ],
      "formInTargetLanguage": [
        "as meias"
      ],
      "phrase": [
        {
          "word": "the",
          "definition": "a\nas\no\nos"
        },
        {
          "word": "socks",
          "definition": "meias"
        }
      ],
      "id": "8bda617eb997",
      "priority": 1,
      "group": "fd0662ba6d2e"
    },
    {
      "type": "listeningExercise",
      "answer": "as meias",
      "meaning": "the socks",
      "audio": "3f13687d21dfa6b7fb3a3d2d3af80985246b66aef73e47468180432c027b9f06",
      "id": "9ab3091b3570",
      "priority": 1,
      "group": "fd0662ba6d2e"
    }
  ]
}