{
  "id": "569673478a3d",
  "levels": 2,
  "challenges": [
    {
      "type": "options",
      "formInTargetLanguage": "Pourrais-je parler à Max ?",
      "meaningInSourceLanguage": "May I speak with Max?",
      "id": "f11f05a9589e",
      "priority": 0,
      "group": "3afa7e3b13a9"
    },
    {
      "type": "chips",
      "translatesToSourceLanguage": false,
      "phrase": [
        {
          "word": "May",
          "definition": "Pourrais-je means May I"
        },
        {
          "word": "I",
          "definition": "Je"
        },
        {
          "word": "speak",
          "definition": "parler"
        },
        {
          "word": "with",
          "definition": "avec"
        },
        {
          "word": "Max?",
          "definition": "(prénom)\nMax (name)"
        }
      ],
      "chips": [
        "Pourrais-je",
        "parler",
        "à",
        "Max",
        "",
        "a",
        "Ma",
        "as",
        "Ça"
      ],
      "solutions": [
        [
          "Pourrais-je",
          "parler",
          "à",
          "Max",
          ""
        ]
      ],
      "formattedSolution": "Pourrais-je parler à Max ?",
      "id": "d6dbacbf180c",
      "priority": 2,
      "group": "3afa7e3b13a9"
    },
    {
      "type": "chips",
      "translatesToSourceLanguage": true,
      "phrase": [
        {
          "word": "Pourrais-je",
          "definition": "May I"
        },
        {
          "word": "parler",
          "definition": "speak"
        },
        {
          "word": "à",
          "definition": "in"
        },
        {
          "word": "Max",
          "definition": "Max (name)\nMax (nom)"
        }
      ],
      "chips": [
        "May",
        "I",
        "speak",
        "with",
        "Max",
        "a",
        "at",
        "pay",
        "way"
      ],
      "solutions": [
        [
          "May",
          "I",
          "speak",
          "with",
          "Max"
        ]
      ],
      "formattedSolution": "May I speak with Max?",
      "id": "3d52d0a74001",
      "priority": 2,
      "group": "3afa7e3b13a9"
    },
    {
      "type": "options",
      "formInTargetLanguage": "C’est de la part de qui ?",
      "meaningInSourceLanguage": "Who is calling?",
      "id": "f5c116353b9a",
      "priority": 0,
      "group": "cadbf4a5cdc4"
    },
    {
      "type": "chips",
      "translatesToSourceLanguage": false,
      "phrase": [
        {
          "word": "Who",
          "definition": "qui"
        },
        {
          "word": "is",
          "definition": "es\nest"
        },
        {
          "word": "calling?",
          "definition": "appel"
        }
      ],
      "chips": [
        "C’est",
        "de",
        "la",
        "part",
        "de",
        "qui",
        "",
        "le",
        "Ce",
        "Je",
        "et",
        "a",
        "du"
      ],
      "solutions": [
        [
          "C’est",
          "de",
          "la",
          "part",
          "de",
          "qui",
          ""
        ]
      ],
      "formattedSolution": "C’est de la part de qui ?",
      "id": "f1b290d5366d",
      "priority": 2,
      "group": "cadbf4a5cdc4"
    },
    {
      "type": "chips",
      "translatesToSourceLanguage": true,
      "phrase": [
        {
          "word": "C’est",
          "definition": "This is"
        },
        {
          "word": "de",
          "definition": "in"
        },
        {
          "word": "la",
          "definition": "the"
        },
        {
          "word": "part",
          "definition": "share"
        },
        {
          "word": "de",
          "definition": "in"
        },
        {
          "word": "qui",
          "definition": "who"
        }
      ],
      "chips": [
        "Who",
        "is",
        "calling",
        "in",
        "an"
      ],
      "solutions": [
        [
          "Who",
          "is",
          "calling"
        ]
      ],
      "formattedSolution": "Who is calling?",
      "id": "d1fff15cdef1",
      "priority": 2,
      "group": "cadbf4a5cdc4"
    },
    {
      "type": "options",
      "formInTargetLanguage": "Je vous le passe.",
      "meaningInSourceLanguage": "I'll put you through.",
      "id": "88199f230b4d",
      "priority": 0,
      "group": "fa6ee10c1a19"
    },
    {
      "type": "chips",
      "translatesToSourceLanguage": false,
      "phrase": [
        {
          "word": "I'll",
          "definition": "Je vous"
        },
        {
          "word": "put",
          "definition": "mettre"
        },
        {
          "word": "you",
          "definition": "tu"
        },
        {
          "word": "through.",
          "definition": "passe"
        }
      ],
      "chips": [
        "Je",
        "vous",
        "le",
        "passe",
        "je",
        "de",
        "les"
      ],
      "solutions": [
        [
          "Je",
          "vous",
          "le",
          "passe"
        ]
      ],
      "formattedSolution": "Je vous le passe.",
      "id": "340ffc02fc1c",
      "priority": 2,
      "group": "fa6ee10c1a19"
    },
    {
      "type": "chips",
      "translatesToSourceLanguage": true,
      "phrase": [
        {
          "word": "Je",
          "definition": "I"
        },
        {
          "word": "vous",
          "definition": "your/yours"
        },
        {
          "word": "le",
          "definition": "the\nthe (male)"
        },
        {
          "word": "passe.",
          "definition": "through"
        }
      ],
      "chips": [
        "I'll",
        "put",
        "you",
        "through",
        "your",
        "to",
        "four"
      ],
      "solutions": [
        [
          "I'll",
          "put",
          "you",
          "through"
        ]
      ],
      "formattedSolution": "I'll put you through.",
      "id": "f9ee7aeadbbb",
      "priority": 2,
      "group": "fa6ee10c1a19"
    },
    {
      "type": "options",
      "formInTargetLanguage": "Ne quittez pas.",
      "meaningInSourceLanguage": "Please hold.",
      "id": "0eb98f811dc7",
      "priority": 0,
      "group": "7360a31583e8"
    },
    {
      "type": "chips",
      "translatesToSourceLanguage": false,
      "phrase": [
        {
          "word": "Please",
          "definition": "s'il vous plaît"
        },
        {
          "word": "hold.",
          "definition": "tenir"
        }
      ],
      "chips": [
        "Ne",
        "quittez",
        "pas",
        "te",
        "que"
      ],
      "solutions": [
        [
          "Ne",
          "quittez",
          "pas"
        ]
      ],
      "formattedSolution": "Ne quittez pas.",
      "id": "10434791911a",
      "priority": 2,
      "group": "7360a31583e8"
    },
    {
      "type": "chips",
      "translatesToSourceLanguage": true,
      "phrase": [
        {
          "word": "Ne",
          "definition": "not"
        },
        {
          "word": "quittez",
          "definition": "leave"
        },
        {
          "word": "pas.",
          "definition": "not"
        }
      ],
      "chips": [
        "Please",
        "hold",
        "old",
        "please"
      ],
      "solutions": [
        [
          "Please",
          "hold"
        ]
      ],
      "formattedSolution": "Please hold.",
      "id": "22e9804d2361",
      "priority": 2,
      "group": "7360a31583e8"
    },
    {
      "type": "cards",
      "pictures": null,
      "formInTargetLanguage": "contrat",
      "meaningInSourceLanguage": "contract",
      "id": "8f859c628219",
      "priority": 0,
      "group": "4d7be6f093e5"
    },
    {
      "type": "shortInput",
      "pictures": null,
      "formInTargetLanguage": [
        "contrat"
      ],
      "phrase": [
        {
          "word": "contract",
          "definition": "contrat"
        }
      ],
      "id": "57adf10e2a11",
      "priority": 1,
      "group": "4d7be6f093e5"
    }
  ]
}