{
  "id": "569673478a3d",
  "levels": 3,
  "challenges": [
    {
      "type": "options",
      "formInTargetLanguage": "Cecille aime les oranges",
      "meaningInSourceLanguage": "Cecille likes oranges",
      "id": "33bb614b7c82",
      "priority": 0,
      "group": "2f3f443d6616"
    },
    {
      "type": "chips",
      "translatesToSourceLanguage": false,
      "phrase": [
        {
          "word": "Cecille",
          "definition": "Cecille (name)"
        },
        {
          "word": "likes",
          "definition": "aime"
        },
        {
          "word": "oranges",
          "definition": "oranges"
        }
      ],
      "chips": [
        "Cecille",
        "aime",
        "les",
        "oranges",
        "le",
        "Ces",
        "fille"
      ],
      "solutions": [
        [
          "Cecille",
          "aime",
          "les",
          "oranges"
        ]
      ],
      "formattedSolution": "Cecille aime les oranges",
      "id": "2b3fb9aa194c",
      "priority": 2,
      "group": "2f3f443d6616"
    },
    {
      "type": "chips",
      "translatesToSourceLanguage": true,
      "phrase": [
        {
          "word": "Cecille",
          "definition": "Cecille (nom)\nCeclille (nom)"
        },
        {
          "word": "aime",
          "definition": "like\nlikes\nloves"
        },
        {
          "word": "les",
          "definition": "the (plural)"
        },
        {
          "word": "oranges",
          "definition": "oranges (plural)"
        }
      ],
      "chips": [
        "Cecille",
        "likes",
        "oranges",
        "like",
        "olives"
      ],
      "solutions": [
        [
          "Cecille",
          "likes",
          "oranges"
        ]
      ],
      "formattedSolution": "Cecille likes oranges",
      "id": "0938b8d2b9ff",
      "priority": 2,
      "group": "2f3f443d6616"
    },
    {
      "type": "options",
      "formInTargetLanguage": "Cecille mange une orange",
      "meaningInSourceLanguage": "Cecille eats an orange",
      "id": "426faade2722",
      "priority": 0,
      "group": "f378ac334e97"
    },
    {
      "type": "chips",
      "translatesToSourceLanguage": false,
      "phrase": [
        {
          "word": "Cecille",
          "definition": "Cecille (name)"
        },
        {
          "word": "eats",
          "definition": "mange"
        },
        {
          "word": "an",
          "definition": "une"
        },
        {
          "word": "orange",
          "definition": "Orange"
        }
      ],
      "chips": [
        "Cecille",
        "mange",
        "une",
        "orange",
        "mangue",
        "lune",
        "ne"
      ],
      "solutions": [
        [
          "Cecille",
          "mange",
          "une",
          "orange"
        ]
      ],
      "formattedSolution": "Cecille mange une orange",
      "id": "975d217cefcf",
      "priority": 2,
      "group": "f378ac334e97"
    },
    {
      "type": "chips",
      "translatesToSourceLanguage": true,
      "phrase": [
        {
          "word": "Cecille",
          "definition": "Cecille (nom)\nCeclille (nom)"
        },
        {
          "word": "mange",
          "definition": "eats"
        },
        {
          "word": "une",
          "definition": "a\nan"
        },
        {
          "word": "orange",
          "definition": "Orange"
        }
      ],
      "chips": [
        "Cecille",
        "eats",
        "an",
        "orange",
        "Can",
        "and",
        "are"
      ],
      "solutions": [
        [
          "Cecille",
          "eats",
          "an",
          "orange"
        ]
      ],
      "formattedSolution": "Cecille eats an orange",
      "id": "03cde8340dfc",
      "priority": 2,
      "group": "f378ac334e97"
    },
    {
      "type": "options",
      "formInTargetLanguage": "Je n'aime pas la mangue",
      "meaningInSourceLanguage": "I don't like mango",
      "id": "8d0822dfcc5f",
      "priority": 0,
      "group": "4d8d922594c9"
    },
    {
      "type": "chips",
      "translatesToSourceLanguage": false,
      "phrase": [
        {
          "word": "I",
          "definition": "Je"
        },
        {
          "word": "don't",
          "definition": "n'aime"
        },
        {
          "word": "like",
          "definition": "aime\naimons"
        },
        {
          "word": "mango",
          "definition": "Mangue"
        }
      ],
      "chips": [
        "Je",
        "n'aime",
        "pas",
        "la",
        "mangue",
        "ne",
        "me",
        "Ça",
        "va"
      ],
      "solutions": [
        [
          "Je",
          "n'aime",
          "pas",
          "la",
          "mangue"
        ]
      ],
      "formattedSolution": "Je n'aime pas la mangue",
      "id": "294cedda54ff",
      "priority": 2,
      "group": "4d8d922594c9"
    },
    {
      "type": "chips",
      "translatesToSourceLanguage": true,
      "phrase": [
        {
          "word": "Je",
          "definition": "I"
        },
        {
          "word": "n'aime",
          "definition": "don't like"
        },
        {
          "word": "pas",
          "definition": "not"
        },
        {
          "word": "la",
          "definition": "the"
        },
        {
          "word": "mangue",
          "definition": "Mango"
        }
      ],
      "chips": [
        "I",
        "don't",
        "like",
        "mango",
        "in",
        "an",
        "one"
      ],
      "solutions": [
        [
          "I",
          "don't",
          "like",
          "mango"
        ]
      ],
      "formattedSolution": "I don't like mango",
      "id": "3a3c562600eb",
      "priority": 2,
      "group": "4d8d922594c9"
    },
    {
      "type": "cards",
      "pictures": [
        "banana3.jpg"
      ],
      "formInTargetLanguage": "Banane",
      "meaningInSourceLanguage": "Banane",
      "id": "e22e40ef7258",
      "priority": 0,
      "group": "18e8bdc4d583"
    },
    {
      "type": "shortInput",
      "pictures": [
        "banana3.jpg"
      ],
      "formInTargetLanguage": [
        "Banane"
      ],
      "phrase": [
        {
          "word": "Banane",
          "definition": "Banane"
        }
      ],
      "id": "ba9bdebb071c",
      "priority": 1,
      "group": "18e8bdc4d583"
    },
    {
      "type": "cards",
      "pictures": [
        "yellow2.jpg"
      ],
      "formInTargetLanguage": "Citron",
      "meaningInSourceLanguage": "Lemon",
      "id": "feedc381e781",
      "priority": 0,
      "group": "3c279a26ac95"
    },
    {
      "type": "shortInput",
      "pictures": [
        "yellow2.jpg"
      ],
      "formInTargetLanguage": [
        "Citron"
      ],
      "phrase": [
        {
          "word": "Lemon",
          "definition": "Citron"
        }
      ],
      "id": "e5acdc20b71f",
      "priority": 1,
      "group": "3c279a26ac95"
    },
    {
      "type": "cards",
      "pictures": [
        "orange2.jpg"
      ],
      "formInTargetLanguage": "Orange",
      "meaningInSourceLanguage": "Orange",
      "id": "9186183a95c4",
      "priority": 0,
      "group": "6d3643bfd2a0"
    },
    {
      "type": "shortInput",
      "pictures": [
        "orange2.jpg"
      ],
      "formInTargetLanguage": [
        "Orange"
      ],
      "phrase": [
        {
          "word": "Orange",
          "definition": "Orange"
        }
      ],
      "id": "3c1357cbbe0f",
      "priority": 1,
      "group": "6d3643bfd2a0"
    },
    {
      "type": "cards",
      "pictures": null,
      "formInTargetLanguage": "Clémentine",
      "meaningInSourceLanguage": "Clementine",
      "id": "9058c30622c8",
      "priority": 0,
      "group": "3fd9c21a96fa"
    },
    {
      "type": "shortInput",
      "pictures": null,
      "formInTargetLanguage": [
        "Clémentine"
      ],
      "phrase": [
        {
          "word": "Clementine",
          "definition": "Clémentine"
        }
      ],
      "id": "b3ae8a3475df",
      "priority": 1,
      "group": "3fd9c21a96fa"
    },
    {
      "type": "cards",
      "pictures": null,
      "formInTargetLanguage": "Pamplemousse",
      "meaningInSourceLanguage": "Grapefruit",
      "id": "db11ebcb064d",
      "priority": 0,
      "group": "202c4b907921"
    },
    {
      "type": "shortInput",
      "pictures": null,
      "formInTargetLanguage": [
        "Pamplemousse"
      ],
      "phrase": [
        {
          "word": "Grapefruit",
          "definition": "Pamplemousse"
        }
      ],
      "id": "062eeb23dc81",
      "priority": 1,
      "group": "202c4b907921"
    },
    {
      "type": "cards",
      "pictures": null,
      "formInTargetLanguage": "Cerise",
      "meaningInSourceLanguage": "Cherry",
      "id": "894fbc3a5187",
      "priority": 0,
      "group": "2197173fe3c3"
    },
    {
      "type": "shortInput",
      "pictures": null,
      "formInTargetLanguage": [
        "Cerise"
      ],
      "phrase": [
        {
          "word": "Cherry",
          "definition": "Cerise"
        }
      ],
      "id": "6d576a42e00c",
      "priority": 1,
      "group": "2197173fe3c3"
    },
    {
      "type": "cards",
      "pictures": null,
      "formInTargetLanguage": "Noix de coco",
      "meaningInSourceLanguage": "Coconut",
      "id": "035801a9a6dc",
      "priority": 0,
      "group": "04cea7aeb581"
    },
    {
      "type": "shortInput",
      "pictures": null,
      "formInTargetLanguage": [
        "Noix de coco"
      ],
      "phrase": [
        {
          "word": "Coconut",
          "definition": "Noix de coco"
        }
      ],
      "id": "e18e77ec8181",
      "priority": 1,
      "group": "04cea7aeb581"
    },
    {
      "type": "cards",
      "pictures": null,
      "formInTargetLanguage": "Mangue",
      "meaningInSourceLanguage": "Mango",
      "id": "1667dfa8abef",
      "priority": 0,
      "group": "fa5fcbdc6f8f"
    },
    {
      "type": "shortInput",
      "pictures": null,
      "formInTargetLanguage": [
        "Mangue"
      ],
      "phrase": [
        {
          "word": "Mango",
          "definition": "Mangue"
        }
      ],
      "id": "76467e9a0038",
      "priority": 1,
      "group": "fa5fcbdc6f8f"
    },
    {
      "type": "cards",
      "pictures": null,
      "formInTargetLanguage": "Fruit du dragone",
      "meaningInSourceLanguage": "Dragon Fruit",
      "id": "f5ed8767a98a",
      "priority": 0,
      "group": "e4b5cbfec1c5"
    },
    {
      "type": "shortInput",
      "pictures": null,
      "formInTargetLanguage": [
        "Fruit du dragone"
      ],
      "phrase": [
        {
          "word": "Dragon",
          "definition": "dragone"
        },
        {
          "word": "Fruit",
          "definition": "fruite"
        }
      ],
      "id": "d9527aa93a45",
      "priority": 1,
      "group": "e4b5cbfec1c5"
    },
    {
      "type": "cards",
      "pictures": null,
      "formInTargetLanguage": "Lime",
      "meaningInSourceLanguage": "Lime",
      "id": "fce703101ce5",
      "priority": 0,
      "group": "6d0d1d193031"
    },
    {
      "type": "shortInput",
      "pictures": null,
      "formInTargetLanguage": [
        "Lime"
      ],
      "phrase": [
        {
          "word": "Lime",
          "definition": "Lime"
        }
      ],
      "id": "db4dae8f204b",
      "priority": 1,
      "group": "6d0d1d193031"
    },
    {
      "type": "cards",
      "pictures": null,
      "formInTargetLanguage": "Raisin",
      "meaningInSourceLanguage": "Grape",
      "id": "e5dfc42989b5",
      "priority": 0,
      "group": "8fcb8358afa5"
    },
    {
      "type": "shortInput",
      "pictures": null,
      "formInTargetLanguage": [
        "Raisin"
      ],
      "phrase": [
        {
          "word": "Grape",
          "definition": "Raisin"
        }
      ],
      "id": "938fde8c7cfa",
      "priority": 1,
      "group": "8fcb8358afa5"
    }
  ]
}