{
  "id": "569673478a3d",
  "levels": 3,
  "challenges": [
    {
      "type": "options",
      "formInTargetLanguage": "J'ai un concombre",
      "meaningInSourceLanguage": "I have a cucumber",
      "id": "7933f2ffb350",
      "priority": 0,
      "group": "5af10803d26d"
    },
    {
      "type": "chips",
      "translatesToSourceLanguage": false,
      "phrase": [
        {
          "word": "I",
          "definition": "Je"
        },
        {
          "word": "have",
          "definition": "J'ai (i have)"
        },
        {
          "word": "a",
          "definition": "un\nune\nune (feminin) or un (masculin)"
        },
        {
          "word": "cucumber",
          "definition": "concombre"
        }
      ],
      "chips": [
        "J'ai",
        "un",
        "concombre",
        "une",
        "on"
      ],
      "solutions": [
        [
          "J'ai",
          "un",
          "concombre"
        ]
      ],
      "formattedSolution": "J'ai un concombre",
      "id": "201551d1e15b",
      "priority": 2,
      "group": "5af10803d26d"
    },
    {
      "type": "chips",
      "translatesToSourceLanguage": true,
      "phrase": [
        {
          "word": "J'ai",
          "definition": "I have"
        },
        {
          "word": "un",
          "definition": "a"
        },
        {
          "word": "concombre",
          "definition": "cucumber"
        }
      ],
      "chips": [
        "I",
        "have",
        "a",
        "cucumber",
        "am",
        "me",
        "are"
      ],
      "solutions": [
        [
          "I",
          "have",
          "a",
          "cucumber"
        ]
      ],
      "formattedSolution": "I have a cucumber",
      "id": "5845122c2ff7",
      "priority": 2,
      "group": "5af10803d26d"
    },
    {
      "type": "options",
      "formInTargetLanguage": "J'ai une carotte",
      "meaningInSourceLanguage": "I have a carrot",
      "id": "119321c59577",
      "priority": 0,
      "group": "6a8418be4005"
    },
    {
      "type": "chips",
      "translatesToSourceLanguage": false,
      "phrase": [
        {
          "word": "I",
          "definition": "Je"
        },
        {
          "word": "have",
          "definition": "J'ai (i have)"
        },
        {
          "word": "a",
          "definition": "un\nune\nune (feminin) or un (masculin)"
        },
        {
          "word": "carrot",
          "definition": "carotte"
        }
      ],
      "chips": [
        "J'ai",
        "une",
        "carotte",
        "Je",
        "lune"
      ],
      "solutions": [
        [
          "J'ai",
          "une",
          "carotte"
        ]
      ],
      "formattedSolution": "J'ai une carotte",
      "id": "42d907679faf",
      "priority": 2,
      "group": "6a8418be4005"
    },
    {
      "type": "chips",
      "translatesToSourceLanguage": true,
      "phrase": [
        {
          "word": "J'ai",
          "definition": "I have"
        },
        {
          "word": "une",
          "definition": "a\nan"
        },
        {
          "word": "carotte",
          "definition": "carrot"
        }
      ],
      "chips": [
        "I",
        "have",
        "a",
        "carrot",
        "at",
        "am",
        "are"
      ],
      "solutions": [
        [
          "I",
          "have",
          "a",
          "carrot"
        ]
      ],
      "formattedSolution": "I have a carrot",
      "id": "298892732d3b",
      "priority": 2,
      "group": "6a8418be4005"
    },
    {
      "type": "cards",
      "pictures": null,
      "formInTargetLanguage": "l’ail",
      "meaningInSourceLanguage": "garlic",
      "id": "459f5bddbee0",
      "priority": 0,
      "group": "48d5865e21c0"
    },
    {
      "type": "shortInput",
      "pictures": null,
      "formInTargetLanguage": [
        "l’ail"
      ],
      "phrase": [
        {
          "word": "garlic",
          "definition": "l’ail"
        }
      ],
      "id": "efeb5bfeea44",
      "priority": 1,
      "group": "48d5865e21c0"
    },
    {
      "type": "cards",
      "pictures": null,
      "formInTargetLanguage": "l’asperge",
      "meaningInSourceLanguage": "asparagus",
      "id": "28d5476a7e15",
      "priority": 0,
      "group": "eaf961424e6a"
    },
    {
      "type": "shortInput",
      "pictures": null,
      "formInTargetLanguage": [
        "l’asperge"
      ],
      "phrase": [
        {
          "word": "asparagus",
          "definition": "l’asperge"
        }
      ],
      "id": "e15e35bf6a73",
      "priority": 1,
      "group": "eaf961424e6a"
    },
    {
      "type": "cards",
      "pictures": null,
      "formInTargetLanguage": "carotte",
      "meaningInSourceLanguage": "carrot",
      "id": "d89c3f28d2f5",
      "priority": 0,
      "group": "2fad5564c3b9"
    },
    {
      "type": "shortInput",
      "pictures": null,
      "formInTargetLanguage": [
        "carotte"
      ],
      "phrase": [
        {
          "word": "carrot",
          "definition": "carotte"
        }
      ],
      "id": "9d4dee31207f",
      "priority": 1,
      "group": "2fad5564c3b9"
    },
    {
      "type": "cards",
      "pictures": null,
      "formInTargetLanguage": "concombre",
      "meaningInSourceLanguage": "cucumber",
      "id": "e113eca93a73",
      "priority": 0,
      "group": "5ad3444f99a3"
    },
    {
      "type": "shortInput",
      "pictures": null,
      "formInTargetLanguage": [
        "concombre"
      ],
      "phrase": [
        {
          "word": "cucumber",
          "definition": "concombre"
        }
      ],
      "id": "80c0499bf33e",
      "priority": 1,
      "group": "5ad3444f99a3"
    },
    {
      "type": "cards",
      "pictures": null,
      "formInTargetLanguage": "l'oignon",
      "meaningInSourceLanguage": "onion",
      "id": "95aee6fa5a5e",
      "priority": 0,
      "group": "17c21e8c092d"
    },
    {
      "type": "shortInput",
      "pictures": null,
      "formInTargetLanguage": [
        "l'oignon"
      ],
      "phrase": [
        {
          "word": "onion",
          "definition": "l'oignon"
        }
      ],
      "id": "d87f5a621071",
      "priority": 1,
      "group": "17c21e8c092d"
    },
    {
      "type": "cards",
      "pictures": null,
      "formInTargetLanguage": "courgette",
      "meaningInSourceLanguage": "zucchini",
      "id": "7f68a8f742e7",
      "priority": 0,
      "group": "5a7c346b968a"
    },
    {
      "type": "shortInput",
      "pictures": null,
      "formInTargetLanguage": [
        "courgette"
      ],
      "phrase": [
        {
          "word": "zucchini",
          "definition": "courgette"
        }
      ],
      "id": "b36dda4057f8",
      "priority": 1,
      "group": "5a7c346b968a"
    },
    {
      "type": "cards",
      "pictures": null,
      "formInTargetLanguage": "l’échalotte",
      "meaningInSourceLanguage": "shallot",
      "id": "df2c6b4fa752",
      "priority": 0,
      "group": "6d4d87cd7588"
    },
    {
      "type": "shortInput",
      "pictures": null,
      "formInTargetLanguage": [
        "l’échalotte"
      ],
      "phrase": [
        {
          "word": "shallot",
          "definition": "l’échalotte"
        }
      ],
      "id": "86528a39b38c",
      "priority": 1,
      "group": "6d4d87cd7588"
    },
    {
      "type": "cards",
      "pictures": null,
      "formInTargetLanguage": "l’épinard",
      "meaningInSourceLanguage": "spinach",
      "id": "a35a7e9b07f1",
      "priority": 0,
      "group": "71bcefdc8f01"
    },
    {
      "type": "shortInput",
      "pictures": null,
      "formInTargetLanguage": [
        "l’épinard"
      ],
      "phrase": [
        {
          "word": "spinach",
          "definition": "l’épinard"
        }
      ],
      "id": "d26786677be1",
      "priority": 1,
      "group": "71bcefdc8f01"
    },
    {
      "type": "cards",
      "pictures": null,
      "formInTargetLanguage": "maïs doux",
      "meaningInSourceLanguage": "sweetcorn",
      "id": "d07283295409",
      "priority": 0,
      "group": "242019e9c591"
    },
    {
      "type": "shortInput",
      "pictures": null,
      "formInTargetLanguage": [
        "maïs doux"
      ],
      "phrase": [
        {
          "word": "sweetcorn",
          "definition": "maïs doux"
        }
      ],
      "id": "b616ebf44b67",
      "priority": 1,
      "group": "242019e9c591"
    }
  ]
}