{
  "id": "a768a811eb74",
  "levels": 4,
  "challenges": [
    {
      "type": "options",
      "formInTargetLanguage": "Nitayat nipeyã apah",
      "meaningInSourceLanguage": "The bear eats the meat",
      "id": "560f4fbc2bed",
      "priority": 0,
      "group": "b839eb091587"
    },
    {
      "type": "chips",
      "translatesToSourceLanguage": false,
      "phrase": [
        {
          "word": "The bear",
          "definition": "nitayat"
        },
        {
          "word": "eats",
          "definition": "apah"
        },
        {
          "word": "the meat",
          "definition": "nipeyã"
        }
      ],
      "chips": [
        "Nitayat",
        "nipeyã",
        "apah",
        "Nipeyã",
        "atah"
      ],
      "solutions": [
        [
          "Nitayat",
          "nipeyã",
          "apah"
        ]
      ],
      "formattedSolution": "Nitayat nipeyã apah",
      "id": "7c1c520fd650",
      "priority": 2,
      "group": "b839eb091587"
    },
    {
      "type": "chips",
      "translatesToSourceLanguage": true,
      "phrase": [
        {
          "word": "Nitayat",
          "definition": "bear\nbears\nthe bear"
        },
        {
          "word": "nipeyã",
          "definition": "the meat"
        },
        {
          "word": "apah",
          "definition": "eat\neats\neats it\nhe eats\nhe eats it\nit eats\nit eats it\nshe eats\nshe eats it\nthey eat\nthey eat it\nto eat it\n{to eat it}"
        }
      ],
      "chips": [
        "The",
        "bear",
        "eats",
        "the",
        "meat",
        "eat",
        "ear",
        "that",
        "me"
      ],
      "solutions": [
        [
          "The",
          "bear",
          "eats",
          "the",
          "meat"
        ]
      ],
      "formattedSolution": "The bear eats the meat",
      "id": "6b3c0bb33a12",
      "priority": 2,
      "group": "b839eb091587"
    },
    {
      "type": "options",
      "formInTargetLanguage": "Esseyat éleyã apah",
      "meaningInSourceLanguage": "The deer eats the mulberry",
      "id": "a0383fd910c9",
      "priority": 0,
      "group": "591062f37ab1"
    },
    {
      "type": "chips",
      "translatesToSourceLanguage": false,
      "phrase": [
        {
          "word": "The deer",
          "definition": "esseyat"
        },
        {
          "word": "eats",
          "definition": "apah"
        },
        {
          "word": "the mulberry",
          "definition": "éleyã"
        }
      ],
      "chips": [
        "Esseyat",
        "éleyã",
        "apah",
        "seyah",
        "Úseyat"
      ],
      "solutions": [
        [
          "Esseyat",
          "éleyã",
          "apah"
        ]
      ],
      "formattedSolution": "Esseyat éleyã apah",
      "id": "6c3c40ce8eee",
      "priority": 2,
      "group": "591062f37ab1"
    },
    {
      "type": "chips",
      "translatesToSourceLanguage": true,
      "phrase": [
        {
          "word": "Esseyat",
          "definition": "the deer"
        },
        {
          "word": "éleyã",
          "definition": "the mulberry"
        },
        {
          "word": "apah",
          "definition": "eat\neats\neats it\nhe eats\nhe eats it\nit eats\nit eats it\nshe eats\nshe eats it\nthey eat\nthey eat it\nto eat it\n{to eat it}"
        }
      ],
      "chips": [
        "The",
        "deer",
        "eats",
        "the",
        "mulberry",
        "She",
        "They",
        "her",
        "ear"
      ],
      "solutions": [
        [
          "The",
          "deer",
          "eats",
          "the",
          "mulberry"
        ]
      ],
      "formattedSolution": "The deer eats the mulberry",
      "id": "7fd9f269439e",
      "priority": 2,
      "group": "591062f37ab1"
    },
    {
      "type": "options",
      "formInTargetLanguage": "Pẽteyat dakkũyã apah",
      "meaningInSourceLanguage": "The mouse eats the plum",
      "id": "c5751bf7c66f",
      "priority": 0,
      "group": "cd6a28edc856"
    },
    {
      "type": "chips",
      "translatesToSourceLanguage": false,
      "phrase": [
        {
          "word": "The mouse",
          "definition": "pẽteyat\npẽteyã"
        },
        {
          "word": "eats",
          "definition": "apah"
        },
        {
          "word": "the plum",
          "definition": "dakkũyã"
        }
      ],
      "chips": [
        "Pẽteyat",
        "dakkũyã",
        "apah",
        "atah",
        "seyah"
      ],
      "solutions": [
        [
          "Pẽteyat",
          "dakkũyã",
          "apah"
        ]
      ],
      "formattedSolution": "Pẽteyat dakkũyã apah",
      "id": "1e00869e5b28",
      "priority": 2,
      "group": "cd6a28edc856"
    },
    {
      "type": "chips",
      "translatesToSourceLanguage": true,
      "phrase": [
        {
          "word": "Pẽteyat",
          "definition": "the mouse"
        },
        {
          "word": "dakkũyã",
          "definition": "the plum"
        },
        {
          "word": "apah",
          "definition": "eat\neats\neats it\nhe eats\nhe eats it\nit eats\nit eats it\nshe eats\nshe eats it\nthey eat\nthey eat it\nto eat it\n{to eat it}"
        }
      ],
      "chips": [
        "The",
        "mouse",
        "eats",
        "the",
        "plum",
        "She",
        "are",
        "blue",
        "one"
      ],
      "solutions": [
        [
          "The",
          "mouse",
          "eats",
          "the",
          "plum"
        ]
      ],
      "formattedSolution": "The mouse eats the plum",
      "id": "e6e42338ce6f",
      "priority": 2,
      "group": "cd6a28edc856"
    },
    {
      "type": "options",
      "formInTargetLanguage": "Dakkũyã apah",
      "meaningInSourceLanguage": "She eats the plum",
      "id": "e0952a910179",
      "priority": 0,
      "group": "e7d83fc75df6"
    },
    {
      "type": "chips",
      "translatesToSourceLanguage": false,
      "phrase": [
        {
          "word": "She eats",
          "definition": "apah"
        },
        {
          "word": "the plum",
          "definition": "dakkũyã"
        }
      ],
      "chips": [
        "Dakkũyã",
        "apah",
        "atah",
        "dakkũyã"
      ],
      "solutions": [
        [
          "Dakkũyã",
          "apah"
        ]
      ],
      "formattedSolution": "Dakkũyã apah",
      "id": "38353bdf634a",
      "priority": 2,
      "group": "e7d83fc75df6"
    },
    {
      "type": "chips",
      "translatesToSourceLanguage": true,
      "phrase": [
        {
          "word": "Dakkũyã",
          "definition": "the plum"
        },
        {
          "word": "apah",
          "definition": "eat\neats\neats it\nhe eats\nhe eats it\nit eats\nit eats it\nshe eats\nshe eats it\nthey eat\nthey eat it\nto eat it\n{to eat it}"
        }
      ],
      "chips": [
        "She",
        "eats",
        "the",
        "plum",
        "The",
        "them",
        "are"
      ],
      "solutions": [
        [
          "She",
          "eats",
          "the",
          "plum"
        ],
        [
          "They",
          "eat",
          "the",
          "plum"
        ],
        [
          "He",
          "eats",
          "the",
          "plum"
        ],
        [
          "It",
          "eats",
          "the",
          "plum"
        ]
      ],
      "formattedSolution": "She eats the plum",
      "id": "cde7713ca293",
      "priority": 2,
      "group": "e7d83fc75df6"
    },
    {
      "type": "options",
      "formInTargetLanguage": "Éleyã apah",
      "meaningInSourceLanguage": "He eats the mulberry",
      "id": "7260c87b5338",
      "priority": 0,
      "group": "b2dca05cee40"
    },
    {
      "type": "chips",
      "translatesToSourceLanguage": false,
      "phrase": [
        {
          "word": "He eats",
          "definition": "apah"
        },
        {
          "word": "the mulberry",
          "definition": "éleyã"
        }
      ],
      "chips": [
        "Éleyã",
        "apah",
        "atah",
        "éleyã"
      ],
      "solutions": [
        [
          "Éleyã",
          "apah"
        ]
      ],
      "formattedSolution": "Éleyã apah",
      "id": "9f3f2b705ff1",
      "priority": 2,
      "group": "b2dca05cee40"
    },
    {
      "type": "chips",
      "translatesToSourceLanguage": true,
      "phrase": [
        {
          "word": "Éleyã",
          "definition": "the mulberry"
        },
        {
          "word": "apah",
          "definition": "eat\neats\neats it\nhe eats\nhe eats it\nit eats\nit eats it\nshe eats\nshe eats it\nthey eat\nthey eat it\nto eat it\n{to eat it}"
        }
      ],
      "chips": [
        "He",
        "eats",
        "the",
        "mulberry",
        "me",
        "are",
        "The"
      ],
      "solutions": [
        [
          "He",
          "eats",
          "the",
          "mulberry"
        ],
        [
          "They",
          "eat",
          "the",
          "mulberry"
        ],
        [
          "She",
          "eats",
          "the",
          "mulberry"
        ],
        [
          "It",
          "eats",
          "the",
          "mulberry"
        ]
      ],
      "formattedSolution": "He eats the mulberry",
      "id": "de8de7b60f84",
      "priority": 2,
      "group": "b2dca05cee40"
    },
    {
      "type": "options",
      "formInTargetLanguage": "Nipeyã apah",
      "meaningInSourceLanguage": "They eat the meat",
      "id": "7995dbdb72e9",
      "priority": 0,
      "group": "e190df2c3ee9"
    },
    {
      "type": "chips",
      "translatesToSourceLanguage": false,
      "phrase": [
        {
          "word": "They eat",
          "definition": "apah"
        },
        {
          "word": "the meat",
          "definition": "nipeyã"
        }
      ],
      "chips": [
        "Nipeyã",
        "apah",
        "nipeyã",
        "upa'"
      ],
      "solutions": [
        [
          "Nipeyã",
          "apah"
        ]
      ],
      "formattedSolution": "Nipeyã apah",
      "id": "e5b7c1aa99e8",
      "priority": 2,
      "group": "e190df2c3ee9"
    },
    {
      "type": "chips",
      "translatesToSourceLanguage": true,
      "phrase": [
        {
          "word": "Nipeyã",
          "definition": "the meat"
        },
        {
          "word": "apah",
          "definition": "eat\neats\neats it\nhe eats\nhe eats it\nit eats\nit eats it\nshe eats\nshe eats it\nthey eat\nthey eat it\nto eat it\n{to eat it}"
        }
      ],
      "chips": [
        "They",
        "eat",
        "the",
        "meat",
        "that",
        "The",
        "meet"
      ],
      "solutions": [
        [
          "They",
          "eat",
          "the",
          "meat"
        ],
        [
          "He",
          "eats",
          "the",
          "meat"
        ],
        [
          "She",
          "eats",
          "the",
          "meat"
        ],
        [
          "It",
          "eats",
          "the",
          "meat"
        ]
      ],
      "formattedSolution": "They eat the meat",
      "id": "b7fcc037dd24",
      "priority": 2,
      "group": "e190df2c3ee9"
    },
    {
      "type": "options",
      "formInTargetLanguage": "Pẽteyat apah",
      "meaningInSourceLanguage": "The mouse eats it",
      "id": "167feb0ee38f",
      "priority": 0,
      "group": "0ef2e15a5892"
    },
    {
      "type": "chips",
      "translatesToSourceLanguage": false,
      "phrase": [
        {
          "word": "The mouse",
          "definition": "pẽteyat\npẽteyã"
        },
        {
          "word": "eats it",
          "definition": "apah\neskuh"
        }
      ],
      "chips": [
        "Pẽteyat",
        "apah",
        "atah",
        "seyah"
      ],
      "solutions": [
        [
          "Pẽteyat",
          "apah"
        ]
      ],
      "formattedSolution": "Pẽteyat apah",
      "id": "2f3c371f9767",
      "priority": 2,
      "group": "0ef2e15a5892"
    },
    {
      "type": "chips",
      "translatesToSourceLanguage": true,
      "phrase": [
        {
          "word": "Pẽteyat",
          "definition": "the mouse"
        },
        {
          "word": "apah",
          "definition": "eat\neats\neats it\nhe eats\nhe eats it\nit eats\nit eats it\nshe eats\nshe eats it\nthey eat\nthey eat it\nto eat it\n{to eat it}"
        }
      ],
      "chips": [
        "The",
        "mouse",
        "eats",
        "it",
        "is",
        "eat",
        "me"
      ],
      "solutions": [
        [
          "The",
          "mouse",
          "eats",
          "it"
        ]
      ],
      "formattedSolution": "The mouse eats it",
      "id": "e92f372e536b",
      "priority": 2,
      "group": "0ef2e15a5892"
    },
    {
      "type": "options",
      "formInTargetLanguage": "Nitayat apah",
      "meaningInSourceLanguage": "The bear eats it",
      "id": "57e1ad6f8305",
      "priority": 0,
      "group": "98217b30dd55"
    },
    {
      "type": "chips",
      "translatesToSourceLanguage": false,
      "phrase": [
        {
          "word": "The bear",
          "definition": "nitayat"
        },
        {
          "word": "eats it",
          "definition": "apah\neskuh"
        }
      ],
      "chips": [
        "Nitayat",
        "apah",
        "atah",
        "Upayat"
      ],
      "solutions": [
        [
          "Nitayat",
          "apah"
        ]
      ],
      "formattedSolution": "Nitayat apah",
      "id": "d590db440ab6",
      "priority": 2,
      "group": "98217b30dd55"
    },
    {
      "type": "chips",
      "translatesToSourceLanguage": true,
      "phrase": [
        {
          "word": "Nitayat",
          "definition": "bear\nbears\nthe bear"
        },
        {
          "word": "apah",
          "definition": "eat\neats\neats it\nhe eats\nhe eats it\nit eats\nit eats it\nshe eats\nshe eats it\nthey eat\nthey eat it\nto eat it\n{to eat it}"
        }
      ],
      "chips": [
        "The",
        "bear",
        "eats",
        "it",
        "eat",
        "ear",
        "are"
      ],
      "solutions": [
        [
          "The",
          "bear",
          "eats",
          "it"
        ]
      ],
      "formattedSolution": "The bear eats it",
      "id": "119b91f0ff3a",
      "priority": 2,
      "group": "98217b30dd55"
    },
    {
      "type": "options",
      "formInTargetLanguage": "Nitayat pẽteyã apah",
      "meaningInSourceLanguage": "The bear eats the mouse",
      "id": "4686ada6f1b8",
      "priority": 0,
      "group": "ddddcf85746d"
    },
    {
      "type": "chips",
      "translatesToSourceLanguage": false,
      "phrase": [
        {
          "word": "The bear",
          "definition": "nitayat"
        },
        {
          "word": "eats",
          "definition": "apah"
        },
        {
          "word": "the mouse",
          "definition": "pẽteyat\npẽteyã"
        }
      ],
      "chips": [
        "Nitayat",
        "pẽteyã",
        "apah",
        "atah",
        "Pẽteyat"
      ],
      "solutions": [
        [
          "Nitayat",
          "pẽteyã",
          "apah"
        ]
      ],
      "formattedSolution": "Nitayat pẽteyã apah",
      "id": "1b637e86f85d",
      "priority": 2,
      "group": "ddddcf85746d"
    },
    {
      "type": "chips",
      "translatesToSourceLanguage": true,
      "phrase": [
        {
          "word": "Nitayat",
          "definition": "bear\nbears\nthe bear"
        },
        {
          "word": "pẽteyã",
          "definition": "mice\nthe mouse"
        },
        {
          "word": "apah",
          "definition": "eat\neats\neats it\nhe eats\nhe eats it\nit eats\nit eats it\nshe eats\nshe eats it\nthey eat\nthey eat it\nto eat it\n{to eat it}"
        }
      ],
      "chips": [
        "The",
        "bear",
        "eats",
        "the",
        "mouse",
        "are",
        "She",
        "eat",
        "me"
      ],
      "solutions": [
        [
          "The",
          "bear",
          "eats",
          "the",
          "mouse"
        ]
      ],
      "formattedSolution": "The bear eats the mouse",
      "id": "a2fc0c2b82c5",
      "priority": 2,
      "group": "ddddcf85746d"
    },
    {
      "type": "cards",
      "pictures": [
        "bear1.jpg",
        "bear2.jpg",
        "bear3.jpg"
      ],
      "formInTargetLanguage": "nita'",
      "meaningInSourceLanguage": "bear",
      "id": "0630356a52c3",
      "priority": 0,
      "group": "df01f90d56e8"
    },
    {
      "type": "shortInput",
      "pictures": [
        "bear1.jpg",
        "bear2.jpg",
        "bear3.jpg"
      ],
      "formInTargetLanguage": [
        "nita'"
      ],
      "phrase": [
        {
          "word": "bear",
          "definition": "nita'"
        }
      ],
      "id": "f83be0e52b64",
      "priority": 1,
      "group": "df01f90d56e8"
    },
    {
      "type": "cards",
      "pictures": [
        "deer1.jpg",
        "deer2.jpg",
        "deer3.jpg"
      ],
      "formInTargetLanguage": "esse'",
      "meaningInSourceLanguage": "deer",
      "id": "0d1a0c103f8c",
      "priority": 0,
      "group": "e9a0b21b6601"
    },
    {
      "type": "shortInput",
      "pictures": [
        "deer1.jpg",
        "deer2.jpg",
        "deer3.jpg"
      ],
      "formInTargetLanguage": [
        "esse'"
      ],
      "phrase": [
        {
          "word": "deer",
          "definition": "esse'"
        }
      ],
      "id": "70fed6112486",
      "priority": 1,
      "group": "e9a0b21b6601"
    },
    {
      "type": "cards",
      "pictures": [
        "mouse1.jpg",
        "mouse2.jpg",
        "mouse3.jpg"
      ],
      "formInTargetLanguage": "pẽte'",
      "meaningInSourceLanguage": "mouse",
      "id": "4d6c5426e736",
      "priority": 0,
      "group": "18b705bf0910"
    },
    {
      "type": "shortInput",
      "pictures": [
        "mouse1.jpg",
        "mouse2.jpg",
        "mouse3.jpg"
      ],
      "formInTargetLanguage": [
        "pẽte'"
      ],
      "phrase": [
        {
          "word": "mouse",
          "definition": "pẽte'"
        }
      ],
      "id": "09af9c7f2715",
      "priority": 1,
      "group": "18b705bf0910"
    },
    {
      "type": "cards",
      "pictures": [
        "eat1.jpg",
        "eat2.jpg",
        "eat3.jpg"
      ],
      "formInTargetLanguage": "apah",
      "meaningInSourceLanguage": "to eat it",
      "id": "a15b3de6bb9d",
      "priority": 0,
      "group": "3e5ed9136588"
    },
    {
      "type": "shortInput",
      "pictures": [
        "eat1.jpg",
        "eat2.jpg",
        "eat3.jpg"
      ],
      "formInTargetLanguage": [
        "apah"
      ],
      "phrase": [
        {
          "word": "to eat it",
          "definition": "apah"
        }
      ],
      "id": "1740a21c9e51",
      "priority": 1,
      "group": "3e5ed9136588"
    },
    {
      "type": "cards",
      "pictures": [
        "plum1.jpg",
        "plum2.jpg",
        "plum3.jpg"
      ],
      "formInTargetLanguage": "dakkũ'",
      "meaningInSourceLanguage": "plum",
      "id": "0f0cbcd5bb24",
      "priority": 0,
      "group": "6c00b57a294b"
    },
    {
      "type": "shortInput",
      "pictures": [
        "plum1.jpg",
        "plum2.jpg",
        "plum3.jpg"
      ],
      "formInTargetLanguage": [
        "dakkũ'"
      ],
      "phrase": [
        {
          "word": "plum",
          "definition": "dakkũ'"
        }
      ],
      "id": "158539a331df",
      "priority": 1,
      "group": "6c00b57a294b"
    },
    {
      "type": "cards",
      "pictures": [
        "meat1.jpg",
        "meat2.jpg",
        "meat3.jpg"
      ],
      "formInTargetLanguage": "nipe'",
      "meaningInSourceLanguage": "meat",
      "id": "1b916a1ede8d",
      "priority": 0,
      "group": "029ee1d96e42"
    },
    {
      "type": "shortInput",
      "pictures": [
        "meat1.jpg",
        "meat2.jpg",
        "meat3.jpg"
      ],
      "formInTargetLanguage": [
        "nipe'"
      ],
      "phrase": [
        {
          "word": "meat",
          "definition": "nipe'"
        }
      ],
      "id": "94477825b163",
      "priority": 1,
      "group": "029ee1d96e42"
    },
    {
      "type": "cards",
      "pictures": [
        "mulberry1.jpg",
        "mulberry2.jpg",
        "mulberry3.jpg"
      ],
      "formInTargetLanguage": "éle'",
      "meaningInSourceLanguage": "mulberry",
      "id": "fde0b5a1d8a7",
      "priority": 0,
      "group": "cb71c1f32e32"
    },
    {
      "type": "shortInput",
      "pictures": [
        "mulberry1.jpg",
        "mulberry2.jpg",
        "mulberry3.jpg"
      ],
      "formInTargetLanguage": [
        "éle'"
      ],
      "phrase": [
        {
          "word": "mulberry",
          "definition": "éle'"
        }
      ],
      "id": "dee435b07a7f",
      "priority": 1,
      "group": "cb71c1f32e32"
    }
  ]
}