{
  "id": "4873b8184638",
  "levels": 3,
  "challenges": [
    {
      "type": "options",
      "formInTargetLanguage": "Yo soy un estudiante",
      "meaningInSourceLanguage": "I am a student",
      "id": "d8793792f7c2",
      "priority": 0,
      "group": "b145561a8bcc"
    },
    {
      "type": "listeningExercise",
      "answer": "Yo soy un estudiante",
      "meaning": "I am a student",
      "audio": "0a57e9600123397a914cdda6cf29556c394546ad32f081e6a57b2ce45caf28eb",
      "id": "9ff17fa8a7f0",
      "priority": 1,
      "group": "b145561a8bcc"
    },
    {
      "type": "chips",
      "translatesToSourceLanguage": false,
      "phrase": [
        {
          "word": "I",
          "definition": "yo"
        },
        {
          "word": "am",
          "definition": "soy"
        },
        {
          "word": "a",
          "definition": "un\nuna"
        },
        {
          "word": "student",
          "definition": "estudiante"
        }
      ],
      "chips": [
        "Yo",
        "soy",
        "un",
        "estudiante",
        "son",
        "no",
        "en"
      ],
      "solutions": [
        [
          "Yo",
          "soy",
          "un",
          "estudiante"
        ],
        [
          "Soy",
          "estudiante"
        ],
        [
          "Soy",
          "un",
          "estudiante"
        ],
        [
          "Soy",
          "una",
          "estudiante"
        ],
        [
          "Yo",
          "soy",
          "una",
          "estudiante"
        ]
      ],
      "formattedSolution": "Yo soy un estudiante",
      "id": "f8aec7edf1a6",
      "priority": 2,
      "group": "b145561a8bcc"
    },
    {
      "type": "chips",
      "translatesToSourceLanguage": true,
      "phrase": [
        {
          "word": "Yo",
          "definition": "I\nme"
        },
        {
          "word": "soy",
          "definition": "I am"
        },
        {
          "word": "un",
          "definition": "a/an (masc.)"
        },
        {
          "word": "estudiante",
          "definition": "student"
        }
      ],
      "chips": [
        "I",
        "am",
        "a",
        "student",
        "at",
        "A",
        "eat"
      ],
      "solutions": [
        [
          "I",
          "am",
          "a",
          "student"
        ],
        [
          "I'm",
          "a",
          "student"
        ]
      ],
      "formattedSolution": "I am a student",
      "id": "5510c4658df2",
      "priority": 2,
      "group": "b145561a8bcc"
    },
    {
      "type": "options",
      "formInTargetLanguage": "Yo estoy en la escuela",
      "meaningInSourceLanguage": "I am at school",
      "id": "986ca2953f1e",
      "priority": 0,
      "group": "35663d8d294f"
    },
    {
      "type": "listeningExercise",
      "answer": "Yo estoy en la escuela",
      "meaning": "I am at school",
      "audio": "667a7d6b4a737edf3d48266d446b8c5fcb7bdaaf0e0a61cf23236cbe518b9884",
      "id": "98e2da6308ec",
      "priority": 1,
      "group": "35663d8d294f"
    },
    {
      "type": "chips",
      "translatesToSourceLanguage": false,
      "phrase": [
        {
          "word": "I",
          "definition": "yo"
        },
        {
          "word": "am",
          "definition": "soy"
        },
        {
          "word": "at",
          "definition": "en"
        },
        {
          "word": "school",
          "definition": "escuela"
        }
      ],
      "chips": [
        "Yo",
        "estoy",
        "en",
        "la",
        "escuela",
        "Es",
        "un",
        "La",
        "son"
      ],
      "solutions": [
        [
          "Yo",
          "estoy",
          "en",
          "la",
          "escuela"
        ],
        [
          "Estoy",
          "en",
          "la",
          "escuela"
        ]
      ],
      "formattedSolution": "Yo estoy en la escuela",
      "id": "dcf0d53fbb34",
      "priority": 2,
      "group": "35663d8d294f"
    },
    {
      "type": "chips",
      "translatesToSourceLanguage": true,
      "phrase": [
        {
          "word": "Yo",
          "definition": "I\nme"
        },
        {
          "word": "estoy",
          "definition": "I am\nI'm"
        },
        {
          "word": "en",
          "definition": "at\nin\non"
        },
        {
          "word": "la",
          "definition": "the"
        },
        {
          "word": "escuela",
          "definition": "school"
        }
      ],
      "chips": [
        "I",
        "am",
        "at",
        "school",
        "a",
        "it",
        "go"
      ],
      "solutions": [
        [
          "I",
          "am",
          "at",
          "school"
        ],
        [
          "I",
          "am",
          "in",
          "school"
        ]
      ],
      "formattedSolution": "I am at school",
      "id": "221e41f1ae6d",
      "priority": 2,
      "group": "35663d8d294f"
    },
    {
      "type": "options",
      "formInTargetLanguage": "Ella es enfermera",
      "meaningInSourceLanguage": "She is a nurse",
      "id": "1b436f32491a",
      "priority": 0,
      "group": "19f9c8d468e8"
    },
    {
      "type": "listeningExercise",
      "answer": "Ella es enfermera",
      "meaning": "She is a nurse",
      "audio": "39a07a7956d15daa165467bb8641badab43c9f31b739db7a36f0f22c0135769c",
      "id": "3ec2546d4274",
      "priority": 1,
      "group": "19f9c8d468e8"
    },
    {
      "type": "chips",
      "translatesToSourceLanguage": false,
      "phrase": [
        {
          "word": "She",
          "definition": "ella"
        },
        {
          "word": "is",
          "definition": "es"
        },
        {
          "word": "a",
          "definition": "un\nuna"
        },
        {
          "word": "nurse",
          "definition": "enfermera\nenfermero"
        }
      ],
      "chips": [
        "Ella",
        "es",
        "enfermera",
        "eres",
        "en"
      ],
      "solutions": [
        [
          "Ella",
          "es",
          "enfermera"
        ],
        [
          "Es",
          "enfermera"
        ]
      ],
      "formattedSolution": "Ella es enfermera",
      "id": "e55443f59734",
      "priority": 2,
      "group": "19f9c8d468e8"
    },
    {
      "type": "chips",
      "translatesToSourceLanguage": true,
      "phrase": [
        {
          "word": "Ella",
          "definition": "she"
        },
        {
          "word": "es",
          "definition": "is"
        },
        {
          "word": "enfermera",
          "definition": "nurse"
        }
      ],
      "chips": [
        "She",
        "is",
        "a",
        "nurse",
        "are",
        "He",
        "We"
      ],
      "solutions": [
        [
          "She",
          "is",
          "a",
          "nurse"
        ],
        [
          "She's",
          "a",
          "nurse"
        ]
      ],
      "formattedSolution": "She is a nurse",
      "id": "a295afb8f285",
      "priority": 2,
      "group": "19f9c8d468e8"
    },
    {
      "type": "options",
      "formInTargetLanguage": "Ella está enferma",
      "meaningInSourceLanguage": "She's ill",
      "id": "400197583f08",
      "priority": 0,
      "group": "a6682f9906c8"
    },
    {
      "type": "listeningExercise",
      "answer": "Ella está enferma",
      "meaning": "She's ill",
      "audio": "fc68ea3d55ef479e685f61faa5b0596dc70a733df4c5c7ab64f4af410e55abc1",
      "id": "9067d4a34c3b",
      "priority": 1,
      "group": "a6682f9906c8"
    },
    {
      "type": "chips",
      "translatesToSourceLanguage": false,
      "phrase": [
        {
          "word": "She's",
          "definition": "ella es\nella está"
        },
        {
          "word": "ill",
          "definition": "enferma\nenfermo"
        }
      ],
      "chips": [
        "Ella",
        "está",
        "enferma",
        "este",
        "alta"
      ],
      "solutions": [
        [
          "Ella",
          "está",
          "enferma"
        ],
        [
          "Está",
          "enferma"
        ]
      ],
      "formattedSolution": "Ella está enferma",
      "id": "571ffc386936",
      "priority": 2,
      "group": "a6682f9906c8"
    },
    {
      "type": "chips",
      "translatesToSourceLanguage": true,
      "phrase": [
        {
          "word": "Ella",
          "definition": "she"
        },
        {
          "word": "está",
          "definition": "is"
        },
        {
          "word": "enferma",
          "definition": "ill\nsick"
        }
      ],
      "chips": [
        "She's",
        "ill",
        "She",
        "is"
      ],
      "solutions": [
        [
          "She's",
          "ill"
        ],
        [
          "She",
          "is",
          "ill"
        ],
        [
          "She's",
          "sick"
        ],
        [
          "She",
          "is",
          "sick"
        ]
      ],
      "formattedSolution": "She's ill",
      "id": "4d8bcd060f57",
      "priority": 2,
      "group": "a6682f9906c8"
    },
    {
      "type": "options",
      "formInTargetLanguage": "Nosotras estamos en la ciudad",
      "meaningInSourceLanguage": "We are in the city",
      "id": "519bb7d8c271",
      "priority": 0,
      "group": "a8803c82d1ad"
    },
    {
      "type": "listeningExercise",
      "answer": "Nosotras estamos en la ciudad",
      "meaning": "We are in the city",
      "audio": "546810bac126d8c2bc317c7746847311f85c09795a986b80761f8034a68aa490",
      "id": "4ffabebc18d3",
      "priority": 1,
      "group": "a8803c82d1ad"
    },
    {
      "type": "chips",
      "translatesToSourceLanguage": false,
      "phrase": [
        {
          "word": "We",
          "definition": "nosotras\nnosotros"
        },
        {
          "word": "are",
          "definition": "son"
        },
        {
          "word": "in",
          "definition": "en"
        },
        {
          "word": "the",
          "definition": "el\nla"
        },
        {
          "word": "city",
          "definition": "ciudad"
        }
      ],
      "chips": [
        "Nosotras",
        "estamos",
        "en",
        "la",
        "ciudad",
        "can",
        "La",
        "a",
        "Las"
      ],
      "solutions": [
        [
          "Nosotras",
          "estamos",
          "en",
          "la",
          "ciudad"
        ],
        [
          "Estamos",
          "en",
          "la",
          "ciudad"
        ],
        [
          "Nosotros",
          "estamos",
          "en",
          "la",
          "ciudad"
        ]
      ],
      "formattedSolution": "Nosotras estamos en la ciudad",
      "id": "d6ed2587e392",
      "priority": 2,
      "group": "a8803c82d1ad"
    },
    {
      "type": "chips",
      "translatesToSourceLanguage": true,
      "phrase": [
        {
          "word": "Nosotras",
          "definition": "us\nwe"
        },
        {
          "word": "estamos",
          "definition": "we are\nwe're"
        },
        {
          "word": "en",
          "definition": "at\nin\non"
        },
        {
          "word": "la",
          "definition": "the"
        },
        {
          "word": "ciudad",
          "definition": "city"
        }
      ],
      "chips": [
        "We",
        "are",
        "in",
        "the",
        "city",
        "it",
        "He",
        "is",
        "The"
      ],
      "solutions": [
        [
          "We",
          "are",
          "in",
          "the",
          "city"
        ],
        [
          "We're",
          "in",
          "the",
          "city"
        ]
      ],
      "formattedSolution": "We are in the city",
      "id": "11e4ff6e5d1f",
      "priority": 2,
      "group": "a8803c82d1ad"
    },
    {
      "type": "options",
      "formInTargetLanguage": "El gato está limpio",
      "meaningInSourceLanguage": "The cat is clean",
      "id": "d14dd3bed940",
      "priority": 0,
      "group": "e12b73c44fa1"
    },
    {
      "type": "listeningExercise",
      "answer": "El gato está limpio",
      "meaning": "The cat is clean",
      "audio": "182bed79a476df26caa0f793f3d46eb73cc7a88c46d7604c9989fdb4d3ee7dbc",
      "id": "522ed610a40b",
      "priority": 1,
      "group": "e12b73c44fa1"
    },
    {
      "type": "chips",
      "translatesToSourceLanguage": false,
      "phrase": [
        {
          "word": "The",
          "definition": "el\nla"
        },
        {
          "word": "cat",
          "definition": "gato"
        },
        {
          "word": "is",
          "definition": "es"
        },
        {
          "word": "clean",
          "definition": "limpia\nlimpiar\nlimpio"
        }
      ],
      "chips": [
        "El",
        "gato",
        "está",
        "limpio",
        "pato",
        "alto",
        "ti"
      ],
      "solutions": [
        [
          "El",
          "gato",
          "está",
          "limpio"
        ],
        [
          "La",
          "gata",
          "está",
          "limpia"
        ]
      ],
      "formattedSolution": "El gato está limpio",
      "id": "b15b039ef420",
      "priority": 2,
      "group": "e12b73c44fa1"
    },
    {
      "type": "chips",
      "translatesToSourceLanguage": true,
      "phrase": [
        {
          "word": "El",
          "definition": "the"
        },
        {
          "word": "gato",
          "definition": "cat"
        },
        {
          "word": "está",
          "definition": "is"
        },
        {
          "word": "limpio",
          "definition": "clean"
        }
      ],
      "chips": [
        "The",
        "cat",
        "is",
        "clean",
        "eat",
        "at",
        "a"
      ],
      "solutions": [
        [
          "The",
          "cat",
          "is",
          "clean"
        ],
        [
          "The",
          "cat's",
          "clean"
        ]
      ],
      "formattedSolution": "The cat is clean",
      "id": "a734f39abda1",
      "priority": 2,
      "group": "e12b73c44fa1"
    },
    {
      "type": "options",
      "formInTargetLanguage": "Ellos están listos",
      "meaningInSourceLanguage": "They are ready",
      "id": "6ba8e6ab18a0",
      "priority": 0,
      "group": "ac923562cc48"
    },
    {
      "type": "listeningExercise",
      "answer": "Ellos están listos",
      "meaning": "They are ready",
      "audio": "1368d1e685dd6535861a9da9c4f7c858425021911242ff0463a6a897ff8a11ff",
      "id": "0b5056036e29",
      "priority": 1,
      "group": "ac923562cc48"
    },
    {
      "type": "chips",
      "translatesToSourceLanguage": false,
      "phrase": [
        {
          "word": "They",
          "definition": "ellas\nellos"
        },
        {
          "word": "are",
          "definition": "son"
        },
        {
          "word": "ready",
          "definition": "lista\nlistas\nlisto\nlistos\npreparar"
        }
      ],
      "chips": [
        "Ellos",
        "están",
        "listos",
        "Estás",
        "estoy"
      ],
      "solutions": [
        [
          "Ellos",
          "están",
          "listos"
        ],
        [
          "Están",
          "listos"
        ]
      ],
      "formattedSolution": "Ellos están listos",
      "id": "913529b61083",
      "priority": 2,
      "group": "ac923562cc48"
    },
    {
      "type": "chips",
      "translatesToSourceLanguage": true,
      "phrase": [
        {
          "word": "Ellos",
          "definition": "they"
        },
        {
          "word": "están",
          "definition": "they are\nthey're\nyou are\nyou're"
        },
        {
          "word": "listos",
          "definition": "ready"
        }
      ],
      "chips": [
        "They",
        "are",
        "ready",
        "red",
        "The"
      ],
      "solutions": [
        [
          "They",
          "are",
          "ready"
        ],
        [
          "They're",
          "ready"
        ]
      ],
      "formattedSolution": "They are ready",
      "id": "53f5ef068342",
      "priority": 2,
      "group": "ac923562cc48"
    },
    {
      "type": "options",
      "formInTargetLanguage": "Ellos son listos",
      "meaningInSourceLanguage": "They are smart",
      "id": "1087f449d0c2",
      "priority": 0,
      "group": "980081d1f734"
    },
    {
      "type": "listeningExercise",
      "answer": "Ellos son listos",
      "meaning": "They are smart",
      "audio": "83629b87d410b29c13a47b67817209e1e004a5390cdf5ff9d9bd2a450839936c",
      "id": "80839c920ca1",
      "priority": 1,
      "group": "980081d1f734"
    },
    {
      "type": "chips",
      "translatesToSourceLanguage": false,
      "phrase": [
        {
          "word": "They",
          "definition": "ellas\nellos"
        },
        {
          "word": "are",
          "definition": "son"
        },
        {
          "word": "smart",
          "definition": "lista\nlistas\nlisto\nlistos"
        }
      ],
      "chips": [
        "Ellos",
        "son",
        "listos",
        "Los",
        "soy"
      ],
      "solutions": [
        [
          "Ellos",
          "son",
          "listos"
        ],
        [
          "Son",
          "listos"
        ]
      ],
      "formattedSolution": "Ellos son listos",
      "id": "d06cc8cb1060",
      "priority": 2,
      "group": "980081d1f734"
    },
    {
      "type": "chips",
      "translatesToSourceLanguage": true,
      "phrase": [
        {
          "word": "Ellos",
          "definition": "they"
        },
        {
          "word": "son",
          "definition": "are"
        },
        {
          "word": "listos",
          "definition": "ready"
        }
      ],
      "chips": [
        "They",
        "are",
        "smart",
        "The",
        "Are"
      ],
      "solutions": [
        [
          "They",
          "are",
          "smart"
        ],
        [
          "They're",
          "smart"
        ]
      ],
      "formattedSolution": "They are smart",
      "id": "28220060cbbb",
      "priority": 2,
      "group": "980081d1f734"
    },
    {
      "type": "options",
      "formInTargetLanguage": "¿Sois médicas?",
      "meaningInSourceLanguage": "Are you doctors?",
      "id": "e15c5736778d",
      "priority": 0,
      "group": "ee15bd56759c"
    },
    {
      "type": "listeningExercise",
      "answer": "¿Sois médicas?",
      "meaning": "Are you doctors?",
      "audio": "3685f0f09e050dfa884b6cedf7e2ca18a987fe233ff5cb908183a7fb38860e5c",
      "id": "09a83ec3b37b",
      "priority": 1,
      "group": "ee15bd56759c"
    },
    {
      "type": "chips",
      "translatesToSourceLanguage": false,
      "phrase": [
        {
          "word": "Are",
          "definition": "son"
        },
        {
          "word": "you",
          "definition": "tú\nusted"
        },
        {
          "word": "doctors?",
          "definition": "médicos"
        }
      ],
      "chips": [
        "Sois",
        "médicas",
        "médicos",
        "sois"
      ],
      "solutions": [
        [
          "Sois",
          "médicas"
        ],
        [
          "Vosotras",
          "sois",
          "médicas"
        ],
        [
          "Sois",
          "médicos"
        ],
        [
          "Vosotros",
          "sois",
          "médicos"
        ]
      ],
      "formattedSolution": "¿Sois médicas?",
      "id": "8414f6ea8b3c",
      "priority": 2,
      "group": "ee15bd56759c"
    },
    {
      "type": "chips",
      "translatesToSourceLanguage": true,
      "phrase": [
        {
          "word": "¿Sois",
          "definition": "you are"
        },
        {
          "word": "médicas?",
          "definition": "doctors"
        }
      ],
      "chips": [
        "Are",
        "you",
        "doctors",
        "or",
        "dog"
      ],
      "solutions": [
        [
          "Are",
          "you",
          "doctors"
        ]
      ],
      "formattedSolution": "Are you doctors?",
      "id": "9dc93172768c",
      "priority": 2,
      "group": "ee15bd56759c"
    },
    {
      "type": "options",
      "formInTargetLanguage": "¿Estáis contentas?",
      "meaningInSourceLanguage": "Are you happy?",
      "id": "ebabc3cb6aff",
      "priority": 0,
      "group": "06856eb5d2aa"
    },
    {
      "type": "listeningExercise",
      "answer": "¿Estáis contentas?",
      "meaning": "Are you happy?",
      "audio": "2a8cd6c33a66c53d5eda66985af0b016528764165c4abc1500701eeb8699e916",
      "id": "3c3a23500db8",
      "priority": 1,
      "group": "06856eb5d2aa"
    },
    {
      "type": "chips",
      "translatesToSourceLanguage": false,
      "phrase": [
        {
          "word": "Are",
          "definition": "son"
        },
        {
          "word": "you",
          "definition": "tú\nusted"
        },
        {
          "word": "happy?",
          "definition": "contenta\ncontentas\ncontento\ncontentos"
        }
      ],
      "chips": [
        "Estáis",
        "contentas",
        "estáis",
        "contentos"
      ],
      "solutions": [
        [
          "Estáis",
          "contentas"
        ],
        [
          "Vosotras",
          "estáis",
          "contentas"
        ],
        [
          "Vosotras",
          "estáis",
          "felices"
        ],
        [
          "Vosotras",
          "estáis",
          "satisfechas"
        ],
        [
          "Vosotras",
          "estáis",
          "alegres"
        ],
        [
          "Estáis",
          "felices"
        ],
        [
          "Estáis",
          "satisfechas"
        ],
        [
          "Estáis",
          "alegres"
        ],
        [
          "Estáis",
          "contentos"
        ],
        [
          "Vosotros",
          "estáis",
          "contentos"
        ],
        [
          "Vosotros",
          "estáis",
          "felices"
        ],
        [
          "Vosotros",
          "estáis",
          "satisfechos"
        ],
        [
          "Vosotros",
          "estáis",
          "alegres"
        ],
        [
          "Estáis",
          "satisfechos"
        ]
      ],
      "formattedSolution": "¿Estáis contentas?",
      "id": "758c70ea98b7",
      "priority": 2,
      "group": "06856eb5d2aa"
    },
    {
      "type": "chips",
      "translatesToSourceLanguage": true,
      "phrase": [
        {
          "word": "¿Estáis",
          "definition": "you are\nyou're"
        },
        {
          "word": "contentas?",
          "definition": "happy"
        }
      ],
      "chips": [
        "Are",
        "you",
        "happy",
        "are",
        "or"
      ],
      "solutions": [
        [
          "Are",
          "you",
          "happy"
        ],
        [
          "Are",
          "you",
          "content"
        ],
        [
          "Are",
          "you",
          "satisfied"
        ]
      ],
      "formattedSolution": "Are you happy?",
      "id": "2110ed9eb031",
      "priority": 2,
      "group": "06856eb5d2aa"
    }
  ]
}