{
  "id": "e876e5c6ae07",
  "levels": 4,
  "challenges": [
    {
      "type": "options",
      "formInTargetLanguage": "Emakumea polita da, baina gizona itsusia da.",
      "meaningInSourceLanguage": "The woman is pretty, but the man is ugly.",
      "id": "c464a167227d",
      "priority": 0,
      "group": "ca2193964033"
    },
    {
      "type": "chips",
      "translatesToSourceLanguage": false,
      "phrase": [
        {
          "word": "The",
          "definition": "-a"
        },
        {
          "word": "woman",
          "definition": "emakaume\nemakume\nemakumea"
        },
        {
          "word": "is",
          "definition": "da\nda (izan)\ndago\ndago (egon)"
        },
        {
          "word": "pretty,",
          "definition": "polit"
        },
        {
          "word": "but",
          "definition": "baina\nbaina, baizik"
        },
        {
          "word": "the",
          "definition": "-a"
        },
        {
          "word": "man",
          "definition": "gizon\ngizona"
        },
        {
          "word": "is",
          "definition": "da\nda (izan)\ndago\ndago (egon)"
        },
        {
          "word": "ugly.",
          "definition": "itsusi"
        }
      ],
      "chips": [
        "Emakumea",
        "polita",
        "da",
        "baina",
        "gizona",
        "itsusia",
        "da",
        "aita",
        "gida",
        "ona",
        "doa",
        "mina",
        "dira"
      ],
      "solutions": [
        [
          "Emakumea",
          "polita",
          "da",
          "baina",
          "gizona",
          "itsusia",
          "da"
        ]
      ],
      "formattedSolution": "Emakumea polita da, baina gizona itsusia da.",
      "id": "766e1ab60dcb",
      "priority": 2,
      "group": "ca2193964033"
    },
    {
      "type": "chips",
      "translatesToSourceLanguage": true,
      "phrase": [
        {
          "word": "Emakumea",
          "definition": "a woman\nthe woman\nwoman"
        },
        {
          "word": "polita",
          "definition": "pretty"
        },
        {
          "word": "da,",
          "definition": "he is (izan)\nis\nit is (izan)\nshe is (izan)"
        },
        {
          "word": "baina",
          "definition": "but\nbut(contrast)"
        },
        {
          "word": "gizona",
          "definition": "a man\nman\nthe man"
        },
        {
          "word": "itsusia",
          "definition": "ugly"
        },
        {
          "word": "da.",
          "definition": "he is (izan)\nis\nit is (izan)\nshe is (izan)"
        }
      ],
      "chips": [
        "The",
        "woman",
        "is",
        "pretty",
        "but",
        "the",
        "man",
        "is",
        "ugly",
        "me",
        "it",
        "an",
        "my",
        "in",
        "at",
        "be",
        "us"
      ],
      "solutions": [
        [
          "The",
          "woman",
          "is",
          "pretty",
          "but",
          "the",
          "man",
          "is",
          "ugly"
        ],
        [
          "A",
          "woman",
          "is",
          "pretty",
          "but",
          "a",
          "man",
          "is",
          "ugly"
        ]
      ],
      "formattedSolution": "The woman is pretty, but the man is ugly.",
      "id": "63a58a4b574d",
      "priority": 2,
      "group": "ca2193964033"
    },
    {
      "type": "options",
      "formInTargetLanguage": "Erizaina polita da eta medikua ederra.",
      "meaningInSourceLanguage": "The nurse is pretty and the doctor is handsome.",
      "id": "8655f303174a",
      "priority": 0,
      "group": "65e29b205dc4"
    },
    {
      "type": "chips",
      "translatesToSourceLanguage": false,
      "phrase": [
        {
          "word": "The",
          "definition": "-a"
        },
        {
          "word": "nurse",
          "definition": "erizain\nerizaina"
        },
        {
          "word": "is",
          "definition": "da\nda (izan)\ndago\ndago (egon)"
        },
        {
          "word": "pretty",
          "definition": "polit"
        },
        {
          "word": "and",
          "definition": "eta"
        },
        {
          "word": "the",
          "definition": "-a"
        },
        {
          "word": "doctor",
          "definition": "mediku\nmedikua"
        },
        {
          "word": "is",
          "definition": "da\nda (izan)\ndago\ndago (egon)"
        },
        {
          "word": "handsome.",
          "definition": "eder"
        }
      ],
      "chips": [
        "Erizaina",
        "polita",
        "da",
        "eta",
        "medikua",
        "ederra",
        "dira",
        "eliza",
        "aita",
        "doa",
        "Eta"
      ],
      "solutions": [
        [
          "Erizaina",
          "polita",
          "da",
          "eta",
          "medikua",
          "ederra"
        ]
      ],
      "formattedSolution": "Erizaina polita da eta medikua ederra.",
      "id": "4c56db13527f",
      "priority": 2,
      "group": "65e29b205dc4"
    },
    {
      "type": "chips",
      "translatesToSourceLanguage": true,
      "phrase": [
        {
          "word": "Erizaina",
          "definition": "nurse"
        },
        {
          "word": "polita",
          "definition": "pretty"
        },
        {
          "word": "da",
          "definition": "he is (izan)\nis\nit is (izan)\nshe is (izan)"
        },
        {
          "word": "eta",
          "definition": "and"
        },
        {
          "word": "medikua",
          "definition": "doctor\nthe doctor"
        },
        {
          "word": "ederra.",
          "definition": "beautiful\nhandsome"
        }
      ],
      "chips": [
        "The",
        "nurse",
        "is",
        "pretty",
        "and",
        "the",
        "doctor",
        "is",
        "handsome",
        "use",
        "are",
        "one",
        "me",
        "ate",
        "ice",
        "He",
        "She"
      ],
      "solutions": [
        [
          "The",
          "nurse",
          "is",
          "pretty",
          "and",
          "the",
          "doctor",
          "is",
          "handsome"
        ],
        [
          "The",
          "nurse",
          "is",
          "pretty",
          "and",
          "the",
          "doctor",
          "is",
          "beautiful"
        ],
        [
          "A",
          "nurse",
          "is",
          "pretty",
          "and",
          "a",
          "doctor",
          "is",
          "handsome"
        ],
        [
          "A",
          "nurse",
          "is",
          "pretty",
          "and",
          "a",
          "doctor",
          "is",
          "beautiful"
        ]
      ],
      "formattedSolution": "The nurse is pretty and the doctor is handsome.",
      "id": "c05934bcd6b6",
      "priority": 2,
      "group": "65e29b205dc4"
    },
    {
      "type": "options",
      "formInTargetLanguage": "Ikaslea polita da, baina gidaria itsusia da.",
      "meaningInSourceLanguage": "The student is pretty, but the driver is ugly.",
      "id": "1f781e8f68aa",
      "priority": 0,
      "group": "9f9abc290ba7"
    },
    {
      "type": "chips",
      "translatesToSourceLanguage": false,
      "phrase": [
        {
          "word": "The",
          "definition": "-a"
        },
        {
          "word": "student",
          "definition": "ikasle\nikaslea"
        },
        {
          "word": "is",
          "definition": "da\nda (izan)\ndago\ndago (egon)"
        },
        {
          "word": "pretty,",
          "definition": "polit"
        },
        {
          "word": "but",
          "definition": "baina\nbaina, baizik"
        },
        {
          "word": "the",
          "definition": "-a"
        },
        {
          "word": "driver",
          "definition": "gidari\ngidaria"
        },
        {
          "word": "is",
          "definition": "da\nda (izan)\ndago\ndago (egon)"
        },
        {
          "word": "ugly.",
          "definition": "itsusi"
        }
      ],
      "chips": [
        "Ikaslea",
        "polita",
        "da",
        "baina",
        "gidaria",
        "itsusia",
        "da",
        "gida",
        "ibaia",
        "aita",
        "dira",
        "doa",
        "gara"
      ],
      "solutions": [
        [
          "Ikaslea",
          "polita",
          "da",
          "baina",
          "gidaria",
          "itsusia",
          "da"
        ]
      ],
      "formattedSolution": "Ikaslea polita da, baina gidaria itsusia da.",
      "id": "4790e529fb5e",
      "priority": 2,
      "group": "9f9abc290ba7"
    },
    {
      "type": "chips",
      "translatesToSourceLanguage": true,
      "phrase": [
        {
          "word": "Ikaslea",
          "definition": "a student\nstudent\nthe student"
        },
        {
          "word": "polita",
          "definition": "pretty"
        },
        {
          "word": "da,",
          "definition": "he is (izan)\nis\nit is (izan)\nshe is (izan)"
        },
        {
          "word": "baina",
          "definition": "but\nbut(contrast)"
        },
        {
          "word": "gidaria",
          "definition": "driver\nthe driver"
        },
        {
          "word": "itsusia",
          "definition": "ugly"
        },
        {
          "word": "da.",
          "definition": "he is (izan)\nis\nit is (izan)\nshe is (izan)"
        }
      ],
      "chips": [
        "The",
        "student",
        "is",
        "pretty",
        "but",
        "the",
        "driver",
        "is",
        "ugly",
        "use",
        "it",
        "be",
        "lie",
        "ice",
        "are",
        "He",
        "She"
      ],
      "solutions": [
        [
          "The",
          "student",
          "is",
          "pretty",
          "but",
          "the",
          "driver",
          "is",
          "ugly"
        ],
        [
          "A",
          "student",
          "is",
          "pretty",
          "but",
          "a",
          "driver",
          "is",
          "ugly"
        ]
      ],
      "formattedSolution": "The student is pretty, but the driver is ugly.",
      "id": "86b83c018a76",
      "priority": 2,
      "group": "9f9abc290ba7"
    },
    {
      "type": "options",
      "formInTargetLanguage": "Tour gida polita da, baina turista ederra da.",
      "meaningInSourceLanguage": "The tour guide is pretty, but the tourist is beautiful.",
      "id": "243cad5ef068",
      "priority": 0,
      "group": "f697a5c45805"
    },
    {
      "type": "chips",
      "translatesToSourceLanguage": false,
      "phrase": [
        {
          "word": "The",
          "definition": "-a"
        },
        {
          "word": "tour",
          "definition": "tour"
        },
        {
          "word": "guide",
          "definition": "gida"
        },
        {
          "word": "is",
          "definition": "da\nda (izan)\ndago\ndago (egon)"
        },
        {
          "word": "pretty,",
          "definition": "polit"
        },
        {
          "word": "but",
          "definition": "baina\nbaina, baizik"
        },
        {
          "word": "the",
          "definition": "-a"
        },
        {
          "word": "tourist",
          "definition": "turist\nturista"
        },
        {
          "word": "is",
          "definition": "da\nda (izan)\ndago\ndago (egon)"
        },
        {
          "word": "beautiful.",
          "definition": "eder\nederra"
        }
      ],
      "chips": [
        "Tour",
        "gida",
        "polita",
        "da",
        "baina",
        "turista",
        "ederra",
        "da",
        "dira",
        "Gida",
        "aita",
        "doa",
        "Uda",
        "eta",
        "ona"
      ],
      "solutions": [
        [
          "Tour",
          "gida",
          "polita",
          "da",
          "baina",
          "turista",
          "ederra",
          "da"
        ]
      ],
      "formattedSolution": "Tour gida polita da, baina turista ederra da.",
      "id": "45924a16171e",
      "priority": 2,
      "group": "f697a5c45805"
    },
    {
      "type": "chips",
      "translatesToSourceLanguage": true,
      "phrase": [
        {
          "word": "Tour",
          "definition": "tour"
        },
        {
          "word": "gida",
          "definition": "guide"
        },
        {
          "word": "polita",
          "definition": "pretty"
        },
        {
          "word": "da,",
          "definition": "he is (izan)\nis\nit is (izan)\nshe is (izan)"
        },
        {
          "word": "baina",
          "definition": "but\nbut(contrast)"
        },
        {
          "word": "turista",
          "definition": "the tourist\ntourist"
        },
        {
          "word": "ederra",
          "definition": "beautiful\nhandsome"
        },
        {
          "word": "da.",
          "definition": "he is (izan)\nis\nit is (izan)\nshe is (izan)"
        }
      ],
      "chips": [
        "The",
        "tour",
        "guide",
        "is",
        "pretty",
        "but",
        "the",
        "tourist",
        "is",
        "beautiful",
        "it",
        "bus",
        "us",
        "use",
        "bit",
        "our",
        "be",
        "lie",
        "to"
      ],
      "solutions": [
        [
          "The",
          "tour",
          "guide",
          "is",
          "pretty",
          "but",
          "the",
          "tourist",
          "is",
          "beautiful"
        ],
        [
          "The",
          "tour",
          "guide",
          "is",
          "pretty",
          "but",
          "the",
          "tourist",
          "is",
          "handsome"
        ],
        [
          "A",
          "tour",
          "guide",
          "is",
          "pretty",
          "but",
          "a",
          "tourist",
          "is",
          "beautiful"
        ],
        [
          "A",
          "tour",
          "guide",
          "is",
          "pretty",
          "but",
          "a",
          "tourist",
          "is",
          "handsome"
        ]
      ],
      "formattedSolution": "The tour guide is pretty, but the tourist is beautiful.",
      "id": "1637c95ef3f2",
      "priority": 2,
      "group": "f697a5c45805"
    },
    {
      "type": "options",
      "formInTargetLanguage": "Medikua ez da itsusia, baizik ederra da.",
      "meaningInSourceLanguage": "The doctor is not ugly, but rather he is handsome.",
      "id": "55c928b5b578",
      "priority": 0,
      "group": "ec20205b07f2"
    },
    {
      "type": "chips",
      "translatesToSourceLanguage": false,
      "phrase": [
        {
          "word": "The",
          "definition": "-a"
        },
        {
          "word": "doctor",
          "definition": "mediku\nmedikua"
        },
        {
          "word": "is",
          "definition": "da\nda (izan)\ndago\ndago (egon)"
        },
        {
          "word": "not",
          "definition": "ez"
        },
        {
          "word": "ugly,",
          "definition": "itsusi"
        },
        {
          "word": "but",
          "definition": "baina\nbaina, baizik"
        },
        {
          "word": "rather",
          "definition": "baizik"
        },
        {
          "word": "he",
          "definition": "hura"
        },
        {
          "word": "is",
          "definition": "da\nda (izan)\ndago\ndago (egon)"
        },
        {
          "word": "handsome.",
          "definition": "eder"
        }
      ],
      "chips": [
        "Medikua",
        "ez",
        "da",
        "itsusia",
        "baizik",
        "ederra",
        "da",
        "eta",
        "dira",
        "doa",
        "Uda",
        "du",
        "dirua"
      ],
      "solutions": [
        [
          "Medikua",
          "ez",
          "da",
          "itsusia",
          "baizik",
          "ederra",
          "da"
        ],
        [
          "Medikua",
          "ez",
          "da",
          "itsusia",
          "baizik",
          "hura",
          "ederra",
          "da"
        ]
      ],
      "formattedSolution": "Medikua ez da itsusia, baizik ederra da.",
      "id": "a0444c775123",
      "priority": 2,
      "group": "ec20205b07f2"
    },
    {
      "type": "chips",
      "translatesToSourceLanguage": true,
      "phrase": [
        {
          "word": "Medikua",
          "definition": "doctor\nthe doctor"
        },
        {
          "word": "ez",
          "definition": "no\nnot\nnot, no\nnot,no"
        },
        {
          "word": "da",
          "definition": "he is (izan)\nis\nit is (izan)\nshe is (izan)"
        },
        {
          "word": "itsusia,",
          "definition": "ugly"
        },
        {
          "word": "baizik",
          "definition": "but (rather)\nbut rather\nbut(rather)\nrather"
        },
        {
          "word": "ederra",
          "definition": "beautiful\nhandsome"
        },
        {
          "word": "da.",
          "definition": "he is (izan)\nis\nit is (izan)\nshe is (izan)"
        }
      ],
      "chips": [
        "The",
        "doctor",
        "is",
        "not",
        "ugly",
        "but",
        "rather",
        "he",
        "is",
        "handsome",
        "the",
        "it",
        "at",
        "hot",
        "or",
        "me",
        "his",
        "her",
        "hat"
      ],
      "solutions": [
        [
          "The",
          "doctor",
          "is",
          "not",
          "ugly",
          "but",
          "rather",
          "he",
          "is",
          "handsome"
        ],
        [
          "The",
          "doctor",
          "is",
          "not",
          "ugly",
          "but",
          "rather",
          "she",
          "is",
          "beautiful"
        ],
        [
          "A",
          "doctor",
          "is",
          "not",
          "ugly",
          "but",
          "rather",
          "he",
          "is",
          "handsome"
        ],
        [
          "A",
          "doctor",
          "is",
          "not",
          "ugly",
          "but",
          "rather",
          "she",
          "is",
          "beautiful"
        ]
      ],
      "formattedSolution": "The doctor is not ugly, but rather he is handsome.",
      "id": "0a055fd77be7",
      "priority": 2,
      "group": "ec20205b07f2"
    },
    {
      "type": "options",
      "formInTargetLanguage": "Polizia gizon gaztea eta ederra da.",
      "meaningInSourceLanguage": "The police officer is a young and handsome man.",
      "id": "de99449728d1",
      "priority": 0,
      "group": "3609b0faea96"
    },
    {
      "type": "chips",
      "translatesToSourceLanguage": false,
      "phrase": [
        {
          "word": "The",
          "definition": "-a"
        },
        {
          "word": "police",
          "definition": "polizia"
        },
        {
          "word": "officer",
          "definition": "ofiziala"
        },
        {
          "word": "is",
          "definition": "da\nda (izan)\ndago\ndago (egon)"
        },
        {
          "word": "a",
          "definition": "-a"
        },
        {
          "word": "young",
          "definition": "gazte"
        },
        {
          "word": "and",
          "definition": "eta"
        },
        {
          "word": "handsome",
          "definition": "eder"
        },
        {
          "word": "man.",
          "definition": "gizon\ngizona"
        }
      ],
      "chips": [
        "Polizia",
        "gizon",
        "gaztea",
        "eta",
        "ederra",
        "da",
        "doa",
        "gazta",
        "dira",
        "gida",
        "aita"
      ],
      "solutions": [
        [
          "Polizia",
          "gizon",
          "gaztea",
          "eta",
          "ederra",
          "da"
        ]
      ],
      "formattedSolution": "Polizia gizon gaztea eta ederra da.",
      "id": "6e1cc3f5082b",
      "priority": 2,
      "group": "3609b0faea96"
    },
    {
      "type": "chips",
      "translatesToSourceLanguage": true,
      "phrase": [
        {
          "word": "Polizia",
          "definition": "police officer"
        },
        {
          "word": "gizon",
          "definition": "man"
        },
        {
          "word": "gaztea",
          "definition": "young"
        },
        {
          "word": "eta",
          "definition": "and"
        },
        {
          "word": "ederra",
          "definition": "beautiful\nhandsome"
        },
        {
          "word": "da.",
          "definition": "he is (izan)\nis\nit is (izan)\nshe is (izan)"
        }
      ],
      "chips": [
        "The",
        "police",
        "officer",
        "is",
        "a",
        "young",
        "and",
        "handsome",
        "man",
        "one",
        "an",
        "in",
        "on",
        "ice",
        "me",
        "lie",
        "can"
      ],
      "solutions": [
        [
          "The",
          "police",
          "officer",
          "is",
          "a",
          "young",
          "and",
          "handsome",
          "man"
        ],
        [
          "A",
          "police",
          "officer",
          "is",
          "the",
          "young",
          "and",
          "handsome",
          "man"
        ]
      ],
      "formattedSolution": "The police officer is a young and handsome man.",
      "id": "92c3a6d30758",
      "priority": 2,
      "group": "3609b0faea96"
    },
    {
      "type": "options",
      "formInTargetLanguage": "Emakume gazteak eta politak dira.",
      "meaningInSourceLanguage": "They are young and beautiful women.",
      "id": "d200657ae83e",
      "priority": 0,
      "group": "cc46463021e8"
    },
    {
      "type": "chips",
      "translatesToSourceLanguage": false,
      "phrase": [
        {
          "word": "They",
          "definition": "haiek"
        },
        {
          "word": "are",
          "definition": "daude\ndaude (egon)\ndaude (izan)\ndira\ndira (izan)\ngara\ngara (izan)\ngare\ngaude (egon)\nzara\nzara (izan)\nzarete\nzarete (izan)\nzaude  (egon)\nzaude (egon)\nzaudete (egon)"
        },
        {
          "word": "young",
          "definition": "gazte"
        },
        {
          "word": "and",
          "definition": "eta"
        },
        {
          "word": "beautiful",
          "definition": "eder\nederra"
        },
        {
          "word": "women.",
          "definition": "emakumeak\nemakumeen (of the women)"
        }
      ],
      "chips": [
        "Emakume",
        "gazteak",
        "eta",
        "politak",
        "dira",
        "aita",
        "Eta",
        "Aitak",
        "ateak"
      ],
      "solutions": [
        [
          "Emakume",
          "gazteak",
          "eta",
          "politak",
          "dira"
        ]
      ],
      "formattedSolution": "Emakume gazteak eta politak dira.",
      "id": "fa83e3ad960c",
      "priority": 2,
      "group": "cc46463021e8"
    },
    {
      "type": "chips",
      "translatesToSourceLanguage": true,
      "phrase": [
        {
          "word": "Emakume",
          "definition": "woman"
        },
        {
          "word": "gazteak",
          "definition": "young"
        },
        {
          "word": "eta",
          "definition": "and"
        },
        {
          "word": "politak",
          "definition": "pretty"
        },
        {
          "word": "dira.",
          "definition": "are\nare (izan)"
        }
      ],
      "chips": [
        "They",
        "are",
        "young",
        "and",
        "beautiful",
        "women",
        "one",
        "ate",
        "men",
        "an",
        "any"
      ],
      "solutions": [
        [
          "They",
          "are",
          "young",
          "and",
          "beautiful",
          "women"
        ]
      ],
      "formattedSolution": "They are young and beautiful women.",
      "id": "cf8f5ca9f8a9",
      "priority": 2,
      "group": "cc46463021e8"
    },
    {
      "type": "options",
      "formInTargetLanguage": "Gidaria ez da ederra.",
      "meaningInSourceLanguage": "The driver is not handsome.",
      "id": "6929eb709a5e",
      "priority": 0,
      "group": "0d305f7f84af"
    },
    {
      "type": "chips",
      "translatesToSourceLanguage": false,
      "phrase": [
        {
          "word": "The",
          "definition": "-a"
        },
        {
          "word": "driver",
          "definition": "gidari\ngidaria"
        },
        {
          "word": "is",
          "definition": "da\nda (izan)\ndago\ndago (egon)"
        },
        {
          "word": "not",
          "definition": "ez"
        },
        {
          "word": "handsome.",
          "definition": "eder"
        }
      ],
      "chips": [
        "Gidaria",
        "ez",
        "da",
        "ederra",
        "dira",
        "doa",
        "Uda"
      ],
      "solutions": [
        [
          "Gidaria",
          "ez",
          "da",
          "ederra"
        ]
      ],
      "formattedSolution": "Gidaria ez da ederra.",
      "id": "ab86746f684f",
      "priority": 2,
      "group": "0d305f7f84af"
    },
    {
      "type": "chips",
      "translatesToSourceLanguage": true,
      "phrase": [
        {
          "word": "Gidaria",
          "definition": "driver\nthe driver"
        },
        {
          "word": "ez",
          "definition": "no\nnot\nnot, no\nnot,no"
        },
        {
          "word": "da",
          "definition": "he is (izan)\nis\nit is (izan)\nshe is (izan)"
        },
        {
          "word": "ederra.",
          "definition": "beautiful\nhandsome"
        }
      ],
      "chips": [
        "The",
        "driver",
        "is",
        "not",
        "handsome",
        "are",
        "me",
        "his",
        "lie"
      ],
      "solutions": [
        [
          "The",
          "driver",
          "is",
          "not",
          "handsome"
        ],
        [
          "A",
          "driver",
          "is",
          "not",
          "handsome"
        ],
        [
          "The",
          "driver",
          "is",
          "not",
          "beautiful"
        ],
        [
          "A",
          "driver",
          "is",
          "not",
          "beautiful"
        ]
      ],
      "formattedSolution": "The driver is not handsome.",
      "id": "3ce59a28a061",
      "priority": 2,
      "group": "0d305f7f84af"
    },
    {
      "type": "options",
      "formInTargetLanguage": "Kotxe berria urdina eta kotxe zaharra berdea da.",
      "meaningInSourceLanguage": "The new car is blue and the old car is green.",
      "id": "0bdffa842956",
      "priority": 0,
      "group": "541a9e3590ea"
    },
    {
      "type": "chips",
      "translatesToSourceLanguage": false,
      "phrase": [
        {
          "word": "The",
          "definition": "-a"
        },
        {
          "word": "new",
          "definition": "berri"
        },
        {
          "word": "car",
          "definition": "kotxe\nkotxea"
        },
        {
          "word": "is",
          "definition": "da\nda (izan)\ndago\ndago (egon)"
        },
        {
          "word": "blue",
          "definition": "urdin"
        },
        {
          "word": "and",
          "definition": "eta"
        },
        {
          "word": "the",
          "definition": "-a"
        },
        {
          "word": "old",
          "definition": "zahar\nzaharra"
        },
        {
          "word": "car",
          "definition": "kotxe\nkotxea"
        },
        {
          "word": "is",
          "definition": "da\nda (izan)\ndago\ndago (egon)"
        },
        {
          "word": "green.",
          "definition": "berde"
        }
      ],
      "chips": [
        "Kotxe",
        "berria",
        "urdina",
        "eta",
        "kotxe",
        "zaharra",
        "berdea",
        "da",
        "etxea",
        "ardia",
        "berea",
        "doa",
        "ere",
        "dira",
        "horia"
      ],
      "solutions": [
        [
          "Kotxe",
          "berria",
          "urdina",
          "eta",
          "kotxe",
          "zaharra",
          "berdea",
          "da"
        ]
      ],
      "formattedSolution": "Kotxe berria urdina eta kotxe zaharra berdea da.",
      "id": "21377d719dcc",
      "priority": 2,
      "group": "541a9e3590ea"
    },
    {
      "type": "chips",
      "translatesToSourceLanguage": true,
      "phrase": [
        {
          "word": "Kotxe",
          "definition": "car"
        },
        {
          "word": "berria",
          "definition": "new"
        },
        {
          "word": "urdina",
          "definition": "blue"
        },
        {
          "word": "eta",
          "definition": "and"
        },
        {
          "word": "kotxe",
          "definition": "car"
        },
        {
          "word": "zaharra",
          "definition": "old"
        },
        {
          "word": "berdea",
          "definition": "green"
        },
        {
          "word": "da.",
          "definition": "he is (izan)\nis\nit is (izan)\nshe is (izan)"
        }
      ],
      "chips": [
        "The",
        "new",
        "car",
        "is",
        "blue",
        "and",
        "the",
        "old",
        "car",
        "is",
        "green",
        "are",
        "be",
        "one",
        "He",
        "We",
        "me",
        "an",
        "lie",
        "She",
        "or"
      ],
      "solutions": [
        [
          "The",
          "new",
          "car",
          "is",
          "blue",
          "and",
          "the",
          "old",
          "car",
          "is",
          "green"
        ],
        [
          "A",
          "new",
          "car",
          "is",
          "blue",
          "and",
          "an",
          "old",
          "car",
          "is",
          "green"
        ]
      ],
      "formattedSolution": "The new car is blue and the old car is green.",
      "id": "b765ade65b19",
      "priority": 2,
      "group": "541a9e3590ea"
    },
    {
      "type": "options",
      "formInTargetLanguage": "Kotxe urdina zaharra eta kotxe berdea polita da.",
      "meaningInSourceLanguage": "The blue car is ugly and the green car is pretty.",
      "id": "e740f0ac4446",
      "priority": 0,
      "group": "1c2bef2ef998"
    },
    {
      "type": "chips",
      "translatesToSourceLanguage": false,
      "phrase": [
        {
          "word": "The",
          "definition": "-a"
        },
        {
          "word": "blue",
          "definition": "urdin"
        },
        {
          "word": "car",
          "definition": "kotxe\nkotxea"
        },
        {
          "word": "is",
          "definition": "da\nda (izan)\ndago\ndago (egon)"
        },
        {
          "word": "ugly",
          "definition": "itsusi"
        },
        {
          "word": "and",
          "definition": "eta"
        },
        {
          "word": "the",
          "definition": "-a"
        },
        {
          "word": "green",
          "definition": "berde"
        },
        {
          "word": "car",
          "definition": "kotxe\nkotxea"
        },
        {
          "word": "is",
          "definition": "da\nda (izan)\ndago\ndago (egon)"
        },
        {
          "word": "pretty.",
          "definition": "polit"
        }
      ],
      "chips": [
        "Kotxe",
        "urdina",
        "zaharra",
        "eta",
        "kotxe",
        "berdea",
        "polita",
        "da",
        "doa",
        "aita",
        "dira",
        "Kotxea",
        "Eta",
        "horia",
        "etxea"
      ],
      "solutions": [
        [
          "Kotxe",
          "urdina",
          "zaharra",
          "eta",
          "kotxe",
          "berdea",
          "polita",
          "da"
        ]
      ],
      "formattedSolution": "Kotxe urdina zaharra eta kotxe berdea polita da.",
      "id": "688084901271",
      "priority": 2,
      "group": "1c2bef2ef998"
    },
    {
      "type": "chips",
      "translatesToSourceLanguage": true,
      "phrase": [
        {
          "word": "Kotxe",
          "definition": "car"
        },
        {
          "word": "urdina",
          "definition": "blue"
        },
        {
          "word": "zaharra",
          "definition": "old"
        },
        {
          "word": "eta",
          "definition": "and"
        },
        {
          "word": "kotxe",
          "definition": "car"
        },
        {
          "word": "berdea",
          "definition": "green"
        },
        {
          "word": "polita",
          "definition": "pretty"
        },
        {
          "word": "da.",
          "definition": "he is (izan)\nis\nit is (izan)\nshe is (izan)"
        }
      ],
      "chips": [
        "The",
        "blue",
        "car",
        "is",
        "ugly",
        "and",
        "the",
        "green",
        "car",
        "is",
        "pretty",
        "are",
        "be",
        "lie",
        "use",
        "He",
        "She",
        "We",
        "me",
        "an",
        "ice"
      ],
      "solutions": [
        [
          "The",
          "blue",
          "car",
          "is",
          "ugly",
          "and",
          "the",
          "green",
          "car",
          "is",
          "pretty"
        ],
        [
          "A",
          "blue",
          "car",
          "is",
          "ugly",
          "and",
          "a",
          "green",
          "car",
          "is",
          "pretty"
        ]
      ],
      "formattedSolution": "The blue car is ugly and the green car is pretty.",
      "id": "15c143f949d5",
      "priority": 2,
      "group": "1c2bef2ef998"
    },
    {
      "type": "options",
      "formInTargetLanguage": "Kotxea ez da zaharra, baizik berria da.",
      "meaningInSourceLanguage": "The car is not old, but rather it is new.",
      "id": "b517163d9de5",
      "priority": 0,
      "group": "ea05881cf520"
    },
    {
      "type": "chips",
      "translatesToSourceLanguage": false,
      "phrase": [
        {
          "word": "The",
          "definition": "-a"
        },
        {
          "word": "car",
          "definition": "kotxe\nkotxea"
        },
        {
          "word": "is",
          "definition": "da\nda (izan)\ndago\ndago (egon)"
        },
        {
          "word": "not",
          "definition": "ez"
        },
        {
          "word": "old,",
          "definition": "zahar\nzaharra"
        },
        {
          "word": "but",
          "definition": "baina\nbaina, baizik"
        },
        {
          "word": "rather",
          "definition": "baizik"
        },
        {
          "word": "it",
          "definition": "hura"
        },
        {
          "word": "is",
          "definition": "da\nda (izan)\ndago\ndago (egon)"
        },
        {
          "word": "new.",
          "definition": "berri"
        }
      ],
      "chips": [
        "Kotxea",
        "ez",
        "da",
        "zaharra",
        "baizik",
        "berria",
        "da",
        "eta",
        "doa",
        "bat",
        "zara",
        "dira",
        "bi"
      ],
      "solutions": [
        [
          "Kotxea",
          "ez",
          "da",
          "zaharra",
          "baizik",
          "berria",
          "da"
        ]
      ],
      "formattedSolution": "Kotxea ez da zaharra, baizik berria da.",
      "id": "8b209dcc7765",
      "priority": 2,
      "group": "ea05881cf520"
    },
    {
      "type": "chips",
      "translatesToSourceLanguage": true,
      "phrase": [
        {
          "word": "Kotxea",
          "definition": "a car\ncar"
        },
        {
          "word": "ez",
          "definition": "no\nnot\nnot, no\nnot,no"
        },
        {
          "word": "da",
          "definition": "he is (izan)\nis\nit is (izan)\nshe is (izan)"
        },
        {
          "word": "zaharra,",
          "definition": "old"
        },
        {
          "word": "baizik",
          "definition": "but (rather)\nbut rather\nbut(rather)\nrather"
        },
        {
          "word": "berria",
          "definition": "new"
        },
        {
          "word": "da.",
          "definition": "he is (izan)\nis\nit is (izan)\nshe is (izan)"
        }
      ],
      "chips": [
        "The",
        "car",
        "is",
        "not",
        "old",
        "but",
        "rather",
        "it",
        "is",
        "new",
        "at",
        "bit",
        "or",
        "It",
        "cat",
        "sit",
        "be",
        "He",
        "We"
      ],
      "solutions": [
        [
          "The",
          "car",
          "is",
          "not",
          "old",
          "but",
          "rather",
          "it",
          "is",
          "new"
        ]
      ],
      "formattedSolution": "The car is not old, but rather it is new.",
      "id": "2ea4e03df8b3",
      "priority": 2,
      "group": "ea05881cf520"
    },
    {
      "type": "options",
      "formInTargetLanguage": "Kotxe berria azkarra eta kotxe zaharra motela da.",
      "meaningInSourceLanguage": "The new car is fast and the old car is slow.",
      "id": "2df9b9566d32",
      "priority": 0,
      "group": "45c5d58815e0"
    },
    {
      "type": "chips",
      "translatesToSourceLanguage": false,
      "phrase": [
        {
          "word": "The",
          "definition": "-a"
        },
        {
          "word": "new",
          "definition": "berri"
        },
        {
          "word": "car",
          "definition": "kotxe\nkotxea"
        },
        {
          "word": "is",
          "definition": "da\nda (izan)\ndago\ndago (egon)"
        },
        {
          "word": "fast",
          "definition": "azkar"
        },
        {
          "word": "and",
          "definition": "eta"
        },
        {
          "word": "the",
          "definition": "-a"
        },
        {
          "word": "old",
          "definition": "zahar\nzaharra"
        },
        {
          "word": "car",
          "definition": "kotxe\nkotxea"
        },
        {
          "word": "is",
          "definition": "da\nda (izan)\ndago\ndago (egon)"
        },
        {
          "word": "slow.",
          "definition": "motel"
        }
      ],
      "chips": [
        "Kotxe",
        "berria",
        "azkarra",
        "eta",
        "kotxe",
        "zaharra",
        "motela",
        "da",
        "zara",
        "bata",
        "Kotxea",
        "Eta",
        "arte",
        "horia",
        "etxea"
      ],
      "solutions": [
        [
          "Kotxe",
          "berria",
          "azkarra",
          "eta",
          "kotxe",
          "zaharra",
          "motela",
          "da"
        ]
      ],
      "formattedSolution": "Kotxe berria azkarra eta kotxe zaharra motela da.",
      "id": "ab82288c598a",
      "priority": 2,
      "group": "45c5d58815e0"
    },
    {
      "type": "chips",
      "translatesToSourceLanguage": true,
      "phrase": [
        {
          "word": "Kotxe",
          "definition": "car"
        },
        {
          "word": "berria",
          "definition": "new"
        },
        {
          "word": "azkarra",
          "definition": "fast"
        },
        {
          "word": "eta",
          "definition": "and"
        },
        {
          "word": "kotxe",
          "definition": "car"
        },
        {
          "word": "zaharra",
          "definition": "old"
        },
        {
          "word": "motela",
          "definition": "slow"
        },
        {
          "word": "da.",
          "definition": "he is (izan)\nis\nit is (izan)\nshe is (izan)"
        }
      ],
      "chips": [
        "The",
        "new",
        "car",
        "is",
        "fast",
        "and",
        "the",
        "old",
        "car",
        "is",
        "slow",
        "an",
        "at",
        "am",
        "a",
        "are",
        "or",
        "was",
        "cat",
        "sad",
        "far"
      ],
      "solutions": [
        [
          "The",
          "new",
          "car",
          "is",
          "fast",
          "and",
          "the",
          "old",
          "car",
          "is",
          "slow"
        ],
        [
          "A",
          "new",
          "car",
          "is",
          "fast",
          "and",
          "an",
          "old",
          "car",
          "is",
          "slow"
        ]
      ],
      "formattedSolution": "The new car is fast and the old car is slow.",
      "id": "0d8d81fd8842",
      "priority": 2,
      "group": "45c5d58815e0"
    },
    {
      "type": "options",
      "formInTargetLanguage": "Kotxe urdina motela eta kotxe azkarra da.",
      "meaningInSourceLanguage": "The blue car is slow and the green car is fast.",
      "id": "77333727c71a",
      "priority": 0,
      "group": "11a0c53417df"
    },
    {
      "type": "chips",
      "translatesToSourceLanguage": false,
      "phrase": [
        {
          "word": "The",
          "definition": "-a"
        },
        {
          "word": "blue",
          "definition": "urdin"
        },
        {
          "word": "car",
          "definition": "kotxe\nkotxea"
        },
        {
          "word": "is",
          "definition": "da\nda (izan)\ndago\ndago (egon)"
        },
        {
          "word": "slow",
          "definition": "motel"
        },
        {
          "word": "and",
          "definition": "eta"
        },
        {
          "word": "the",
          "definition": "-a"
        },
        {
          "word": "green",
          "definition": "berde"
        },
        {
          "word": "car",
          "definition": "kotxe\nkotxea"
        },
        {
          "word": "is",
          "definition": "da\nda (izan)\ndago\ndago (egon)"
        },
        {
          "word": "fast.",
          "definition": "azkar"
        }
      ],
      "chips": [
        "Kotxe",
        "urdina",
        "motela",
        "eta",
        "kotxe",
        "azkarra",
        "da",
        "doa",
        "Kotxea",
        "Eta",
        "motza",
        "ona",
        "aita"
      ],
      "solutions": [
        [
          "Kotxe",
          "urdina",
          "motela",
          "eta",
          "kotxe",
          "azkarra",
          "da"
        ]
      ],
      "formattedSolution": "Kotxe urdina motela eta kotxe azkarra da.",
      "id": "74182faf7f75",
      "priority": 2,
      "group": "11a0c53417df"
    },
    {
      "type": "chips",
      "translatesToSourceLanguage": true,
      "phrase": [
        {
          "word": "Kotxe",
          "definition": "car"
        },
        {
          "word": "urdina",
          "definition": "blue"
        },
        {
          "word": "motela",
          "definition": "slow"
        },
        {
          "word": "eta",
          "definition": "and"
        },
        {
          "word": "kotxe",
          "definition": "car"
        },
        {
          "word": "azkarra",
          "definition": "fast"
        },
        {
          "word": "da.",
          "definition": "he is (izan)\nis\nit is (izan)\nshe is (izan)"
        }
      ],
      "chips": [
        "The",
        "blue",
        "car",
        "is",
        "slow",
        "and",
        "the",
        "green",
        "car",
        "is",
        "fast",
        "are",
        "an",
        "lie",
        "at",
        "be",
        "can",
        "use",
        "am",
        "a",
        "He"
      ],
      "solutions": [
        [
          "The",
          "blue",
          "car",
          "is",
          "slow",
          "and",
          "the",
          "green",
          "car",
          "is",
          "fast"
        ],
        [
          "A",
          "blue",
          "car",
          "is",
          "slow",
          "and",
          "a",
          "green",
          "car",
          "is",
          "fast"
        ]
      ],
      "formattedSolution": "The blue car is slow and the green car is fast.",
      "id": "472306270932",
      "priority": 2,
      "group": "11a0c53417df"
    },
    {
      "type": "cards",
      "pictures": [
        "pretty1.jpg",
        "pretty2.jpg",
        "pretty3.jpg"
      ],
      "formInTargetLanguage": "eder",
      "meaningInSourceLanguage": "beautiful",
      "id": "b9dca393fb36",
      "priority": 0,
      "group": "65ae19930682"
    },
    {
      "type": "shortInput",
      "pictures": [
        "pretty1.jpg",
        "pretty2.jpg",
        "pretty3.jpg"
      ],
      "formInTargetLanguage": [
        "eder"
      ],
      "phrase": [
        {
          "word": "beautiful",
          "definition": "eder\nederra"
        }
      ],
      "id": "99444b928860",
      "priority": 1,
      "group": "65ae19930682"
    },
    {
      "type": "cards",
      "pictures": null,
      "formInTargetLanguage": "itsusi",
      "meaningInSourceLanguage": "ugly",
      "id": "9d3fc95c9b0f",
      "priority": 0,
      "group": "14b8f27394c2"
    },
    {
      "type": "shortInput",
      "pictures": null,
      "formInTargetLanguage": [
        "itsusi"
      ],
      "phrase": [
        {
          "word": "ugly",
          "definition": "itsusi"
        }
      ],
      "id": "7622e7596d29",
      "priority": 1,
      "group": "14b8f27394c2"
    },
    {
      "type": "cards",
      "pictures": [
        "pretty1.jpg",
        "pretty2.jpg",
        "pretty3.jpg"
      ],
      "formInTargetLanguage": "polit",
      "meaningInSourceLanguage": "pretty",
      "id": "7528d70e7f07",
      "priority": 0,
      "group": "6c9b78bc1d1d"
    },
    {
      "type": "shortInput",
      "pictures": [
        "pretty1.jpg",
        "pretty2.jpg",
        "pretty3.jpg"
      ],
      "formInTargetLanguage": [
        "polit"
      ],
      "phrase": [
        {
          "word": "pretty",
          "definition": "polit"
        }
      ],
      "id": "2b7f6f1db46d",
      "priority": 1,
      "group": "6c9b78bc1d1d"
    },
    {
      "type": "cards",
      "pictures": null,
      "formInTargetLanguage": "berri",
      "meaningInSourceLanguage": "new",
      "id": "883a78ad0010",
      "priority": 0,
      "group": "2eb8c4902d7d"
    },
    {
      "type": "shortInput",
      "pictures": null,
      "formInTargetLanguage": [
        "berri"
      ],
      "phrase": [
        {
          "word": "new",
          "definition": "berri"
        }
      ],
      "id": "c99de2629427",
      "priority": 1,
      "group": "2eb8c4902d7d"
    },
    {
      "type": "cards",
      "pictures": [
        "fast1.jpg",
        "fast2.jpg",
        "fast3.jpg"
      ],
      "formInTargetLanguage": "azkar",
      "meaningInSourceLanguage": "fast",
      "id": "1a348c1a2b0a",
      "priority": 0,
      "group": "69b29029855a"
    },
    {
      "type": "shortInput",
      "pictures": [
        "fast1.jpg",
        "fast2.jpg",
        "fast3.jpg"
      ],
      "formInTargetLanguage": [
        "azkar"
      ],
      "phrase": [
        {
          "word": "fast",
          "definition": "azkar"
        }
      ],
      "id": "0c2e0842554b",
      "priority": 1,
      "group": "69b29029855a"
    },
    {
      "type": "cards",
      "pictures": [
        "snail1.jpg",
        "snail2.jpg",
        "snail3.jpg"
      ],
      "formInTargetLanguage": "motel",
      "meaningInSourceLanguage": "slow",
      "id": "1dc5f7c72a90",
      "priority": 0,
      "group": "1fcff38cdba3"
    },
    {
      "type": "shortInput",
      "pictures": [
        "snail1.jpg",
        "snail2.jpg",
        "snail3.jpg"
      ],
      "formInTargetLanguage": [
        "motel"
      ],
      "phrase": [
        {
          "word": "slow",
          "definition": "motel"
        }
      ],
      "id": "6ec0a04fc0cf",
      "priority": 1,
      "group": "1fcff38cdba3"
    }
  ]
}