{
  "id": "25af51ecd41e",
  "levels": 6,
  "challenges": [
    {
      "type": "options",
      "formInTargetLanguage": "Ni mahai joko batera jolasten ari naiz.",
      "meaningInSourceLanguage": "I am playing a board game.",
      "id": "16e64879f25d",
      "priority": 0,
      "group": "f0ad93b3227b"
    },
    {
      "type": "chips",
      "translatesToSourceLanguage": false,
      "phrase": [
        {
          "word": "I",
          "definition": "ni"
        },
        {
          "word": "am",
          "definition": "NORTAZ case\nnago (egon)\nnaiz\nnaiz (izan)"
        },
        {
          "word": "playing",
          "definition": "jolasten\njostatzen\njotzea"
        },
        {
          "word": "a",
          "definition": "-a"
        },
        {
          "word": "board",
          "definition": "mahai (table)"
        },
        {
          "word": "game.",
          "definition": "joko"
        }
      ],
      "chips": [
        "Ni",
        "mahai",
        "joko",
        "batera",
        "jolasten",
        "ari",
        "naiz",
        "bati",
        "ate",
        "Bai",
        "jaka",
        "bata",
        "hari"
      ],
      "solutions": [
        [
          "Ni",
          "mahai",
          "joko",
          "batera",
          "jolasten",
          "ari",
          "naiz"
        ],
        [
          "Mahai",
          "joko",
          "batera",
          "jolasten",
          "ari",
          "naiz"
        ]
      ],
      "formattedSolution": "Ni mahai joko batera jolasten ari naiz.",
      "id": "b98332eae4b8",
      "priority": 2,
      "group": "f0ad93b3227b"
    },
    {
      "type": "chips",
      "translatesToSourceLanguage": true,
      "phrase": [
        {
          "word": "Ni",
          "definition": "I\nme"
        },
        {
          "word": "mahai",
          "definition": "table"
        },
        {
          "word": "joko",
          "definition": "game"
        },
        {
          "word": "batera",
          "definition": "a"
        },
        {
          "word": "jolasten",
          "definition": "playing"
        },
        {
          "word": "ari",
          "definition": "present perfect verb form"
        },
        {
          "word": "naiz.",
          "definition": "I am (izan)\nam\nam (izan)"
        }
      ],
      "chips": [
        "I",
        "am",
        "playing",
        "a",
        "board",
        "game",
        "an",
        "at",
        "are",
        "and",
        "bad"
      ],
      "solutions": [
        [
          "I",
          "am",
          "playing",
          "a",
          "board",
          "game"
        ]
      ],
      "formattedSolution": "I am playing a board game.",
      "id": "a23fc075a46d",
      "priority": 2,
      "group": "f0ad93b3227b"
    },
    {
      "type": "options",
      "formInTargetLanguage": "Zer zu jolasten ari zara?",
      "meaningInSourceLanguage": "What are you playing?",
      "id": "c6b89a0f969f",
      "priority": 0,
      "group": "cda5a5a84dc8"
    },
    {
      "type": "chips",
      "translatesToSourceLanguage": false,
      "phrase": [
        {
          "word": "What",
          "definition": "zer"
        },
        {
          "word": "are",
          "definition": "daude\ndaude (egon)\ndaude (izan)\ndira\ndira (izan)\ngara\ngara (izan)\ngare\ngaude (egon)\nzara\nzara (izan)\nzarete\nzarete (izan)\nzaude  (egon)\nzaude (egon)\nzaudete (egon)"
        },
        {
          "word": "you",
          "definition": "zu\nzuek"
        },
        {
          "word": "playing?",
          "definition": "jolasten\njostatzen\njotzea"
        }
      ],
      "chips": [
        "Zer",
        "zu",
        "jolasten",
        "ari",
        "zara",
        "zer",
        "zen",
        "ate",
        "ere"
      ],
      "solutions": [
        [
          "Zer",
          "zu",
          "jolasten",
          "ari",
          "zara"
        ],
        [
          "Zer",
          "jolasten",
          "ari",
          "zara"
        ]
      ],
      "formattedSolution": "Zer zu jolasten ari zara?",
      "id": "ad87ed3f5c83",
      "priority": 2,
      "group": "cda5a5a84dc8"
    },
    {
      "type": "chips",
      "translatesToSourceLanguage": true,
      "phrase": [
        {
          "word": "Zer",
          "definition": "what"
        },
        {
          "word": "zu",
          "definition": "you"
        },
        {
          "word": "jolasten",
          "definition": "playing"
        },
        {
          "word": "ari",
          "definition": "present perfect verb form"
        },
        {
          "word": "zara?",
          "definition": "are\nyou are (izan)"
        }
      ],
      "chips": [
        "What",
        "are",
        "you",
        "playing",
        "an",
        "hat",
        "at"
      ],
      "solutions": [
        [
          "What",
          "are",
          "you",
          "playing"
        ]
      ],
      "formattedSolution": "What are you playing?",
      "id": "e90569409377",
      "priority": 2,
      "group": "cda5a5a84dc8"
    },
    {
      "type": "options",
      "formInTargetLanguage": "Dortoka jolasten ari zen.",
      "meaningInSourceLanguage": "The turtle was playing",
      "id": "d44cff44a818",
      "priority": 0,
      "group": "0476d855fd3b"
    },
    {
      "type": "chips",
      "translatesToSourceLanguage": false,
      "phrase": [
        {
          "word": "The",
          "definition": "-a"
        },
        {
          "word": "turtle",
          "definition": "dortoka"
        },
        {
          "word": "was",
          "definition": "nengoen(I)(egon)\nnintzen\nzegoen(he,she,it) (egon)\nzen"
        },
        {
          "word": "playing",
          "definition": "jolasten\njostatzen\njotzea"
        }
      ],
      "chips": [
        "Dortoka",
        "jolasten",
        "ari",
        "zen",
        "arte",
        "joaten",
        "jaten"
      ],
      "solutions": [
        [
          "Dortoka",
          "jolasten",
          "ari",
          "zen"
        ]
      ],
      "formattedSolution": "Dortoka jolasten ari zen.",
      "id": "f075e73875fc",
      "priority": 2,
      "group": "0476d855fd3b"
    },
    {
      "type": "chips",
      "translatesToSourceLanguage": true,
      "phrase": [
        {
          "word": "Dortoka",
          "definition": "a turtle\nturtle"
        },
        {
          "word": "jolasten",
          "definition": "playing"
        },
        {
          "word": "ari",
          "definition": "present perfect verb form"
        },
        {
          "word": "zen.",
          "definition": "he/she/it was\nwas"
        }
      ],
      "chips": [
        "The",
        "turtle",
        "was",
        "playing",
        "are",
        "the",
        "late"
      ],
      "solutions": [
        [
          "The",
          "turtle",
          "was",
          "playing"
        ]
      ],
      "formattedSolution": "The turtle was playing",
      "id": "e07c45d80f59",
      "priority": 2,
      "group": "0476d855fd3b"
    },
    {
      "type": "options",
      "formInTargetLanguage": "Gu irakasleari laguntzen ari gara.",
      "meaningInSourceLanguage": "We are helping the teacher.",
      "id": "d252c436bb5c",
      "priority": 0,
      "group": "565386659070"
    },
    {
      "type": "chips",
      "translatesToSourceLanguage": false,
      "phrase": [
        {
          "word": "We",
          "definition": "gu"
        },
        {
          "word": "are",
          "definition": "daude\ndaude (egon)\ndaude (izan)\ndira\ndira (izan)\ngara\ngara (izan)\ngare\ngaude (egon)\nzara\nzara (izan)\nzarete\nzarete (izan)\nzaude  (egon)\nzaude (egon)\nzaudete (egon)"
        },
        {
          "word": "helping",
          "definition": "laguntzen"
        },
        {
          "word": "the",
          "definition": "-a"
        },
        {
          "word": "teacher.",
          "definition": "irakasle\nirakaslea"
        }
      ],
      "chips": [
        "Gu",
        "irakasleari",
        "laguntzen",
        "ari",
        "gara",
        "lau",
        "hari",
        "guri",
        "ate"
      ],
      "solutions": [
        [
          "Gu",
          "irakasleari",
          "laguntzen",
          "ari",
          "gara"
        ],
        [
          "Irakasleari",
          "laguntzen",
          "ari",
          "gara"
        ]
      ],
      "formattedSolution": "Gu irakasleari laguntzen ari gara.",
      "id": "023321b19471",
      "priority": 2,
      "group": "565386659070"
    },
    {
      "type": "chips",
      "translatesToSourceLanguage": true,
      "phrase": [
        {
          "word": "Gu",
          "definition": "we"
        },
        {
          "word": "irakasleari",
          "definition": "to the teacher"
        },
        {
          "word": "laguntzen",
          "definition": "helping"
        },
        {
          "word": "ari",
          "definition": "present perfect verb form"
        },
        {
          "word": "gara.",
          "definition": "are\nare (izan)"
        }
      ],
      "chips": [
        "We",
        "are",
        "helping",
        "the",
        "teacher",
        "She",
        "The",
        "hee",
        "her"
      ],
      "solutions": [
        [
          "We",
          "are",
          "helping",
          "the",
          "teacher"
        ]
      ],
      "formattedSolution": "We are helping the teacher.",
      "id": "39dcf4f23560",
      "priority": 2,
      "group": "565386659070"
    },
    {
      "type": "options",
      "formInTargetLanguage": "Zuek turistari laguntzen ari zarete.",
      "meaningInSourceLanguage": "You all are helping the tourist.",
      "id": "dca1636805c8",
      "priority": 0,
      "group": "14b15ca38551"
    },
    {
      "type": "chips",
      "translatesToSourceLanguage": false,
      "phrase": [
        {
          "word": "You",
          "definition": "zu\nzuek"
        },
        {
          "word": "all",
          "definition": "part of plural form of you\npart of you plural, you all"
        },
        {
          "word": "are",
          "definition": "daude\ndaude (egon)\ndaude (izan)\ndira\ndira (izan)\ngara\ngara (izan)\ngare\ngaude (egon)\nzara\nzara (izan)\nzarete\nzarete (izan)\nzaude  (egon)\nzaude (egon)\nzaudete (egon)"
        },
        {
          "word": "helping",
          "definition": "laguntzen"
        },
        {
          "word": "the",
          "definition": "-a"
        },
        {
          "word": "tourist.",
          "definition": "turist\nturista"
        }
      ],
      "chips": [
        "Zuek",
        "turistari",
        "laguntzen",
        "ari",
        "zarete",
        "arte",
        "urte",
        "ate",
        "Zure"
      ],
      "solutions": [
        [
          "Zuek",
          "turistari",
          "laguntzen",
          "ari",
          "zarete"
        ],
        [
          "Turistari",
          "laguntzen",
          "ari",
          "zarete"
        ]
      ],
      "formattedSolution": "Zuek turistari laguntzen ari zarete.",
      "id": "547b9ff63ba3",
      "priority": 2,
      "group": "14b15ca38551"
    },
    {
      "type": "chips",
      "translatesToSourceLanguage": true,
      "phrase": [
        {
          "word": "Zuek",
          "definition": "you\nyou all\nyou'll\nyou(plural)\nyour (plural)\nyour/you (plural)"
        },
        {
          "word": "turistari",
          "definition": "to the tourist (dative)"
        },
        {
          "word": "laguntzen",
          "definition": "helping"
        },
        {
          "word": "ari",
          "definition": "present perfect verb form"
        },
        {
          "word": "zarete.",
          "definition": "are\ntheir"
        }
      ],
      "chips": [
        "You",
        "all",
        "are",
        "helping",
        "the",
        "tourist",
        "lie",
        "top",
        "one",
        "She",
        "you"
      ],
      "solutions": [
        [
          "You",
          "all",
          "are",
          "helping",
          "the",
          "tourist"
        ],
        [
          "You",
          "plural",
          "are",
          "helping",
          "the",
          "tourist"
        ],
        [
          "You'll",
          "are",
          "helping",
          "the",
          "tourist"
        ],
        [
          "You",
          "are",
          "helping",
          "the",
          "tourist"
        ]
      ],
      "formattedSolution": "You all are helping the tourist.",
      "id": "a2c145e0aa32",
      "priority": 2,
      "group": "14b15ca38551"
    },
    {
      "type": "options",
      "formInTargetLanguage": "Behiak ahuntzei laguntzen ari ziren.",
      "meaningInSourceLanguage": "The cows were helping the goats.",
      "id": "d440c2abe08d",
      "priority": 0,
      "group": "4dbca40c548a"
    },
    {
      "type": "chips",
      "translatesToSourceLanguage": false,
      "phrase": [
        {
          "word": "The",
          "definition": "-a"
        },
        {
          "word": "cows",
          "definition": "behiak\nbehiek"
        },
        {
          "word": "were",
          "definition": "geunden (we) (egon)\nginen\nginen (izan)\nzeuden (they) (egon)\nzeunden  (you) (egon)\nzeundeten (you (plural)) (egon)\nzinen\nzinen (izan)\nzineten\nzineten (izan)\nziren\nziren (izan)"
        },
        {
          "word": "helping",
          "definition": "laguntzen"
        },
        {
          "word": "the",
          "definition": "-a"
        },
        {
          "word": "goats.",
          "definition": "ahuntzak\nahuntzek"
        }
      ],
      "chips": [
        "Behiak",
        "ahuntzei",
        "laguntzen",
        "ari",
        "ziren",
        "zen",
        "arte",
        "ahuntz",
        "nire"
      ],
      "solutions": [
        [
          "Behiak",
          "ahuntzei",
          "laguntzen",
          "ari",
          "ziren"
        ]
      ],
      "formattedSolution": "Behiak ahuntzei laguntzen ari ziren.",
      "id": "24e4b0501d09",
      "priority": 2,
      "group": "4dbca40c548a"
    },
    {
      "type": "chips",
      "translatesToSourceLanguage": true,
      "phrase": [
        {
          "word": "Behiak",
          "definition": "cows"
        },
        {
          "word": "ahuntzei",
          "definition": "to the goats(dative)"
        },
        {
          "word": "laguntzen",
          "definition": "helping"
        },
        {
          "word": "ari",
          "definition": "present perfect verb form"
        },
        {
          "word": "ziren.",
          "definition": "they were\nwere"
        }
      ],
      "chips": [
        "The",
        "cows",
        "were",
        "helping",
        "the",
        "goats",
        "one",
        "She",
        "hee",
        "her",
        "hers"
      ],
      "solutions": [
        [
          "The",
          "cows",
          "were",
          "helping",
          "the",
          "goats"
        ]
      ],
      "formattedSolution": "The cows were helping the goats.",
      "id": "df583e49a302",
      "priority": 2,
      "group": "4dbca40c548a"
    },
    {
      "type": "options",
      "formInTargetLanguage": "Ni dantzan ari naiz.",
      "meaningInSourceLanguage": "I am dancing",
      "id": "c70b52afa9c3",
      "priority": 0,
      "group": "410e5dcd5f1c"
    },
    {
      "type": "chips",
      "translatesToSourceLanguage": false,
      "phrase": [
        {
          "word": "I",
          "definition": "ni"
        },
        {
          "word": "am",
          "definition": "NORTAZ case\nnago (egon)\nnaiz\nnaiz (izan)"
        },
        {
          "word": "dancing",
          "definition": "dantzan\ndantzatzea"
        }
      ],
      "chips": [
        "Ni",
        "dantzan",
        "ari",
        "naiz",
        "ni",
        "Bai",
        "maiz"
      ],
      "solutions": [
        [
          "Ni",
          "dantzan",
          "ari",
          "naiz"
        ],
        [
          "Dantzan",
          "ari",
          "naiz"
        ]
      ],
      "formattedSolution": "Ni dantzan ari naiz.",
      "id": "e1211fe6c01f",
      "priority": 2,
      "group": "410e5dcd5f1c"
    },
    {
      "type": "chips",
      "translatesToSourceLanguage": true,
      "phrase": [
        {
          "word": "Ni",
          "definition": "I\nme"
        },
        {
          "word": "dantzan",
          "definition": "dancing\nto dance"
        },
        {
          "word": "ari",
          "definition": "present perfect verb form"
        },
        {
          "word": "naiz.",
          "definition": "I am (izan)\nam\nam (izan)"
        }
      ],
      "chips": [
        "I",
        "am",
        "dancing",
        "a",
        "an"
      ],
      "solutions": [
        [
          "I",
          "am",
          "dancing"
        ]
      ],
      "formattedSolution": "I am dancing",
      "id": "54b10e628471",
      "priority": 2,
      "group": "410e5dcd5f1c"
    },
    {
      "type": "options",
      "formInTargetLanguage": "Zu dantzan ari al zara?",
      "meaningInSourceLanguage": "Are you dancing?",
      "id": "8312408ff053",
      "priority": 0,
      "group": "23a97ded7036"
    },
    {
      "type": "chips",
      "translatesToSourceLanguage": false,
      "phrase": [
        {
          "word": "Are",
          "definition": "daude\ndaude (egon)\ndaude (izan)\ndira\ndira (izan)\ngara\ngara (izan)\ngare\ngaude (egon)\nzara\nzara (izan)\nzarete\nzarete (izan)\nzaude  (egon)\nzaude (egon)\nzaudete (egon)"
        },
        {
          "word": "you",
          "definition": "zu\nzuek"
        },
        {
          "word": "dancing?",
          "definition": "dantzan\ndantzatzea"
        }
      ],
      "chips": [
        "Zu",
        "dantzan",
        "ari",
        "al",
        "zara",
        "ama",
        "da",
        "gara",
        "zu"
      ],
      "solutions": [
        [
          "Zu",
          "dantzan",
          "ari",
          "al",
          "zara"
        ],
        [
          "Dantzan",
          "ari",
          "al",
          "zara"
        ]
      ],
      "formattedSolution": "Zu dantzan ari al zara?",
      "id": "0061ef65d9f5",
      "priority": 2,
      "group": "23a97ded7036"
    },
    {
      "type": "chips",
      "translatesToSourceLanguage": true,
      "phrase": [
        {
          "word": "Zu",
          "definition": "you"
        },
        {
          "word": "dantzan",
          "definition": "dancing\nto dance"
        },
        {
          "word": "ari",
          "definition": "present perfect verb form"
        },
        {
          "word": "al",
          "definition": "question word\nquestion_word"
        },
        {
          "word": "zara?",
          "definition": "are\nyou are (izan)"
        }
      ],
      "chips": [
        "Are",
        "you",
        "dancing",
        "are",
        "dog"
      ],
      "solutions": [
        [
          "Are",
          "you",
          "dancing"
        ]
      ],
      "formattedSolution": "Are you dancing?",
      "id": "e5712e1dfdfa",
      "priority": 2,
      "group": "23a97ded7036"
    },
    {
      "type": "options",
      "formInTargetLanguage": "Nire ahizpa dantzan ari zen.",
      "meaningInSourceLanguage": "My sister was dancing",
      "id": "8108a2f131a3",
      "priority": 0,
      "group": "8f42edc7c181"
    },
    {
      "type": "chips",
      "translatesToSourceLanguage": false,
      "phrase": [
        {
          "word": "My",
          "definition": "nire"
        },
        {
          "word": "sister",
          "definition": "ahizpa\narreba"
        },
        {
          "word": "was",
          "definition": "nengoen(I)(egon)\nnintzen\nzegoen(he,she,it) (egon)\nzen"
        },
        {
          "word": "dancing",
          "definition": "dantzan\ndantzatzea"
        }
      ],
      "chips": [
        "Nire",
        "ahizpa",
        "dantzan",
        "ari",
        "zen",
        "aita",
        "izen",
        "zara",
        "dira"
      ],
      "solutions": [
        [
          "Nire",
          "ahizpa",
          "dantzan",
          "ari",
          "zen"
        ],
        [
          "Nire",
          "arreba",
          "dantzan",
          "ari",
          "zen"
        ]
      ],
      "formattedSolution": "Nire ahizpa dantzan ari zen.",
      "id": "9801d0bee23f",
      "priority": 2,
      "group": "8f42edc7c181"
    },
    {
      "type": "chips",
      "translatesToSourceLanguage": true,
      "phrase": [
        {
          "word": "Nire",
          "definition": "my"
        },
        {
          "word": "ahizpa",
          "definition": "sister of a sister"
        },
        {
          "word": "dantzan",
          "definition": "dancing\nto dance"
        },
        {
          "word": "ari",
          "definition": "present perfect verb form"
        },
        {
          "word": "zen.",
          "definition": "he/she/it was\nwas"
        }
      ],
      "chips": [
        "My",
        "sister",
        "was",
        "dancing",
        "is",
        "it",
        "an"
      ],
      "solutions": [
        [
          "My",
          "sister",
          "was",
          "dancing"
        ]
      ],
      "formattedSolution": "My sister was dancing",
      "id": "d562cf3748e2",
      "priority": 2,
      "group": "8f42edc7c181"
    },
    {
      "type": "options",
      "formInTargetLanguage": "Gu hitz egiten eta ibiltzen ginen.",
      "meaningInSourceLanguage": "We were speaking and walking.",
      "id": "0e25cdf47702",
      "priority": 0,
      "group": "40e882afb33f"
    },
    {
      "type": "chips",
      "translatesToSourceLanguage": false,
      "phrase": [
        {
          "word": "We",
          "definition": "gu"
        },
        {
          "word": "were",
          "definition": "geunden (we) (egon)\nginen\nginen (izan)\nzeuden (they) (egon)\nzeunden  (you) (egon)\nzeundeten (you (plural)) (egon)\nzinen\nzinen (izan)\nzineten\nzineten (izan)\nziren\nziren (izan)"
        },
        {
          "word": "speaking",
          "definition": "hitz egiten"
        },
        {
          "word": "and",
          "definition": "eta"
        },
        {
          "word": "walking.",
          "definition": "dabil (he/she/it is walking)\ndabiltza (they are walking)\ngabiltza (we are walking)\ngenbiltzan (We  were walking)\nibiltzen\nnabil (I am walking)\nnenbilen (I was walking)\nzabiltza (you are walking)\nzabiltzate (you (plural) are walking)\nzebilen (He/she/it was walking)\nzebiltzan (They were walking)\nzenbiltzan (You were walking)\nzenbiltzaten (You (plural) were walking)"
        }
      ],
      "chips": [
        "Gu",
        "hitz",
        "egiten",
        "eta",
        "ibiltzen",
        "ginen",
        "gizen",
        "Hitz",
        "izen",
        "te",
        "zen"
      ],
      "solutions": [
        [
          "Gu",
          "hitz",
          "egiten",
          "eta",
          "ibiltzen",
          "ginen"
        ],
        [
          "Hitz",
          "egiten",
          "eta",
          "ibiltzen",
          "ginen"
        ]
      ],
      "formattedSolution": "Gu hitz egiten eta ibiltzen ginen.",
      "id": "478839fe383c",
      "priority": 2,
      "group": "40e882afb33f"
    },
    {
      "type": "chips",
      "translatesToSourceLanguage": true,
      "phrase": [
        {
          "word": "Gu",
          "definition": "we"
        },
        {
          "word": "hitz",
          "definition": "speak\nword"
        },
        {
          "word": "egiten",
          "definition": "do\ndoing\nis made"
        },
        {
          "word": "eta",
          "definition": "and"
        },
        {
          "word": "ibiltzen",
          "definition": "walk\nwalking"
        },
        {
          "word": "ginen.",
          "definition": "we were\nwere"
        }
      ],
      "chips": [
        "We",
        "were",
        "speaking",
        "and",
        "walking",
        "an",
        "wake",
        "wine",
        "sang"
      ],
      "solutions": [
        [
          "We",
          "were",
          "speaking",
          "and",
          "walking"
        ],
        [
          "We",
          "were",
          "talking",
          "and",
          "walking"
        ]
      ],
      "formattedSolution": "We were speaking and walking.",
      "id": "8b20224b3212",
      "priority": 2,
      "group": "40e882afb33f"
    },
    {
      "type": "options",
      "formInTargetLanguage": "Zu euskaraz hitz egiten ari zara.",
      "meaningInSourceLanguage": "You are speaking Basque.",
      "id": "d09e8ac720b1",
      "priority": 0,
      "group": "c43de8e49e40"
    },
    {
      "type": "chips",
      "translatesToSourceLanguage": false,
      "phrase": [
        {
          "word": "You",
          "definition": "zu\nzuek"
        },
        {
          "word": "are",
          "definition": "daude\ndaude (egon)\ndaude (izan)\ndira\ndira (izan)\ngara\ngara (izan)\ngare\ngaude (egon)\nzara\nzara (izan)\nzarete\nzarete (izan)\nzaude  (egon)\nzaude (egon)\nzaudete (egon)"
        },
        {
          "word": "speaking",
          "definition": "hitz egiten"
        },
        {
          "word": "Basque.",
          "definition": "Euskal\neuskaldun\neuskara"
        }
      ],
      "chips": [
        "Zu",
        "euskaraz",
        "hitz",
        "egiten",
        "ari",
        "zara",
        "gara",
        "ere",
        "eta",
        "arte",
        "euri"
      ],
      "solutions": [
        [
          "Zu",
          "euskaraz",
          "hitz",
          "egiten",
          "ari",
          "zara"
        ],
        [
          "Euskaraz",
          "hitz",
          "egiten",
          "ari",
          "zara"
        ]
      ],
      "formattedSolution": "Zu euskaraz hitz egiten ari zara.",
      "id": "36312a3ea094",
      "priority": 2,
      "group": "c43de8e49e40"
    },
    {
      "type": "chips",
      "translatesToSourceLanguage": true,
      "phrase": [
        {
          "word": "Zu",
          "definition": "you"
        },
        {
          "word": "euskaraz",
          "definition": "in Basque"
        },
        {
          "word": "hitz",
          "definition": "speak\nword"
        },
        {
          "word": "egiten",
          "definition": "do\ndoing\nis made"
        },
        {
          "word": "ari",
          "definition": "present perfect verb form"
        },
        {
          "word": "zara.",
          "definition": "are\nyou are (izan)"
        }
      ],
      "chips": [
        "You",
        "are",
        "speaking",
        "Basque",
        "ate",
        "and",
        "Are"
      ],
      "solutions": [
        [
          "You",
          "are",
          "speaking",
          "Basque"
        ]
      ],
      "formattedSolution": "You are speaking Basque.",
      "id": "b44aa306d018",
      "priority": 2,
      "group": "c43de8e49e40"
    },
    {
      "type": "options",
      "formInTargetLanguage": "Haiek hitz egiten ari dira.",
      "meaningInSourceLanguage": "They are speaking.",
      "id": "8c1134356f2d",
      "priority": 0,
      "group": "f68bfbb9a0a1"
    },
    {
      "type": "chips",
      "translatesToSourceLanguage": false,
      "phrase": [
        {
          "word": "They",
          "definition": "haiek"
        },
        {
          "word": "are",
          "definition": "daude\ndaude (egon)\ndaude (izan)\ndira\ndira (izan)\ngara\ngara (izan)\ngare\ngaude (egon)\nzara\nzara (izan)\nzarete\nzarete (izan)\nzaude  (egon)\nzaude (egon)\nzaudete (egon)"
        },
        {
          "word": "speaking.",
          "definition": "hitz egiten"
        }
      ],
      "chips": [
        "Haiek",
        "hitz",
        "egiten",
        "ari",
        "dira",
        "aita",
        "Hitz",
        "haiek",
        "nire"
      ],
      "solutions": [
        [
          "Haiek",
          "hitz",
          "egiten",
          "ari",
          "dira"
        ],
        [
          "Hitz",
          "egiten",
          "ari",
          "dira"
        ]
      ],
      "formattedSolution": "Haiek hitz egiten ari dira.",
      "id": "b782f82c135b",
      "priority": 2,
      "group": "f68bfbb9a0a1"
    },
    {
      "type": "chips",
      "translatesToSourceLanguage": true,
      "phrase": [
        {
          "word": "Haiek",
          "definition": "they\nthose over there, plural of hura"
        },
        {
          "word": "hitz",
          "definition": "speak\nword"
        },
        {
          "word": "egiten",
          "definition": "do\ndoing\nis made"
        },
        {
          "word": "ari",
          "definition": "present perfect verb form"
        },
        {
          "word": "dira.",
          "definition": "are\nare (izan)"
        }
      ],
      "chips": [
        "They",
        "are",
        "speaking",
        "the",
        "She"
      ],
      "solutions": [
        [
          "They",
          "are",
          "speaking"
        ],
        [
          "They",
          "are",
          "talking"
        ]
      ],
      "formattedSolution": "They are speaking.",
      "id": "2e6073955135",
      "priority": 2,
      "group": "f68bfbb9a0a1"
    },
    {
      "type": "options",
      "formInTargetLanguage": "Ni liburu bat idazten ari naiz.",
      "meaningInSourceLanguage": "I am writing a book.",
      "id": "ef7628fef81e",
      "priority": 0,
      "group": "81f94e5b4a81"
    },
    {
      "type": "chips",
      "translatesToSourceLanguage": false,
      "phrase": [
        {
          "word": "I",
          "definition": "ni"
        },
        {
          "word": "am",
          "definition": "NORTAZ case\nnago (egon)\nnaiz\nnaiz (izan)"
        },
        {
          "word": "writing",
          "definition": "idaztea\nidazten"
        },
        {
          "word": "a",
          "definition": "-a"
        },
        {
          "word": "book.",
          "definition": "liburu"
        }
      ],
      "chips": [
        "Ni",
        "liburu",
        "bat",
        "idazten",
        "ari",
        "naiz",
        "bati",
        "ni",
        "Bai",
        "bi",
        "ate"
      ],
      "solutions": [
        [
          "Ni",
          "liburu",
          "bat",
          "idazten",
          "ari",
          "naiz"
        ],
        [
          "Liburu",
          "bat",
          "idazten",
          "ari",
          "naiz"
        ]
      ],
      "formattedSolution": "Ni liburu bat idazten ari naiz.",
      "id": "abbcf4828912",
      "priority": 2,
      "group": "81f94e5b4a81"
    },
    {
      "type": "chips",
      "translatesToSourceLanguage": true,
      "phrase": [
        {
          "word": "Ni",
          "definition": "I\nme"
        },
        {
          "word": "liburu",
          "definition": "book"
        },
        {
          "word": "bat",
          "definition": "one"
        },
        {
          "word": "idazten",
          "definition": "write\nwriting"
        },
        {
          "word": "ari",
          "definition": "present perfect verb form"
        },
        {
          "word": "naiz.",
          "definition": "I am (izan)\nam\nam (izan)"
        }
      ],
      "chips": [
        "I",
        "am",
        "writing",
        "a",
        "book",
        "an",
        "at",
        "or",
        "it"
      ],
      "solutions": [
        [
          "I",
          "am",
          "writing",
          "a",
          "book"
        ]
      ],
      "formattedSolution": "I am writing a book.",
      "id": "bb6c75691e3d",
      "priority": 2,
      "group": "81f94e5b4a81"
    },
    {
      "type": "options",
      "formInTargetLanguage": "Zer zu ari zara idazten?",
      "meaningInSourceLanguage": "What are you writing?",
      "id": "092ad1c1c013",
      "priority": 0,
      "group": "9cbbf4d5b2f0"
    },
    {
      "type": "chips",
      "translatesToSourceLanguage": false,
      "phrase": [
        {
          "word": "What",
          "definition": "zer"
        },
        {
          "word": "are",
          "definition": "daude\ndaude (egon)\ndaude (izan)\ndira\ndira (izan)\ngara\ngara (izan)\ngare\ngaude (egon)\nzara\nzara (izan)\nzarete\nzarete (izan)\nzaude  (egon)\nzaude (egon)\nzaudete (egon)"
        },
        {
          "word": "you",
          "definition": "zu\nzuek"
        },
        {
          "word": "writing?",
          "definition": "idaztea\nidazten"
        }
      ],
      "chips": [
        "Zer",
        "zu",
        "ari",
        "zara",
        "idazten",
        "zer",
        "zen",
        "zuri",
        "ate"
      ],
      "solutions": [
        [
          "Zer",
          "zu",
          "ari",
          "zara",
          "idazten"
        ],
        [
          "Zer",
          "ari",
          "zara",
          "idazten"
        ]
      ],
      "formattedSolution": "Zer zu ari zara idazten?",
      "id": "fef663831ba3",
      "priority": 2,
      "group": "9cbbf4d5b2f0"
    },
    {
      "type": "chips",
      "translatesToSourceLanguage": true,
      "phrase": [
        {
          "word": "Zer",
          "definition": "what"
        },
        {
          "word": "zu",
          "definition": "you"
        },
        {
          "word": "ari",
          "definition": "present perfect verb form"
        },
        {
          "word": "zara",
          "definition": "are\nyou are (izan)"
        },
        {
          "word": "idazten?",
          "definition": "write\nwriting"
        }
      ],
      "chips": [
        "What",
        "are",
        "you",
        "writing",
        "hat",
        "at",
        "hot"
      ],
      "solutions": [
        [
          "What",
          "are",
          "you",
          "writing"
        ]
      ],
      "formattedSolution": "What are you writing?",
      "id": "506c5fdf1db1",
      "priority": 2,
      "group": "9cbbf4d5b2f0"
    },
    {
      "type": "options",
      "formInTargetLanguage": "Aita menua idazten ari zen.",
      "meaningInSourceLanguage": "Father was writing the menu.",
      "id": "0a64a0007ec5",
      "priority": 0,
      "group": "7d7aedad623e"
    },
    {
      "type": "chips",
      "translatesToSourceLanguage": false,
      "phrase": [
        {
          "word": "Father",
          "definition": "aita"
        },
        {
          "word": "was",
          "definition": "nengoen(I)(egon)\nnintzen\nzegoen(he,she,it) (egon)\nzen"
        },
        {
          "word": "writing",
          "definition": "idaztea\nidazten"
        },
        {
          "word": "the",
          "definition": "-a"
        },
        {
          "word": "menu.",
          "definition": "menu"
        }
      ],
      "chips": [
        "Aita",
        "menua",
        "idazten",
        "ari",
        "zen",
        "den",
        "ken",
        "izen",
        "eta"
      ],
      "solutions": [
        [
          "Aita",
          "menua",
          "idazten",
          "ari",
          "zen"
        ]
      ],
      "formattedSolution": "Aita menua idazten ari zen.",
      "id": "65a591c87507",
      "priority": 2,
      "group": "7d7aedad623e"
    },
    {
      "type": "chips",
      "translatesToSourceLanguage": true,
      "phrase": [
        {
          "word": "Aita",
          "definition": "father"
        },
        {
          "word": "menua",
          "definition": "menu"
        },
        {
          "word": "idazten",
          "definition": "write\nwriting"
        },
        {
          "word": "ari",
          "definition": "present perfect verb form"
        },
        {
          "word": "zen.",
          "definition": "he/she/it was\nwas"
        }
      ],
      "chips": [
        "Father",
        "was",
        "writing",
        "the",
        "menu",
        "ten",
        "then",
        "man",
        "men"
      ],
      "solutions": [
        [
          "Father",
          "was",
          "writing",
          "the",
          "menu"
        ]
      ],
      "formattedSolution": "Father was writing the menu.",
      "id": "a795d2c2c243",
      "priority": 2,
      "group": "7d7aedad623e"
    },
    {
      "type": "options",
      "formInTargetLanguage": "Gu orain egiten ari gara.",
      "meaningInSourceLanguage": "We are doing it now",
      "id": "e2ec1544a25d",
      "priority": 0,
      "group": "b72ffbe875eb"
    },
    {
      "type": "chips",
      "translatesToSourceLanguage": false,
      "phrase": [
        {
          "word": "We",
          "definition": "gu"
        },
        {
          "word": "are",
          "definition": "daude\ndaude (egon)\ndaude (izan)\ndira\ndira (izan)\ngara\ngara (izan)\ngare\ngaude (egon)\nzara\nzara (izan)\nzarete\nzarete (izan)\nzaude  (egon)\nzaude (egon)\nzaudete (egon)"
        },
        {
          "word": "doing",
          "definition": "egiten"
        },
        {
          "word": "it",
          "definition": "hura"
        },
        {
          "word": "now",
          "definition": "orain"
        }
      ],
      "chips": [
        "Gu",
        "orain",
        "egiten",
        "ari",
        "gara",
        "ere",
        "Bai",
        "egin",
        "guri"
      ],
      "solutions": [
        [
          "Gu",
          "orain",
          "egiten",
          "ari",
          "gara"
        ],
        [
          "Orain",
          "egiten",
          "ari",
          "gara"
        ]
      ],
      "formattedSolution": "Gu orain egiten ari gara.",
      "id": "42841ba55fa8",
      "priority": 2,
      "group": "b72ffbe875eb"
    },
    {
      "type": "chips",
      "translatesToSourceLanguage": true,
      "phrase": [
        {
          "word": "Gu",
          "definition": "we"
        },
        {
          "word": "orain",
          "definition": "now"
        },
        {
          "word": "egiten",
          "definition": "do\ndoing\nis made"
        },
        {
          "word": "ari",
          "definition": "present perfect verb form"
        },
        {
          "word": "gara.",
          "definition": "are\nare (izan)"
        }
      ],
      "chips": [
        "We",
        "are",
        "doing",
        "it",
        "now",
        "or",
        "in",
        "on",
        "one"
      ],
      "solutions": [
        [
          "We",
          "are",
          "doing",
          "it",
          "now"
        ]
      ],
      "formattedSolution": "We are doing it now",
      "id": "79d4879add75",
      "priority": 2,
      "group": "b72ffbe875eb"
    },
    {
      "type": "options",
      "formInTargetLanguage": "Zer zuek egiten ari zarete?",
      "meaningInSourceLanguage": "What are you all doing?",
      "id": "63ee57dcec60",
      "priority": 0,
      "group": "e4354a9489d9"
    },
    {
      "type": "chips",
      "translatesToSourceLanguage": false,
      "phrase": [
        {
          "word": "What",
          "definition": "zer"
        },
        {
          "word": "are",
          "definition": "daude\ndaude (egon)\ndaude (izan)\ndira\ndira (izan)\ngara\ngara (izan)\ngare\ngaude (egon)\nzara\nzara (izan)\nzarete\nzarete (izan)\nzaude  (egon)\nzaude (egon)\nzaudete (egon)"
        },
        {
          "word": "you",
          "definition": "zu\nzuek"
        },
        {
          "word": "all",
          "definition": "part of plural form of you\npart of you plural, you all"
        },
        {
          "word": "doing?",
          "definition": "egiten"
        }
      ],
      "chips": [
        "Zer",
        "zuek",
        "egiten",
        "ari",
        "zarete",
        "ere",
        "zen",
        "zer",
        "ate"
      ],
      "solutions": [
        [
          "Zer",
          "zuek",
          "egiten",
          "ari",
          "zarete"
        ],
        [
          "Zer",
          "egiten",
          "ari",
          "zarete"
        ]
      ],
      "formattedSolution": "Zer zuek egiten ari zarete?",
      "id": "d8481269dcbb",
      "priority": 2,
      "group": "e4354a9489d9"
    },
    {
      "type": "chips",
      "translatesToSourceLanguage": true,
      "phrase": [
        {
          "word": "Zer",
          "definition": "what"
        },
        {
          "word": "zuek",
          "definition": "you\nyou all\nyou'll\nyou(plural)\nyour (plural)\nyour/you (plural)"
        },
        {
          "word": "egiten",
          "definition": "do\ndoing\nis made"
        },
        {
          "word": "ari",
          "definition": "present perfect verb form"
        },
        {
          "word": "zarete?",
          "definition": "are\ntheir"
        }
      ],
      "chips": [
        "What",
        "are",
        "you",
        "all",
        "doing",
        "an",
        "dog",
        "at",
        "hot"
      ],
      "solutions": [
        [
          "What",
          "are",
          "you",
          "all",
          "doing"
        ],
        [
          "TWhat",
          "are",
          "you",
          "plural",
          "doing"
        ],
        [
          "TWhat",
          "are",
          "you'll",
          "doing"
        ],
        [
          "TWhat",
          "are",
          "you",
          "doing"
        ]
      ],
      "formattedSolution": "What are you all doing?",
      "id": "85896ef28e36",
      "priority": 2,
      "group": "e4354a9489d9"
    },
    {
      "type": "options",
      "formInTargetLanguage": "Irakasleak eskuz egiten ari dira.",
      "meaningInSourceLanguage": "The teachers are doing it by hand.",
      "id": "f75a0bc302f9",
      "priority": 0,
      "group": "8e3daef25feb"
    },
    {
      "type": "chips",
      "translatesToSourceLanguage": false,
      "phrase": [
        {
          "word": "The",
          "definition": "-a"
        },
        {
          "word": "teachers",
          "definition": "irakasleak\nirakasleen (of the teachers)"
        },
        {
          "word": "are",
          "definition": "daude\ndaude (egon)\ndaude (izan)\ndira\ndira (izan)\ngara\ngara (izan)\ngare\ngaude (egon)\nzara\nzara (izan)\nzarete\nzarete (izan)\nzaude  (egon)\nzaude (egon)\nzaudete (egon)"
        },
        {
          "word": "doing",
          "definition": "egiten"
        },
        {
          "word": "it",
          "definition": "hura"
        },
        {
          "word": "by",
          "definition": "NORTAZ case\nNortaz or instrumental case (by foot)"
        },
        {
          "word": "hand.",
          "definition": "esku"
        }
      ],
      "chips": [
        "Irakasleak",
        "eskuz",
        "egiten",
        "ari",
        "dira",
        "ere",
        "gara",
        "aita",
        "aste"
      ],
      "solutions": [
        [
          "Irakasleak",
          "eskuz",
          "egiten",
          "ari",
          "dira"
        ]
      ],
      "formattedSolution": "Irakasleak eskuz egiten ari dira.",
      "id": "f000382a0edf",
      "priority": 2,
      "group": "8e3daef25feb"
    },
    {
      "type": "chips",
      "translatesToSourceLanguage": true,
      "phrase": [
        {
          "word": "Irakasleak",
          "definition": "teachers"
        },
        {
          "word": "eskuz",
          "definition": "by hand"
        },
        {
          "word": "egiten",
          "definition": "do\ndoing\nis made"
        },
        {
          "word": "ari",
          "definition": "present perfect verb form"
        },
        {
          "word": "dira.",
          "definition": "are\nare (izan)"
        }
      ],
      "chips": [
        "The",
        "teachers",
        "are",
        "doing",
        "it",
        "by",
        "hand",
        "an",
        "ate",
        "one",
        "the",
        "and",
        "in"
      ],
      "solutions": [
        [
          "The",
          "teachers",
          "are",
          "doing",
          "it",
          "by",
          "hand"
        ]
      ],
      "formattedSolution": "The teachers are doing it by hand.",
      "id": "743c96a05ae8",
      "priority": 2,
      "group": "8e3daef25feb"
    },
    {
      "type": "cards",
      "pictures": [
        "nothing.jpg",
        "nothing.jpg",
        "nothing.jpg"
      ],
      "formInTargetLanguage": "jostatzen",
      "meaningInSourceLanguage": "playing",
      "id": "e5230bee8f18",
      "priority": 0,
      "group": "3dc75722b6ae"
    },
    {
      "type": "shortInput",
      "pictures": [
        "nothing.jpg",
        "nothing.jpg",
        "nothing.jpg"
      ],
      "formInTargetLanguage": [
        "jostatzen"
      ],
      "phrase": [
        {
          "word": "playing",
          "definition": "jolasten\njostatzen\njotzea"
        }
      ],
      "id": "a67789919b33",
      "priority": 1,
      "group": "3dc75722b6ae"
    },
    {
      "type": "cards",
      "pictures": [
        "nothing.jpg",
        "nothing.jpg",
        "nothing.jpg"
      ],
      "formInTargetLanguage": "laguntzen",
      "meaningInSourceLanguage": "helping",
      "id": "bb80167d9507",
      "priority": 0,
      "group": "4398da0fc95d"
    },
    {
      "type": "shortInput",
      "pictures": [
        "nothing.jpg",
        "nothing.jpg",
        "nothing.jpg"
      ],
      "formInTargetLanguage": [
        "laguntzen"
      ],
      "phrase": [
        {
          "word": "helping",
          "definition": "laguntzen"
        }
      ],
      "id": "ed1e92e641d7",
      "priority": 1,
      "group": "4398da0fc95d"
    },
    {
      "type": "cards",
      "pictures": [
        "nothing.jpg",
        "nothing.jpg",
        "nothing.jpg"
      ],
      "formInTargetLanguage": "dantzan",
      "meaningInSourceLanguage": "dancing",
      "id": "5b21cab95866",
      "priority": 0,
      "group": "4c5db96c3648"
    },
    {
      "type": "shortInput",
      "pictures": [
        "nothing.jpg",
        "nothing.jpg",
        "nothing.jpg"
      ],
      "formInTargetLanguage": [
        "dantzan"
      ],
      "phrase": [
        {
          "word": "dancing",
          "definition": "dantzan\ndantzatzea"
        }
      ],
      "id": "d67453782c61",
      "priority": 1,
      "group": "4c5db96c3648"
    },
    {
      "type": "cards",
      "pictures": [
        "nothing.jpg",
        "nothing.jpg",
        "nothing.jpg"
      ],
      "formInTargetLanguage": "hitz",
      "meaningInSourceLanguage": "speak",
      "id": "8887f53974ed",
      "priority": 0,
      "group": "360f482da02d"
    },
    {
      "type": "shortInput",
      "pictures": [
        "nothing.jpg",
        "nothing.jpg",
        "nothing.jpg"
      ],
      "formInTargetLanguage": [
        "hitz"
      ],
      "phrase": [
        {
          "word": "speak",
          "definition": "hitz\nhitz egin\nhitz egin (past)\nhitz egingo (future)\nhitz egiten (present)"
        }
      ],
      "id": "73cc17316f99",
      "priority": 1,
      "group": "360f482da02d"
    },
    {
      "type": "cards",
      "pictures": [
        "nothing.jpg",
        "nothing.jpg",
        "nothing.jpg"
      ],
      "formInTargetLanguage": "idazten",
      "meaningInSourceLanguage": "writing",
      "id": "1006e5586474",
      "priority": 0,
      "group": "1e2149fcac78"
    },
    {
      "type": "shortInput",
      "pictures": [
        "nothing.jpg",
        "nothing.jpg",
        "nothing.jpg"
      ],
      "formInTargetLanguage": [
        "idazten"
      ],
      "phrase": [
        {
          "word": "writing",
          "definition": "idaztea\nidazten"
        }
      ],
      "id": "627cfea12148",
      "priority": 1,
      "group": "1e2149fcac78"
    },
    {
      "type": "cards",
      "pictures": [
        "nothing.jpg",
        "nothing.jpg",
        "nothing.jpg"
      ],
      "formInTargetLanguage": "egiten",
      "meaningInSourceLanguage": "doing",
      "id": "c56cb7fdabe1",
      "priority": 0,
      "group": "ed81500848cd"
    },
    {
      "type": "shortInput",
      "pictures": [
        "nothing.jpg",
        "nothing.jpg",
        "nothing.jpg"
      ],
      "formInTargetLanguage": [
        "egiten"
      ],
      "phrase": [
        {
          "word": "doing",
          "definition": "egiten"
        }
      ],
      "id": "dbcdf4ddc558",
      "priority": 1,
      "group": "ed81500848cd"
    },
    {
      "type": "cards",
      "pictures": [
        "nothing.jpg",
        "nothing.jpg",
        "nothing.jpg"
      ],
      "formInTargetLanguage": "joko",
      "meaningInSourceLanguage": "game",
      "id": "4018016b8e96",
      "priority": 0,
      "group": "074286b813a0"
    },
    {
      "type": "shortInput",
      "pictures": [
        "nothing.jpg",
        "nothing.jpg",
        "nothing.jpg"
      ],
      "formInTargetLanguage": [
        "joko"
      ],
      "phrase": [
        {
          "word": "game",
          "definition": "joko"
        }
      ],
      "id": "e4c5fffde4ae",
      "priority": 1,
      "group": "074286b813a0"
    }
  ]
}