{
  "id": "89c9dac07184",
  "levels": 6,
  "challenges": [
    {
      "type": "options",
      "formInTargetLanguage": "Biratu ezkerrera izkinan.",
      "meaningInSourceLanguage": "Turn left at the corner",
      "id": "8a271fb0da68",
      "priority": 0,
      "group": "8dcf147824c9"
    },
    {
      "type": "chips",
      "translatesToSourceLanguage": false,
      "phrase": [
        {
          "word": "Turn",
          "definition": "biratu"
        },
        {
          "word": "left",
          "definition": "atera\nezker\nezker (direction)\ngelditen (is left) (verb)\ngelditu (was left) (verb)\ngeldituko (will be left) (verb)"
        },
        {
          "word": "at",
          "definition": "not translated, part of insessive case"
        },
        {
          "word": "the",
          "definition": "-a"
        },
        {
          "word": "corner",
          "definition": "izkina"
        }
      ],
      "chips": [
        "Biratu",
        "ezkerrera",
        "izkinan",
        "ziren",
        "izena"
      ],
      "solutions": [
        [
          "Biratu",
          "ezkerrera",
          "izkinan"
        ]
      ],
      "formattedSolution": "Biratu ezkerrera izkinan.",
      "id": "868814ea8a37",
      "priority": 2,
      "group": "8dcf147824c9"
    },
    {
      "type": "chips",
      "translatesToSourceLanguage": true,
      "phrase": [
        {
          "word": "Biratu",
          "definition": "turn"
        },
        {
          "word": "ezkerrera",
          "definition": "to the left"
        },
        {
          "word": "izkinan.",
          "definition": "at the corner"
        }
      ],
      "chips": [
        "Turn",
        "left",
        "at",
        "the",
        "corner",
        "are",
        "her",
        "one",
        "He"
      ],
      "solutions": [
        [
          "Turn",
          "left",
          "at",
          "the",
          "corner"
        ]
      ],
      "formattedSolution": "Turn left at the corner",
      "id": "9da488551e8c",
      "priority": 2,
      "group": "8dcf147824c9"
    },
    {
      "type": "options",
      "formInTargetLanguage": "Biratu eskuinera izkinan.",
      "meaningInSourceLanguage": "Turn right at the corner.",
      "id": "fc6259a91c65",
      "priority": 0,
      "group": "eda211b310b0"
    },
    {
      "type": "chips",
      "translatesToSourceLanguage": false,
      "phrase": [
        {
          "word": "Turn",
          "definition": "biratu"
        },
        {
          "word": "right",
          "definition": "eskuin"
        },
        {
          "word": "at",
          "definition": "not translated, part of insessive case"
        },
        {
          "word": "the",
          "definition": "-a"
        },
        {
          "word": "corner.",
          "definition": "izkina"
        }
      ],
      "chips": [
        "Biratu",
        "eskuinera",
        "izkinan",
        "zikina",
        "dira"
      ],
      "solutions": [
        [
          "Biratu",
          "eskuinera",
          "izkinan"
        ]
      ],
      "formattedSolution": "Biratu eskuinera izkinan.",
      "id": "69fb92bf8014",
      "priority": 2,
      "group": "eda211b310b0"
    },
    {
      "type": "chips",
      "translatesToSourceLanguage": true,
      "phrase": [
        {
          "word": "Biratu",
          "definition": "turn"
        },
        {
          "word": "eskuinera",
          "definition": "to the right"
        },
        {
          "word": "izkinan.",
          "definition": "at the corner"
        }
      ],
      "chips": [
        "Turn",
        "right",
        "at",
        "the",
        "corner",
        "are",
        "The",
        "one",
        "She"
      ],
      "solutions": [
        [
          "Turn",
          "right",
          "at",
          "the",
          "corner"
        ]
      ],
      "formattedSolution": "Turn right at the corner.",
      "id": "4a1386e9cead",
      "priority": 2,
      "group": "eda211b310b0"
    },
    {
      "type": "options",
      "formInTargetLanguage": "Eskola izkinan dago.",
      "meaningInSourceLanguage": "The school is on the corner.",
      "id": "3e49a9e968f9",
      "priority": 0,
      "group": "2176a01373e1"
    },
    {
      "type": "chips",
      "translatesToSourceLanguage": false,
      "phrase": [
        {
          "word": "The",
          "definition": "-a"
        },
        {
          "word": "school",
          "definition": "eskola"
        },
        {
          "word": "is",
          "definition": "da\nda (izan)\ndago\ndago (egon)"
        },
        {
          "word": "on",
          "definition": "Inessive case\nNON case, not a word\ngainean\npart of phrase, not translated"
        },
        {
          "word": "the",
          "definition": "-a"
        },
        {
          "word": "corner.",
          "definition": "izkina"
        }
      ],
      "chips": [
        "Eskola",
        "izkinan",
        "dago",
        "eskola",
        "nago"
      ],
      "solutions": [
        [
          "Eskola",
          "izkinan",
          "dago"
        ]
      ],
      "formattedSolution": "Eskola izkinan dago.",
      "id": "b456bc32d71b",
      "priority": 2,
      "group": "2176a01373e1"
    },
    {
      "type": "chips",
      "translatesToSourceLanguage": true,
      "phrase": [
        {
          "word": "Eskola",
          "definition": "school"
        },
        {
          "word": "izkinan",
          "definition": "at the corner"
        },
        {
          "word": "dago.",
          "definition": "he is (egon)\nis\nit is (egon)\nshe is (egon)"
        }
      ],
      "chips": [
        "The",
        "school",
        "is",
        "on",
        "the",
        "corner",
        "one",
        "She",
        "or",
        "son",
        "He"
      ],
      "solutions": [
        [
          "The",
          "school",
          "is",
          "on",
          "the",
          "corner"
        ]
      ],
      "formattedSolution": "The school is on the corner.",
      "id": "856752510c6a",
      "priority": 2,
      "group": "2176a01373e1"
    },
    {
      "type": "options",
      "formInTargetLanguage": "Gertu hemen dago taberna bat?",
      "meaningInSourceLanguage": "Is there a bar near here?",
      "id": "87ff09e998f4",
      "priority": 0,
      "group": "bd1189a96fff"
    },
    {
      "type": "chips",
      "translatesToSourceLanguage": false,
      "phrase": [
        {
          "word": "Is",
          "definition": "da\nda (izan)\ndago\ndago (egon)"
        },
        {
          "word": "there",
          "definition": "han\nhor"
        },
        {
          "word": "a",
          "definition": "-a"
        },
        {
          "word": "bar",
          "definition": "taberna"
        },
        {
          "word": "near",
          "definition": "gertu"
        },
        {
          "word": "here?",
          "definition": "hemen"
        }
      ],
      "chips": [
        "Gertu",
        "hemen",
        "dago",
        "taberna",
        "bat",
        "bere",
        "bero",
        "ere",
        "Gero"
      ],
      "solutions": [
        [
          "Gertu",
          "hemen",
          "dago",
          "taberna",
          "bat"
        ]
      ],
      "formattedSolution": "Gertu hemen dago taberna bat?",
      "id": "9938069ade6b",
      "priority": 2,
      "group": "bd1189a96fff"
    },
    {
      "type": "chips",
      "translatesToSourceLanguage": true,
      "phrase": [
        {
          "word": "Gertu",
          "definition": "near"
        },
        {
          "word": "hemen",
          "definition": "here"
        },
        {
          "word": "dago",
          "definition": "he is (egon)\nis\nit is (egon)\nshe is (egon)"
        },
        {
          "word": "taberna",
          "definition": "bar\npub"
        },
        {
          "word": "bat?",
          "definition": "one"
        }
      ],
      "chips": [
        "Is",
        "there",
        "a",
        "bar",
        "near",
        "here",
        "her",
        "are",
        "car",
        "hee",
        "wer"
      ],
      "solutions": [
        [
          "Is",
          "there",
          "a",
          "bar",
          "near",
          "here"
        ],
        [
          "Is",
          "there",
          "a",
          "tavern",
          "near",
          "here"
        ],
        [
          "Is",
          "there",
          "a",
          "pub",
          "near",
          "here"
        ]
      ],
      "formattedSolution": "Is there a bar near here?",
      "id": "2feed7de0bdb",
      "priority": 2,
      "group": "bd1189a96fff"
    },
    {
      "type": "options",
      "formInTargetLanguage": "Joan zuzen bost kale eta gero ezkerrera biratu.",
      "meaningInSourceLanguage": "Go straight five streets then turn left.",
      "id": "357242d56970",
      "priority": 0,
      "group": "83e917c2aae8"
    },
    {
      "type": "chips",
      "translatesToSourceLanguage": false,
      "phrase": [
        {
          "word": "Go",
          "definition": "joan\njoan (command)\njoango (future)\njoateko (in order to go)\njoaten\njoaten(present)"
        },
        {
          "word": "straight",
          "definition": "zuzen"
        },
        {
          "word": "five",
          "definition": "bost"
        },
        {
          "word": "streets",
          "definition": "kaleak"
        },
        {
          "word": "then",
          "definition": "gero"
        },
        {
          "word": "turn",
          "definition": "biratu"
        },
        {
          "word": "left.",
          "definition": "atera\nezker\nezker (direction)\ngelditen (is left) (verb)\ngelditu (was left) (verb)\ngeldituko (will be left) (verb)"
        }
      ],
      "chips": [
        "Joan",
        "zuzen",
        "bost",
        "kale",
        "eta",
        "gero",
        "ezkerrera",
        "biratu",
        "bere",
        "ere",
        "zara",
        "bero",
        "bat",
        "gara",
        "ezer"
      ],
      "solutions": [
        [
          "Joan",
          "zuzen",
          "bost",
          "kale",
          "eta",
          "gero",
          "ezkerrera",
          "biratu"
        ]
      ],
      "formattedSolution": "Joan zuzen bost kale eta gero ezkerrera biratu.",
      "id": "e1734442c888",
      "priority": 2,
      "group": "83e917c2aae8"
    },
    {
      "type": "chips",
      "translatesToSourceLanguage": true,
      "phrase": [
        {
          "word": "Joan",
          "definition": "go\ngo (command)\nwent\nwent (+izan)"
        },
        {
          "word": "zuzen",
          "definition": "straight"
        },
        {
          "word": "bost",
          "definition": "five"
        },
        {
          "word": "kale",
          "definition": "street"
        },
        {
          "word": "eta",
          "definition": "and"
        },
        {
          "word": "gero",
          "definition": "after\nlater\nthen"
        },
        {
          "word": "ezkerrera",
          "definition": "to the left"
        },
        {
          "word": "biratu.",
          "definition": "turn"
        }
      ],
      "chips": [
        "Go",
        "straight",
        "five",
        "streets",
        "then",
        "turn",
        "left",
        "the",
        "tree",
        "ten",
        "tea",
        "thin",
        "time"
      ],
      "solutions": [
        [
          "Go",
          "straight",
          "five",
          "streets",
          "then",
          "turn",
          "left"
        ]
      ],
      "formattedSolution": "Go straight five streets then turn left.",
      "id": "eb42ebd5815d",
      "priority": 2,
      "group": "83e917c2aae8"
    },
    {
      "type": "options",
      "formInTargetLanguage": "Biratu eskuinera eta joan bi kale.",
      "meaningInSourceLanguage": "Turn right then go two streets.",
      "id": "51767f690c5f",
      "priority": 0,
      "group": "537cd4907efa"
    },
    {
      "type": "chips",
      "translatesToSourceLanguage": false,
      "phrase": [
        {
          "word": "Turn",
          "definition": "biratu"
        },
        {
          "word": "right",
          "definition": "eskuin"
        },
        {
          "word": "then",
          "definition": "gero"
        },
        {
          "word": "go",
          "definition": "joan\njoan (command)\njoango (future)\njoateko (in order to go)\njoaten\njoaten(present)"
        },
        {
          "word": "two",
          "definition": "bi"
        },
        {
          "word": "streets.",
          "definition": "kaleak"
        }
      ],
      "chips": [
        "Biratu",
        "eskuinera",
        "eta",
        "joan",
        "bi",
        "kale",
        "da",
        "dira",
        "Bai",
        "noa",
        "jan"
      ],
      "solutions": [
        [
          "Biratu",
          "eskuinera",
          "eta",
          "joan",
          "bi",
          "kale"
        ]
      ],
      "formattedSolution": "Biratu eskuinera eta joan bi kale.",
      "id": "f64325bc2791",
      "priority": 2,
      "group": "537cd4907efa"
    },
    {
      "type": "chips",
      "translatesToSourceLanguage": true,
      "phrase": [
        {
          "word": "Biratu",
          "definition": "turn"
        },
        {
          "word": "eskuinera",
          "definition": "to the right"
        },
        {
          "word": "eta",
          "definition": "and"
        },
        {
          "word": "joan",
          "definition": "go\ngo (command)\nwent\nwent (+izan)"
        },
        {
          "word": "bi",
          "definition": "two"
        },
        {
          "word": "kale.",
          "definition": "street"
        }
      ],
      "chips": [
        "Turn",
        "right",
        "then",
        "go",
        "two",
        "streets",
        "the",
        "ten",
        "to",
        "tree",
        "turn"
      ],
      "solutions": [
        [
          "Turn",
          "right",
          "then",
          "go",
          "two",
          "streets"
        ]
      ],
      "formattedSolution": "Turn right then go two streets.",
      "id": "472cb1aeb35c",
      "priority": 2,
      "group": "537cd4907efa"
    },
    {
      "type": "options",
      "formInTargetLanguage": "Pasa merkatutik.",
      "meaningInSourceLanguage": "Go past the market.",
      "id": "8ec38216ee30",
      "priority": 0,
      "group": "3aadde37a069"
    },
    {
      "type": "chips",
      "translatesToSourceLanguage": false,
      "phrase": [
        {
          "word": "Go",
          "definition": "joan\njoan (command)\njoango (future)\njoateko (in order to go)\njoaten\njoaten(present)"
        },
        {
          "word": "past",
          "definition": "pasa (part of command go past)"
        },
        {
          "word": "the",
          "definition": "-a"
        },
        {
          "word": "market.",
          "definition": "merkatu"
        }
      ],
      "chips": [
        "Pasa",
        "merkatutik",
        "katuak",
        "katua"
      ],
      "solutions": [
        [
          "Pasa",
          "merkatutik"
        ]
      ],
      "formattedSolution": "Pasa merkatutik.",
      "id": "4861a16ac030",
      "priority": 2,
      "group": "3aadde37a069"
    },
    {
      "type": "chips",
      "translatesToSourceLanguage": true,
      "phrase": [
        {
          "word": "Pasa",
          "definition": "pass"
        },
        {
          "word": "merkatutik.",
          "definition": "from the market\nfromt the market"
        }
      ],
      "chips": [
        "Go",
        "past",
        "the",
        "market",
        "are",
        "at",
        "me"
      ],
      "solutions": [
        [
          "Go",
          "past",
          "the",
          "market"
        ],
        [
          "Pass",
          "the",
          "market"
        ]
      ],
      "formattedSolution": "Go past the market.",
      "id": "fa7bd7da13b6",
      "priority": 2,
      "group": "3aadde37a069"
    },
    {
      "type": "options",
      "formInTargetLanguage": "Pasa zinema eta ezkerrera biratu.",
      "meaningInSourceLanguage": "Go past the movie theater and turn left.",
      "id": "a0052c2b5967",
      "priority": 0,
      "group": "c1886c2ddeb1"
    },
    {
      "type": "chips",
      "translatesToSourceLanguage": false,
      "phrase": [
        {
          "word": "Go",
          "definition": "joan\njoan (command)\njoango (future)\njoateko (in order to go)\njoaten\njoaten(present)"
        },
        {
          "word": "past",
          "definition": "pasa (part of command go past)"
        },
        {
          "word": "the",
          "definition": "-a"
        },
        {
          "word": "movie",
          "definition": "filma"
        },
        {
          "word": "theater",
          "definition": "antzerkia\nzinema"
        },
        {
          "word": "and",
          "definition": "eta"
        },
        {
          "word": "turn",
          "definition": "biratu"
        },
        {
          "word": "left.",
          "definition": "atera\nezker\nezker (direction)\ngelditen (is left) (verb)\ngelditu (was left) (verb)\ngeldituko (will be left) (verb)"
        }
      ],
      "chips": [
        "Pasa",
        "zinema",
        "eta",
        "ezkerrera",
        "biratu",
        "zara",
        "dira",
        "berea",
        "neba"
      ],
      "solutions": [
        [
          "Pasa",
          "zinema",
          "eta",
          "ezkerrera",
          "biratu"
        ]
      ],
      "formattedSolution": "Pasa zinema eta ezkerrera biratu.",
      "id": "494362204518",
      "priority": 2,
      "group": "c1886c2ddeb1"
    },
    {
      "type": "chips",
      "translatesToSourceLanguage": true,
      "phrase": [
        {
          "word": "Pasa",
          "definition": "pass"
        },
        {
          "word": "zinema",
          "definition": "cinema\nmovie theater"
        },
        {
          "word": "eta",
          "definition": "and"
        },
        {
          "word": "ezkerrera",
          "definition": "to the left"
        },
        {
          "word": "biratu.",
          "definition": "turn"
        }
      ],
      "chips": [
        "Go",
        "past",
        "the",
        "movie",
        "theater",
        "and",
        "turn",
        "left",
        "are",
        "at",
        "ate",
        "eat",
        "me",
        "hee",
        "an"
      ],
      "solutions": [
        [
          "Go",
          "past",
          "the",
          "movie",
          "theater",
          "and",
          "turn",
          "left"
        ],
        [
          "Pass",
          "the",
          "movie",
          "theater",
          "and",
          "turn",
          "left"
        ],
        [
          "Go",
          "past",
          "the",
          "cinema",
          "and",
          "then",
          "turn",
          "left"
        ],
        [
          "Pass",
          "the",
          "cinema",
          "and",
          "then",
          "turn",
          "left"
        ]
      ],
      "formattedSolution": "Go past the movie theater and turn left.",
      "id": "d41f0b57d853",
      "priority": 2,
      "group": "c1886c2ddeb1"
    },
    {
      "type": "options",
      "formInTargetLanguage": "Hondartza hemendik bost kilometrora dago.",
      "meaningInSourceLanguage": "The beach is five kilometers from here.",
      "id": "5441490729a1",
      "priority": 0,
      "group": "50cd80d3c8fa"
    },
    {
      "type": "chips",
      "translatesToSourceLanguage": false,
      "phrase": [
        {
          "word": "The",
          "definition": "-a"
        },
        {
          "word": "beach",
          "definition": "hondartza"
        },
        {
          "word": "is",
          "definition": "da\nda (izan)\ndago\ndago (egon)"
        },
        {
          "word": "five",
          "definition": "bost"
        },
        {
          "word": "kilometers",
          "definition": "kilometroak"
        },
        {
          "word": "from",
          "definition": "part of Ablative case"
        },
        {
          "word": "here.",
          "definition": "hemen"
        }
      ],
      "chips": [
        "Hondartza",
        "hemendik",
        "bost",
        "kilometrora",
        "dago",
        "dira",
        "ondo",
        "Hontz",
        "hontza"
      ],
      "solutions": [
        [
          "Hondartza",
          "hemendik",
          "bost",
          "kilometrora",
          "dago"
        ]
      ],
      "formattedSolution": "Hondartza hemendik bost kilometrora dago.",
      "id": "f3c5272ffcc7",
      "priority": 2,
      "group": "50cd80d3c8fa"
    },
    {
      "type": "chips",
      "translatesToSourceLanguage": true,
      "phrase": [
        {
          "word": "Hondartza",
          "definition": "beach"
        },
        {
          "word": "hemendik",
          "definition": "from here"
        },
        {
          "word": "bost",
          "definition": "five"
        },
        {
          "word": "kilometrora",
          "definition": "kilometer (NORA case)"
        },
        {
          "word": "dago.",
          "definition": "he is (egon)\nis\nit is (egon)\nshe is (egon)"
        }
      ],
      "chips": [
        "The",
        "beach",
        "is",
        "five",
        "kilometers",
        "from",
        "here",
        "hee",
        "ice",
        "are",
        "me",
        "fine",
        "See"
      ],
      "solutions": [
        [
          "The",
          "beach",
          "is",
          "five",
          "kilometers",
          "from",
          "here"
        ]
      ],
      "formattedSolution": "The beach is five kilometers from here.",
      "id": "64ad4431befa",
      "priority": 2,
      "group": "50cd80d3c8fa"
    },
    {
      "type": "options",
      "formInTargetLanguage": "Donostia Irunetik hogeita hiru kilometrora dago.",
      "meaningInSourceLanguage": "San Sebastian is twenty three kilometers from Irun.",
      "id": "e688098407ea",
      "priority": 0,
      "group": "551f13b44406"
    },
    {
      "type": "chips",
      "translatesToSourceLanguage": false,
      "phrase": [
        {
          "word": "San",
          "definition": "santua (saint)"
        },
        {
          "word": "Sebastian",
          "definition": "Saint Sebastian\nSebastian"
        },
        {
          "word": "is",
          "definition": "da\nda (izan)\ndago\ndago (egon)"
        },
        {
          "word": "twenty",
          "definition": "hogei"
        },
        {
          "word": "three",
          "definition": "hiru"
        },
        {
          "word": "kilometers",
          "definition": "kilometroak"
        },
        {
          "word": "from",
          "definition": "part of Ablative case"
        },
        {
          "word": "Irun.",
          "definition": "Irun\nIrun (city)"
        }
      ],
      "chips": [
        "Donostia",
        "Irunetik",
        "hogeita",
        "hiru",
        "kilometrora",
        "dago",
        "horia",
        "eta",
        "hori",
        "aita",
        "hona"
      ],
      "solutions": [
        [
          "Donostia",
          "Irunetik",
          "hogeita",
          "hiru",
          "kilometrora",
          "dago"
        ]
      ],
      "formattedSolution": "Donostia Irunetik hogeita hiru kilometrora dago.",
      "id": "b496377ed10b",
      "priority": 2,
      "group": "551f13b44406"
    },
    {
      "type": "chips",
      "translatesToSourceLanguage": true,
      "phrase": [
        {
          "word": "Donostia",
          "definition": "San Sebastian\nSan Sebastian (city)"
        },
        {
          "word": "Irunetik",
          "definition": "from Irun"
        },
        {
          "word": "hogeita",
          "definition": "twenty"
        },
        {
          "word": "hiru",
          "definition": "three"
        },
        {
          "word": "kilometrora",
          "definition": "kilometer (NORA case)"
        },
        {
          "word": "dago.",
          "definition": "he is (egon)\nis\nit is (egon)\nshe is (egon)"
        }
      ],
      "chips": [
        "San",
        "Sebastian",
        "is",
        "twenty",
        "three",
        "kilometers",
        "from",
        "Irun",
        "ten",
        "men",
        "tree",
        "then",
        "ran",
        "See",
        "thin"
      ],
      "solutions": [
        [
          "San",
          "Sebastian",
          "is",
          "twenty",
          "three",
          "kilometers",
          "from",
          "Irun"
        ]
      ],
      "formattedSolution": "San Sebastian is twenty three kilometers from Irun.",
      "id": "10d643d05329",
      "priority": 2,
      "group": "551f13b44406"
    },
    {
      "type": "options",
      "formInTargetLanguage": "Kilometro bat mila metro da.",
      "meaningInSourceLanguage": "A kilometer is one thousand meters.",
      "id": "4a9bf4b680e4",
      "priority": 0,
      "group": "e907a2bac07d"
    },
    {
      "type": "chips",
      "translatesToSourceLanguage": false,
      "phrase": [
        {
          "word": "A",
          "definition": "-a"
        },
        {
          "word": "kilometer",
          "definition": "kilometro"
        },
        {
          "word": "is",
          "definition": "da\nda (izan)\ndago\ndago (egon)"
        },
        {
          "word": "one",
          "definition": "bat"
        },
        {
          "word": "thousand",
          "definition": "mila"
        },
        {
          "word": "meters.",
          "definition": "metroak"
        }
      ],
      "chips": [
        "Kilometro",
        "bat",
        "mila",
        "metro",
        "da",
        "eta",
        "dira",
        "edo",
        "Bat"
      ],
      "solutions": [
        [
          "Kilometro",
          "bat",
          "mila",
          "metro",
          "da"
        ]
      ],
      "formattedSolution": "Kilometro bat mila metro da.",
      "id": "191fc2f74e15",
      "priority": 2,
      "group": "e907a2bac07d"
    },
    {
      "type": "chips",
      "translatesToSourceLanguage": true,
      "phrase": [
        {
          "word": "Kilometro",
          "definition": "kilometer"
        },
        {
          "word": "bat",
          "definition": "one"
        },
        {
          "word": "mila",
          "definition": "one thousand\nthousand"
        },
        {
          "word": "metro",
          "definition": "meter"
        },
        {
          "word": "da.",
          "definition": "he is (izan)\nis\nit is (izan)\nshe is (izan)"
        }
      ],
      "chips": [
        "A",
        "kilometer",
        "is",
        "one",
        "thousand",
        "meters",
        "or",
        "me",
        "on",
        "it",
        "hee"
      ],
      "solutions": [
        [
          "A",
          "kilometer",
          "is",
          "one",
          "thousand",
          "meters"
        ]
      ],
      "formattedSolution": "A kilometer is one thousand meters.",
      "id": "93c7e4c3c0e5",
      "priority": 2,
      "group": "e907a2bac07d"
    },
    {
      "type": "options",
      "formInTargetLanguage": "Joan bostehun metro eta ezkerrera biratu.",
      "meaningInSourceLanguage": "Go five hundred meters and turn left.",
      "id": "c243b00636d7",
      "priority": 0,
      "group": "125ffe2eb349"
    },
    {
      "type": "chips",
      "translatesToSourceLanguage": false,
      "phrase": [
        {
          "word": "Go",
          "definition": "joan\njoan (command)\njoango (future)\njoateko (in order to go)\njoaten\njoaten(present)"
        },
        {
          "word": "five",
          "definition": "bost"
        },
        {
          "word": "hundred",
          "definition": "ehun"
        },
        {
          "word": "meters",
          "definition": "metroak"
        },
        {
          "word": "and",
          "definition": "eta"
        },
        {
          "word": "turn",
          "definition": "biratu"
        },
        {
          "word": "left.",
          "definition": "atera\nezker\nezker (direction)\ngelditen (is left) (verb)\ngelditu (was left) (verb)\ngeldituko (will be left) (verb)"
        }
      ],
      "chips": [
        "Joan",
        "bostehun",
        "metro",
        "eta",
        "ezkerrera",
        "biratu",
        "bere",
        "beroa",
        "bero",
        "ere",
        "berea"
      ],
      "solutions": [
        [
          "Joan",
          "bostehun",
          "metro",
          "eta",
          "ezkerrera",
          "biratu"
        ],
        [
          "Bostehun",
          "metro",
          "joan",
          "eta",
          "ezkerrera",
          "biratu"
        ]
      ],
      "formattedSolution": "Joan bostehun metro eta ezkerrera biratu.",
      "id": "06efadf8bf92",
      "priority": 2,
      "group": "125ffe2eb349"
    },
    {
      "type": "chips",
      "translatesToSourceLanguage": true,
      "phrase": [
        {
          "word": "Joan",
          "definition": "go\ngo (command)\nwent\nwent (+izan)"
        },
        {
          "word": "bostehun",
          "definition": "Five hundred"
        },
        {
          "word": "metro",
          "definition": "meter"
        },
        {
          "word": "eta",
          "definition": "and"
        },
        {
          "word": "ezkerrera",
          "definition": "to the left"
        },
        {
          "word": "biratu.",
          "definition": "turn"
        }
      ],
      "chips": [
        "Go",
        "five",
        "hundred",
        "meters",
        "and",
        "turn",
        "left",
        "are",
        "me",
        "hee",
        "red",
        "her",
        "here"
      ],
      "solutions": [
        [
          "Go",
          "five",
          "hundred",
          "meters",
          "and",
          "turn",
          "left"
        ]
      ],
      "formattedSolution": "Go five hundred meters and turn left.",
      "id": "c47ec0af116a",
      "priority": 2,
      "group": "125ffe2eb349"
    },
    {
      "type": "options",
      "formInTargetLanguage": "Biratu ezkerrera semaforoan.",
      "meaningInSourceLanguage": "Turn left at the traffic light.",
      "id": "00f09b7ff6cc",
      "priority": 0,
      "group": "4c7acabc60b6"
    },
    {
      "type": "chips",
      "translatesToSourceLanguage": false,
      "phrase": [
        {
          "word": "Turn",
          "definition": "biratu"
        },
        {
          "word": "left",
          "definition": "atera\nezker\nezker (direction)\ngelditen (is left) (verb)\ngelditu (was left) (verb)\ngeldituko (will be left) (verb)"
        },
        {
          "word": "at",
          "definition": "not translated, part of insessive case"
        },
        {
          "word": "the",
          "definition": "-a"
        },
        {
          "word": "traffic",
          "definition": "zirkulazio"
        },
        {
          "word": "light.",
          "definition": "argitu"
        }
      ],
      "chips": [
        "Biratu",
        "ezkerrera",
        "semaforoan",
        "ezkerrean",
        "zara"
      ],
      "solutions": [
        [
          "Biratu",
          "ezkerrera",
          "semaforoan"
        ]
      ],
      "formattedSolution": "Biratu ezkerrera semaforoan.",
      "id": "bfbacd3b77ce",
      "priority": 2,
      "group": "4c7acabc60b6"
    },
    {
      "type": "chips",
      "translatesToSourceLanguage": true,
      "phrase": [
        {
          "word": "Biratu",
          "definition": "turn"
        },
        {
          "word": "ezkerrera",
          "definition": "to the left"
        },
        {
          "word": "semaforoan.",
          "definition": "at the stoplight\nat the traffic light"
        }
      ],
      "chips": [
        "Turn",
        "left",
        "at",
        "the",
        "traffic",
        "light",
        "it",
        "eat",
        "fat",
        "cat",
        "That"
      ],
      "solutions": [
        [
          "Turn",
          "left",
          "at",
          "the",
          "traffic",
          "light"
        ],
        [
          "Turn",
          "left",
          "at",
          "the",
          "stoplight"
        ]
      ],
      "formattedSolution": "Turn left at the traffic light.",
      "id": "b4ea147d101e",
      "priority": 2,
      "group": "4c7acabc60b6"
    },
    {
      "type": "options",
      "formInTargetLanguage": "Biratu eskuinera semaforoan.",
      "meaningInSourceLanguage": "Turn right at the traffic light.",
      "id": "6efd4e156833",
      "priority": 0,
      "group": "66bf966af429"
    },
    {
      "type": "chips",
      "translatesToSourceLanguage": false,
      "phrase": [
        {
          "word": "Turn",
          "definition": "biratu"
        },
        {
          "word": "right",
          "definition": "eskuin"
        },
        {
          "word": "at",
          "definition": "not translated, part of insessive case"
        },
        {
          "word": "the",
          "definition": "-a"
        },
        {
          "word": "traffic",
          "definition": "zirkulazio"
        },
        {
          "word": "light.",
          "definition": "argitu"
        }
      ],
      "chips": [
        "Biratu",
        "eskuinera",
        "semaforoan",
        "dira",
        "Begira"
      ],
      "solutions": [
        [
          "Biratu",
          "eskuinera",
          "semaforoan"
        ]
      ],
      "formattedSolution": "Biratu eskuinera semaforoan.",
      "id": "fb55de9d813a",
      "priority": 2,
      "group": "66bf966af429"
    },
    {
      "type": "chips",
      "translatesToSourceLanguage": true,
      "phrase": [
        {
          "word": "Biratu",
          "definition": "turn"
        },
        {
          "word": "eskuinera",
          "definition": "to the right"
        },
        {
          "word": "semaforoan.",
          "definition": "at the stoplight\nat the traffic light"
        }
      ],
      "chips": [
        "Turn",
        "right",
        "at",
        "the",
        "traffic",
        "light",
        "it",
        "sit",
        "bit",
        "night",
        "The"
      ],
      "solutions": [
        [
          "Turn",
          "right",
          "at",
          "the",
          "traffic",
          "light"
        ],
        [
          "Turn",
          "right",
          "at",
          "the",
          "stoplight"
        ]
      ],
      "formattedSolution": "Turn right at the traffic light.",
      "id": "6dbca099c8ff",
      "priority": 2,
      "group": "66bf966af429"
    },
    {
      "type": "options",
      "formInTargetLanguage": "Semaforoa gorria da.",
      "meaningInSourceLanguage": "The traffic light is red.",
      "id": "61e9f213bfb3",
      "priority": 0,
      "group": "5b57badc7084"
    },
    {
      "type": "chips",
      "translatesToSourceLanguage": false,
      "phrase": [
        {
          "word": "The",
          "definition": "-a"
        },
        {
          "word": "traffic",
          "definition": "zirkulazio"
        },
        {
          "word": "light",
          "definition": "argitu"
        },
        {
          "word": "is",
          "definition": "da\nda (izan)\ndago\ndago (egon)"
        },
        {
          "word": "red.",
          "definition": "gorri\ngorria\ngorriak"
        }
      ],
      "chips": [
        "Semaforoa",
        "gorria",
        "da",
        "gara",
        "horia"
      ],
      "solutions": [
        [
          "Semaforoa",
          "gorria",
          "da"
        ]
      ],
      "formattedSolution": "Semaforoa gorria da.",
      "id": "d61b4e362bd4",
      "priority": 2,
      "group": "5b57badc7084"
    },
    {
      "type": "chips",
      "translatesToSourceLanguage": true,
      "phrase": [
        {
          "word": "Semaforoa",
          "definition": "stoplight\ntraffic light"
        },
        {
          "word": "gorria",
          "definition": "red"
        },
        {
          "word": "da.",
          "definition": "he is (izan)\nis\nit is (izan)\nshe is (izan)"
        }
      ],
      "chips": [
        "The",
        "traffic",
        "light",
        "is",
        "red",
        "it",
        "lie",
        "the",
        "big"
      ],
      "solutions": [
        [
          "The",
          "traffic",
          "light",
          "is",
          "red"
        ],
        [
          "The",
          "stoplight",
          "is",
          "red"
        ]
      ],
      "formattedSolution": "The traffic light is red.",
      "id": "52119506cf9a",
      "priority": 2,
      "group": "5b57badc7084"
    },
    {
      "type": "options",
      "formInTargetLanguage": "Bankua elizatik gertu dago.",
      "meaningInSourceLanguage": "The bank is near the church.",
      "id": "98e9537f7e61",
      "priority": 0,
      "group": "db8341b1d173"
    },
    {
      "type": "chips",
      "translatesToSourceLanguage": false,
      "phrase": [
        {
          "word": "The",
          "definition": "-a"
        },
        {
          "word": "bank",
          "definition": "banku"
        },
        {
          "word": "is",
          "definition": "da\nda (izan)\ndago\ndago (egon)"
        },
        {
          "word": "near",
          "definition": "gertu"
        },
        {
          "word": "the",
          "definition": "-a"
        },
        {
          "word": "church.",
          "definition": "eliza"
        }
      ],
      "chips": [
        "Bankua",
        "elizatik",
        "gertu",
        "dago",
        "Katu",
        "laku",
        "zara"
      ],
      "solutions": [
        [
          "Bankua",
          "elizatik",
          "gertu",
          "dago"
        ]
      ],
      "formattedSolution": "Bankua elizatik gertu dago.",
      "id": "1988af71dc06",
      "priority": 2,
      "group": "db8341b1d173"
    },
    {
      "type": "chips",
      "translatesToSourceLanguage": true,
      "phrase": [
        {
          "word": "Bankua",
          "definition": "bank"
        },
        {
          "word": "elizatik",
          "definition": "from church"
        },
        {
          "word": "gertu",
          "definition": "near"
        },
        {
          "word": "dago.",
          "definition": "he is (egon)\nis\nit is (egon)\nshe is (egon)"
        }
      ],
      "chips": [
        "The",
        "bank",
        "is",
        "near",
        "the",
        "church",
        "her",
        "are",
        "She",
        "car",
        "be"
      ],
      "solutions": [
        [
          "The",
          "bank",
          "is",
          "near",
          "the",
          "church"
        ]
      ],
      "formattedSolution": "The bank is near the church.",
      "id": "7c1e885721fc",
      "priority": 2,
      "group": "db8341b1d173"
    },
    {
      "type": "options",
      "formInTargetLanguage": "Dortoka zubitik gertu dago.",
      "meaningInSourceLanguage": "The turtle is near the bridge.",
      "id": "c8c970a1a28a",
      "priority": 0,
      "group": "af3598e17130"
    },
    {
      "type": "chips",
      "translatesToSourceLanguage": false,
      "phrase": [
        {
          "word": "The",
          "definition": "-a"
        },
        {
          "word": "turtle",
          "definition": "dortoka"
        },
        {
          "word": "is",
          "definition": "da\nda (izan)\ndago\ndago (egon)"
        },
        {
          "word": "near",
          "definition": "gertu"
        },
        {
          "word": "the",
          "definition": "-a"
        },
        {
          "word": "bridge.",
          "definition": "zubi"
        }
      ],
      "chips": [
        "Dortoka",
        "zubitik",
        "gertu",
        "dago",
        "dortoka",
        "urte",
        "beti"
      ],
      "solutions": [
        [
          "Dortoka",
          "zubitik",
          "gertu",
          "dago"
        ]
      ],
      "formattedSolution": "Dortoka zubitik gertu dago.",
      "id": "53307037d116",
      "priority": 2,
      "group": "af3598e17130"
    },
    {
      "type": "chips",
      "translatesToSourceLanguage": true,
      "phrase": [
        {
          "word": "Dortoka",
          "definition": "a turtle\nturtle"
        },
        {
          "word": "zubitik",
          "definition": "from the bridge"
        },
        {
          "word": "gertu",
          "definition": "near"
        },
        {
          "word": "dago.",
          "definition": "he is (egon)\nis\nit is (egon)\nshe is (egon)"
        }
      ],
      "chips": [
        "The",
        "turtle",
        "is",
        "near",
        "the",
        "bridge",
        "are",
        "be",
        "He",
        "She",
        "We"
      ],
      "solutions": [
        [
          "The",
          "turtle",
          "is",
          "near",
          "the",
          "bridge"
        ]
      ],
      "formattedSolution": "The turtle is near the bridge.",
      "id": "5607ed67f0e1",
      "priority": 2,
      "group": "af3598e17130"
    },
    {
      "type": "options",
      "formInTargetLanguage": "Baserria hondartzatik urrun dago.",
      "meaningInSourceLanguage": "The farmhouse is far from the beach.",
      "id": "6f9d42e67184",
      "priority": 0,
      "group": "1564427a06e8"
    },
    {
      "type": "chips",
      "translatesToSourceLanguage": false,
      "phrase": [
        {
          "word": "The",
          "definition": "-a"
        },
        {
          "word": "farmhouse",
          "definition": "baserri"
        },
        {
          "word": "is",
          "definition": "da\nda (izan)\ndago\ndago (egon)"
        },
        {
          "word": "far",
          "definition": "urrun"
        },
        {
          "word": "from",
          "definition": "part of Ablative case"
        },
        {
          "word": "the",
          "definition": "-a"
        },
        {
          "word": "beach.",
          "definition": "hondartza"
        }
      ],
      "chips": [
        "Baserria",
        "hondartzatik",
        "urrun",
        "dago",
        "hari",
        "zara",
        "gara"
      ],
      "solutions": [
        [
          "Baserria",
          "hondartzatik",
          "urrun",
          "dago"
        ]
      ],
      "formattedSolution": "Baserria hondartzatik urrun dago.",
      "id": "696630b54fc5",
      "priority": 2,
      "group": "1564427a06e8"
    },
    {
      "type": "chips",
      "translatesToSourceLanguage": true,
      "phrase": [
        {
          "word": "Baserria",
          "definition": "farm\nfarmhouse"
        },
        {
          "word": "hondartzatik",
          "definition": "from the beach"
        },
        {
          "word": "urrun",
          "definition": "far"
        },
        {
          "word": "dago.",
          "definition": "he is (egon)\nis\nit is (egon)\nshe is (egon)"
        }
      ],
      "chips": [
        "The",
        "farmhouse",
        "is",
        "far",
        "from",
        "the",
        "beach",
        "are",
        "am",
        "She",
        "me",
        "fat",
        "farm"
      ],
      "solutions": [
        [
          "The",
          "farmhouse",
          "is",
          "far",
          "from",
          "the",
          "beach"
        ],
        [
          "The",
          "farm",
          "is",
          "far",
          "from",
          "the",
          "beach"
        ]
      ],
      "formattedSolution": "The farmhouse is far from the beach.",
      "id": "9616ccbae9ec",
      "priority": 2,
      "group": "1564427a06e8"
    },
    {
      "type": "options",
      "formInTargetLanguage": "Basoa aireportutik urrun dago.",
      "meaningInSourceLanguage": "The forest is far from the airport.",
      "id": "dabd125ba1ea",
      "priority": 0,
      "group": "237439c49668"
    },
    {
      "type": "chips",
      "translatesToSourceLanguage": false,
      "phrase": [
        {
          "word": "The",
          "definition": "-a"
        },
        {
          "word": "forest",
          "definition": "baso"
        },
        {
          "word": "is",
          "definition": "da\nda (izan)\ndago\ndago (egon)"
        },
        {
          "word": "far",
          "definition": "urrun"
        },
        {
          "word": "from",
          "definition": "part of Ablative case"
        },
        {
          "word": "the",
          "definition": "-a"
        },
        {
          "word": "airport.",
          "definition": "aireportua"
        }
      ],
      "chips": [
        "Basoa",
        "aireportutik",
        "urrun",
        "dago",
        "Baso",
        "nago",
        "Baloi"
      ],
      "solutions": [
        [
          "Basoa",
          "aireportutik",
          "urrun",
          "dago"
        ]
      ],
      "formattedSolution": "Basoa aireportutik urrun dago.",
      "id": "bdc7fa2f9d5a",
      "priority": 2,
      "group": "237439c49668"
    },
    {
      "type": "chips",
      "translatesToSourceLanguage": true,
      "phrase": [
        {
          "word": "Basoa",
          "definition": "forest\nforrest\nglass\nwoods"
        },
        {
          "word": "aireportutik",
          "definition": "from the airport"
        },
        {
          "word": "urrun",
          "definition": "far"
        },
        {
          "word": "dago.",
          "definition": "he is (egon)\nis\nit is (egon)\nshe is (egon)"
        }
      ],
      "chips": [
        "The",
        "forest",
        "is",
        "far",
        "from",
        "the",
        "airport",
        "for",
        "are",
        "or",
        "fat",
        "fog",
        "one"
      ],
      "solutions": [
        [
          "The",
          "forest",
          "is",
          "far",
          "from",
          "the",
          "airport"
        ]
      ],
      "formattedSolution": "The forest is far from the airport.",
      "id": "4209c3690f5b",
      "priority": 2,
      "group": "237439c49668"
    },
    {
      "type": "cards",
      "pictures": [
        "nothing.jpg",
        "nothing.jpg",
        "nothing.jpg"
      ],
      "formInTargetLanguage": "izkina",
      "meaningInSourceLanguage": "corner",
      "id": "45de8992ab99",
      "priority": 0,
      "group": "db61d5c36c34"
    },
    {
      "type": "shortInput",
      "pictures": [
        "nothing.jpg",
        "nothing.jpg",
        "nothing.jpg"
      ],
      "formInTargetLanguage": [
        "izkina"
      ],
      "phrase": [
        {
          "word": "corner",
          "definition": "izkina"
        }
      ],
      "id": "d760b8bc2feb",
      "priority": 1,
      "group": "db61d5c36c34"
    },
    {
      "type": "cards",
      "pictures": [
        "nothing.jpg",
        "nothing.jpg",
        "nothing.jpg"
      ],
      "formInTargetLanguage": "gero",
      "meaningInSourceLanguage": "then",
      "id": "cda1224a4723",
      "priority": 0,
      "group": "5934cd0b4e5f"
    },
    {
      "type": "shortInput",
      "pictures": [
        "nothing.jpg",
        "nothing.jpg",
        "nothing.jpg"
      ],
      "formInTargetLanguage": [
        "gero"
      ],
      "phrase": [
        {
          "word": "then",
          "definition": "gero"
        }
      ],
      "id": "65802b569645",
      "priority": 1,
      "group": "5934cd0b4e5f"
    },
    {
      "type": "cards",
      "pictures": [
        "nothing.jpg",
        "nothing.jpg",
        "nothing.jpg"
      ],
      "formInTargetLanguage": "pasa",
      "meaningInSourceLanguage": "pass",
      "id": "d27ef9a9f322",
      "priority": 0,
      "group": "f6412fa09270"
    },
    {
      "type": "shortInput",
      "pictures": [
        "nothing.jpg",
        "nothing.jpg",
        "nothing.jpg"
      ],
      "formInTargetLanguage": [
        "pasa"
      ],
      "phrase": [
        {
          "word": "pass",
          "definition": "pasa\npasa (verb)"
        }
      ],
      "id": "9b7ea592bf3b",
      "priority": 1,
      "group": "f6412fa09270"
    },
    {
      "type": "cards",
      "pictures": [
        "nothing.jpg",
        "nothing.jpg",
        "nothing.jpg"
      ],
      "formInTargetLanguage": "kilometro",
      "meaningInSourceLanguage": "kilometer",
      "id": "80319fadd9bd",
      "priority": 0,
      "group": "9c5cd7afe699"
    },
    {
      "type": "shortInput",
      "pictures": [
        "nothing.jpg",
        "nothing.jpg",
        "nothing.jpg"
      ],
      "formInTargetLanguage": [
        "kilometro"
      ],
      "phrase": [
        {
          "word": "kilometer",
          "definition": "kilometro"
        }
      ],
      "id": "854c9fdb213b",
      "priority": 1,
      "group": "9c5cd7afe699"
    },
    {
      "type": "cards",
      "pictures": [
        "nothing.jpg",
        "nothing.jpg",
        "nothing.jpg"
      ],
      "formInTargetLanguage": "metro",
      "meaningInSourceLanguage": "meter",
      "id": "ea8dc2e3db27",
      "priority": 0,
      "group": "3a4b325ef247"
    },
    {
      "type": "shortInput",
      "pictures": [
        "nothing.jpg",
        "nothing.jpg",
        "nothing.jpg"
      ],
      "formInTargetLanguage": [
        "metro"
      ],
      "phrase": [
        {
          "word": "meter",
          "definition": "metro"
        }
      ],
      "id": "49fde3d5bafd",
      "priority": 1,
      "group": "3a4b325ef247"
    },
    {
      "type": "cards",
      "pictures": [
        "nothing.jpg",
        "nothing.jpg",
        "nothing.jpg"
      ],
      "formInTargetLanguage": "semaforo",
      "meaningInSourceLanguage": "stoplight",
      "id": "9bbd86063129",
      "priority": 0,
      "group": "e75955a10a26"
    },
    {
      "type": "shortInput",
      "pictures": [
        "nothing.jpg",
        "nothing.jpg",
        "nothing.jpg"
      ],
      "formInTargetLanguage": [
        "semaforo"
      ],
      "phrase": [
        {
          "word": "stoplight",
          "definition": "semaforo"
        }
      ],
      "id": "a4f8ce697d27",
      "priority": 1,
      "group": "e75955a10a26"
    },
    {
      "type": "cards",
      "pictures": [
        "nothing.jpg",
        "nothing.jpg",
        "nothing.jpg"
      ],
      "formInTargetLanguage": "gertu",
      "meaningInSourceLanguage": "near",
      "id": "160b2ccea8e0",
      "priority": 0,
      "group": "d5158453cf58"
    },
    {
      "type": "shortInput",
      "pictures": [
        "nothing.jpg",
        "nothing.jpg",
        "nothing.jpg"
      ],
      "formInTargetLanguage": [
        "gertu"
      ],
      "phrase": [
        {
          "word": "near",
          "definition": "gertu"
        }
      ],
      "id": "c19abfc5d50e",
      "priority": 1,
      "group": "d5158453cf58"
    },
    {
      "type": "cards",
      "pictures": [
        "nothing.jpg",
        "nothing.jpg",
        "nothing.jpg"
      ],
      "formInTargetLanguage": "urrun",
      "meaningInSourceLanguage": "far",
      "id": "181591556cbe",
      "priority": 0,
      "group": "3c3aa81ad869"
    },
    {
      "type": "shortInput",
      "pictures": [
        "nothing.jpg",
        "nothing.jpg",
        "nothing.jpg"
      ],
      "formInTargetLanguage": [
        "urrun"
      ],
      "phrase": [
        {
          "word": "far",
          "definition": "urrun"
        }
      ],
      "id": "8d15f5add74d",
      "priority": 1,
      "group": "3c3aa81ad869"
    }
  ]
}