{
  "id": "897908a01836",
  "levels": 6,
  "challenges": [
    {
      "type": "options",
      "formInTargetLanguage": "Ni Alemaniakoa naiz.",
      "meaningInSourceLanguage": "I am from Germany",
      "id": "1c9ebc7d65fb",
      "priority": 0,
      "group": "fc09ae10515d"
    },
    {
      "type": "chips",
      "translatesToSourceLanguage": false,
      "phrase": [
        {
          "word": "I",
          "definition": "ni"
        },
        {
          "word": "am",
          "definition": "NORTAZ case\nnago (egon)\nnaiz\nnaiz (izan)"
        },
        {
          "word": "from",
          "definition": "part of Ablative case"
        },
        {
          "word": "Germany",
          "definition": "Alemania"
        }
      ],
      "chips": [
        "Ni",
        "Alemaniakoa",
        "naiz",
        "ni",
        "maiz"
      ],
      "solutions": [
        [
          "Ni",
          "Alemaniakoa",
          "naiz"
        ],
        [
          "Alemaniakoa",
          "naiz"
        ]
      ],
      "formattedSolution": "Ni Alemaniakoa naiz.",
      "id": "a9475f8e74ec",
      "priority": 2,
      "group": "fc09ae10515d"
    },
    {
      "type": "chips",
      "translatesToSourceLanguage": true,
      "phrase": [
        {
          "word": "Ni",
          "definition": "I\nme"
        },
        {
          "word": "Alemaniakoa",
          "definition": "of Germany"
        },
        {
          "word": "naiz.",
          "definition": "I am (izan)\nam\nam (izan)"
        }
      ],
      "chips": [
        "I",
        "am",
        "from",
        "Germany",
        "a",
        "an",
        "Am"
      ],
      "solutions": [
        [
          "I",
          "am",
          "from",
          "Germany"
        ]
      ],
      "formattedSolution": "I am from Germany",
      "id": "5466ce3bb2fd",
      "priority": 2,
      "group": "fc09ae10515d"
    },
    {
      "type": "options",
      "formInTargetLanguage": "Zu Espainiakoa al zara?",
      "meaningInSourceLanguage": "Are you from Spain?",
      "id": "82f892ae64cc",
      "priority": 0,
      "group": "e8049124cf7c"
    },
    {
      "type": "chips",
      "translatesToSourceLanguage": false,
      "phrase": [
        {
          "word": "Are",
          "definition": "daude\ndaude (egon)\ndaude (izan)\ndira\ndira (izan)\ngara\ngara (izan)\ngare\ngaude (egon)\nzara\nzara (izan)\nzarete\nzarete (izan)\nzaude  (egon)\nzaude (egon)\nzaudete (egon)"
        },
        {
          "word": "you",
          "definition": "zu\nzuek"
        },
        {
          "word": "from",
          "definition": "part of Ablative case"
        },
        {
          "word": "Spain?",
          "definition": "Espainia"
        }
      ],
      "chips": [
        "Zu",
        "Espainiakoa",
        "al",
        "zara",
        "ama",
        "ari",
        "da"
      ],
      "solutions": [
        [
          "Zu",
          "Espainiakoa",
          "al",
          "zara"
        ],
        [
          "Espainiakoa",
          "al",
          "zara"
        ]
      ],
      "formattedSolution": "Zu Espainiakoa al zara?",
      "id": "9e6ca5749866",
      "priority": 2,
      "group": "e8049124cf7c"
    },
    {
      "type": "chips",
      "translatesToSourceLanguage": true,
      "phrase": [
        {
          "word": "Zu",
          "definition": "you"
        },
        {
          "word": "Espainiakoa",
          "definition": "of Spain"
        },
        {
          "word": "al",
          "definition": "question word\nquestion_word"
        },
        {
          "word": "zara?",
          "definition": "are\nyou are (izan)"
        }
      ],
      "chips": [
        "Are",
        "you",
        "from",
        "Spain",
        "are",
        "You",
        "Jon"
      ],
      "solutions": [
        [
          "Are",
          "you",
          "from",
          "Spain"
        ]
      ],
      "formattedSolution": "Are you from Spain?",
      "id": "3131f5818862",
      "priority": 2,
      "group": "e8049124cf7c"
    },
    {
      "type": "options",
      "formInTargetLanguage": "Nongoa da zure senarra?",
      "meaningInSourceLanguage": "Where is your husband from?",
      "id": "da06df310c8b",
      "priority": 0,
      "group": "b2bd1933f3af"
    },
    {
      "type": "chips",
      "translatesToSourceLanguage": false,
      "phrase": [
        {
          "word": "Where",
          "definition": "non\nnondik (from)\nnora (to)"
        },
        {
          "word": "is",
          "definition": "da\nda (izan)\ndago\ndago (egon)"
        },
        {
          "word": "your",
          "definition": "zuen\nzure"
        },
        {
          "word": "husband",
          "definition": "senarra"
        },
        {
          "word": "from?",
          "definition": "part of Ablative case"
        }
      ],
      "chips": [
        "Nongoa",
        "da",
        "zure",
        "senarra",
        "zara",
        "ona",
        "Nora"
      ],
      "solutions": [
        [
          "Nongoa",
          "da",
          "zure",
          "senarra"
        ]
      ],
      "formattedSolution": "Nongoa da zure senarra?",
      "id": "e1985705e561",
      "priority": 2,
      "group": "b2bd1933f3af"
    },
    {
      "type": "chips",
      "translatesToSourceLanguage": true,
      "phrase": [
        {
          "word": "Nongoa",
          "definition": "chef\nfrom which place\nof which place"
        },
        {
          "word": "da",
          "definition": "he is (izan)\nis\nit is (izan)\nshe is (izan)"
        },
        {
          "word": "zure",
          "definition": "your"
        },
        {
          "word": "senarra?",
          "definition": "husband"
        }
      ],
      "chips": [
        "Where",
        "is",
        "your",
        "husband",
        "from",
        "or",
        "his",
        "her",
        "our"
      ],
      "solutions": [
        [
          "Where",
          "is",
          "your",
          "husband",
          "from"
        ]
      ],
      "formattedSolution": "Where is your husband from?",
      "id": "979ec60d9b79",
      "priority": 2,
      "group": "b2bd1933f3af"
    },
    {
      "type": "options",
      "formInTargetLanguage": "Gu Gasteizekoak gara. Irungoa al zara?",
      "meaningInSourceLanguage": "We are from Vitoria.",
      "id": "af57a04aa153",
      "priority": 0,
      "group": "2dbfd9991968"
    },
    {
      "type": "chips",
      "translatesToSourceLanguage": false,
      "phrase": [
        {
          "word": "We",
          "definition": "gu"
        },
        {
          "word": "are",
          "definition": "daude\ndaude (egon)\ndaude (izan)\ndira\ndira (izan)\ngara\ngara (izan)\ngare\ngaude (egon)\nzara\nzara (izan)\nzarete\nzarete (izan)\nzaude  (egon)\nzaude (egon)\nzaudete (egon)"
        },
        {
          "word": "from",
          "definition": "part of Ablative case"
        },
        {
          "word": "Vitoria.",
          "definition": "Gasteiz\nGasteiz (city in Basque Country)\nGasteiz (city)"
        }
      ],
      "chips": [
        "Gu",
        "Gasteizekoak",
        "gara",
        "Irungoa",
        "al",
        "zara",
        "ama",
        "ari",
        "jaka",
        "noa",
        "bata"
      ],
      "solutions": [
        [
          "Gu",
          "Gasteizekoak",
          "gara",
          "Irungoa",
          "al",
          "zara"
        ],
        [
          "Gasteizekoak",
          "gara",
          "Irungoa",
          "al",
          "zara"
        ]
      ],
      "formattedSolution": "Gu Gasteizekoak gara. Irungoa al zara?",
      "id": "3a94a4004988",
      "priority": 2,
      "group": "2dbfd9991968"
    },
    {
      "type": "chips",
      "translatesToSourceLanguage": true,
      "phrase": [
        {
          "word": "Gu",
          "definition": "we"
        },
        {
          "word": "Gasteizekoak",
          "definition": "of Vitoria"
        },
        {
          "word": "gara.",
          "definition": "are\nare (izan)"
        },
        {
          "word": "Irungoa",
          "definition": "of Irun"
        },
        {
          "word": "al",
          "definition": "question word\nquestion_word"
        },
        {
          "word": "zara?",
          "definition": "are\nyou are (izan)"
        }
      ],
      "chips": [
        "We",
        "are",
        "from",
        "Vitoria",
        "Are",
        "or",
        "red"
      ],
      "solutions": [
        [
          "We",
          "are",
          "from",
          "Vitoria"
        ]
      ],
      "formattedSolution": "We are from Vitoria.",
      "id": "60bce0f22a79",
      "priority": 2,
      "group": "2dbfd9991968"
    },
    {
      "type": "options",
      "formInTargetLanguage": "Zuek Irungoa al zarete?",
      "meaningInSourceLanguage": "Are you (plural) from Irun?",
      "id": "4c56ac597654",
      "priority": 0,
      "group": "4004ed2219e2"
    },
    {
      "type": "chips",
      "translatesToSourceLanguage": false,
      "phrase": [
        {
          "word": "Are",
          "definition": "daude\ndaude (egon)\ndaude (izan)\ndira\ndira (izan)\ngara\ngara (izan)\ngare\ngaude (egon)\nzara\nzara (izan)\nzarete\nzarete (izan)\nzaude  (egon)\nzaude (egon)\nzaudete (egon)"
        },
        {
          "word": "you",
          "definition": "zu\nzuek"
        },
        {
          "word": "(plural)",
          "definition": "plurala"
        },
        {
          "word": "from",
          "definition": "part of Ablative case"
        },
        {
          "word": "Irun?",
          "definition": "Irun\nIrun (city)"
        }
      ],
      "chips": [
        "Zuek",
        "Irungoa",
        "al",
        "zarete",
        "zuek",
        "arte",
        "ate"
      ],
      "solutions": [
        [
          "Zuek",
          "Irungoa",
          "al",
          "zarete"
        ],
        [
          "Irungoa",
          "al",
          "zarete"
        ]
      ],
      "formattedSolution": "Zuek Irungoa al zarete?",
      "id": "236ad9e4db13",
      "priority": 2,
      "group": "4004ed2219e2"
    },
    {
      "type": "chips",
      "translatesToSourceLanguage": true,
      "phrase": [
        {
          "word": "Zuek",
          "definition": "you\nyou all\nyou'll\nyou(plural)\nyour (plural)\nyour/you (plural)"
        },
        {
          "word": "Irungoa",
          "definition": "of Irun"
        },
        {
          "word": "al",
          "definition": "question word\nquestion_word"
        },
        {
          "word": "zarete?",
          "definition": "are\ntheir"
        }
      ],
      "chips": [
        "Are",
        "you",
        "plural",
        "from",
        "Irun",
        "You",
        "are",
        "or",
        "ran"
      ],
      "solutions": [
        [
          "Are",
          "you",
          "plural",
          "from",
          "Irun"
        ],
        [
          "Are",
          "you'll",
          "from",
          "Irun"
        ],
        [
          "Are",
          "you",
          "from",
          "Irun"
        ]
      ],
      "formattedSolution": "Are you (plural) from Irun?",
      "id": "45d7db0bba55",
      "priority": 2,
      "group": "4004ed2219e2"
    },
    {
      "type": "options",
      "formInTargetLanguage": "Haiek Donostiakoak dira.",
      "meaningInSourceLanguage": "They are from San Sebastian",
      "id": "874ab5fec678",
      "priority": 0,
      "group": "11bcfcf89ad1"
    },
    {
      "type": "chips",
      "translatesToSourceLanguage": false,
      "phrase": [
        {
          "word": "They",
          "definition": "haiek"
        },
        {
          "word": "are",
          "definition": "daude\ndaude (egon)\ndaude (izan)\ndira\ndira (izan)\ngara\ngara (izan)\ngare\ngaude (egon)\nzara\nzara (izan)\nzarete\nzarete (izan)\nzaude  (egon)\nzaude (egon)\nzaudete (egon)"
        },
        {
          "word": "from",
          "definition": "part of Ablative case"
        },
        {
          "word": "San",
          "definition": "santua (saint)"
        },
        {
          "word": "Sebastian",
          "definition": "Saint Sebastian\nSebastian"
        }
      ],
      "chips": [
        "Haiek",
        "Donostiakoak",
        "dira",
        "haiek",
        "nirea"
      ],
      "solutions": [
        [
          "Haiek",
          "Donostiakoak",
          "dira"
        ],
        [
          "Donostiakoak",
          "dira"
        ]
      ],
      "formattedSolution": "Haiek Donostiakoak dira.",
      "id": "f4556ce48990",
      "priority": 2,
      "group": "11bcfcf89ad1"
    },
    {
      "type": "chips",
      "translatesToSourceLanguage": true,
      "phrase": [
        {
          "word": "Haiek",
          "definition": "they\nthose over there, plural of hura"
        },
        {
          "word": "Donostiakoak",
          "definition": "of San Sebastian"
        },
        {
          "word": "dira.",
          "definition": "are\nare (izan)"
        }
      ],
      "chips": [
        "They",
        "are",
        "from",
        "San",
        "Sebastian",
        "She",
        "See",
        "an",
        "ate"
      ],
      "solutions": [
        [
          "They",
          "are",
          "from",
          "San",
          "Sebastian"
        ]
      ],
      "formattedSolution": "They are from San Sebastian",
      "id": "1a6114525641",
      "priority": 2,
      "group": "11bcfcf89ad1"
    },
    {
      "type": "options",
      "formInTargetLanguage": "Hau da Irungo bidea.",
      "meaningInSourceLanguage": "This is the Irun road.",
      "id": "5a0546886e70",
      "priority": 0,
      "group": "e59dc81e03f4"
    },
    {
      "type": "chips",
      "translatesToSourceLanguage": false,
      "phrase": [
        {
          "word": "This",
          "definition": "hau"
        },
        {
          "word": "is",
          "definition": "da\nda (izan)\ndago\ndago (egon)"
        },
        {
          "word": "the",
          "definition": "-a"
        },
        {
          "word": "Irun",
          "definition": "Irun\nIrun (city)"
        },
        {
          "word": "road.",
          "definition": "bide"
        }
      ],
      "chips": [
        "Hau",
        "da",
        "Irungo",
        "bidea",
        "du",
        "hau",
        "lau"
      ],
      "solutions": [
        [
          "Hau",
          "da",
          "Irungo",
          "bidea"
        ]
      ],
      "formattedSolution": "Hau da Irungo bidea.",
      "id": "afaf7c3bbb72",
      "priority": 2,
      "group": "e59dc81e03f4"
    },
    {
      "type": "chips",
      "translatesToSourceLanguage": true,
      "phrase": [
        {
          "word": "Hau",
          "definition": "this"
        },
        {
          "word": "da",
          "definition": "he is (izan)\nis\nit is (izan)\nshe is (izan)"
        },
        {
          "word": "Irungo",
          "definition": "from Irun\nof Irun"
        },
        {
          "word": "bidea.",
          "definition": "road"
        }
      ],
      "chips": [
        "This",
        "is",
        "the",
        "Irun",
        "road",
        "this",
        "his",
        "Is",
        "The"
      ],
      "solutions": [
        [
          "This",
          "is",
          "the",
          "Irun",
          "road"
        ]
      ],
      "formattedSolution": "This is the Irun road.",
      "id": "fa8bdb9143f6",
      "priority": 2,
      "group": "e59dc81e03f4"
    },
    {
      "type": "options",
      "formInTargetLanguage": "Hemen dago Donostiako autobusa.",
      "meaningInSourceLanguage": "Here is the San Sebastian bus.",
      "id": "b4fbe0d1dfa7",
      "priority": 0,
      "group": "c98827be7d7c"
    },
    {
      "type": "chips",
      "translatesToSourceLanguage": false,
      "phrase": [
        {
          "word": "Here",
          "definition": "hemen"
        },
        {
          "word": "is",
          "definition": "da\nda (izan)\ndago\ndago (egon)"
        },
        {
          "word": "the",
          "definition": "-a"
        },
        {
          "word": "San",
          "definition": "santua (saint)"
        },
        {
          "word": "Sebastian",
          "definition": "Saint Sebastian\nSebastian"
        },
        {
          "word": "bus.",
          "definition": "austobusa\nautobus\nautobusa"
        }
      ],
      "chips": [
        "Hemen",
        "dago",
        "Donostiako",
        "autobusa",
        "nago",
        "asko",
        "amona"
      ],
      "solutions": [
        [
          "Hemen",
          "dago",
          "Donostiako",
          "autobusa"
        ]
      ],
      "formattedSolution": "Hemen dago Donostiako autobusa.",
      "id": "398d93a5d43a",
      "priority": 2,
      "group": "c98827be7d7c"
    },
    {
      "type": "chips",
      "translatesToSourceLanguage": true,
      "phrase": [
        {
          "word": "Hemen",
          "definition": "here"
        },
        {
          "word": "dago",
          "definition": "he is (egon)\nis\nit is (egon)\nshe is (egon)"
        },
        {
          "word": "Donostiako",
          "definition": "from San Sebastian\nof San Sebastian"
        },
        {
          "word": "autobusa.",
          "definition": "a bus\nbus"
        }
      ],
      "chips": [
        "Here",
        "is",
        "the",
        "San",
        "Sebastian",
        "bus",
        "See",
        "He",
        "She",
        "Yes",
        "was"
      ],
      "solutions": [
        [
          "Here",
          "is",
          "the",
          "San",
          "Sebastian",
          "bus"
        ]
      ],
      "formattedSolution": "Here is the San Sebastian bus.",
      "id": "cb938113efff",
      "priority": 2,
      "group": "c98827be7d7c"
    },
    {
      "type": "options",
      "formInTargetLanguage": "Non dago Gasteizekoak trena?",
      "meaningInSourceLanguage": "Where is the Vitoria train?",
      "id": "4b56ba06499a",
      "priority": 0,
      "group": "a7731a592035"
    },
    {
      "type": "chips",
      "translatesToSourceLanguage": false,
      "phrase": [
        {
          "word": "Where",
          "definition": "non\nnondik (from)\nnora (to)"
        },
        {
          "word": "is",
          "definition": "da\nda (izan)\ndago\ndago (egon)"
        },
        {
          "word": "the",
          "definition": "-a"
        },
        {
          "word": "Vitoria",
          "definition": "Gasteiz\nGasteiz (city in Basque Country)\nGasteiz (city)"
        },
        {
          "word": "train?",
          "definition": "tren"
        }
      ],
      "chips": [
        "Non",
        "dago",
        "Gasteizekoak",
        "trena",
        "tren",
        "zen",
        "Gona"
      ],
      "solutions": [
        [
          "Non",
          "dago",
          "Gasteizekoak",
          "trena"
        ]
      ],
      "formattedSolution": "Non dago Gasteizekoak trena?",
      "id": "571f2c7d71c7",
      "priority": 2,
      "group": "a7731a592035"
    },
    {
      "type": "chips",
      "translatesToSourceLanguage": true,
      "phrase": [
        {
          "word": "Non",
          "definition": "where"
        },
        {
          "word": "dago",
          "definition": "he is (egon)\nis\nit is (egon)\nshe is (egon)"
        },
        {
          "word": "Gasteizekoak",
          "definition": "of Vitoria"
        },
        {
          "word": "trena?",
          "definition": "train"
        }
      ],
      "chips": [
        "Where",
        "is",
        "the",
        "Vitoria",
        "train",
        "thin",
        "their",
        "tree",
        "then"
      ],
      "solutions": [
        [
          "Where",
          "is",
          "the",
          "Vitoria",
          "train"
        ]
      ],
      "formattedSolution": "Where is the Vitoria train?",
      "id": "292baa54484d",
      "priority": 2,
      "group": "a7731a592035"
    },
    {
      "type": "options",
      "formInTargetLanguage": "Hor dago Donostiako bidea.",
      "meaningInSourceLanguage": "There is the San Sebastian road.",
      "id": "df57c55ea464",
      "priority": 0,
      "group": "7ddb826d84ee"
    },
    {
      "type": "chips",
      "translatesToSourceLanguage": false,
      "phrase": [
        {
          "word": "There",
          "definition": "han\nhor"
        },
        {
          "word": "is",
          "definition": "da\nda (izan)\ndago\ndago (egon)"
        },
        {
          "word": "the",
          "definition": "-a"
        },
        {
          "word": "San",
          "definition": "santua (saint)"
        },
        {
          "word": "Sebastian",
          "definition": "Saint Sebastian\nSebastian"
        },
        {
          "word": "road.",
          "definition": "bide"
        }
      ],
      "chips": [
        "Hor",
        "dago",
        "Donostiako",
        "bidea",
        "doa",
        "da",
        "nago"
      ],
      "solutions": [
        [
          "Hor",
          "dago",
          "Donostiako",
          "bidea"
        ]
      ],
      "formattedSolution": "Hor dago Donostiako bidea.",
      "id": "ba5a0581389b",
      "priority": 2,
      "group": "7ddb826d84ee"
    },
    {
      "type": "chips",
      "translatesToSourceLanguage": true,
      "phrase": [
        {
          "word": "Hor",
          "definition": "there"
        },
        {
          "word": "dago",
          "definition": "he is (egon)\nis\nit is (egon)\nshe is (egon)"
        },
        {
          "word": "Donostiako",
          "definition": "from San Sebastian\nof San Sebastian"
        },
        {
          "word": "bidea.",
          "definition": "road"
        }
      ],
      "chips": [
        "There",
        "is",
        "the",
        "San",
        "Sebastian",
        "road",
        "She",
        "See",
        "an",
        "eat",
        "ran"
      ],
      "solutions": [
        [
          "There",
          "is",
          "the",
          "San",
          "Sebastian",
          "road"
        ]
      ],
      "formattedSolution": "There is the San Sebastian road.",
      "id": "116ec02f2737",
      "priority": 2,
      "group": "7ddb826d84ee"
    },
    {
      "type": "options",
      "formInTargetLanguage": "Nongoa zara zu?",
      "meaningInSourceLanguage": "Where are you from?",
      "id": "ea3f6df0b0d5",
      "priority": 0,
      "group": "455276e9ce44"
    },
    {
      "type": "chips",
      "translatesToSourceLanguage": false,
      "phrase": [
        {
          "word": "Where",
          "definition": "non\nnondik (from)\nnora (to)"
        },
        {
          "word": "are",
          "definition": "daude\ndaude (egon)\ndaude (izan)\ndira\ndira (izan)\ngara\ngara (izan)\ngare\ngaude (egon)\nzara\nzara (izan)\nzarete\nzarete (izan)\nzaude  (egon)\nzaude (egon)\nzaudete (egon)"
        },
        {
          "word": "you",
          "definition": "zu\nzuek"
        },
        {
          "word": "from?",
          "definition": "part of Ablative case"
        }
      ],
      "chips": [
        "Nongoa",
        "zara",
        "zu",
        "ona",
        "Nora"
      ],
      "solutions": [
        [
          "Nongoa",
          "zara",
          "zu"
        ],
        [
          "Nongoa",
          "zara"
        ]
      ],
      "formattedSolution": "Nongoa zara zu?",
      "id": "9fc9041c90a6",
      "priority": 2,
      "group": "455276e9ce44"
    },
    {
      "type": "chips",
      "translatesToSourceLanguage": true,
      "phrase": [
        {
          "word": "Nongoa",
          "definition": "chef\nfrom which place\nof which place"
        },
        {
          "word": "zara",
          "definition": "are\nyou are (izan)"
        },
        {
          "word": "zu?",
          "definition": "you"
        }
      ],
      "chips": [
        "Where",
        "are",
        "you",
        "from",
        "Are",
        "or",
        "hee"
      ],
      "solutions": [
        [
          "Where",
          "are",
          "you",
          "from"
        ]
      ],
      "formattedSolution": "Where are you from?",
      "id": "2245fe506612",
      "priority": 2,
      "group": "455276e9ce44"
    },
    {
      "type": "options",
      "formInTargetLanguage": "Ni Bilbokoa naiz, baina Donostian bizi naiz.",
      "meaningInSourceLanguage": "I am from Bilbao, but I live in San Sebastian.",
      "id": "bd8835283b6f",
      "priority": 0,
      "group": "c7a9c4b8898a"
    },
    {
      "type": "chips",
      "translatesToSourceLanguage": false,
      "phrase": [
        {
          "word": "I",
          "definition": "ni"
        },
        {
          "word": "am",
          "definition": "NORTAZ case\nnago (egon)\nnaiz\nnaiz (izan)"
        },
        {
          "word": "from",
          "definition": "part of Ablative case"
        },
        {
          "word": "Bilbao,",
          "definition": "Bilbo"
        },
        {
          "word": "but",
          "definition": "baina\nbaina, baizik"
        },
        {
          "word": "I",
          "definition": "ni"
        },
        {
          "word": "live",
          "definition": "bizi\nbizi + izan\nbizitzea"
        },
        {
          "word": "in",
          "definition": "Inessive case\nNON case, not a word"
        },
        {
          "word": "San",
          "definition": "santua (saint)"
        },
        {
          "word": "Sebastian.",
          "definition": "Saint Sebastian\nSebastian"
        }
      ],
      "chips": [
        "Ni",
        "Bilbokoa",
        "naiz",
        "baina",
        "Donostian",
        "bizi",
        "naiz",
        "ni",
        "nik",
        "Bai",
        "bi",
        "aita",
        "Noiz"
      ],
      "solutions": [
        [
          "Ni",
          "Bilbokoa",
          "naiz",
          "baina",
          "Donostian",
          "bizi",
          "naiz"
        ],
        [
          "Ni",
          "Bilbokoa",
          "naiz",
          "baina",
          "ni",
          "Donostian",
          "bizi",
          "naiz"
        ],
        [
          "Bilbokoa",
          "naiz",
          "baina",
          "ni",
          "Donostian",
          "bizi",
          "naiz"
        ],
        [
          "Bilbokoa",
          "naiz",
          "baina",
          "Donostian",
          "bizi",
          "naiz"
        ]
      ],
      "formattedSolution": "Ni Bilbokoa naiz, baina Donostian bizi naiz.",
      "id": "e097b4c71e5c",
      "priority": 2,
      "group": "c7a9c4b8898a"
    },
    {
      "type": "chips",
      "translatesToSourceLanguage": true,
      "phrase": [
        {
          "word": "Ni",
          "definition": "I\nme"
        },
        {
          "word": "Bilbokoa",
          "definition": "of  Bilbao"
        },
        {
          "word": "naiz,",
          "definition": "I am (izan)\nam\nam (izan)"
        },
        {
          "word": "baina",
          "definition": "but\nbut(contrast)"
        },
        {
          "word": "Donostian",
          "definition": "in San Sebastian"
        },
        {
          "word": "bizi",
          "definition": "live"
        },
        {
          "word": "naiz.",
          "definition": "I am (izan)\nam\nam (izan)"
        }
      ],
      "chips": [
        "I",
        "am",
        "from",
        "Bilbao",
        "but",
        "I",
        "live",
        "in",
        "San",
        "Sebastian",
        "an",
        "a",
        "at",
        "it",
        "In",
        "bo",
        "is",
        "on",
        "be"
      ],
      "solutions": [
        [
          "I",
          "am",
          "from",
          "Bilbao",
          "but",
          "I",
          "live",
          "in",
          "San",
          "Sebastian"
        ]
      ],
      "formattedSolution": "I am from Bilbao, but I live in San Sebastian.",
      "id": "87913fbef22d",
      "priority": 2,
      "group": "c7a9c4b8898a"
    },
    {
      "type": "options",
      "formInTargetLanguage": "Zu Espainiakoa zara?",
      "meaningInSourceLanguage": "Are you from Spain?",
      "id": "b837953180c4",
      "priority": 0,
      "group": "303a5809fc15"
    },
    {
      "type": "chips",
      "translatesToSourceLanguage": false,
      "phrase": [
        {
          "word": "Are",
          "definition": "daude\ndaude (egon)\ndaude (izan)\ndira\ndira (izan)\ngara\ngara (izan)\ngare\ngaude (egon)\nzara\nzara (izan)\nzarete\nzarete (izan)\nzaude  (egon)\nzaude (egon)\nzaudete (egon)"
        },
        {
          "word": "you",
          "definition": "zu\nzuek"
        },
        {
          "word": "from",
          "definition": "part of Ablative case"
        },
        {
          "word": "Spain?",
          "definition": "Espainia"
        }
      ],
      "chips": [
        "Zu",
        "Espainiakoa",
        "zara",
        "Epa",
        "gara"
      ],
      "solutions": [
        [
          "Zu",
          "Espainiakoa",
          "zara"
        ],
        [
          "Espainiakoa",
          "zara"
        ]
      ],
      "formattedSolution": "Zu Espainiakoa zara?",
      "id": "e99a601e6ece",
      "priority": 2,
      "group": "303a5809fc15"
    },
    {
      "type": "chips",
      "translatesToSourceLanguage": true,
      "phrase": [
        {
          "word": "Zu",
          "definition": "you"
        },
        {
          "word": "Espainiakoa",
          "definition": "of Spain"
        },
        {
          "word": "zara?",
          "definition": "are\nyou are (izan)"
        }
      ],
      "chips": [
        "Are",
        "you",
        "from",
        "Spain",
        "are",
        "You",
        "Jon"
      ],
      "solutions": [
        [
          "Are",
          "you",
          "from",
          "Spain"
        ]
      ],
      "formattedSolution": "Are you from Spain?",
      "id": "0ceaa0679f7f",
      "priority": 2,
      "group": "303a5809fc15"
    },
    {
      "type": "options",
      "formInTargetLanguage": "Ez. Ni ez naiz Irungoa. Ni Bilbokoa naiz.",
      "meaningInSourceLanguage": "No.  I am not from Irun. I am from Bilbao.",
      "id": "2d78cacc81b0",
      "priority": 0,
      "group": "65d2dc1f5a32"
    },
    {
      "type": "chips",
      "translatesToSourceLanguage": false,
      "phrase": [
        {
          "word": "No.",
          "definition": "ez"
        },
        {
          "word": "I",
          "definition": "ni"
        },
        {
          "word": "am",
          "definition": "NORTAZ case\nnago (egon)\nnaiz\nnaiz (izan)"
        },
        {
          "word": "not",
          "definition": "ez"
        },
        {
          "word": "from",
          "definition": "part of Ablative case"
        },
        {
          "word": "Irun.",
          "definition": "Irun\nIrun (city)"
        },
        {
          "word": "I",
          "definition": "ni"
        },
        {
          "word": "am",
          "definition": "NORTAZ case\nnago (egon)\nnaiz\nnaiz (izan)"
        },
        {
          "word": "from",
          "definition": "part of Ablative case"
        },
        {
          "word": "Bilbao.",
          "definition": "Bilbo"
        }
      ],
      "chips": [
        "Ez",
        "Ni",
        "ez",
        "naiz",
        "Irungoa",
        "Ni",
        "Bilbokoa",
        "naiz",
        "ni",
        "bi",
        "nik",
        "da",
        "al",
        "Bai",
        "Noiz"
      ],
      "solutions": [
        [
          "Ez",
          "Ni",
          "ez",
          "naiz",
          "Irungoa",
          "Ni",
          "Bilbokoa",
          "naiz"
        ]
      ],
      "formattedSolution": "Ez. Ni ez naiz Irungoa. Ni Bilbokoa naiz.",
      "id": "ee2098e06905",
      "priority": 2,
      "group": "65d2dc1f5a32"
    },
    {
      "type": "chips",
      "translatesToSourceLanguage": true,
      "phrase": [
        {
          "word": "Ez.",
          "definition": "no\nnot\nnot, no\nnot,no"
        },
        {
          "word": "Ni",
          "definition": "I\nme"
        },
        {
          "word": "ez",
          "definition": "no\nnot\nnot, no\nnot,no"
        },
        {
          "word": "naiz",
          "definition": "I am (izan)\nam\nam (izan)"
        },
        {
          "word": "Irungoa.",
          "definition": "of Irun"
        },
        {
          "word": "Ni",
          "definition": "I\nme"
        },
        {
          "word": "Bilbokoa",
          "definition": "of  Bilbao"
        },
        {
          "word": "naiz.",
          "definition": "I am (izan)\nam\nam (izan)"
        }
      ],
      "chips": [
        "No",
        "I",
        "am",
        "not",
        "from",
        "Irun",
        "I",
        "am",
        "from",
        "Bilbao",
        "no",
        "bo",
        "a",
        "Do",
        "go",
        "to",
        "so",
        "or",
        "an"
      ],
      "solutions": [
        [
          "No",
          "I",
          "am",
          "not",
          "from",
          "Irun",
          "I",
          "am",
          "from",
          "Bilbao"
        ]
      ],
      "formattedSolution": "No.  I am not from Irun. I am from Bilbao.",
      "id": "25f4b6679570",
      "priority": 2,
      "group": "65d2dc1f5a32"
    },
    {
      "type": "options",
      "formInTargetLanguage": "Nongoa da hura?",
      "meaningInSourceLanguage": "Where is she from?",
      "id": "3d279819f243",
      "priority": 0,
      "group": "5ad8f60de2ed"
    },
    {
      "type": "chips",
      "translatesToSourceLanguage": false,
      "phrase": [
        {
          "word": "Where",
          "definition": "non\nnondik (from)\nnora (to)"
        },
        {
          "word": "is",
          "definition": "da\nda (izan)\ndago\ndago (egon)"
        },
        {
          "word": "she",
          "definition": "hura"
        },
        {
          "word": "from?",
          "definition": "part of Ablative case"
        }
      ],
      "chips": [
        "Nongoa",
        "da",
        "hura",
        "ona",
        "Nora"
      ],
      "solutions": [
        [
          "Nongoa",
          "da",
          "hura"
        ],
        [
          "Nongoa",
          "da"
        ]
      ],
      "formattedSolution": "Nongoa da hura?",
      "id": "bf7241d5d0ba",
      "priority": 2,
      "group": "5ad8f60de2ed"
    },
    {
      "type": "chips",
      "translatesToSourceLanguage": true,
      "phrase": [
        {
          "word": "Nongoa",
          "definition": "chef\nfrom which place\nof which place"
        },
        {
          "word": "da",
          "definition": "he is (izan)\nis\nit is (izan)\nshe is (izan)"
        },
        {
          "word": "hura?",
          "definition": "he\nit\nitr\nshe\nthat over there"
        }
      ],
      "chips": [
        "Where",
        "is",
        "she",
        "from",
        "are",
        "the",
        "She"
      ],
      "solutions": [
        [
          "Where",
          "is",
          "she",
          "from"
        ],
        [
          "Where",
          "is",
          "he",
          "from"
        ],
        [
          "Where",
          "is",
          "it",
          "from"
        ]
      ],
      "formattedSolution": "Where is she from?",
      "id": "f534d9b58a0c",
      "priority": 2,
      "group": "5ad8f60de2ed"
    },
    {
      "type": "options",
      "formInTargetLanguage": "Hura Espainiakoa da, baina Alemanian bizi da.",
      "meaningInSourceLanguage": "He is from Spain, but he lives in Germany.",
      "id": "5829ead04d64",
      "priority": 0,
      "group": "e949eaa0916a"
    },
    {
      "type": "chips",
      "translatesToSourceLanguage": false,
      "phrase": [
        {
          "word": "He",
          "definition": "hura"
        },
        {
          "word": "is",
          "definition": "da\nda (izan)\ndago\ndago (egon)"
        },
        {
          "word": "from",
          "definition": "part of Ablative case"
        },
        {
          "word": "Spain,",
          "definition": "Espainia"
        },
        {
          "word": "but",
          "definition": "baina\nbaina, baizik"
        },
        {
          "word": "he",
          "definition": "hura"
        },
        {
          "word": "lives",
          "definition": "bizi\nbizi + izan"
        },
        {
          "word": "in",
          "definition": "Inessive case\nNON case, not a word"
        },
        {
          "word": "Germany.",
          "definition": "Alemania"
        }
      ],
      "chips": [
        "Hura",
        "Espainiakoa",
        "da",
        "baina",
        "Alemanian",
        "bizi",
        "da",
        "mina",
        "dira",
        "aita",
        "Bai",
        "gida",
        "ona"
      ],
      "solutions": [
        [
          "Hura",
          "Espainiakoa",
          "da",
          "baina",
          "Alemanian",
          "bizi",
          "da"
        ],
        [
          "Espainiakoa",
          "da",
          "baina",
          "Alemanian",
          "bizi",
          "da"
        ]
      ],
      "formattedSolution": "Hura Espainiakoa da, baina Alemanian bizi da.",
      "id": "e78aab7eb36b",
      "priority": 2,
      "group": "e949eaa0916a"
    },
    {
      "type": "chips",
      "translatesToSourceLanguage": true,
      "phrase": [
        {
          "word": "Hura",
          "definition": "he\nit\nitr\nshe\nthat over there"
        },
        {
          "word": "Espainiakoa",
          "definition": "of Spain"
        },
        {
          "word": "da,",
          "definition": "he is (izan)\nis\nit is (izan)\nshe is (izan)"
        },
        {
          "word": "baina",
          "definition": "but\nbut(contrast)"
        },
        {
          "word": "Alemanian",
          "definition": "in Germany"
        },
        {
          "word": "bizi",
          "definition": "live"
        },
        {
          "word": "da.",
          "definition": "he is (izan)\nis\nit is (izan)\nshe is (izan)"
        }
      ],
      "chips": [
        "He",
        "is",
        "from",
        "Spain",
        "but",
        "he",
        "lives",
        "in",
        "Germany",
        "it",
        "an",
        "be",
        "We",
        "me",
        "pen",
        "on",
        "lie"
      ],
      "solutions": [
        [
          "He",
          "is",
          "from",
          "Spain",
          "but",
          "he",
          "lives",
          "in",
          "Germany"
        ],
        [
          "She",
          "is",
          "from",
          "Spain",
          "but",
          "she",
          "lives",
          "in",
          "Germany"
        ]
      ],
      "formattedSolution": "He is from Spain, but he lives in Germany.",
      "id": "d3ac1251575e",
      "priority": 2,
      "group": "e949eaa0916a"
    },
    {
      "type": "options",
      "formInTargetLanguage": "Haiek Alemaniakoak dira?",
      "meaningInSourceLanguage": "Are they from Germany?",
      "id": "7f5e79d5bbd2",
      "priority": 0,
      "group": "0d8f33297a03"
    },
    {
      "type": "chips",
      "translatesToSourceLanguage": false,
      "phrase": [
        {
          "word": "Are",
          "definition": "daude\ndaude (egon)\ndaude (izan)\ndira\ndira (izan)\ngara\ngara (izan)\ngare\ngaude (egon)\nzara\nzara (izan)\nzarete\nzarete (izan)\nzaude  (egon)\nzaude (egon)\nzaudete (egon)"
        },
        {
          "word": "they",
          "definition": "haiek"
        },
        {
          "word": "from",
          "definition": "part of Ablative case"
        },
        {
          "word": "Germany?",
          "definition": "Alemania"
        }
      ],
      "chips": [
        "Haiek",
        "Alemaniakoak",
        "dira",
        "haiek",
        "aita"
      ],
      "solutions": [
        [
          "Haiek",
          "Alemaniakoak",
          "dira"
        ],
        [
          "Alemaniakoak",
          "dira"
        ]
      ],
      "formattedSolution": "Haiek Alemaniakoak dira?",
      "id": "cbdfa3f87b1a",
      "priority": 2,
      "group": "0d8f33297a03"
    },
    {
      "type": "chips",
      "translatesToSourceLanguage": true,
      "phrase": [
        {
          "word": "Haiek",
          "definition": "they\nthose over there, plural of hura"
        },
        {
          "word": "Alemaniakoak",
          "definition": "of Germany"
        },
        {
          "word": "dira?",
          "definition": "are\nare (izan)"
        }
      ],
      "chips": [
        "Are",
        "they",
        "from",
        "Germany",
        "grey",
        "are",
        "gray"
      ],
      "solutions": [
        [
          "Are",
          "they",
          "from",
          "Germany"
        ]
      ],
      "formattedSolution": "Are they from Germany?",
      "id": "df391fc09a0f",
      "priority": 2,
      "group": "0d8f33297a03"
    },
    {
      "type": "options",
      "formInTargetLanguage": "Ez. Ez dira Alemaniakoak. Haiek Bilbokoa dira.",
      "meaningInSourceLanguage": "No they are not from Germany. They are from Bilbao.",
      "id": "c352057e9f3c",
      "priority": 0,
      "group": "bc922a51c500"
    },
    {
      "type": "chips",
      "translatesToSourceLanguage": false,
      "phrase": [
        {
          "word": "No",
          "definition": "ez"
        },
        {
          "word": "they",
          "definition": "haiek"
        },
        {
          "word": "are",
          "definition": "daude\ndaude (egon)\ndaude (izan)\ndira\ndira (izan)\ngara\ngara (izan)\ngare\ngaude (egon)\nzara\nzara (izan)\nzarete\nzarete (izan)\nzaude  (egon)\nzaude (egon)\nzaudete (egon)"
        },
        {
          "word": "not",
          "definition": "ez"
        },
        {
          "word": "from",
          "definition": "part of Ablative case"
        },
        {
          "word": "Germany.",
          "definition": "Alemania"
        },
        {
          "word": "They",
          "definition": "haiek"
        },
        {
          "word": "are",
          "definition": "daude\ndaude (egon)\ndaude (izan)\ndira\ndira (izan)\ngara\ngara (izan)\ngare\ngaude (egon)\nzara\nzara (izan)\nzarete\nzarete (izan)\nzaude  (egon)\nzaude (egon)\nzaudete (egon)"
        },
        {
          "word": "from",
          "definition": "part of Ablative case"
        },
        {
          "word": "Bilbao.",
          "definition": "Bilbo"
        }
      ],
      "chips": [
        "Ez",
        "Ez",
        "dira",
        "Alemaniakoak",
        "Haiek",
        "Bilbokoa",
        "dira",
        "da",
        "aita",
        "mila",
        "nik",
        "doa",
        "mina"
      ],
      "solutions": [
        [
          "Ez",
          "Ez",
          "dira",
          "Alemaniakoak",
          "Haiek",
          "Bilbokoa",
          "dira"
        ],
        [
          "Ez",
          "Haiek",
          "ez",
          "dira",
          "Alemaniakoak",
          "Haiek",
          "Bilbokoa",
          "dira"
        ],
        [
          "Ez",
          "Haiek",
          "ez",
          "dira",
          "Alemaniakoak",
          "Bilbokoa",
          "dira"
        ],
        [
          "Ez",
          "Ez",
          "dira",
          "Alemaniakoak",
          "Bilbokoa",
          "dira"
        ]
      ],
      "formattedSolution": "Ez. Ez dira Alemaniakoak. Haiek Bilbokoa dira.",
      "id": "67f38e726392",
      "priority": 2,
      "group": "bc922a51c500"
    },
    {
      "type": "chips",
      "translatesToSourceLanguage": true,
      "phrase": [
        {
          "word": "Ez.",
          "definition": "no\nnot\nnot, no\nnot,no"
        },
        {
          "word": "Ez",
          "definition": "no\nnot\nnot, no\nnot,no"
        },
        {
          "word": "dira",
          "definition": "are\nare (izan)"
        },
        {
          "word": "Alemaniakoak.",
          "definition": "of Germany"
        },
        {
          "word": "Haiek",
          "definition": "they\nthose over there, plural of hura"
        },
        {
          "word": "Bilbokoa",
          "definition": "of  Bilbao"
        },
        {
          "word": "dira.",
          "definition": "are\nare (izan)"
        }
      ],
      "chips": [
        "No",
        "they",
        "are",
        "not",
        "from",
        "Germany",
        "They",
        "are",
        "from",
        "Bilbao",
        "Are",
        "boy",
        "grey",
        "dry",
        "no",
        "cry",
        "am",
        "the",
        "or"
      ],
      "solutions": [
        [
          "No",
          "they",
          "are",
          "not",
          "from",
          "Germany",
          "They",
          "are",
          "from",
          "Bilbao"
        ]
      ],
      "formattedSolution": "No they are not from Germany. They are from Bilbao.",
      "id": "747eb4681a0e",
      "priority": 2,
      "group": "bc922a51c500"
    },
    {
      "type": "cards",
      "pictures": [
        "nothing.jpg",
        "nothing.jpg",
        "nothing.jpg"
      ],
      "formInTargetLanguage": "Alemaniako",
      "meaningInSourceLanguage": "from Germany",
      "id": "bd61f3b37f8d",
      "priority": 0,
      "group": "7a76e62b9854"
    },
    {
      "type": "shortInput",
      "pictures": [
        "nothing.jpg",
        "nothing.jpg",
        "nothing.jpg"
      ],
      "formInTargetLanguage": [
        "Alemaniako"
      ],
      "phrase": [
        {
          "word": "from",
          "definition": "part of Ablative case"
        },
        {
          "word": "Germany",
          "definition": "Alemania"
        }
      ],
      "id": "3e464a53f0e7",
      "priority": 1,
      "group": "7a76e62b9854"
    },
    {
      "type": "cards",
      "pictures": [
        "nothing.jpg",
        "nothing.jpg",
        "nothing.jpg"
      ],
      "formInTargetLanguage": "Bilboko",
      "meaningInSourceLanguage": "from  Bilbao",
      "id": "e50e9a50be1f",
      "priority": 0,
      "group": "ff8911b7d835"
    },
    {
      "type": "shortInput",
      "pictures": [
        "nothing.jpg",
        "nothing.jpg",
        "nothing.jpg"
      ],
      "formInTargetLanguage": [
        "Bilboko"
      ],
      "phrase": [
        {
          "word": "from",
          "definition": "part of Ablative case"
        },
        {
          "word": "Bilbao",
          "definition": "Bilbo"
        }
      ],
      "id": "eddebee48b51",
      "priority": 1,
      "group": "ff8911b7d835"
    },
    {
      "type": "cards",
      "pictures": [
        "nothing.jpg",
        "nothing.jpg",
        "nothing.jpg"
      ],
      "formInTargetLanguage": "Espainiako",
      "meaningInSourceLanguage": "from Spain",
      "id": "d714f5177920",
      "priority": 0,
      "group": "8e5d7bcfa6d5"
    },
    {
      "type": "shortInput",
      "pictures": [
        "nothing.jpg",
        "nothing.jpg",
        "nothing.jpg"
      ],
      "formInTargetLanguage": [
        "Espainiako"
      ],
      "phrase": [
        {
          "word": "from",
          "definition": "part of Ablative case"
        },
        {
          "word": "Spain",
          "definition": "Espainia"
        }
      ],
      "id": "fc617dffb52c",
      "priority": 1,
      "group": "8e5d7bcfa6d5"
    },
    {
      "type": "cards",
      "pictures": [
        "nothing.jpg",
        "nothing.jpg",
        "nothing.jpg"
      ],
      "formInTargetLanguage": "Gasteizeko",
      "meaningInSourceLanguage": "from Vitoria",
      "id": "80b4ab0b9edc",
      "priority": 0,
      "group": "deb33241db95"
    },
    {
      "type": "shortInput",
      "pictures": [
        "nothing.jpg",
        "nothing.jpg",
        "nothing.jpg"
      ],
      "formInTargetLanguage": [
        "Gasteizeko"
      ],
      "phrase": [
        {
          "word": "from",
          "definition": "part of Ablative case"
        },
        {
          "word": "Vitoria",
          "definition": "Gasteiz\nGasteiz (city in Basque Country)\nGasteiz (city)"
        }
      ],
      "id": "a9b3565f9a7c",
      "priority": 1,
      "group": "deb33241db95"
    },
    {
      "type": "cards",
      "pictures": [
        "nothing.jpg",
        "nothing.jpg",
        "nothing.jpg"
      ],
      "formInTargetLanguage": "Irungo",
      "meaningInSourceLanguage": "from Irun",
      "id": "068d0ce39567",
      "priority": 0,
      "group": "755b77d6b69d"
    },
    {
      "type": "shortInput",
      "pictures": [
        "nothing.jpg",
        "nothing.jpg",
        "nothing.jpg"
      ],
      "formInTargetLanguage": [
        "Irungo"
      ],
      "phrase": [
        {
          "word": "from",
          "definition": "part of Ablative case"
        },
        {
          "word": "Irun",
          "definition": "Irun\nIrun (city)"
        }
      ],
      "id": "28301fc4cf19",
      "priority": 1,
      "group": "755b77d6b69d"
    },
    {
      "type": "cards",
      "pictures": [
        "nothing.jpg",
        "nothing.jpg",
        "nothing.jpg"
      ],
      "formInTargetLanguage": "Donostiako",
      "meaningInSourceLanguage": "from San Sebastian",
      "id": "059deb3455a0",
      "priority": 0,
      "group": "000fd345aa7d"
    },
    {
      "type": "shortInput",
      "pictures": [
        "nothing.jpg",
        "nothing.jpg",
        "nothing.jpg"
      ],
      "formInTargetLanguage": [
        "Donostiako"
      ],
      "phrase": [
        {
          "word": "from",
          "definition": "part of Ablative case"
        },
        {
          "word": "San",
          "definition": "santua (saint)"
        },
        {
          "word": "Sebastian",
          "definition": "Saint Sebastian\nSebastian"
        }
      ],
      "id": "878d5f436fd9",
      "priority": 1,
      "group": "000fd345aa7d"
    },
    {
      "type": "cards",
      "pictures": [
        "nothing.jpg",
        "nothing.jpg",
        "nothing.jpg"
      ],
      "formInTargetLanguage": "bide",
      "meaningInSourceLanguage": "road",
      "id": "2488a6096eb4",
      "priority": 0,
      "group": "49ad6f14dea9"
    },
    {
      "type": "shortInput",
      "pictures": [
        "nothing.jpg",
        "nothing.jpg",
        "nothing.jpg"
      ],
      "formInTargetLanguage": [
        "bide"
      ],
      "phrase": [
        {
          "word": "road",
          "definition": "bide"
        }
      ],
      "id": "48caaac5c252",
      "priority": 1,
      "group": "49ad6f14dea9"
    },
    {
      "type": "cards",
      "pictures": [
        "nothing.jpg",
        "nothing.jpg",
        "nothing.jpg"
      ],
      "formInTargetLanguage": "nongoa",
      "meaningInSourceLanguage": "chef",
      "id": "1c658511abc7",
      "priority": 0,
      "group": "f43ac60e148d"
    },
    {
      "type": "shortInput",
      "pictures": [
        "nothing.jpg",
        "nothing.jpg",
        "nothing.jpg"
      ],
      "formInTargetLanguage": [
        "nongoa"
      ],
      "phrase": [
        {
          "word": "chef",
          "definition": "nongoa\nsukaldaria"
        }
      ],
      "id": "496701aa0514",
      "priority": 1,
      "group": "f43ac60e148d"
    }
  ]
}