{
  "id": "e6adfd1e833d",
  "levels": 4,
  "challenges": [
    {
      "type": "options",
      "formInTargetLanguage": "Apaizaren eliza polita eta zuria da.",
      "meaningInSourceLanguage": "The priest's church is pretty and white.",
      "id": "0a9b6c097b80",
      "priority": 0,
      "group": "a0d43ad90bc4"
    },
    {
      "type": "chips",
      "translatesToSourceLanguage": false,
      "phrase": [
        {
          "word": "The",
          "definition": "-a"
        },
        {
          "word": "priest's",
          "definition": "apaizaren"
        },
        {
          "word": "church",
          "definition": "eliza"
        },
        {
          "word": "is",
          "definition": "da\nda (izan)\ndago\ndago (egon)"
        },
        {
          "word": "pretty",
          "definition": "polit"
        },
        {
          "word": "and",
          "definition": "eta"
        },
        {
          "word": "white.",
          "definition": "zuri\nzuria"
        }
      ],
      "chips": [
        "Apaizaren",
        "eliza",
        "polita",
        "eta",
        "zuria",
        "da",
        "aita",
        "dira",
        "Eliza",
        "Apiza",
        "euria"
      ],
      "solutions": [
        [
          "Apaizaren",
          "eliza",
          "polita",
          "eta",
          "zuria",
          "da"
        ]
      ],
      "formattedSolution": "Apaizaren eliza polita eta zuria da.",
      "id": "218fe233b7ac",
      "priority": 2,
      "group": "a0d43ad90bc4"
    },
    {
      "type": "chips",
      "translatesToSourceLanguage": true,
      "phrase": [
        {
          "word": "Apaizaren",
          "definition": "priest's\nthe priest's\nthe priest’s"
        },
        {
          "word": "eliza",
          "definition": "church"
        },
        {
          "word": "polita",
          "definition": "pretty"
        },
        {
          "word": "eta",
          "definition": "and"
        },
        {
          "word": "zuria",
          "definition": "white"
        },
        {
          "word": "da.",
          "definition": "he is (izan)\nis\nit is (izan)\nshe is (izan)"
        }
      ],
      "chips": [
        "The",
        "priest's",
        "church",
        "is",
        "pretty",
        "and",
        "white",
        "are",
        "the",
        "She",
        "it",
        "his",
        "lie"
      ],
      "solutions": [
        [
          "The",
          "priest's",
          "church",
          "is",
          "pretty",
          "and",
          "white"
        ],
        [
          "The",
          "church",
          "of",
          "the",
          "priest",
          "is",
          "pretty",
          "and",
          "white"
        ]
      ],
      "formattedSolution": "The priest's church is pretty and white.",
      "id": "6143d35e2821",
      "priority": 2,
      "group": "a0d43ad90bc4"
    },
    {
      "type": "options",
      "formInTargetLanguage": "Etxekoandrearen etxea berria eta berdea da.",
      "meaningInSourceLanguage": "The housewife's house is new and green.",
      "id": "11c047442033",
      "priority": 0,
      "group": "b0be7d3d44fa"
    },
    {
      "type": "chips",
      "translatesToSourceLanguage": false,
      "phrase": [
        {
          "word": "The",
          "definition": "-a"
        },
        {
          "word": "housewife's",
          "definition": "etxekoandrearen"
        },
        {
          "word": "house",
          "definition": "etxe\netxea"
        },
        {
          "word": "is",
          "definition": "da\nda (izan)\ndago\ndago (egon)"
        },
        {
          "word": "new",
          "definition": "berri"
        },
        {
          "word": "and",
          "definition": "eta"
        },
        {
          "word": "green.",
          "definition": "berde"
        }
      ],
      "chips": [
        "Etxekoandrearen",
        "etxea",
        "berria",
        "eta",
        "berdea",
        "da",
        "berea",
        "ere",
        "beroa",
        "esnea",
        "Eta"
      ],
      "solutions": [
        [
          "Etxekoandrearen",
          "etxea",
          "berria",
          "eta",
          "berdea",
          "da"
        ]
      ],
      "formattedSolution": "Etxekoandrearen etxea berria eta berdea da.",
      "id": "04d85e58dd46",
      "priority": 2,
      "group": "b0be7d3d44fa"
    },
    {
      "type": "chips",
      "translatesToSourceLanguage": true,
      "phrase": [
        {
          "word": "Etxekoandrearen",
          "definition": "housewife's\nthe housewife's\nthe housewife’s"
        },
        {
          "word": "etxea",
          "definition": "house"
        },
        {
          "word": "berria",
          "definition": "new"
        },
        {
          "word": "eta",
          "definition": "and"
        },
        {
          "word": "berdea",
          "definition": "green"
        },
        {
          "word": "da.",
          "definition": "he is (izan)\nis\nit is (izan)\nshe is (izan)"
        }
      ],
      "chips": [
        "The",
        "housewife's",
        "house",
        "is",
        "new",
        "and",
        "green",
        "hee",
        "use",
        "one",
        "See",
        "his",
        "are"
      ],
      "solutions": [
        [
          "The",
          "housewife's",
          "house",
          "is",
          "new",
          "and",
          "green"
        ],
        [
          "The",
          "house",
          "of",
          "the",
          "housewife",
          "is",
          "new",
          "and",
          "green"
        ]
      ],
      "formattedSolution": "The housewife's house is new and green.",
      "id": "6381c65521df",
      "priority": 2,
      "group": "b0be7d3d44fa"
    },
    {
      "type": "options",
      "formInTargetLanguage": "Emakumearen katuak txikiak eta laranjak ziren.",
      "meaningInSourceLanguage": "The woman's cats were small and orange.",
      "id": "83f0f9122e94",
      "priority": 0,
      "group": "754c88421ea1"
    },
    {
      "type": "chips",
      "translatesToSourceLanguage": false,
      "phrase": [
        {
          "word": "The",
          "definition": "-a"
        },
        {
          "word": "woman's",
          "definition": "emakumearen"
        },
        {
          "word": "cats",
          "definition": "katuak"
        },
        {
          "word": "were",
          "definition": "geunden (we) (egon)\nginen\nginen (izan)\nzeuden (they) (egon)\nzeunden  (you) (egon)\nzeundeten (you (plural)) (egon)\nzinen\nzinen (izan)\nzineten\nzineten (izan)\nziren\nziren (izan)"
        },
        {
          "word": "small",
          "definition": "txiki"
        },
        {
          "word": "and",
          "definition": "eta"
        },
        {
          "word": "orange.",
          "definition": "laranja"
        }
      ],
      "chips": [
        "Emakumearen",
        "katuak",
        "txikiak",
        "eta",
        "laranjak",
        "ziren",
        "ateak",
        "katua",
        "Jakak",
        "lakuan",
        "Katuak"
      ],
      "solutions": [
        [
          "Emakumearen",
          "katuak",
          "txikiak",
          "eta",
          "laranjak",
          "ziren"
        ]
      ],
      "formattedSolution": "Emakumearen katuak txikiak eta laranjak ziren.",
      "id": "59fd2e6ab58c",
      "priority": 2,
      "group": "754c88421ea1"
    },
    {
      "type": "chips",
      "translatesToSourceLanguage": true,
      "phrase": [
        {
          "word": "Emakumearen",
          "definition": "the woman's\nthe woman’s\nwoman's"
        },
        {
          "word": "katuak",
          "definition": "cats"
        },
        {
          "word": "txikiak",
          "definition": "small"
        },
        {
          "word": "eta",
          "definition": "and"
        },
        {
          "word": "laranjak",
          "definition": "orange"
        },
        {
          "word": "ziren.",
          "definition": "they were\nwere"
        }
      ],
      "chips": [
        "The",
        "woman's",
        "cats",
        "were",
        "small",
        "and",
        "orange",
        "man",
        "are",
        "male",
        "ate",
        "one",
        "was"
      ],
      "solutions": [
        [
          "The",
          "woman's",
          "cats",
          "were",
          "small",
          "and",
          "orange"
        ],
        [
          "The",
          "cats",
          "of",
          "the",
          "woman",
          "were",
          "small",
          "and",
          "orange"
        ]
      ],
      "formattedSolution": "The woman's cats were small and orange.",
      "id": "de302da8b316",
      "priority": 2,
      "group": "754c88421ea1"
    },
    {
      "type": "options",
      "formInTargetLanguage": "Gidariaren autobusa horia eta motela da.",
      "meaningInSourceLanguage": "The driver's bus is yellow and slow.",
      "id": "c2495b6e0e87",
      "priority": 0,
      "group": "2ea34ebee7c7"
    },
    {
      "type": "chips",
      "translatesToSourceLanguage": false,
      "phrase": [
        {
          "word": "The",
          "definition": "-a"
        },
        {
          "word": "driver's",
          "definition": "gidariaren"
        },
        {
          "word": "bus",
          "definition": "austobusa\nautobus\nautobusa"
        },
        {
          "word": "is",
          "definition": "da\nda (izan)\ndago\ndago (egon)"
        },
        {
          "word": "yellow",
          "definition": "hori"
        },
        {
          "word": "and",
          "definition": "eta"
        },
        {
          "word": "slow.",
          "definition": "motel"
        }
      ],
      "chips": [
        "Gidariaren",
        "autobusa",
        "horia",
        "eta",
        "motela",
        "da",
        "doa",
        "Eta",
        "morea",
        "ona",
        "aita"
      ],
      "solutions": [
        [
          "Gidariaren",
          "autobusa",
          "horia",
          "eta",
          "motela",
          "da"
        ]
      ],
      "formattedSolution": "Gidariaren autobusa horia eta motela da.",
      "id": "5da0fc7e29cb",
      "priority": 2,
      "group": "2ea34ebee7c7"
    },
    {
      "type": "chips",
      "translatesToSourceLanguage": true,
      "phrase": [
        {
          "word": "Gidariaren",
          "definition": "driver's\nthe driver's\nthe driver’s"
        },
        {
          "word": "autobusa",
          "definition": "a bus\nbus"
        },
        {
          "word": "horia",
          "definition": "yellow"
        },
        {
          "word": "eta",
          "definition": "and"
        },
        {
          "word": "motela",
          "definition": "slow"
        },
        {
          "word": "da.",
          "definition": "he is (izan)\nis\nit is (izan)\nshe is (izan)"
        }
      ],
      "chips": [
        "The",
        "driver's",
        "bus",
        "is",
        "yellow",
        "and",
        "slow",
        "lie",
        "low",
        "Yes",
        "his",
        "be",
        "us"
      ],
      "solutions": [
        [
          "The",
          "driver's",
          "bus",
          "is",
          "yellow",
          "and",
          "slow"
        ],
        [
          "The",
          "bus",
          "of",
          "the",
          "driver",
          "is",
          "yellow",
          "and",
          "slow"
        ]
      ],
      "formattedSolution": "The driver's bus is yellow and slow.",
      "id": "f281d6e8b52a",
      "priority": 2,
      "group": "2ea34ebee7c7"
    },
    {
      "type": "options",
      "formInTargetLanguage": "Gizonaren txakurrak handiak eta beltzak ziren.",
      "meaningInSourceLanguage": "The man's dogs were big and black.",
      "id": "d8c33458898e",
      "priority": 0,
      "group": "fdf4c493a63b"
    },
    {
      "type": "chips",
      "translatesToSourceLanguage": false,
      "phrase": [
        {
          "word": "The",
          "definition": "-a"
        },
        {
          "word": "man's",
          "definition": "gizonaren"
        },
        {
          "word": "dogs",
          "definition": "txakurrak\ntxakurrek\ntxakurren (of the dogs)"
        },
        {
          "word": "were",
          "definition": "geunden (we) (egon)\nginen\nginen (izan)\nzeuden (they) (egon)\nzeunden  (you) (egon)\nzeundeten (you (plural)) (egon)\nzinen\nzinen (izan)\nzineten\nzineten (izan)\nziren\nziren (izan)"
        },
        {
          "word": "big",
          "definition": "handi\nhandiak"
        },
        {
          "word": "and",
          "definition": "eta"
        },
        {
          "word": "black.",
          "definition": "beltz\nbeltza"
        }
      ],
      "chips": [
        "Gizonaren",
        "txakurrak",
        "handiak",
        "eta",
        "beltzak",
        "ziren",
        "zara",
        "etzan",
        "biak",
        "onak",
        "zurea"
      ],
      "solutions": [
        [
          "Gizonaren",
          "txakurrak",
          "handiak",
          "eta",
          "beltzak",
          "ziren"
        ]
      ],
      "formattedSolution": "Gizonaren txakurrak handiak eta beltzak ziren.",
      "id": "34e05b9ae7b7",
      "priority": 2,
      "group": "fdf4c493a63b"
    },
    {
      "type": "chips",
      "translatesToSourceLanguage": true,
      "phrase": [
        {
          "word": "Gizonaren",
          "definition": "man's\nthe man's\nthe man’s"
        },
        {
          "word": "txakurrak",
          "definition": "dogs\npigs"
        },
        {
          "word": "handiak",
          "definition": "big"
        },
        {
          "word": "eta",
          "definition": "and"
        },
        {
          "word": "beltzak",
          "definition": "black"
        },
        {
          "word": "ziren.",
          "definition": "they were\nwere"
        }
      ],
      "chips": [
        "The",
        "man's",
        "dogs",
        "were",
        "big",
        "and",
        "black",
        "are",
        "man",
        "one",
        "was",
        "an",
        "bad"
      ],
      "solutions": [
        [
          "The",
          "man's",
          "dogs",
          "were",
          "big",
          "and",
          "black"
        ],
        [
          "The",
          "dogs",
          "of",
          "the",
          "man",
          "were",
          "big",
          "and",
          "black"
        ]
      ],
      "formattedSolution": "The man's dogs were big and black.",
      "id": "0cd6b0ccfb80",
      "priority": 2,
      "group": "fdf4c493a63b"
    },
    {
      "type": "options",
      "formInTargetLanguage": "Irakaslearen eskola urdina zen.",
      "meaningInSourceLanguage": "The teacher's school was blue.",
      "id": "a77aaa0e2760",
      "priority": 0,
      "group": "5371519aaa44"
    },
    {
      "type": "chips",
      "translatesToSourceLanguage": false,
      "phrase": [
        {
          "word": "The",
          "definition": "-a"
        },
        {
          "word": "teacher's",
          "definition": "irakaslearen"
        },
        {
          "word": "school",
          "definition": "eskola"
        },
        {
          "word": "was",
          "definition": "nengoen(I)(egon)\nnintzen\nzegoen(he,she,it) (egon)\nzen"
        },
        {
          "word": "blue.",
          "definition": "urdin"
        }
      ],
      "chips": [
        "Irakaslearen",
        "eskola",
        "urdina",
        "zen",
        "ken",
        "Iraila",
        "kalea"
      ],
      "solutions": [
        [
          "Irakaslearen",
          "eskola",
          "urdina",
          "zen"
        ]
      ],
      "formattedSolution": "Irakaslearen eskola urdina zen.",
      "id": "86c7f708a373",
      "priority": 2,
      "group": "5371519aaa44"
    },
    {
      "type": "chips",
      "translatesToSourceLanguage": true,
      "phrase": [
        {
          "word": "Irakaslearen",
          "definition": "teacher's\nthe teacher's\nthe teacher’s"
        },
        {
          "word": "eskola",
          "definition": "school"
        },
        {
          "word": "urdina",
          "definition": "blue"
        },
        {
          "word": "zen.",
          "definition": "he/she/it was\nwas"
        }
      ],
      "chips": [
        "The",
        "teacher's",
        "school",
        "was",
        "blue",
        "the",
        "She",
        "chef",
        "hee"
      ],
      "solutions": [
        [
          "The",
          "teacher's",
          "school",
          "was",
          "blue"
        ],
        [
          "The",
          "school",
          "of",
          "the",
          "teacher",
          "was",
          "blue"
        ]
      ],
      "formattedSolution": "The teacher's school was blue.",
      "id": "1334dbe2f318",
      "priority": 2,
      "group": "5371519aaa44"
    },
    {
      "type": "options",
      "formInTargetLanguage": "Ikaslearen liburuak gorriak dira.",
      "meaningInSourceLanguage": "The student's books are red.",
      "id": "cb871df4aa21",
      "priority": 0,
      "group": "7911838cde1a"
    },
    {
      "type": "chips",
      "translatesToSourceLanguage": false,
      "phrase": [
        {
          "word": "The",
          "definition": "-a"
        },
        {
          "word": "student's",
          "definition": "ikaslearen"
        },
        {
          "word": "books",
          "definition": "liburuak"
        },
        {
          "word": "are",
          "definition": "daude\ndaude (egon)\ndaude (izan)\ndira\ndira (izan)\ngara\ngara (izan)\ngare\ngaude (egon)\nzara\nzara (izan)\nzarete\nzarete (izan)\nzaude  (egon)\nzaude (egon)\nzaudete (egon)"
        },
        {
          "word": "red.",
          "definition": "gorri\ngorria\ngorriak"
        }
      ],
      "chips": [
        "Ikaslearen",
        "liburuak",
        "gorriak",
        "dira",
        "nireak",
        "gureak",
        "dirua"
      ],
      "solutions": [
        [
          "Ikaslearen",
          "liburuak",
          "gorriak",
          "dira"
        ]
      ],
      "formattedSolution": "Ikaslearen liburuak gorriak dira.",
      "id": "020607622831",
      "priority": 2,
      "group": "7911838cde1a"
    },
    {
      "type": "chips",
      "translatesToSourceLanguage": true,
      "phrase": [
        {
          "word": "Ikaslearen",
          "definition": "student's\nthe student's\nthe student’s"
        },
        {
          "word": "liburuak",
          "definition": "books"
        },
        {
          "word": "gorriak",
          "definition": "red"
        },
        {
          "word": "dira.",
          "definition": "are\nare (izan)"
        }
      ],
      "chips": [
        "The",
        "student's",
        "books",
        "are",
        "red",
        "the",
        "Are",
        "be",
        "ate"
      ],
      "solutions": [
        [
          "The",
          "student's",
          "books",
          "are",
          "red"
        ],
        [
          "A",
          "student's",
          "books",
          "are",
          "red"
        ],
        [
          "The",
          "books",
          "of",
          "the",
          "student",
          "are",
          "red"
        ],
        [
          "The",
          "books",
          "of",
          "a",
          "student",
          "are",
          "red"
        ]
      ],
      "formattedSolution": "The student's books are red.",
      "id": "8f3f20a14d87",
      "priority": 2,
      "group": "7911838cde1a"
    },
    {
      "type": "options",
      "formInTargetLanguage": "Erizainaren poltsa morea zen.",
      "meaningInSourceLanguage": "The nurse's purse was purple.",
      "id": "cd4b0df4a78a",
      "priority": 0,
      "group": "813ae8fdd212"
    },
    {
      "type": "chips",
      "translatesToSourceLanguage": false,
      "phrase": [
        {
          "word": "The",
          "definition": "-a"
        },
        {
          "word": "nurse's",
          "definition": "erizainaren"
        },
        {
          "word": "purse",
          "definition": "poltsa"
        },
        {
          "word": "was",
          "definition": "nengoen(I)(egon)\nnintzen\nzegoen(he,she,it) (egon)\nzen"
        },
        {
          "word": "purple.",
          "definition": "more\nmorea"
        }
      ],
      "chips": [
        "Erizainaren",
        "poltsa",
        "morea",
        "zen",
        "ziren",
        "zinen",
        "Noren"
      ],
      "solutions": [
        [
          "Erizainaren",
          "poltsa",
          "morea",
          "zen"
        ]
      ],
      "formattedSolution": "Erizainaren poltsa morea zen.",
      "id": "ebf855485d02",
      "priority": 2,
      "group": "813ae8fdd212"
    },
    {
      "type": "chips",
      "translatesToSourceLanguage": true,
      "phrase": [
        {
          "word": "Erizainaren",
          "definition": "nurse's\nthe nurse's\nthe nurse’s"
        },
        {
          "word": "poltsa",
          "definition": "purse"
        },
        {
          "word": "morea",
          "definition": "purple"
        },
        {
          "word": "zen.",
          "definition": "he/she/it was\nwas"
        }
      ],
      "chips": [
        "The",
        "nurse's",
        "purse",
        "was",
        "purple",
        "nurse",
        "use",
        "purses",
        "are"
      ],
      "solutions": [
        [
          "The",
          "nurse's",
          "purse",
          "was",
          "purple"
        ],
        [
          "The",
          "purse",
          "of",
          "the",
          "nurse",
          "was",
          "purple"
        ],
        [
          "A",
          "nurse's",
          "purse",
          "was",
          "purple"
        ],
        [
          "The",
          "purse",
          "of",
          "a",
          "nurse",
          "was",
          "purple"
        ]
      ],
      "formattedSolution": "The nurse's purse was purple.",
      "id": "e6cd20f80223",
      "priority": 2,
      "group": "813ae8fdd212"
    },
    {
      "type": "options",
      "formInTargetLanguage": "Poliziaren kotxea azkarra da.",
      "meaningInSourceLanguage": "The police officer's car is fast.",
      "id": "653d153db7b3",
      "priority": 0,
      "group": "5ca87454da10"
    },
    {
      "type": "chips",
      "translatesToSourceLanguage": false,
      "phrase": [
        {
          "word": "The",
          "definition": "-a"
        },
        {
          "word": "police",
          "definition": "polizia"
        },
        {
          "word": "officer's",
          "definition": "ofizialaren"
        },
        {
          "word": "car",
          "definition": "kotxe\nkotxea"
        },
        {
          "word": "is",
          "definition": "da\nda (izan)\ndago\ndago (egon)"
        },
        {
          "word": "fast.",
          "definition": "azkar"
        }
      ],
      "chips": [
        "Poliziaren",
        "kotxea",
        "azkarra",
        "da",
        "zara",
        "morea",
        "zurea"
      ],
      "solutions": [
        [
          "Poliziaren",
          "kotxea",
          "azkarra",
          "da"
        ]
      ],
      "formattedSolution": "Poliziaren kotxea azkarra da.",
      "id": "a536b5a27de7",
      "priority": 2,
      "group": "5ca87454da10"
    },
    {
      "type": "chips",
      "translatesToSourceLanguage": true,
      "phrase": [
        {
          "word": "Poliziaren",
          "definition": "police officer's\nthe police officer's\nthe police officer’s"
        },
        {
          "word": "kotxea",
          "definition": "a car\ncar"
        },
        {
          "word": "azkarra",
          "definition": "fast"
        },
        {
          "word": "da.",
          "definition": "he is (izan)\nis\nit is (izan)\nshe is (izan)"
        }
      ],
      "chips": [
        "The",
        "police",
        "officer's",
        "car",
        "is",
        "fast",
        "ice",
        "lie",
        "his",
        "far",
        "one"
      ],
      "solutions": [
        [
          "The",
          "police",
          "officer's",
          "car",
          "is",
          "fast"
        ],
        [
          "The",
          "car",
          "of",
          "the",
          "police",
          "officer",
          "is",
          "fast"
        ],
        [
          "A",
          "police",
          "officer's",
          "car",
          "is",
          "fast"
        ],
        [
          "The",
          "car",
          "of",
          "a",
          "police",
          "officer",
          "is",
          "fast"
        ],
        [
          "A",
          "car",
          "of",
          "a",
          "police",
          "officer",
          "is",
          "fast"
        ]
      ],
      "formattedSolution": "The police officer's car is fast.",
      "id": "afbce5920ee5",
      "priority": 2,
      "group": "5ca87454da10"
    },
    {
      "type": "cards",
      "pictures": [
        "priest1.jpg",
        "priest2.jpg",
        "priest3.jpg"
      ],
      "formInTargetLanguage": "apaizaren",
      "meaningInSourceLanguage": "priest's",
      "id": "9de674ec40ca",
      "priority": 0,
      "group": "e2719701ab1e"
    },
    {
      "type": "shortInput",
      "pictures": [
        "priest1.jpg",
        "priest2.jpg",
        "priest3.jpg"
      ],
      "formInTargetLanguage": [
        "apaizaren"
      ],
      "phrase": [
        {
          "word": "priest's",
          "definition": "apaizaren"
        }
      ],
      "id": "e98002c95ba3",
      "priority": 1,
      "group": "e2719701ab1e"
    },
    {
      "type": "cards",
      "pictures": [
        "housewife1.jpg",
        "housewife2.jpg",
        "housewife3.jpg"
      ],
      "formInTargetLanguage": "etxekoandrearen",
      "meaningInSourceLanguage": "housewife's",
      "id": "d2fdeb39f62e",
      "priority": 0,
      "group": "42dac7f0c5c3"
    },
    {
      "type": "shortInput",
      "pictures": [
        "housewife1.jpg",
        "housewife2.jpg",
        "housewife3.jpg"
      ],
      "formInTargetLanguage": [
        "etxekoandrearen"
      ],
      "phrase": [
        {
          "word": "housewife's",
          "definition": "etxekoandrearen"
        }
      ],
      "id": "d92ee5fda5f7",
      "priority": 1,
      "group": "42dac7f0c5c3"
    },
    {
      "type": "cards",
      "pictures": [
        "woman1.jpg",
        "woman2.jpg",
        "woman3.jpg"
      ],
      "formInTargetLanguage": "emakumearen",
      "meaningInSourceLanguage": "woman's",
      "id": "7e0bf6fadc97",
      "priority": 0,
      "group": "7ba70f166df1"
    },
    {
      "type": "shortInput",
      "pictures": [
        "woman1.jpg",
        "woman2.jpg",
        "woman3.jpg"
      ],
      "formInTargetLanguage": [
        "emakumearen"
      ],
      "phrase": [
        {
          "word": "woman's",
          "definition": "emakumearen"
        }
      ],
      "id": "d4a702bd90e9",
      "priority": 1,
      "group": "7ba70f166df1"
    },
    {
      "type": "cards",
      "pictures": [
        "driver1.jpg",
        "driver2.jpg",
        "driver3.jpg"
      ],
      "formInTargetLanguage": "gidariaren",
      "meaningInSourceLanguage": "driver's",
      "id": "773967d18005",
      "priority": 0,
      "group": "8c1bbd0397c7"
    },
    {
      "type": "shortInput",
      "pictures": [
        "driver1.jpg",
        "driver2.jpg",
        "driver3.jpg"
      ],
      "formInTargetLanguage": [
        "gidariaren"
      ],
      "phrase": [
        {
          "word": "driver's",
          "definition": "gidariaren"
        }
      ],
      "id": "daad56b263f3",
      "priority": 1,
      "group": "8c1bbd0397c7"
    },
    {
      "type": "cards",
      "pictures": [
        "man1.jpg",
        "man2.jpg",
        "man3.jpg"
      ],
      "formInTargetLanguage": "gizonaren",
      "meaningInSourceLanguage": "man's",
      "id": "7122d4ea8503",
      "priority": 0,
      "group": "1175aae5decf"
    },
    {
      "type": "shortInput",
      "pictures": [
        "man1.jpg",
        "man2.jpg",
        "man3.jpg"
      ],
      "formInTargetLanguage": [
        "gizonaren"
      ],
      "phrase": [
        {
          "word": "man's",
          "definition": "gizonaren"
        }
      ],
      "id": "9cabd66d1807",
      "priority": 1,
      "group": "1175aae5decf"
    },
    {
      "type": "cards",
      "pictures": [
        "teacher1.jpg",
        "teacher2.jpg",
        "teacher3.jpg"
      ],
      "formInTargetLanguage": "irakaslearen",
      "meaningInSourceLanguage": "teacher's",
      "id": "7540f2cf618f",
      "priority": 0,
      "group": "7e260bb3940e"
    },
    {
      "type": "shortInput",
      "pictures": [
        "teacher1.jpg",
        "teacher2.jpg",
        "teacher3.jpg"
      ],
      "formInTargetLanguage": [
        "irakaslearen"
      ],
      "phrase": [
        {
          "word": "teacher's",
          "definition": "irakaslearen"
        }
      ],
      "id": "5f0df300fbbe",
      "priority": 1,
      "group": "7e260bb3940e"
    },
    {
      "type": "cards",
      "pictures": [
        "student1.jpg",
        "student2.jpg",
        "student3.jpg"
      ],
      "formInTargetLanguage": "ikaslearen",
      "meaningInSourceLanguage": "student's",
      "id": "e910aab7b52b",
      "priority": 0,
      "group": "33a1ee53b814"
    },
    {
      "type": "shortInput",
      "pictures": [
        "student1.jpg",
        "student2.jpg",
        "student3.jpg"
      ],
      "formInTargetLanguage": [
        "ikaslearen"
      ],
      "phrase": [
        {
          "word": "student's",
          "definition": "ikaslearen"
        }
      ],
      "id": "69f19459cf54",
      "priority": 1,
      "group": "33a1ee53b814"
    },
    {
      "type": "cards",
      "pictures": [
        "nurse1.jpg",
        "nurse2.jpg",
        "nurse3.jpg"
      ],
      "formInTargetLanguage": "erizainaren",
      "meaningInSourceLanguage": "nurse's",
      "id": "09abe360f452",
      "priority": 0,
      "group": "32ae58804425"
    },
    {
      "type": "shortInput",
      "pictures": [
        "nurse1.jpg",
        "nurse2.jpg",
        "nurse3.jpg"
      ],
      "formInTargetLanguage": [
        "erizainaren"
      ],
      "phrase": [
        {
          "word": "nurse's",
          "definition": "erizainaren"
        }
      ],
      "id": "b12fd5a1e570",
      "priority": 1,
      "group": "32ae58804425"
    },
    {
      "type": "cards",
      "pictures": [
        "police1.jpg",
        "police2.jpg",
        "police3.jpg"
      ],
      "formInTargetLanguage": "poliziaren",
      "meaningInSourceLanguage": "police officer's",
      "id": "4ddfcc11eac6",
      "priority": 0,
      "group": "adff5022c61d"
    },
    {
      "type": "shortInput",
      "pictures": [
        "police1.jpg",
        "police2.jpg",
        "police3.jpg"
      ],
      "formInTargetLanguage": [
        "poliziaren"
      ],
      "phrase": [
        {
          "word": "police",
          "definition": "polizia"
        },
        {
          "word": "officer's",
          "definition": "ofizialaren"
        }
      ],
      "id": "bd551dec4d4a",
      "priority": 1,
      "group": "adff5022c61d"
    }
  ]
}