{
  "id": "3c3963b89b8f",
  "levels": 5,
  "challenges": [
    {
      "type": "options",
      "formInTargetLanguage": "Ni nire lagunarekin ibiltzen naiz.",
      "meaningInSourceLanguage": "I walk with my friend.",
      "id": "71ec73be4f71",
      "priority": 0,
      "group": "1e94ee810a21"
    },
    {
      "type": "chips",
      "translatesToSourceLanguage": false,
      "phrase": [
        {
          "word": "I",
          "definition": "ni"
        },
        {
          "word": "walk",
          "definition": "ibiliko\nibiliko (izan future)\nibiltzen\nibiltzen (izan present)"
        },
        {
          "word": "with",
          "definition": "Norekin case"
        },
        {
          "word": "my",
          "definition": "nire"
        },
        {
          "word": "friend.",
          "definition": "lagun\nlaguna"
        }
      ],
      "chips": [
        "Ni",
        "nire",
        "lagunarekin",
        "ibiltzen",
        "naiz",
        "ni",
        "Nire",
        "niri",
        "nik"
      ],
      "solutions": [
        [
          "Ni",
          "nire",
          "lagunarekin",
          "ibiltzen",
          "naiz"
        ],
        [
          "Nire",
          "lagunarekin",
          "ibiltzen",
          "naiz"
        ]
      ],
      "formattedSolution": "Ni nire lagunarekin ibiltzen naiz.",
      "id": "e941c79978da",
      "priority": 2,
      "group": "1e94ee810a21"
    },
    {
      "type": "chips",
      "translatesToSourceLanguage": true,
      "phrase": [
        {
          "word": "Ni",
          "definition": "I\nme"
        },
        {
          "word": "nire",
          "definition": "my"
        },
        {
          "word": "lagunarekin",
          "definition": "With the friend\nwith the friend"
        },
        {
          "word": "ibiltzen",
          "definition": "walk\nwalking"
        },
        {
          "word": "naiz.",
          "definition": "I am (izan)\nam\nam (izan)"
        }
      ],
      "chips": [
        "I",
        "walk",
        "with",
        "my",
        "friend",
        "it",
        "in",
        "a",
        "is"
      ],
      "solutions": [
        [
          "I",
          "walk",
          "with",
          "my",
          "friend"
        ]
      ],
      "formattedSolution": "I walk with my friend.",
      "id": "7063ed3f6b9c",
      "priority": 2,
      "group": "1e94ee810a21"
    },
    {
      "type": "options",
      "formInTargetLanguage": "Zuk irakurri duzu zure irakaslearekin.",
      "meaningInSourceLanguage": "You read with your teacher.",
      "id": "c214b2602fd2",
      "priority": 0,
      "group": "ef429e8a5071"
    },
    {
      "type": "chips",
      "translatesToSourceLanguage": false,
      "phrase": [
        {
          "word": "You",
          "definition": "zu\nzuek"
        },
        {
          "word": "read",
          "definition": "irakurri\nirakurri (command)\nirakurri (past)\nirakurriko (future)\nirakurtzeko (in order to read)\nirakurtzen\nirakurtzen (present)"
        },
        {
          "word": "with",
          "definition": "Norekin case"
        },
        {
          "word": "your",
          "definition": "zuen\nzure"
        },
        {
          "word": "teacher.",
          "definition": "irakasle\nirakaslea"
        }
      ],
      "chips": [
        "Zuk",
        "irakurri",
        "duzu",
        "zure",
        "irakaslearekin",
        "Zure",
        "zuri",
        "euri",
        "gure"
      ],
      "solutions": [
        [
          "Zuk",
          "irakurri",
          "duzu",
          "zure",
          "irakaslearekin"
        ],
        [
          "Irakurri",
          "duzu",
          "zure",
          "irakaslearekin"
        ]
      ],
      "formattedSolution": "Zuk irakurri duzu zure irakaslearekin.",
      "id": "94e1aef9df2a",
      "priority": 2,
      "group": "ef429e8a5071"
    },
    {
      "type": "chips",
      "translatesToSourceLanguage": true,
      "phrase": [
        {
          "word": "Zuk",
          "definition": "you"
        },
        {
          "word": "irakurri",
          "definition": "read\nread (command)\nread (past)"
        },
        {
          "word": "duzu",
          "definition": "You have it\nYou have/ukan it"
        },
        {
          "word": "zure",
          "definition": "your"
        },
        {
          "word": "irakaslearekin.",
          "definition": "With the teacher\nwith the teacher"
        }
      ],
      "chips": [
        "You",
        "read",
        "with",
        "your",
        "teacher",
        "tour",
        "Your",
        "year",
        "you"
      ],
      "solutions": [
        [
          "You",
          "read",
          "with",
          "your",
          "teacher"
        ]
      ],
      "formattedSolution": "You read with your teacher.",
      "id": "34277a08d27d",
      "priority": 2,
      "group": "ef429e8a5071"
    },
    {
      "type": "options",
      "formInTargetLanguage": "Nire alabak bere ahizparekin jolasten du.",
      "meaningInSourceLanguage": "My daughter plays with her sister.",
      "id": "d7592fb662f0",
      "priority": 0,
      "group": "31b3d31e5499"
    },
    {
      "type": "chips",
      "translatesToSourceLanguage": false,
      "phrase": [
        {
          "word": "My",
          "definition": "nire"
        },
        {
          "word": "daughter",
          "definition": "alaba"
        },
        {
          "word": "plays",
          "definition": "jolasten"
        },
        {
          "word": "with",
          "definition": "Norekin case"
        },
        {
          "word": "her",
          "definition": "bere"
        },
        {
          "word": "sister.",
          "definition": "ahizpa\narreba"
        }
      ],
      "chips": [
        "Nire",
        "alabak",
        "bere",
        "ahizparekin",
        "jolasten",
        "du",
        "ere",
        "nire",
        "aste",
        "ate",
        "zara"
      ],
      "solutions": [
        [
          "Nire",
          "alabak",
          "bere",
          "ahizparekin",
          "jolasten",
          "du"
        ]
      ],
      "formattedSolution": "Nire alabak bere ahizparekin jolasten du.",
      "id": "8423ea9787cd",
      "priority": 2,
      "group": "31b3d31e5499"
    },
    {
      "type": "chips",
      "translatesToSourceLanguage": true,
      "phrase": [
        {
          "word": "Nire",
          "definition": "my"
        },
        {
          "word": "alabak",
          "definition": "daughters"
        },
        {
          "word": "bere",
          "definition": "her\nhers\nhis\nhis/hers/its\nits"
        },
        {
          "word": "ahizparekin",
          "definition": "With the sister of a sister\nwith the sister of a sister"
        },
        {
          "word": "jolasten",
          "definition": "playing"
        },
        {
          "word": "du.",
          "definition": "He has it\nHe/she/it has/ukan it"
        }
      ],
      "chips": [
        "My",
        "daughter",
        "plays",
        "with",
        "her",
        "sister",
        "wer",
        "ate",
        "it",
        "later",
        "late"
      ],
      "solutions": [
        [
          "My",
          "daughter",
          "plays",
          "with",
          "her",
          "sister"
        ]
      ],
      "formattedSolution": "My daughter plays with her sister.",
      "id": "a27a2427f1b0",
      "priority": 2,
      "group": "31b3d31e5499"
    },
    {
      "type": "options",
      "formInTargetLanguage": "Nire semea bere arrebarekin jolasten du.",
      "meaningInSourceLanguage": "My son plays with his sister.",
      "id": "2ee1a16f1e67",
      "priority": 0,
      "group": "593896a47338"
    },
    {
      "type": "chips",
      "translatesToSourceLanguage": false,
      "phrase": [
        {
          "word": "My",
          "definition": "nire"
        },
        {
          "word": "son",
          "definition": "seme"
        },
        {
          "word": "plays",
          "definition": "jolasten"
        },
        {
          "word": "with",
          "definition": "Norekin case"
        },
        {
          "word": "his",
          "definition": "bere\nberea\nbereak"
        },
        {
          "word": "sister.",
          "definition": "ahizpa\narreba"
        }
      ],
      "chips": [
        "Nire",
        "semea",
        "bere",
        "arrebarekin",
        "jolasten",
        "du",
        "ere",
        "Bere",
        "berea",
        "arte",
        "nire"
      ],
      "solutions": [
        [
          "Nire",
          "semea",
          "bere",
          "arrebarekin",
          "jolasten",
          "du"
        ]
      ],
      "formattedSolution": "Nire semea bere arrebarekin jolasten du.",
      "id": "cf5a66b448bc",
      "priority": 2,
      "group": "593896a47338"
    },
    {
      "type": "chips",
      "translatesToSourceLanguage": true,
      "phrase": [
        {
          "word": "Nire",
          "definition": "my"
        },
        {
          "word": "semea",
          "definition": "son"
        },
        {
          "word": "bere",
          "definition": "her\nhers\nhis\nhis/hers/its\nits"
        },
        {
          "word": "arrebarekin",
          "definition": "With the sister of a brother\nwith the sister of a brother"
        },
        {
          "word": "jolasten",
          "definition": "playing"
        },
        {
          "word": "du.",
          "definition": "He has it\nHe/she/it has/ukan it"
        }
      ],
      "chips": [
        "My",
        "son",
        "plays",
        "with",
        "his",
        "sister",
        "is",
        "sit",
        "it",
        "His",
        "sits"
      ],
      "solutions": [
        [
          "My",
          "son",
          "plays",
          "with",
          "his",
          "sister"
        ]
      ],
      "formattedSolution": "My son plays with his sister.",
      "id": "809fa647cc0e",
      "priority": 2,
      "group": "593896a47338"
    },
    {
      "type": "options",
      "formInTargetLanguage": "Nire emaztea bere nebarekin hitz egiten du.",
      "meaningInSourceLanguage": "My wife speaks with her brother.",
      "id": "70edccbd7c0f",
      "priority": 0,
      "group": "48265a4eff38"
    },
    {
      "type": "chips",
      "translatesToSourceLanguage": false,
      "phrase": [
        {
          "word": "My",
          "definition": "nire"
        },
        {
          "word": "wife",
          "definition": "emaztea"
        },
        {
          "word": "speaks",
          "definition": "hitz egiten (present)"
        },
        {
          "word": "with",
          "definition": "Norekin case"
        },
        {
          "word": "her",
          "definition": "bere"
        },
        {
          "word": "brother.",
          "definition": "anaia\nneba"
        }
      ],
      "chips": [
        "Nire",
        "emaztea",
        "bere",
        "nebarekin",
        "hitz",
        "egiten",
        "du",
        "ere",
        "nire",
        "ate",
        "eta",
        "arte",
        "Bere"
      ],
      "solutions": [
        [
          "Nire",
          "emaztea",
          "bere",
          "nebarekin",
          "hitz",
          "egiten",
          "du"
        ]
      ],
      "formattedSolution": "Nire emaztea bere nebarekin hitz egiten du.",
      "id": "4efa818ad2c7",
      "priority": 2,
      "group": "48265a4eff38"
    },
    {
      "type": "chips",
      "translatesToSourceLanguage": true,
      "phrase": [
        {
          "word": "Nire",
          "definition": "my"
        },
        {
          "word": "emaztea",
          "definition": "wife"
        },
        {
          "word": "bere",
          "definition": "her\nhers\nhis\nhis/hers/its\nits"
        },
        {
          "word": "nebarekin",
          "definition": "With the brother of a sister\nwith the brother of a sister"
        },
        {
          "word": "hitz",
          "definition": "speak\nword"
        },
        {
          "word": "egiten",
          "definition": "do\ndoing\nis made"
        },
        {
          "word": "du.",
          "definition": "He has it\nHe/she/it has/ukan it"
        }
      ],
      "chips": [
        "My",
        "wife",
        "speaks",
        "with",
        "her",
        "brother",
        "the",
        "wer",
        "hee",
        "be",
        "wet"
      ],
      "solutions": [
        [
          "My",
          "wife",
          "speaks",
          "with",
          "her",
          "brother"
        ],
        [
          "My",
          "wife",
          "talks",
          "with",
          "her",
          "brother"
        ]
      ],
      "formattedSolution": "My wife speaks with her brother.",
      "id": "0b59c30ae725",
      "priority": 2,
      "group": "48265a4eff38"
    },
    {
      "type": "options",
      "formInTargetLanguage": "Nire senarra bere anaiarekin hitz egiten du.",
      "meaningInSourceLanguage": "My husband speaks with his brother.",
      "id": "5eb3be22423d",
      "priority": 0,
      "group": "cee21ad4b4e7"
    },
    {
      "type": "chips",
      "translatesToSourceLanguage": false,
      "phrase": [
        {
          "word": "My",
          "definition": "nire"
        },
        {
          "word": "husband",
          "definition": "senarra"
        },
        {
          "word": "speaks",
          "definition": "hitz egiten (present)"
        },
        {
          "word": "with",
          "definition": "Norekin case"
        },
        {
          "word": "his",
          "definition": "bere\nberea\nbereak"
        },
        {
          "word": "brother.",
          "definition": "anaia\nneba"
        }
      ],
      "chips": [
        "Nire",
        "senarra",
        "bere",
        "anaiarekin",
        "hitz",
        "egiten",
        "du",
        "nire",
        "ere",
        "nirea",
        "niri",
        "Miren",
        "dira"
      ],
      "solutions": [
        [
          "Nire",
          "senarra",
          "bere",
          "anaiarekin",
          "hitz",
          "egiten",
          "du"
        ]
      ],
      "formattedSolution": "Nire senarra bere anaiarekin hitz egiten du.",
      "id": "6af24395a99d",
      "priority": 2,
      "group": "cee21ad4b4e7"
    },
    {
      "type": "chips",
      "translatesToSourceLanguage": true,
      "phrase": [
        {
          "word": "Nire",
          "definition": "my"
        },
        {
          "word": "senarra",
          "definition": "husband"
        },
        {
          "word": "bere",
          "definition": "her\nhers\nhis\nhis/hers/its\nits"
        },
        {
          "word": "anaiarekin",
          "definition": "with the brother of a brother"
        },
        {
          "word": "hitz",
          "definition": "speak\nword"
        },
        {
          "word": "egiten",
          "definition": "do\ndoing\nis made"
        },
        {
          "word": "du.",
          "definition": "He has it\nHe/she/it has/ukan it"
        }
      ],
      "chips": [
        "My",
        "husband",
        "speaks",
        "with",
        "his",
        "brother",
        "has",
        "is",
        "her",
        "hats",
        "hat"
      ],
      "solutions": [
        [
          "My",
          "husband",
          "speaks",
          "with",
          "his",
          "brother"
        ],
        [
          "My",
          "husband",
          "talks",
          "with",
          "his",
          "brother"
        ]
      ],
      "formattedSolution": "My husband speaks with his brother.",
      "id": "6afe5557dacb",
      "priority": 2,
      "group": "cee21ad4b4e7"
    },
    {
      "type": "options",
      "formInTargetLanguage": "Gu gure lagunekin ibiltzen gara.",
      "meaningInSourceLanguage": "We walk with our friends.",
      "id": "19435b8266dd",
      "priority": 0,
      "group": "697897cd23e9"
    },
    {
      "type": "chips",
      "translatesToSourceLanguage": false,
      "phrase": [
        {
          "word": "We",
          "definition": "gu"
        },
        {
          "word": "walk",
          "definition": "ibiliko\nibiliko (izan future)\nibiltzen\nibiltzen (izan present)"
        },
        {
          "word": "with",
          "definition": "Norekin case"
        },
        {
          "word": "our",
          "definition": "gure"
        },
        {
          "word": "friends.",
          "definition": "lagunak"
        }
      ],
      "chips": [
        "Gu",
        "gure",
        "lagunekin",
        "ibiltzen",
        "gara",
        "Gure",
        "gurea",
        "guri",
        "luze"
      ],
      "solutions": [
        [
          "Gu",
          "gure",
          "lagunekin",
          "ibiltzen",
          "gara"
        ],
        [
          "Gure",
          "lagunekin",
          "ibiltzen",
          "gara"
        ]
      ],
      "formattedSolution": "Gu gure lagunekin ibiltzen gara.",
      "id": "7089fd1dd1bd",
      "priority": 2,
      "group": "697897cd23e9"
    },
    {
      "type": "chips",
      "translatesToSourceLanguage": true,
      "phrase": [
        {
          "word": "Gu",
          "definition": "we"
        },
        {
          "word": "gure",
          "definition": "our"
        },
        {
          "word": "lagunekin",
          "definition": "With the friends\nwith the friends"
        },
        {
          "word": "ibiltzen",
          "definition": "walk\nwalking"
        },
        {
          "word": "gara.",
          "definition": "are\nare (izan)"
        }
      ],
      "chips": [
        "We",
        "walk",
        "with",
        "our",
        "friends",
        "we",
        "wet",
        "wer",
        "are"
      ],
      "solutions": [
        [
          "We",
          "walk",
          "with",
          "our",
          "friends"
        ]
      ],
      "formattedSolution": "We walk with our friends.",
      "id": "c23ff5911979",
      "priority": 2,
      "group": "697897cd23e9"
    },
    {
      "type": "options",
      "formInTargetLanguage": "Nik nire betaurrekoekin irakurtzen dut.",
      "meaningInSourceLanguage": "I read with my glasses",
      "id": "08ad0cdef8a8",
      "priority": 0,
      "group": "9f1702448976"
    },
    {
      "type": "chips",
      "translatesToSourceLanguage": false,
      "phrase": [
        {
          "word": "I",
          "definition": "ni"
        },
        {
          "word": "read",
          "definition": "irakurri\nirakurri (command)\nirakurri (past)\nirakurriko (future)\nirakurtzeko (in order to read)\nirakurtzen\nirakurtzen (present)"
        },
        {
          "word": "with",
          "definition": "Norekin case"
        },
        {
          "word": "my",
          "definition": "nire"
        },
        {
          "word": "glasses",
          "definition": "basoak (to drink with)\nbetaurrekoak\nbetaurrekoak (to see with)"
        }
      ],
      "chips": [
        "Nik",
        "nire",
        "betaurrekoekin",
        "irakurtzen",
        "dut",
        "ere",
        "arte",
        "Nire",
        "Zure"
      ],
      "solutions": [
        [
          "Nik",
          "nire",
          "betaurrekoekin",
          "irakurtzen",
          "dut"
        ],
        [
          "Nire",
          "betaurrekoekin",
          "irakurtzen",
          "dut"
        ]
      ],
      "formattedSolution": "Nik nire betaurrekoekin irakurtzen dut.",
      "id": "96237be5544d",
      "priority": 2,
      "group": "9f1702448976"
    },
    {
      "type": "chips",
      "translatesToSourceLanguage": true,
      "phrase": [
        {
          "word": "Nik",
          "definition": "I"
        },
        {
          "word": "nire",
          "definition": "my"
        },
        {
          "word": "betaurrekoekin",
          "definition": "With the glasses\nwith the glasses"
        },
        {
          "word": "irakurtzen",
          "definition": "read\nread (present)"
        },
        {
          "word": "dut.",
          "definition": "I have it\nI have/ukan it"
        }
      ],
      "chips": [
        "I",
        "read",
        "with",
        "my",
        "glasses",
        "a",
        "me",
        "at",
        "am"
      ],
      "solutions": [
        [
          "I",
          "read",
          "with",
          "my",
          "glasses"
        ]
      ],
      "formattedSolution": "I read with my glasses",
      "id": "5431687afb27",
      "priority": 2,
      "group": "9f1702448976"
    },
    {
      "type": "options",
      "formInTargetLanguage": "Mutilak baloiekin jolasten dira.",
      "meaningInSourceLanguage": "The boys play with the balls.",
      "id": "25efdbd1d771",
      "priority": 0,
      "group": "e4990c095292"
    },
    {
      "type": "chips",
      "translatesToSourceLanguage": false,
      "phrase": [
        {
          "word": "The",
          "definition": "-a"
        },
        {
          "word": "boys",
          "definition": "mutilak\nmutilek"
        },
        {
          "word": "play",
          "definition": "jolasten\njolastera\njotzea"
        },
        {
          "word": "with",
          "definition": "Norekin case"
        },
        {
          "word": "the",
          "definition": "-a"
        },
        {
          "word": "balls.",
          "definition": "baloiak"
        }
      ],
      "chips": [
        "Mutilak",
        "baloiekin",
        "jolasten",
        "dira",
        "Haiek",
        "haien",
        "aita"
      ],
      "solutions": [
        [
          "Mutilak",
          "baloiekin",
          "jolasten",
          "dira"
        ]
      ],
      "formattedSolution": "Mutilak baloiekin jolasten dira.",
      "id": "11dcb1bed8e4",
      "priority": 2,
      "group": "e4990c095292"
    },
    {
      "type": "chips",
      "translatesToSourceLanguage": true,
      "phrase": [
        {
          "word": "Mutilak",
          "definition": "boys"
        },
        {
          "word": "baloiekin",
          "definition": "With the balls\nwith the balls"
        },
        {
          "word": "jolasten",
          "definition": "playing"
        },
        {
          "word": "dira.",
          "definition": "are\nare (izan)"
        }
      ],
      "chips": [
        "The",
        "boys",
        "play",
        "with",
        "the",
        "balls",
        "boy",
        "was",
        "lay",
        "lie",
        "She"
      ],
      "solutions": [
        [
          "The",
          "boys",
          "play",
          "with",
          "the",
          "balls"
        ]
      ],
      "formattedSolution": "The boys play with the balls.",
      "id": "8c1678b28d66",
      "priority": 2,
      "group": "e4990c095292"
    },
    {
      "type": "options",
      "formInTargetLanguage": "Neskek boligrafoekin idazten dute.",
      "meaningInSourceLanguage": "The girls write with the pens.",
      "id": "c9d8c16bc2d5",
      "priority": 0,
      "group": "59920c984707"
    },
    {
      "type": "chips",
      "translatesToSourceLanguage": false,
      "phrase": [
        {
          "word": "The",
          "definition": "-a"
        },
        {
          "word": "girls",
          "definition": "neskak"
        },
        {
          "word": "write",
          "definition": "idatzi\nidatzi (command)\nidatziko (future)\nidaztea\nidazteko (in order to write)\nidazten\nidazten (present)"
        },
        {
          "word": "with",
          "definition": "Norekin case"
        },
        {
          "word": "the",
          "definition": "-a"
        },
        {
          "word": "pens.",
          "definition": "boligrafoak"
        }
      ],
      "chips": [
        "Neskek",
        "boligrafoekin",
        "idazten",
        "dute",
        "batek",
        "edaten",
        "joaten"
      ],
      "solutions": [
        [
          "Neskek",
          "boligrafoekin",
          "idazten",
          "dute"
        ]
      ],
      "formattedSolution": "Neskek boligrafoekin idazten dute.",
      "id": "712a9de88673",
      "priority": 2,
      "group": "59920c984707"
    },
    {
      "type": "chips",
      "translatesToSourceLanguage": true,
      "phrase": [
        {
          "word": "Neskek",
          "definition": "girl"
        },
        {
          "word": "boligrafoekin",
          "definition": "With the pens\nwith the pens"
        },
        {
          "word": "idazten",
          "definition": "write\nwriting"
        },
        {
          "word": "dute.",
          "definition": "They have it\nThey have/ukan it"
        }
      ],
      "chips": [
        "The",
        "girls",
        "write",
        "with",
        "the",
        "pens",
        "wine",
        "wife",
        "lie",
        "bite",
        "ice"
      ],
      "solutions": [
        [
          "The",
          "girls",
          "write",
          "with",
          "the",
          "pens"
        ]
      ],
      "formattedSolution": "The girls write with the pens.",
      "id": "633a218df242",
      "priority": 2,
      "group": "59920c984707"
    },
    {
      "type": "options",
      "formInTargetLanguage": "Ikasleek arkatzekin idazten dute.",
      "meaningInSourceLanguage": "The students write with the pencils.",
      "id": "457ac3f76277",
      "priority": 0,
      "group": "6fd2ff248ac6"
    },
    {
      "type": "chips",
      "translatesToSourceLanguage": false,
      "phrase": [
        {
          "word": "The",
          "definition": "-a"
        },
        {
          "word": "students",
          "definition": "ikasleak"
        },
        {
          "word": "write",
          "definition": "idatzi\nidatzi (command)\nidatziko (future)\nidaztea\nidazteko (in order to write)\nidazten\nidazten (present)"
        },
        {
          "word": "with",
          "definition": "Norekin case"
        },
        {
          "word": "the",
          "definition": "-a"
        },
        {
          "word": "pencils.",
          "definition": "arkatzak"
        }
      ],
      "chips": [
        "Ikasleek",
        "arkatzekin",
        "idazten",
        "dute",
        "edaten",
        "arte",
        "aste"
      ],
      "solutions": [
        [
          "Ikasleek",
          "arkatzekin",
          "idazten",
          "dute"
        ]
      ],
      "formattedSolution": "Ikasleek arkatzekin idazten dute.",
      "id": "286b8820e61a",
      "priority": 2,
      "group": "6fd2ff248ac6"
    },
    {
      "type": "chips",
      "translatesToSourceLanguage": true,
      "phrase": [
        {
          "word": "Ikasleek",
          "definition": "students"
        },
        {
          "word": "arkatzekin",
          "definition": "With the pencils\nwith the pencils"
        },
        {
          "word": "idazten",
          "definition": "write\nwriting"
        },
        {
          "word": "dute.",
          "definition": "They have it\nThey have/ukan it"
        }
      ],
      "chips": [
        "The",
        "students",
        "write",
        "with",
        "the",
        "pencils",
        "white",
        "while",
        "ten",
        "wife",
        "time"
      ],
      "solutions": [
        [
          "The",
          "students",
          "write",
          "with",
          "the",
          "pencils"
        ]
      ],
      "formattedSolution": "The students write with the pencils.",
      "id": "d8cd2bc2c87f",
      "priority": 2,
      "group": "6fd2ff248ac6"
    },
    {
      "type": "cards",
      "pictures": [
        "nothing.jpg",
        "nothing.jpg",
        "nothing.jpg"
      ],
      "formInTargetLanguage": "lagunarekin",
      "meaningInSourceLanguage": "with the friend",
      "id": "005cb7f86d16",
      "priority": 0,
      "group": "69cf9a57e3db"
    },
    {
      "type": "shortInput",
      "pictures": [
        "nothing.jpg",
        "nothing.jpg",
        "nothing.jpg"
      ],
      "formInTargetLanguage": [
        "lagunarekin"
      ],
      "phrase": [
        {
          "word": "with",
          "definition": "Norekin case"
        },
        {
          "word": "the",
          "definition": "-a"
        },
        {
          "word": "friend",
          "definition": "lagun\nlaguna"
        }
      ],
      "id": "52f50d8c8270",
      "priority": 1,
      "group": "69cf9a57e3db"
    },
    {
      "type": "cards",
      "pictures": [
        "nothing.jpg",
        "nothing.jpg",
        "nothing.jpg"
      ],
      "formInTargetLanguage": "irakaslearekin",
      "meaningInSourceLanguage": "with the teacher",
      "id": "8d38a4fbca9b",
      "priority": 0,
      "group": "5acde776d835"
    },
    {
      "type": "shortInput",
      "pictures": [
        "nothing.jpg",
        "nothing.jpg",
        "nothing.jpg"
      ],
      "formInTargetLanguage": [
        "irakaslearekin"
      ],
      "phrase": [
        {
          "word": "with",
          "definition": "Norekin case"
        },
        {
          "word": "the",
          "definition": "-a"
        },
        {
          "word": "teacher",
          "definition": "irakasle\nirakaslea"
        }
      ],
      "id": "0a2f912cf67f",
      "priority": 1,
      "group": "5acde776d835"
    },
    {
      "type": "cards",
      "pictures": [
        "nothing.jpg",
        "nothing.jpg",
        "nothing.jpg"
      ],
      "formInTargetLanguage": "ahizparekin",
      "meaningInSourceLanguage": "with the sister of a sister",
      "id": "00d830fe8f32",
      "priority": 0,
      "group": "271d1c470eea"
    },
    {
      "type": "shortInput",
      "pictures": [
        "nothing.jpg",
        "nothing.jpg",
        "nothing.jpg"
      ],
      "formInTargetLanguage": [
        "ahizparekin"
      ],
      "phrase": [
        {
          "word": "with",
          "definition": "Norekin case"
        },
        {
          "word": "the",
          "definition": "-a"
        },
        {
          "word": "sister",
          "definition": "ahizpa\narreba"
        },
        {
          "word": "of",
          "definition": "de"
        },
        {
          "word": "a",
          "definition": "-a"
        },
        {
          "word": "sister",
          "definition": "ahizpa\narreba"
        }
      ],
      "id": "dfee334afab6",
      "priority": 1,
      "group": "271d1c470eea"
    },
    {
      "type": "cards",
      "pictures": [
        "nothing.jpg",
        "nothing.jpg",
        "nothing.jpg"
      ],
      "formInTargetLanguage": "arrebarekin",
      "meaningInSourceLanguage": "with the sister of a brother",
      "id": "83c4e2347d6d",
      "priority": 0,
      "group": "4a55901eb023"
    },
    {
      "type": "shortInput",
      "pictures": [
        "nothing.jpg",
        "nothing.jpg",
        "nothing.jpg"
      ],
      "formInTargetLanguage": [
        "arrebarekin"
      ],
      "phrase": [
        {
          "word": "with",
          "definition": "Norekin case"
        },
        {
          "word": "the",
          "definition": "-a"
        },
        {
          "word": "sister",
          "definition": "ahizpa\narreba"
        },
        {
          "word": "of",
          "definition": "de"
        },
        {
          "word": "a",
          "definition": "-a"
        },
        {
          "word": "brother",
          "definition": "anaia\nneba"
        }
      ],
      "id": "6358d8d313f5",
      "priority": 1,
      "group": "4a55901eb023"
    },
    {
      "type": "cards",
      "pictures": [
        "nothing.jpg",
        "nothing.jpg",
        "nothing.jpg"
      ],
      "formInTargetLanguage": "nebarekin",
      "meaningInSourceLanguage": "with the brother of a sister",
      "id": "0f09d4bd7955",
      "priority": 0,
      "group": "781f825905e6"
    },
    {
      "type": "shortInput",
      "pictures": [
        "nothing.jpg",
        "nothing.jpg",
        "nothing.jpg"
      ],
      "formInTargetLanguage": [
        "nebarekin"
      ],
      "phrase": [
        {
          "word": "with",
          "definition": "Norekin case"
        },
        {
          "word": "the",
          "definition": "-a"
        },
        {
          "word": "brother",
          "definition": "anaia\nneba"
        },
        {
          "word": "of",
          "definition": "de"
        },
        {
          "word": "a",
          "definition": "-a"
        },
        {
          "word": "sister",
          "definition": "ahizpa\narreba"
        }
      ],
      "id": "861c94959ca6",
      "priority": 1,
      "group": "781f825905e6"
    },
    {
      "type": "cards",
      "pictures": [
        "nothing.jpg",
        "nothing.jpg",
        "nothing.jpg"
      ],
      "formInTargetLanguage": "anaiarekin",
      "meaningInSourceLanguage": "with the brother of a brother",
      "id": "9d685d92789d",
      "priority": 0,
      "group": "34d8986259fc"
    },
    {
      "type": "shortInput",
      "pictures": [
        "nothing.jpg",
        "nothing.jpg",
        "nothing.jpg"
      ],
      "formInTargetLanguage": [
        "anaiarekin"
      ],
      "phrase": [
        {
          "word": "with",
          "definition": "Norekin case"
        },
        {
          "word": "the",
          "definition": "-a"
        },
        {
          "word": "brother",
          "definition": "anaia\nneba"
        },
        {
          "word": "of",
          "definition": "de"
        },
        {
          "word": "a",
          "definition": "-a"
        },
        {
          "word": "brother",
          "definition": "anaia\nneba"
        }
      ],
      "id": "e9b8b0bf6cf8",
      "priority": 1,
      "group": "34d8986259fc"
    },
    {
      "type": "cards",
      "pictures": [
        "nothing.jpg",
        "nothing.jpg",
        "nothing.jpg"
      ],
      "formInTargetLanguage": "lagunekin",
      "meaningInSourceLanguage": "with the friends",
      "id": "3d78deee658a",
      "priority": 0,
      "group": "80342c3cae72"
    },
    {
      "type": "shortInput",
      "pictures": [
        "nothing.jpg",
        "nothing.jpg",
        "nothing.jpg"
      ],
      "formInTargetLanguage": [
        "lagunekin"
      ],
      "phrase": [
        {
          "word": "with",
          "definition": "Norekin case"
        },
        {
          "word": "the",
          "definition": "-a"
        },
        {
          "word": "friends",
          "definition": "lagunak"
        }
      ],
      "id": "e857bf0164af",
      "priority": 1,
      "group": "80342c3cae72"
    },
    {
      "type": "cards",
      "pictures": [
        "nothing.jpg",
        "nothing.jpg",
        "nothing.jpg"
      ],
      "formInTargetLanguage": "betaurrekoekin",
      "meaningInSourceLanguage": "with the glasses",
      "id": "49918cb64283",
      "priority": 0,
      "group": "01a3b4c9e61c"
    },
    {
      "type": "shortInput",
      "pictures": [
        "nothing.jpg",
        "nothing.jpg",
        "nothing.jpg"
      ],
      "formInTargetLanguage": [
        "betaurrekoekin"
      ],
      "phrase": [
        {
          "word": "with",
          "definition": "Norekin case"
        },
        {
          "word": "the",
          "definition": "-a"
        },
        {
          "word": "glasses",
          "definition": "basoak (to drink with)\nbetaurrekoak\nbetaurrekoak (to see with)"
        }
      ],
      "id": "d20dd7c8c72b",
      "priority": 1,
      "group": "01a3b4c9e61c"
    },
    {
      "type": "cards",
      "pictures": [
        "nothing.jpg",
        "nothing.jpg",
        "nothing.jpg"
      ],
      "formInTargetLanguage": "baloiekin",
      "meaningInSourceLanguage": "with the balls",
      "id": "3abaa52291e2",
      "priority": 0,
      "group": "30cfc633a44f"
    },
    {
      "type": "shortInput",
      "pictures": [
        "nothing.jpg",
        "nothing.jpg",
        "nothing.jpg"
      ],
      "formInTargetLanguage": [
        "baloiekin"
      ],
      "phrase": [
        {
          "word": "with",
          "definition": "Norekin case"
        },
        {
          "word": "the",
          "definition": "-a"
        },
        {
          "word": "balls",
          "definition": "baloiak"
        }
      ],
      "id": "d372da063900",
      "priority": 1,
      "group": "30cfc633a44f"
    },
    {
      "type": "cards",
      "pictures": [
        "nothing.jpg",
        "nothing.jpg",
        "nothing.jpg"
      ],
      "formInTargetLanguage": "boligrafoekin",
      "meaningInSourceLanguage": "with the pens",
      "id": "56c21a3f05f4",
      "priority": 0,
      "group": "4ebfcccadc67"
    },
    {
      "type": "shortInput",
      "pictures": [
        "nothing.jpg",
        "nothing.jpg",
        "nothing.jpg"
      ],
      "formInTargetLanguage": [
        "boligrafoekin"
      ],
      "phrase": [
        {
          "word": "with",
          "definition": "Norekin case"
        },
        {
          "word": "the",
          "definition": "-a"
        },
        {
          "word": "pens",
          "definition": "boligrafoak"
        }
      ],
      "id": "98c6d77a0375",
      "priority": 1,
      "group": "4ebfcccadc67"
    },
    {
      "type": "cards",
      "pictures": [
        "nothing.jpg",
        "nothing.jpg",
        "nothing.jpg"
      ],
      "formInTargetLanguage": "arkatzekin",
      "meaningInSourceLanguage": "with the pencils",
      "id": "aa83635f7379",
      "priority": 0,
      "group": "eb2e283119dc"
    },
    {
      "type": "shortInput",
      "pictures": [
        "nothing.jpg",
        "nothing.jpg",
        "nothing.jpg"
      ],
      "formInTargetLanguage": [
        "arkatzekin"
      ],
      "phrase": [
        {
          "word": "with",
          "definition": "Norekin case"
        },
        {
          "word": "the",
          "definition": "-a"
        },
        {
          "word": "pencils",
          "definition": "arkatzak"
        }
      ],
      "id": "d5b838439238",
      "priority": 1,
      "group": "eb2e283119dc"
    }
  ]
}