{
  "id": "3890d971bae9",
  "levels": 4,
  "challenges": [
    {
      "type": "options",
      "formInTargetLanguage": "Ni neska nintzen, baina orain etxekoandrea naiz.",
      "meaningInSourceLanguage": "I was a girl, but now I am a housewife.",
      "id": "38b55b12ef24",
      "priority": 0,
      "group": "e39e26a71644"
    },
    {
      "type": "chips",
      "translatesToSourceLanguage": false,
      "phrase": [
        {
          "word": "I",
          "definition": "ni"
        },
        {
          "word": "was",
          "definition": "nengoen(I)(egon)\nnintzen\nzegoen(he,she,it) (egon)\nzen"
        },
        {
          "word": "a",
          "definition": "-a"
        },
        {
          "word": "girl,",
          "definition": "neska"
        },
        {
          "word": "but",
          "definition": "baina\nbaina, baizik"
        },
        {
          "word": "now",
          "definition": "orain"
        },
        {
          "word": "I",
          "definition": "ni"
        },
        {
          "word": "am",
          "definition": "NORTAZ case\nnago (egon)\nnaiz\nnaiz (izan)"
        },
        {
          "word": "a",
          "definition": "-a"
        },
        {
          "word": "housewife.",
          "definition": "etxekoandre\netxekoandrea"
        }
      ],
      "chips": [
        "Ni",
        "neska",
        "nintzen",
        "baina",
        "orain",
        "etxekoandrea",
        "naiz",
        "ni",
        "ona",
        "aita",
        "anaia",
        "ezin",
        "nik"
      ],
      "solutions": [
        [
          "Ni",
          "neska",
          "nintzen",
          "baina",
          "orain",
          "etxekoandrea",
          "naiz"
        ],
        [
          "Ni",
          "neska",
          "nintzen",
          "baina",
          "orain",
          "ni",
          "etxekoandrea",
          "naiz"
        ],
        [
          "Neska",
          "nintzen",
          "baina",
          "orain",
          "ni",
          "etxekoandrea",
          "naiz"
        ],
        [
          "Neska",
          "nintzen",
          "baina",
          "orain",
          "etxekoandrea",
          "naiz"
        ]
      ],
      "formattedSolution": "Ni neska nintzen, baina orain etxekoandrea naiz.",
      "id": "f0f83ffbd105",
      "priority": 2,
      "group": "e39e26a71644"
    },
    {
      "type": "chips",
      "translatesToSourceLanguage": true,
      "phrase": [
        {
          "word": "Ni",
          "definition": "I\nme"
        },
        {
          "word": "neska",
          "definition": "a girl\ngirl\nthe girl"
        },
        {
          "word": "nintzen,",
          "definition": "I was\nwas"
        },
        {
          "word": "baina",
          "definition": "but\nbut(contrast)"
        },
        {
          "word": "orain",
          "definition": "now"
        },
        {
          "word": "etxekoandrea",
          "definition": "housewife\nthe housewife"
        },
        {
          "word": "naiz.",
          "definition": "I am (izan)\nam\nam (izan)"
        }
      ],
      "chips": [
        "I",
        "was",
        "a",
        "girl",
        "but",
        "now",
        "I",
        "am",
        "a",
        "housewife",
        "at",
        "an",
        "A",
        "us",
        "is",
        "or",
        "it",
        "of",
        "go"
      ],
      "solutions": [
        [
          "I",
          "was",
          "a",
          "girl",
          "but",
          "now",
          "I",
          "am",
          "a",
          "housewife"
        ]
      ],
      "formattedSolution": "I was a girl, but now I am a housewife.",
      "id": "c0797eeb2e16",
      "priority": 2,
      "group": "e39e26a71644"
    },
    {
      "type": "options",
      "formInTargetLanguage": "Ni ikaslea nintzen, baina orain apaiza naiz.",
      "meaningInSourceLanguage": "I was a student, but now I am a priest.",
      "id": "a58ea2189680",
      "priority": 0,
      "group": "a8bb1226679a"
    },
    {
      "type": "chips",
      "translatesToSourceLanguage": false,
      "phrase": [
        {
          "word": "I",
          "definition": "ni"
        },
        {
          "word": "was",
          "definition": "nengoen(I)(egon)\nnintzen\nzegoen(he,she,it) (egon)\nzen"
        },
        {
          "word": "a",
          "definition": "-a"
        },
        {
          "word": "student,",
          "definition": "ikasle\nikaslea"
        },
        {
          "word": "but",
          "definition": "baina\nbaina, baizik"
        },
        {
          "word": "now",
          "definition": "orain"
        },
        {
          "word": "I",
          "definition": "ni"
        },
        {
          "word": "am",
          "definition": "NORTAZ case\nnago (egon)\nnaiz\nnaiz (izan)"
        },
        {
          "word": "a",
          "definition": "-a"
        },
        {
          "word": "priest.",
          "definition": "apaiz\napaiza\napiza"
        }
      ],
      "chips": [
        "Ni",
        "ikaslea",
        "nintzen",
        "baina",
        "orain",
        "apaiza",
        "naiz",
        "ibaia",
        "aita",
        "anaia",
        "maiz",
        "apaiz",
        "zaie"
      ],
      "solutions": [
        [
          "Ni",
          "ikaslea",
          "nintzen",
          "baina",
          "orain",
          "apaiza",
          "naiz"
        ],
        [
          "Ni",
          "ikaslea",
          "nintzen",
          "baina",
          "orain",
          "ni",
          "apaiza",
          "naiz"
        ],
        [
          "Ikaslea",
          "nintzen",
          "baina",
          "orain",
          "ni",
          "apaiza",
          "naiz"
        ],
        [
          "Ikaslea",
          "nintzen",
          "baina",
          "orain",
          "apaiza",
          "naiz"
        ]
      ],
      "formattedSolution": "Ni ikaslea nintzen, baina orain apaiza naiz.",
      "id": "908c1394414b",
      "priority": 2,
      "group": "a8bb1226679a"
    },
    {
      "type": "chips",
      "translatesToSourceLanguage": true,
      "phrase": [
        {
          "word": "Ni",
          "definition": "I\nme"
        },
        {
          "word": "ikaslea",
          "definition": "a student\nstudent\nthe student"
        },
        {
          "word": "nintzen,",
          "definition": "I was\nwas"
        },
        {
          "word": "baina",
          "definition": "but\nbut(contrast)"
        },
        {
          "word": "orain",
          "definition": "now"
        },
        {
          "word": "apaiza",
          "definition": "priest\nthe priest"
        },
        {
          "word": "naiz.",
          "definition": "I am (izan)\nam\nam (izan)"
        }
      ],
      "chips": [
        "I",
        "was",
        "a",
        "student",
        "but",
        "now",
        "I",
        "am",
        "a",
        "priest",
        "at",
        "an",
        "it",
        "A",
        "us",
        "eat",
        "is",
        "sat",
        "be"
      ],
      "solutions": [
        [
          "I",
          "was",
          "a",
          "student",
          "but",
          "now",
          "I",
          "am",
          "a",
          "priest"
        ]
      ],
      "formattedSolution": "I was a student, but now I am a priest.",
      "id": "c14004172313",
      "priority": 2,
      "group": "a8bb1226679a"
    },
    {
      "type": "options",
      "formInTargetLanguage": "Zu camareroa zinen, baina orain irakaslea zara.",
      "meaningInSourceLanguage": "You were a waiter, but now you are a teacher.",
      "id": "5ace332098d8",
      "priority": 0,
      "group": "e37dd0c8e579"
    },
    {
      "type": "chips",
      "translatesToSourceLanguage": false,
      "phrase": [
        {
          "word": "You",
          "definition": "zu\nzuek"
        },
        {
          "word": "were",
          "definition": "geunden (we) (egon)\nginen\nginen (izan)\nzeuden (they) (egon)\nzeunden  (you) (egon)\nzeundeten (you (plural)) (egon)\nzinen\nzinen (izan)\nzineten\nzineten (izan)\nziren\nziren (izan)"
        },
        {
          "word": "a",
          "definition": "-a"
        },
        {
          "word": "waiter,",
          "definition": "camarero\ncamareroa"
        },
        {
          "word": "but",
          "definition": "baina\nbaina, baizik"
        },
        {
          "word": "now",
          "definition": "orain"
        },
        {
          "word": "you",
          "definition": "zu\nzuek"
        },
        {
          "word": "are",
          "definition": "daude\ndaude (egon)\ndaude (izan)\ndira\ndira (izan)\ngara\ngara (izan)\ngare\ngaude (egon)\nzara\nzara (izan)\nzarete\nzarete (izan)\nzaude  (egon)\nzaude (egon)\nzaudete (egon)"
        },
        {
          "word": "a",
          "definition": "-a"
        },
        {
          "word": "teacher.",
          "definition": "irakasle\nirakaslea"
        }
      ],
      "chips": [
        "Zu",
        "camareroa",
        "zinen",
        "baina",
        "orain",
        "irakaslea",
        "zara",
        "zaie",
        "gara",
        "ama",
        "kalea",
        "dira",
        "zurea"
      ],
      "solutions": [
        [
          "Zu",
          "camareroa",
          "zinen",
          "baina",
          "orain",
          "irakaslea",
          "zara"
        ],
        [
          "Zu",
          "camareroa",
          "zinen",
          "baina",
          "orain",
          "zu",
          "irakaslea",
          "zara"
        ],
        [
          "Camareroa",
          "zinen",
          "baina",
          "orain",
          "zu",
          "irakaslea",
          "zara"
        ],
        [
          "Camareroa",
          "zinen",
          "baina",
          "orain",
          "irakaslea",
          "zara"
        ]
      ],
      "formattedSolution": "Zu camareroa zinen, baina orain irakaslea zara.",
      "id": "3da970ba2bf3",
      "priority": 2,
      "group": "e37dd0c8e579"
    },
    {
      "type": "chips",
      "translatesToSourceLanguage": true,
      "phrase": [
        {
          "word": "Zu",
          "definition": "you"
        },
        {
          "word": "camareroa",
          "definition": "the waiter\nwaiter"
        },
        {
          "word": "zinen,",
          "definition": "were\nyou were"
        },
        {
          "word": "baina",
          "definition": "but\nbut(contrast)"
        },
        {
          "word": "orain",
          "definition": "now"
        },
        {
          "word": "irakaslea",
          "definition": "a teacher\nteacher\nthe teacher"
        },
        {
          "word": "zara.",
          "definition": "are\nyou are (izan)"
        }
      ],
      "chips": [
        "You",
        "were",
        "a",
        "waiter",
        "but",
        "now",
        "you",
        "are",
        "a",
        "teacher",
        "ate",
        "or",
        "at",
        "bar",
        "car",
        "wer",
        "far",
        "eat",
        "tea"
      ],
      "solutions": [
        [
          "You",
          "were",
          "a",
          "waiter",
          "but",
          "now",
          "you",
          "are",
          "a",
          "teacher"
        ]
      ],
      "formattedSolution": "You were a waiter, but now you are a teacher.",
      "id": "caae44d67a20",
      "priority": 2,
      "group": "e37dd0c8e579"
    },
    {
      "type": "options",
      "formInTargetLanguage": "Zu arrotza zinen, baina orain laguna zara.",
      "meaningInSourceLanguage": "You were a stranger, but now you are a friend.",
      "id": "e42f49f9e46c",
      "priority": 0,
      "group": "ace5c6470c9d"
    },
    {
      "type": "chips",
      "translatesToSourceLanguage": false,
      "phrase": [
        {
          "word": "You",
          "definition": "zu\nzuek"
        },
        {
          "word": "were",
          "definition": "geunden (we) (egon)\nginen\nginen (izan)\nzeuden (they) (egon)\nzeunden  (you) (egon)\nzeundeten (you (plural)) (egon)\nzinen\nzinen (izan)\nzineten\nzineten (izan)\nziren\nziren (izan)"
        },
        {
          "word": "a",
          "definition": "-a"
        },
        {
          "word": "stranger,",
          "definition": "arrotz\narrotza"
        },
        {
          "word": "but",
          "definition": "baina\nbaina, baizik"
        },
        {
          "word": "now",
          "definition": "orain"
        },
        {
          "word": "you",
          "definition": "zu\nzuek"
        },
        {
          "word": "are",
          "definition": "daude\ndaude (egon)\ndaude (izan)\ndira\ndira (izan)\ngara\ngara (izan)\ngare\ngaude (egon)\nzara\nzara (izan)\nzarete\nzarete (izan)\nzaude  (egon)\nzaude (egon)\nzaudete (egon)"
        },
        {
          "word": "a",
          "definition": "-a"
        },
        {
          "word": "friend.",
          "definition": "lagun\nlaguna"
        }
      ],
      "chips": [
        "Zu",
        "arrotza",
        "zinen",
        "baina",
        "orain",
        "laguna",
        "zara",
        "ona",
        "aita",
        "gara",
        "ama",
        "bata",
        "lan"
      ],
      "solutions": [
        [
          "Zu",
          "arrotza",
          "zinen",
          "baina",
          "orain",
          "laguna",
          "zara"
        ],
        [
          "Zu",
          "arrotza",
          "zinen",
          "baina",
          "orain",
          "zu",
          "laguna",
          "zara"
        ],
        [
          "Arrotza",
          "zinen",
          "baina",
          "orain",
          "zu",
          "laguna",
          "zara"
        ],
        [
          "Arrotza",
          "zinen",
          "baina",
          "orain",
          "laguna",
          "zara"
        ]
      ],
      "formattedSolution": "Zu arrotza zinen, baina orain laguna zara.",
      "id": "048fa686c5b0",
      "priority": 2,
      "group": "ace5c6470c9d"
    },
    {
      "type": "chips",
      "translatesToSourceLanguage": true,
      "phrase": [
        {
          "word": "Zu",
          "definition": "you"
        },
        {
          "word": "arrotza",
          "definition": "stranger\nthe stranger"
        },
        {
          "word": "zinen,",
          "definition": "were\nyou were"
        },
        {
          "word": "baina",
          "definition": "but\nbut(contrast)"
        },
        {
          "word": "orain",
          "definition": "now"
        },
        {
          "word": "laguna",
          "definition": "friend\nthe friend"
        },
        {
          "word": "zara.",
          "definition": "are\nyou are (izan)"
        }
      ],
      "chips": [
        "You",
        "were",
        "a",
        "stranger",
        "but",
        "now",
        "you",
        "are",
        "a",
        "friend",
        "or",
        "Are",
        "an",
        "ate",
        "and",
        "red",
        "on",
        "at",
        "be"
      ],
      "solutions": [
        [
          "You",
          "were",
          "a",
          "stranger",
          "but",
          "now",
          "you",
          "are",
          "a",
          "friend"
        ]
      ],
      "formattedSolution": "You were a stranger, but now you are a friend.",
      "id": "36f732d7cada",
      "priority": 2,
      "group": "ace5c6470c9d"
    },
    {
      "type": "options",
      "formInTargetLanguage": "Hura gidaria zen, baina orain sukaldaria da.",
      "meaningInSourceLanguage": "He was a driver, but now he is a chef.",
      "id": "34928962cb9c",
      "priority": 0,
      "group": "dd7b735b34ee"
    },
    {
      "type": "chips",
      "translatesToSourceLanguage": false,
      "phrase": [
        {
          "word": "He",
          "definition": "hura"
        },
        {
          "word": "was",
          "definition": "nengoen(I)(egon)\nnintzen\nzegoen(he,she,it) (egon)\nzen"
        },
        {
          "word": "a",
          "definition": "-a"
        },
        {
          "word": "driver,",
          "definition": "gidari\ngidaria"
        },
        {
          "word": "but",
          "definition": "baina\nbaina, baizik"
        },
        {
          "word": "now",
          "definition": "orain"
        },
        {
          "word": "he",
          "definition": "hura"
        },
        {
          "word": "is",
          "definition": "da\nda (izan)\ndago\ndago (egon)"
        },
        {
          "word": "a",
          "definition": "-a"
        },
        {
          "word": "chef.",
          "definition": "nongoa\nsukaldaria"
        }
      ],
      "chips": [
        "Hura",
        "gidaria",
        "zen",
        "baina",
        "orain",
        "sukaldaria",
        "da",
        "zara",
        "gara",
        "dira",
        "ari",
        "hura",
        "Bai"
      ],
      "solutions": [
        [
          "Hura",
          "gidaria",
          "zen",
          "baina",
          "orain",
          "sukaldaria",
          "da"
        ],
        [
          "Hura",
          "gidaria",
          "zen",
          "baina",
          "orain",
          "hura",
          "sukaldaria",
          "da"
        ],
        [
          "Gidaria",
          "zen",
          "baina",
          "orain",
          "hura",
          "sukaldaria",
          "da"
        ],
        [
          "Gidaria",
          "zen",
          "baina",
          "orain",
          "sukaldaria",
          "da"
        ]
      ],
      "formattedSolution": "Hura gidaria zen, baina orain sukaldaria da.",
      "id": "773ffe31cafa",
      "priority": 2,
      "group": "dd7b735b34ee"
    },
    {
      "type": "chips",
      "translatesToSourceLanguage": true,
      "phrase": [
        {
          "word": "Hura",
          "definition": "he\nit\nitr\nshe\nthat over there"
        },
        {
          "word": "gidaria",
          "definition": "driver\nthe driver"
        },
        {
          "word": "zen,",
          "definition": "he/she/it was\nwas"
        },
        {
          "word": "baina",
          "definition": "but\nbut(contrast)"
        },
        {
          "word": "orain",
          "definition": "now"
        },
        {
          "word": "sukaldaria",
          "definition": "chef\ncook"
        },
        {
          "word": "da.",
          "definition": "he is (izan)\nis\nit is (izan)\nshe is (izan)"
        }
      ],
      "chips": [
        "He",
        "was",
        "a",
        "driver",
        "but",
        "now",
        "he",
        "is",
        "a",
        "chef",
        "be",
        "We",
        "me",
        "at",
        "am",
        "it",
        "an",
        "us",
        "I"
      ],
      "solutions": [
        [
          "He",
          "was",
          "a",
          "driver",
          "but",
          "now",
          "he",
          "is",
          "a",
          "chef"
        ],
        [
          "She",
          "was",
          "a",
          "driver",
          "but",
          "now",
          "she",
          "is",
          "a",
          "chef"
        ],
        [
          "He",
          "was",
          "a",
          "driver",
          "but",
          "now",
          "he",
          "is",
          "a",
          "cook"
        ],
        [
          "She",
          "was",
          "a",
          "driver",
          "but",
          "now",
          "she",
          "is",
          "a",
          "cook"
        ]
      ],
      "formattedSolution": "He was a driver, but now he is a chef.",
      "id": "601f38bcf724",
      "priority": 2,
      "group": "dd7b735b34ee"
    },
    {
      "type": "options",
      "formInTargetLanguage": "Hura sukaldaria zen, baina orain medikua da.",
      "meaningInSourceLanguage": "She was a cook, but now she is a doctor.",
      "id": "b3865b34a384",
      "priority": 0,
      "group": "4b5a44f1243b"
    },
    {
      "type": "chips",
      "translatesToSourceLanguage": false,
      "phrase": [
        {
          "word": "She",
          "definition": "hura"
        },
        {
          "word": "was",
          "definition": "nengoen(I)(egon)\nnintzen\nzegoen(he,she,it) (egon)\nzen"
        },
        {
          "word": "a",
          "definition": "-a"
        },
        {
          "word": "cook,",
          "definition": "egosten\negosten (present)\negosten (verb)\negostiko (future)\nsukaldari\nsukaldaria\nsukaldaria (noun)\nsukaldatzen (present)"
        },
        {
          "word": "but",
          "definition": "baina\nbaina, baizik"
        },
        {
          "word": "now",
          "definition": "orain"
        },
        {
          "word": "she",
          "definition": "hura"
        },
        {
          "word": "is",
          "definition": "da\nda (izan)\ndago\ndago (egon)"
        },
        {
          "word": "a",
          "definition": "-a"
        },
        {
          "word": "doctor.",
          "definition": "mediku\nmedikua"
        }
      ],
      "chips": [
        "Hura",
        "sukaldaria",
        "zen",
        "baina",
        "orain",
        "medikua",
        "da",
        "dira",
        "zara",
        "doa",
        "Uda",
        "mina",
        "gara"
      ],
      "solutions": [
        [
          "Hura",
          "sukaldaria",
          "zen",
          "baina",
          "orain",
          "medikua",
          "da"
        ],
        [
          "Hura",
          "sukaldaria",
          "zen",
          "baina",
          "orain",
          "hura",
          "medikua",
          "da"
        ],
        [
          "Sukaldaria",
          "zen",
          "baina",
          "orain",
          "hura",
          "medikua",
          "da"
        ],
        [
          "Sukaldaria",
          "zen",
          "baina",
          "orain",
          "medikua",
          "da"
        ]
      ],
      "formattedSolution": "Hura sukaldaria zen, baina orain medikua da.",
      "id": "bcb7886d73ab",
      "priority": 2,
      "group": "4b5a44f1243b"
    },
    {
      "type": "chips",
      "translatesToSourceLanguage": true,
      "phrase": [
        {
          "word": "Hura",
          "definition": "he\nit\nitr\nshe\nthat over there"
        },
        {
          "word": "sukaldaria",
          "definition": "chef\ncook"
        },
        {
          "word": "zen,",
          "definition": "he/she/it was\nwas"
        },
        {
          "word": "baina",
          "definition": "but\nbut(contrast)"
        },
        {
          "word": "orain",
          "definition": "now"
        },
        {
          "word": "medikua",
          "definition": "doctor\nthe doctor"
        },
        {
          "word": "da.",
          "definition": "he is (izan)\nis\nit is (izan)\nshe is (izan)"
        }
      ],
      "chips": [
        "She",
        "was",
        "a",
        "cook",
        "but",
        "now",
        "she",
        "is",
        "a",
        "doctor",
        "at",
        "or",
        "to",
        "so",
        "bo",
        "am",
        "it",
        "car",
        "not"
      ],
      "solutions": [
        [
          "She",
          "was",
          "a",
          "cook",
          "but",
          "now",
          "she",
          "is",
          "a",
          "doctor"
        ],
        [
          "He",
          "was",
          "a",
          "cook",
          "but",
          "now",
          "he",
          "is",
          "a",
          "doctor"
        ],
        [
          "She",
          "was",
          "a",
          "chef",
          "but",
          "now",
          "she",
          "is",
          "a",
          "doctor"
        ],
        [
          "He",
          "was",
          "a",
          "chef",
          "but",
          "now",
          "hee",
          "is",
          "a",
          "doctor"
        ]
      ],
      "formattedSolution": "She was a cook, but now she is a doctor.",
      "id": "e9f98d78f3cc",
      "priority": 2,
      "group": "4b5a44f1243b"
    },
    {
      "type": "options",
      "formInTargetLanguage": "Gu lagunak ginen, baina orain arrotzak gara.",
      "meaningInSourceLanguage": "We were friends, but now we are strangers.",
      "id": "8e86b24f1873",
      "priority": 0,
      "group": "9e196f06e142"
    },
    {
      "type": "chips",
      "translatesToSourceLanguage": false,
      "phrase": [
        {
          "word": "We",
          "definition": "gu"
        },
        {
          "word": "were",
          "definition": "geunden (we) (egon)\nginen\nginen (izan)\nzeuden (they) (egon)\nzeunden  (you) (egon)\nzeundeten (you (plural)) (egon)\nzinen\nzinen (izan)\nzineten\nzineten (izan)\nziren\nziren (izan)"
        },
        {
          "word": "friends,",
          "definition": "lagunak"
        },
        {
          "word": "but",
          "definition": "baina\nbaina, baizik"
        },
        {
          "word": "now",
          "definition": "orain"
        },
        {
          "word": "we",
          "definition": "gu"
        },
        {
          "word": "are",
          "definition": "daude\ndaude (egon)\ndaude (izan)\ndira\ndira (izan)\ngara\ngara (izan)\ngare\ngaude (egon)\nzara\nzara (izan)\nzarete\nzarete (izan)\nzaude  (egon)\nzaude (egon)\nzaudete (egon)"
        },
        {
          "word": "strangers.",
          "definition": "arrotzak"
        }
      ],
      "chips": [
        "Gu",
        "lagunak",
        "ginen",
        "baina",
        "orain",
        "arrotzak",
        "gara",
        "ona",
        "gonak",
        "aita",
        "lan",
        "zara",
        "onak"
      ],
      "solutions": [
        [
          "Gu",
          "lagunak",
          "ginen",
          "baina",
          "orain",
          "arrotzak",
          "gara"
        ],
        [
          "Gu",
          "lagunak",
          "ginen",
          "baina",
          "orain",
          "gu",
          "arrotzak",
          "gara"
        ],
        [
          "Lagunak",
          "ginen",
          "baina",
          "orain",
          "gu",
          "arrotzak",
          "gara"
        ],
        [
          "Lagunak",
          "ginen",
          "baina",
          "orain",
          "arrotzak",
          "gara"
        ]
      ],
      "formattedSolution": "Gu lagunak ginen, baina orain arrotzak gara.",
      "id": "afa9f4a5906a",
      "priority": 2,
      "group": "9e196f06e142"
    },
    {
      "type": "chips",
      "translatesToSourceLanguage": true,
      "phrase": [
        {
          "word": "Gu",
          "definition": "we"
        },
        {
          "word": "lagunak",
          "definition": "friends"
        },
        {
          "word": "ginen,",
          "definition": "we were\nwere"
        },
        {
          "word": "baina",
          "definition": "but\nbut(contrast)"
        },
        {
          "word": "orain",
          "definition": "now"
        },
        {
          "word": "arrotzak",
          "definition": "strangers"
        },
        {
          "word": "gara.",
          "definition": "are\nare (izan)"
        }
      ],
      "chips": [
        "We",
        "were",
        "friends",
        "but",
        "now",
        "we",
        "are",
        "strangers",
        "Are",
        "red",
        "be",
        "wer",
        "He",
        "me",
        "new"
      ],
      "solutions": [
        [
          "We",
          "were",
          "friends",
          "but",
          "now",
          "we",
          "are",
          "strangers"
        ],
        [
          "We",
          "were",
          "friends",
          "but",
          "now",
          "we're",
          "strangers"
        ]
      ],
      "formattedSolution": "We were friends, but now we are strangers.",
      "id": "06097e737a4a",
      "priority": 2,
      "group": "9e196f06e142"
    },
    {
      "type": "options",
      "formInTargetLanguage": "Gu camareroak ginen, baina orain poliziak gara.",
      "meaningInSourceLanguage": "We were waiters, but now we are police officers.",
      "id": "25806ac77178",
      "priority": 0,
      "group": "27b4d364ac18"
    },
    {
      "type": "chips",
      "translatesToSourceLanguage": false,
      "phrase": [
        {
          "word": "We",
          "definition": "gu"
        },
        {
          "word": "were",
          "definition": "geunden (we) (egon)\nginen\nginen (izan)\nzeuden (they) (egon)\nzeunden  (you) (egon)\nzeundeten (you (plural)) (egon)\nzinen\nzinen (izan)\nzineten\nzineten (izan)\nziren\nziren (izan)"
        },
        {
          "word": "waiters,",
          "definition": "camareroak\ncamareroek"
        },
        {
          "word": "but",
          "definition": "baina\nbaina, baizik"
        },
        {
          "word": "now",
          "definition": "orain"
        },
        {
          "word": "we",
          "definition": "gu"
        },
        {
          "word": "are",
          "definition": "daude\ndaude (egon)\ndaude (izan)\ndira\ndira (izan)\ngara\ngara (izan)\ngare\ngaude (egon)\nzara\nzara (izan)\nzarete\nzarete (izan)\nzaude  (egon)\nzaude (egon)\nzaudete (egon)"
        },
        {
          "word": "police",
          "definition": "polizia"
        },
        {
          "word": "officers.",
          "definition": "ofizialak\npoliziak (police officers)"
        }
      ],
      "chips": [
        "Gu",
        "camareroak",
        "ginen",
        "baina",
        "orain",
        "poliziak",
        "gara",
        "mina",
        "zara",
        "dira",
        "ona",
        "aita",
        "ama"
      ],
      "solutions": [
        [
          "Gu",
          "camareroak",
          "ginen",
          "baina",
          "orain",
          "poliziak",
          "gara"
        ],
        [
          "Gu",
          "camareroak",
          "ginen",
          "baina",
          "orain",
          "gu",
          "poliziak",
          "gara"
        ],
        [
          "Camareroak",
          "ginen",
          "baina",
          "orain",
          "gu",
          "poliziak",
          "gara"
        ],
        [
          "Camareroak",
          "ginen",
          "baina",
          "orain",
          "poliziak",
          "gara"
        ]
      ],
      "formattedSolution": "Gu camareroak ginen, baina orain poliziak gara.",
      "id": "e5a2cfa07560",
      "priority": 2,
      "group": "27b4d364ac18"
    },
    {
      "type": "chips",
      "translatesToSourceLanguage": true,
      "phrase": [
        {
          "word": "Gu",
          "definition": "we"
        },
        {
          "word": "camareroak",
          "definition": "waiters"
        },
        {
          "word": "ginen,",
          "definition": "we were\nwere"
        },
        {
          "word": "baina",
          "definition": "but\nbut(contrast)"
        },
        {
          "word": "orain",
          "definition": "now"
        },
        {
          "word": "poliziak",
          "definition": "police officers"
        },
        {
          "word": "gara.",
          "definition": "are\nare (izan)"
        }
      ],
      "chips": [
        "We",
        "were",
        "waiters",
        "but",
        "now",
        "we",
        "are",
        "police",
        "officers",
        "ice",
        "lie",
        "wer",
        "be",
        "ate",
        "one",
        "He",
        "Are"
      ],
      "solutions": [
        [
          "We",
          "were",
          "waiters",
          "but",
          "now",
          "we",
          "are",
          "police",
          "officers"
        ],
        [
          "We",
          "were",
          "waiters",
          "but",
          "now",
          "we're",
          "police",
          "officers"
        ]
      ],
      "formattedSolution": "We were waiters, but now we are police officers.",
      "id": "eb2948da1826",
      "priority": 2,
      "group": "27b4d364ac18"
    },
    {
      "type": "options",
      "formInTargetLanguage": "Zuek turistak zineten, baina orain apaizak zara.",
      "meaningInSourceLanguage": "You(plural) were tourists, but now you(plural) are priests.",
      "id": "120b8c740ecc",
      "priority": 0,
      "group": "0fc57fb0b1df"
    },
    {
      "type": "chips",
      "translatesToSourceLanguage": false,
      "phrase": [
        {
          "word": "You(plural)",
          "definition": "zuek"
        },
        {
          "word": "were",
          "definition": "geunden (we) (egon)\nginen\nginen (izan)\nzeuden (they) (egon)\nzeunden  (you) (egon)\nzeundeten (you (plural)) (egon)\nzinen\nzinen (izan)\nzineten\nzineten (izan)\nziren\nziren (izan)"
        },
        {
          "word": "tourists,",
          "definition": "turistak\nturistek"
        },
        {
          "word": "but",
          "definition": "baina\nbaina, baizik"
        },
        {
          "word": "now",
          "definition": "orain"
        },
        {
          "word": "you(plural)",
          "definition": "zuek"
        },
        {
          "word": "are",
          "definition": "daude\ndaude (egon)\ndaude (izan)\ndira\ndira (izan)\ngara\ngara (izan)\ngare\ngaude (egon)\nzara\nzara (izan)\nzarete\nzarete (izan)\nzaude  (egon)\nzaude (egon)\nzaudete (egon)"
        },
        {
          "word": "priests.",
          "definition": "apaizak\napaizek\napaizen (of the priests)"
        }
      ],
      "chips": [
        "Zuek",
        "turistak",
        "zineten",
        "baina",
        "orain",
        "apaizak",
        "zara",
        "aita",
        "zait",
        "zuria",
        "ibaia",
        "anaia",
        "oinak"
      ],
      "solutions": [
        [
          "Zuek",
          "turistak",
          "zineten",
          "baina",
          "orain",
          "apaizak",
          "zara"
        ],
        [
          "Zuek",
          "turistak",
          "zineten",
          "baina",
          "orain",
          "zuek",
          "apaizak",
          "zara"
        ],
        [
          "Turistak",
          "zineten",
          "baina",
          "orain",
          "zuek",
          "apaizak",
          "zara"
        ],
        [
          "Turistak",
          "zineten",
          "baina",
          "orain",
          "apaizak",
          "zara"
        ]
      ],
      "formattedSolution": "Zuek turistak zineten, baina orain apaizak zara.",
      "id": "5b0ae38ac45d",
      "priority": 2,
      "group": "0fc57fb0b1df"
    },
    {
      "type": "chips",
      "translatesToSourceLanguage": true,
      "phrase": [
        {
          "word": "Zuek",
          "definition": "you\nyou all\nyou'll\nyou(plural)\nyour (plural)\nyour/you (plural)"
        },
        {
          "word": "turistak",
          "definition": "tourists"
        },
        {
          "word": "zineten,",
          "definition": "were\nyou (plural) were"
        },
        {
          "word": "baina",
          "definition": "but\nbut(contrast)"
        },
        {
          "word": "orain",
          "definition": "now"
        },
        {
          "word": "apaizak",
          "definition": "priests"
        },
        {
          "word": "zara.",
          "definition": "are\nyou are (izan)"
        }
      ],
      "chips": [
        "You(plural",
        "were",
        "tourists",
        "but",
        "now",
        "you(plural",
        "are",
        "priests",
        "our",
        "ours",
        "or",
        "Are",
        "tour",
        "purse",
        "your"
      ],
      "solutions": [
        [
          "You(plural",
          "were",
          "tourists",
          "but",
          "now",
          "you(plural",
          "are",
          "priests"
        ],
        [
          "You'll",
          "were",
          "tourists",
          "but",
          "now",
          "you'll",
          "are",
          "priests"
        ],
        [
          "You",
          "were",
          "tourists",
          "but",
          "now",
          "you",
          "are",
          "priests"
        ],
        [
          "You",
          "were",
          "tourists",
          "but",
          "now",
          "you're",
          "priests"
        ]
      ],
      "formattedSolution": "You(plural) were tourists, but now you(plural) are priests.",
      "id": "81001a37e3a7",
      "priority": 2,
      "group": "0fc57fb0b1df"
    },
    {
      "type": "options",
      "formInTargetLanguage": "Zuek arrotzak zineten, baina orain lagunak zara.",
      "meaningInSourceLanguage": "You(plural) were strangers, but now you(plural) are friends.",
      "id": "3a59df4fa52c",
      "priority": 0,
      "group": "6cb5e01e9478"
    },
    {
      "type": "chips",
      "translatesToSourceLanguage": false,
      "phrase": [
        {
          "word": "You(plural)",
          "definition": "zuek"
        },
        {
          "word": "were",
          "definition": "geunden (we) (egon)\nginen\nginen (izan)\nzeuden (they) (egon)\nzeunden  (you) (egon)\nzeundeten (you (plural)) (egon)\nzinen\nzinen (izan)\nzineten\nzineten (izan)\nziren\nziren (izan)"
        },
        {
          "word": "strangers,",
          "definition": "arrotzak"
        },
        {
          "word": "but",
          "definition": "baina\nbaina, baizik"
        },
        {
          "word": "now",
          "definition": "orain"
        },
        {
          "word": "you(plural)",
          "definition": "zuek"
        },
        {
          "word": "are",
          "definition": "daude\ndaude (egon)\ndaude (izan)\ndira\ndira (izan)\ngara\ngara (izan)\ngare\ngaude (egon)\nzara\nzara (izan)\nzarete\nzarete (izan)\nzaude  (egon)\nzaude (egon)\nzaudete (egon)"
        },
        {
          "word": "friends.",
          "definition": "lagunak"
        }
      ],
      "chips": [
        "Zuek",
        "arrotzak",
        "zineten",
        "baina",
        "orain",
        "lagunak",
        "zara",
        "aita",
        "onak",
        "oinak",
        "bata",
        "gara",
        "ona"
      ],
      "solutions": [
        [
          "Zuek",
          "arrotzak",
          "zineten",
          "baina",
          "orain",
          "lagunak",
          "zara"
        ],
        [
          "Zuek",
          "arrotzak",
          "zineten",
          "baina",
          "orain",
          "zuek",
          "lagunak",
          "zara"
        ],
        [
          "Arrotzak",
          "zineten",
          "baina",
          "orain",
          "zuek",
          "lagunak",
          "zara"
        ],
        [
          "Arrotzak",
          "zineten",
          "baina",
          "orain",
          "lagunak",
          "zara"
        ]
      ],
      "formattedSolution": "Zuek arrotzak zineten, baina orain lagunak zara.",
      "id": "c511d37ea50f",
      "priority": 2,
      "group": "6cb5e01e9478"
    },
    {
      "type": "chips",
      "translatesToSourceLanguage": true,
      "phrase": [
        {
          "word": "Zuek",
          "definition": "you\nyou all\nyou'll\nyou(plural)\nyour (plural)\nyour/you (plural)"
        },
        {
          "word": "arrotzak",
          "definition": "strangers"
        },
        {
          "word": "zineten,",
          "definition": "were\nyou (plural) were"
        },
        {
          "word": "baina",
          "definition": "but\nbut(contrast)"
        },
        {
          "word": "orain",
          "definition": "now"
        },
        {
          "word": "lagunak",
          "definition": "friends"
        },
        {
          "word": "zara.",
          "definition": "are\nyou are (izan)"
        }
      ],
      "chips": [
        "You(plural",
        "were",
        "strangers",
        "but",
        "now",
        "you(plural",
        "are",
        "friends",
        "Are",
        "or",
        "red",
        "our",
        "ours",
        "ran",
        "wer"
      ],
      "solutions": [
        [
          "You(plural",
          "were",
          "strangers",
          "but",
          "now",
          "you(plural",
          "are",
          "friends"
        ],
        [
          "You'll",
          "were",
          "strangers",
          "but",
          "now",
          "you'll",
          "are",
          "friends"
        ],
        [
          "You",
          "were",
          "strangers",
          "but",
          "now",
          "you",
          "are",
          "friends"
        ],
        [
          "You",
          "were",
          "strangers",
          "but",
          "now",
          "you're",
          "friends"
        ]
      ],
      "formattedSolution": "You(plural) were strangers, but now you(plural) are friends.",
      "id": "a6b798592955",
      "priority": 2,
      "group": "6cb5e01e9478"
    },
    {
      "type": "options",
      "formInTargetLanguage": "Haiek erizainak ziren, baina orain etxekoandreak dira.",
      "meaningInSourceLanguage": "They were nurses, but now they are housewives.",
      "id": "6d3cad21125e",
      "priority": 0,
      "group": "a62a4a54d003"
    },
    {
      "type": "chips",
      "translatesToSourceLanguage": false,
      "phrase": [
        {
          "word": "They",
          "definition": "haiek"
        },
        {
          "word": "were",
          "definition": "geunden (we) (egon)\nginen\nginen (izan)\nzeuden (they) (egon)\nzeunden  (you) (egon)\nzeundeten (you (plural)) (egon)\nzinen\nzinen (izan)\nzineten\nzineten (izan)\nziren\nziren (izan)"
        },
        {
          "word": "nurses,",
          "definition": "erizainak\nerizainek"
        },
        {
          "word": "but",
          "definition": "baina\nbaina, baizik"
        },
        {
          "word": "now",
          "definition": "orain"
        },
        {
          "word": "they",
          "definition": "haiek"
        },
        {
          "word": "are",
          "definition": "daude\ndaude (egon)\ndaude (izan)\ndira\ndira (izan)\ngara\ngara (izan)\ngare\ngaude (egon)\nzara\nzara (izan)\nzarete\nzarete (izan)\nzaude  (egon)\nzaude (egon)\nzaudete (egon)"
        },
        {
          "word": "housewives.",
          "definition": "etxekoandreak\netxekoandreek"
        }
      ],
      "chips": [
        "Haiek",
        "erizainak",
        "ziren",
        "baina",
        "orain",
        "etxekoandreak",
        "dira",
        "zara",
        "haiek",
        "aita",
        "oinak",
        "zaie",
        "haien"
      ],
      "solutions": [
        [
          "Haiek",
          "erizainak",
          "ziren",
          "baina",
          "orain",
          "etxekoandreak",
          "dira"
        ],
        [
          "Haiek",
          "erizainak",
          "ziren",
          "baina",
          "orain",
          "haiek",
          "etxekoandreak",
          "dira"
        ],
        [
          "Erizainak",
          "ziren",
          "baina",
          "orain",
          "haiek",
          "etxekoandreak",
          "dira"
        ],
        [
          "Erizainak",
          "ziren",
          "baina",
          "orain",
          "etxekoandreak",
          "dira"
        ]
      ],
      "formattedSolution": "Haiek erizainak ziren, baina orain etxekoandreak dira.",
      "id": "6bb8fa888f34",
      "priority": 2,
      "group": "a62a4a54d003"
    },
    {
      "type": "chips",
      "translatesToSourceLanguage": true,
      "phrase": [
        {
          "word": "Haiek",
          "definition": "they\nthose over there, plural of hura"
        },
        {
          "word": "erizainak",
          "definition": "nurse\nnurses"
        },
        {
          "word": "ziren,",
          "definition": "they were\nwere"
        },
        {
          "word": "baina",
          "definition": "but\nbut(contrast)"
        },
        {
          "word": "orain",
          "definition": "now"
        },
        {
          "word": "etxekoandreak",
          "definition": "housewives"
        },
        {
          "word": "dira.",
          "definition": "are\nare (izan)"
        }
      ],
      "chips": [
        "They",
        "were",
        "nurses",
        "but",
        "now",
        "they",
        "are",
        "housewives",
        "hee",
        "use",
        "the",
        "Are",
        "new",
        "her",
        "here"
      ],
      "solutions": [
        [
          "They",
          "were",
          "nurses",
          "but",
          "now",
          "they",
          "are",
          "housewives"
        ],
        [
          "They",
          "were",
          "nurses",
          "but",
          "now",
          "they're",
          "housewives"
        ]
      ],
      "formattedSolution": "They were nurses, but now they are housewives.",
      "id": "0ada8b5b265e",
      "priority": 2,
      "group": "a62a4a54d003"
    },
    {
      "type": "options",
      "formInTargetLanguage": "Haiek mutilak ziren, baina orain apaizak dira.",
      "meaningInSourceLanguage": "They were boys, but now they are priests.",
      "id": "1045d533d683",
      "priority": 0,
      "group": "474c33106c38"
    },
    {
      "type": "chips",
      "translatesToSourceLanguage": false,
      "phrase": [
        {
          "word": "They",
          "definition": "haiek"
        },
        {
          "word": "were",
          "definition": "geunden (we) (egon)\nginen\nginen (izan)\nzeuden (they) (egon)\nzeunden  (you) (egon)\nzeundeten (you (plural)) (egon)\nzinen\nzinen (izan)\nzineten\nzineten (izan)\nziren\nziren (izan)"
        },
        {
          "word": "boys,",
          "definition": "mutilak\nmutilek"
        },
        {
          "word": "but",
          "definition": "baina\nbaina, baizik"
        },
        {
          "word": "now",
          "definition": "orain"
        },
        {
          "word": "they",
          "definition": "haiek"
        },
        {
          "word": "are",
          "definition": "daude\ndaude (egon)\ndaude (izan)\ndira\ndira (izan)\ngara\ngara (izan)\ngare\ngaude (egon)\nzara\nzara (izan)\nzarete\nzarete (izan)\nzaude  (egon)\nzaude (egon)\nzaudete (egon)"
        },
        {
          "word": "priests.",
          "definition": "apaizak\napaizek\napaizen (of the priests)"
        }
      ],
      "chips": [
        "Haiek",
        "mutilak",
        "ziren",
        "baina",
        "orain",
        "apaizak",
        "dira",
        "aita",
        "haiek",
        "biak",
        "mina",
        "haien",
        "mila"
      ],
      "solutions": [
        [
          "Haiek",
          "mutilak",
          "ziren",
          "baina",
          "orain",
          "apaizak",
          "dira"
        ],
        [
          "Haiek",
          "mutilak",
          "ziren",
          "baina",
          "orain",
          "haiek",
          "apaizak",
          "dira"
        ],
        [
          "Mutilak",
          "ziren",
          "baina",
          "orain",
          "haiek",
          "apaizak",
          "dira"
        ],
        [
          "Mutilak",
          "ziren",
          "baina",
          "orain",
          "apaizak",
          "dira"
        ]
      ],
      "formattedSolution": "Haiek mutilak ziren, baina orain apaizak dira.",
      "id": "034a4d508212",
      "priority": 2,
      "group": "474c33106c38"
    },
    {
      "type": "chips",
      "translatesToSourceLanguage": true,
      "phrase": [
        {
          "word": "Haiek",
          "definition": "they\nthose over there, plural of hura"
        },
        {
          "word": "mutilak",
          "definition": "boys"
        },
        {
          "word": "ziren,",
          "definition": "they were\nwere"
        },
        {
          "word": "baina",
          "definition": "but\nbut(contrast)"
        },
        {
          "word": "orain",
          "definition": "now"
        },
        {
          "word": "apaizak",
          "definition": "priests"
        },
        {
          "word": "dira.",
          "definition": "are\nare (izan)"
        }
      ],
      "chips": [
        "They",
        "were",
        "boys",
        "but",
        "now",
        "they",
        "are",
        "priests",
        "the",
        "Are",
        "hee",
        "boy",
        "She",
        "her",
        "be"
      ],
      "solutions": [
        [
          "They",
          "were",
          "boys",
          "but",
          "now",
          "they",
          "are",
          "priests"
        ],
        [
          "They",
          "were",
          "boys",
          "but",
          "now",
          "they're",
          "priests"
        ]
      ],
      "formattedSolution": "They were boys, but now they are priests.",
      "id": "072d5a24751c",
      "priority": 2,
      "group": "474c33106c38"
    },
    {
      "type": "cards",
      "pictures": [
        "housewife1.jpg",
        "housewife2.jpg",
        "housewife3.jpg"
      ],
      "formInTargetLanguage": "etxekoandre",
      "meaningInSourceLanguage": "housewife",
      "id": "d17a0547687e",
      "priority": 0,
      "group": "c86dee528557"
    },
    {
      "type": "shortInput",
      "pictures": [
        "housewife1.jpg",
        "housewife2.jpg",
        "housewife3.jpg"
      ],
      "formInTargetLanguage": [
        "etxekoandre"
      ],
      "phrase": [
        {
          "word": "housewife",
          "definition": "etxekoandre\netxekoandrea"
        }
      ],
      "id": "2af7c6b14d6c",
      "priority": 1,
      "group": "c86dee528557"
    },
    {
      "type": "cards",
      "pictures": [
        "friend1.jpg",
        "friend2.jpg",
        "friend3.jpg"
      ],
      "formInTargetLanguage": "lagun",
      "meaningInSourceLanguage": "friend",
      "id": "f047b322d2a3",
      "priority": 0,
      "group": "79d6624982bd"
    },
    {
      "type": "shortInput",
      "pictures": [
        "friend1.jpg",
        "friend2.jpg",
        "friend3.jpg"
      ],
      "formInTargetLanguage": [
        "lagun"
      ],
      "phrase": [
        {
          "word": "friend",
          "definition": "lagun\nlaguna"
        }
      ],
      "id": "526db1c4242a",
      "priority": 1,
      "group": "79d6624982bd"
    },
    {
      "type": "cards",
      "pictures": [
        "waiter1.jpg",
        "waiter2.jpg",
        "waiter3.jpg"
      ],
      "formInTargetLanguage": "camarero",
      "meaningInSourceLanguage": "waiter",
      "id": "266ed78cf076",
      "priority": 0,
      "group": "e2324c63500f"
    },
    {
      "type": "shortInput",
      "pictures": [
        "waiter1.jpg",
        "waiter2.jpg",
        "waiter3.jpg"
      ],
      "formInTargetLanguage": [
        "camarero"
      ],
      "phrase": [
        {
          "word": "waiter",
          "definition": "camarero\ncamareroa"
        }
      ],
      "id": "1310df8e571e",
      "priority": 1,
      "group": "e2324c63500f"
    },
    {
      "type": "cards",
      "pictures": [
        "chef1.jpg",
        "chef2.jpg",
        "chef3.jpg"
      ],
      "formInTargetLanguage": "sukaldaria",
      "meaningInSourceLanguage": "chef",
      "id": "dd8bafa2478c",
      "priority": 0,
      "group": "0868807e3941"
    },
    {
      "type": "shortInput",
      "pictures": [
        "chef1.jpg",
        "chef2.jpg",
        "chef3.jpg"
      ],
      "formInTargetLanguage": [
        "sukaldaria"
      ],
      "phrase": [
        {
          "word": "chef",
          "definition": "nongoa\nsukaldaria"
        }
      ],
      "id": "09a1e386c8f0",
      "priority": 1,
      "group": "0868807e3941"
    },
    {
      "type": "cards",
      "pictures": [
        "priest1.jpg",
        "priest2.jpg",
        "priest3.jpg"
      ],
      "formInTargetLanguage": "apaiz",
      "meaningInSourceLanguage": "priest",
      "id": "9de62ffabc98",
      "priority": 0,
      "group": "2e376ec6bc1f"
    },
    {
      "type": "shortInput",
      "pictures": [
        "priest1.jpg",
        "priest2.jpg",
        "priest3.jpg"
      ],
      "formInTargetLanguage": [
        "apaiz"
      ],
      "phrase": [
        {
          "word": "priest",
          "definition": "apaiz\napaiza\napiza"
        }
      ],
      "id": "72d361bed292",
      "priority": 1,
      "group": "2e376ec6bc1f"
    },
    {
      "type": "cards",
      "pictures": [
        "who1.jpg",
        "who2.jpg",
        "who3.jpg"
      ],
      "formInTargetLanguage": "arrotz",
      "meaningInSourceLanguage": "stranger",
      "id": "7c9492c66ce4",
      "priority": 0,
      "group": "94868760af4c"
    },
    {
      "type": "shortInput",
      "pictures": [
        "who1.jpg",
        "who2.jpg",
        "who3.jpg"
      ],
      "formInTargetLanguage": [
        "arrotz"
      ],
      "phrase": [
        {
          "word": "stranger",
          "definition": "arrotz\narrotza"
        }
      ],
      "id": "95ab868e7457",
      "priority": 1,
      "group": "94868760af4c"
    }
  ]
}