{
  "id": "b6e80fc47d6c",
  "levels": 7,
  "challenges": [
    {
      "type": "options",
      "formInTargetLanguage": "Boligrafoa beltza nirea da.",
      "meaningInSourceLanguage": "The black pen is mine.",
      "id": "1f69c121bd61",
      "priority": 0,
      "group": "340c82f4f742"
    },
    {
      "type": "chips",
      "translatesToSourceLanguage": false,
      "phrase": [
        {
          "word": "The",
          "definition": "-a"
        },
        {
          "word": "black",
          "definition": "beltz\nbeltza"
        },
        {
          "word": "pen",
          "definition": "boligrafo"
        },
        {
          "word": "is",
          "definition": "da\nda (izan)\ndago\ndago (egon)"
        },
        {
          "word": "mine.",
          "definition": "nirea\nnireak"
        }
      ],
      "chips": [
        "Boligrafoa",
        "beltza",
        "nirea",
        "da",
        "dira",
        "eliza",
        "berea"
      ],
      "solutions": [
        [
          "Boligrafoa",
          "beltza",
          "nirea",
          "da"
        ]
      ],
      "formattedSolution": "Boligrafoa beltza nirea da.",
      "id": "57c65b9dd195",
      "priority": 2,
      "group": "340c82f4f742"
    },
    {
      "type": "chips",
      "translatesToSourceLanguage": true,
      "phrase": [
        {
          "word": "Boligrafoa",
          "definition": "pen"
        },
        {
          "word": "beltza",
          "definition": "black"
        },
        {
          "word": "nirea",
          "definition": "mine"
        },
        {
          "word": "da.",
          "definition": "he is (izan)\nis\nit is (izan)\nshe is (izan)"
        }
      ],
      "chips": [
        "The",
        "black",
        "pen",
        "is",
        "mine",
        "me",
        "in",
        "be",
        "lie"
      ],
      "solutions": [
        [
          "The",
          "black",
          "pen",
          "is",
          "mine"
        ]
      ],
      "formattedSolution": "The black pen is mine.",
      "id": "d2d3e4c321d5",
      "priority": 2,
      "group": "340c82f4f742"
    },
    {
      "type": "options",
      "formInTargetLanguage": "Kotxe gorri hori nirea da.",
      "meaningInSourceLanguage": "That red car is mine.",
      "id": "2c64166b2e74",
      "priority": 0,
      "group": "feab22cf6a7e"
    },
    {
      "type": "chips",
      "translatesToSourceLanguage": false,
      "phrase": [
        {
          "word": "That",
          "definition": "hori\nhura"
        },
        {
          "word": "red",
          "definition": "gorri\ngorria\ngorriak"
        },
        {
          "word": "car",
          "definition": "kotxe\nkotxea"
        },
        {
          "word": "is",
          "definition": "da\nda (izan)\ndago\ndago (egon)"
        },
        {
          "word": "mine.",
          "definition": "nirea\nnireak"
        }
      ],
      "chips": [
        "Kotxe",
        "gorri",
        "hori",
        "nirea",
        "da",
        "horia",
        "Hori",
        "hor",
        "Nora"
      ],
      "solutions": [
        [
          "Kotxe",
          "gorri",
          "hori",
          "nirea",
          "da"
        ]
      ],
      "formattedSolution": "Kotxe gorri hori nirea da.",
      "id": "82ae3acd0ce8",
      "priority": 2,
      "group": "feab22cf6a7e"
    },
    {
      "type": "chips",
      "translatesToSourceLanguage": true,
      "phrase": [
        {
          "word": "Kotxe",
          "definition": "car"
        },
        {
          "word": "gorri",
          "definition": "red"
        },
        {
          "word": "hori",
          "definition": "that\nyellow"
        },
        {
          "word": "nirea",
          "definition": "mine"
        },
        {
          "word": "da.",
          "definition": "he is (izan)\nis\nit is (izan)\nshe is (izan)"
        }
      ],
      "chips": [
        "That",
        "red",
        "car",
        "is",
        "mine",
        "man",
        "it",
        "me",
        "an"
      ],
      "solutions": [
        [
          "That",
          "red",
          "car",
          "is",
          "mine"
        ]
      ],
      "formattedSolution": "That red car is mine.",
      "id": "c61424dc76a0",
      "priority": 2,
      "group": "feab22cf6a7e"
    },
    {
      "type": "options",
      "formInTargetLanguage": "Motxila hau nirea da.",
      "meaningInSourceLanguage": "This backpack is mine.",
      "id": "deff1c352fae",
      "priority": 0,
      "group": "6e0dc27855f9"
    },
    {
      "type": "chips",
      "translatesToSourceLanguage": false,
      "phrase": [
        {
          "word": "This",
          "definition": "hau"
        },
        {
          "word": "backpack",
          "definition": "motxila"
        },
        {
          "word": "is",
          "definition": "da\nda (izan)\ndago\ndago (egon)"
        },
        {
          "word": "mine.",
          "definition": "nirea\nnireak"
        }
      ],
      "chips": [
        "Motxila",
        "hau",
        "nirea",
        "da",
        "dira",
        "noa",
        "doa"
      ],
      "solutions": [
        [
          "Motxila",
          "hau",
          "nirea",
          "da"
        ]
      ],
      "formattedSolution": "Motxila hau nirea da.",
      "id": "9f787de1c50d",
      "priority": 2,
      "group": "6e0dc27855f9"
    },
    {
      "type": "chips",
      "translatesToSourceLanguage": true,
      "phrase": [
        {
          "word": "Motxila",
          "definition": "backpack"
        },
        {
          "word": "hau",
          "definition": "this"
        },
        {
          "word": "nirea",
          "definition": "mine"
        },
        {
          "word": "da.",
          "definition": "he is (izan)\nis\nit is (izan)\nshe is (izan)"
        }
      ],
      "chips": [
        "This",
        "backpack",
        "is",
        "mine",
        "his",
        "in",
        "it"
      ],
      "solutions": [
        [
          "This",
          "backpack",
          "is",
          "mine"
        ]
      ],
      "formattedSolution": "This backpack is mine.",
      "id": "aedd8e81617f",
      "priority": 2,
      "group": "6e0dc27855f9"
    },
    {
      "type": "options",
      "formInTargetLanguage": "Aterki urdina nirea da.",
      "meaningInSourceLanguage": "The blue umbrella is mine.",
      "id": "ef244f730d82",
      "priority": 0,
      "group": "a5ee05a8a257"
    },
    {
      "type": "chips",
      "translatesToSourceLanguage": false,
      "phrase": [
        {
          "word": "The",
          "definition": "-a"
        },
        {
          "word": "blue",
          "definition": "urdin"
        },
        {
          "word": "umbrella",
          "definition": "aterki"
        },
        {
          "word": "is",
          "definition": "da\nda (izan)\ndago\ndago (egon)"
        },
        {
          "word": "mine.",
          "definition": "nirea\nnireak"
        }
      ],
      "chips": [
        "Aterki",
        "urdina",
        "nirea",
        "da",
        "dira",
        "ardi",
        "ardia"
      ],
      "solutions": [
        [
          "Aterki",
          "urdina",
          "nirea",
          "da"
        ]
      ],
      "formattedSolution": "Aterki urdina nirea da.",
      "id": "1114ace95202",
      "priority": 2,
      "group": "a5ee05a8a257"
    },
    {
      "type": "chips",
      "translatesToSourceLanguage": true,
      "phrase": [
        {
          "word": "Aterki",
          "definition": "umbrella"
        },
        {
          "word": "urdina",
          "definition": "blue"
        },
        {
          "word": "nirea",
          "definition": "mine"
        },
        {
          "word": "da.",
          "definition": "he is (izan)\nis\nit is (izan)\nshe is (izan)"
        }
      ],
      "chips": [
        "The",
        "blue",
        "umbrella",
        "is",
        "mine",
        "me",
        "be",
        "lie",
        "mice"
      ],
      "solutions": [
        [
          "The",
          "blue",
          "umbrella",
          "is",
          "mine"
        ]
      ],
      "formattedSolution": "The blue umbrella is mine.",
      "id": "35e4b08d356b",
      "priority": 2,
      "group": "a5ee05a8a257"
    },
    {
      "type": "options",
      "formInTargetLanguage": "Motxila berdea zurea da.",
      "meaningInSourceLanguage": "The green backpack is yours.",
      "id": "5f4f165e1ff5",
      "priority": 0,
      "group": "9685cd5f9e4f"
    },
    {
      "type": "chips",
      "translatesToSourceLanguage": false,
      "phrase": [
        {
          "word": "The",
          "definition": "-a"
        },
        {
          "word": "green",
          "definition": "berde"
        },
        {
          "word": "backpack",
          "definition": "motxila"
        },
        {
          "word": "is",
          "definition": "da\nda (izan)\ndago\ndago (egon)"
        },
        {
          "word": "yours.",
          "definition": "zuena\nzuenak\nzurea\nzureak"
        }
      ],
      "chips": [
        "Motxila",
        "berdea",
        "zurea",
        "da",
        "berea",
        "dira",
        "zuria"
      ],
      "solutions": [
        [
          "Motxila",
          "berdea",
          "zurea",
          "da"
        ]
      ],
      "formattedSolution": "Motxila berdea zurea da.",
      "id": "6002db24d62e",
      "priority": 2,
      "group": "9685cd5f9e4f"
    },
    {
      "type": "chips",
      "translatesToSourceLanguage": true,
      "phrase": [
        {
          "word": "Motxila",
          "definition": "backpack"
        },
        {
          "word": "berdea",
          "definition": "green"
        },
        {
          "word": "zurea",
          "definition": "yours"
        },
        {
          "word": "da.",
          "definition": "he is (izan)\nis\nit is (izan)\nshe is (izan)"
        }
      ],
      "chips": [
        "The",
        "green",
        "backpack",
        "is",
        "yours",
        "are",
        "or",
        "bus",
        "be"
      ],
      "solutions": [
        [
          "The",
          "green",
          "backpack",
          "is",
          "yours"
        ]
      ],
      "formattedSolution": "The green backpack is yours.",
      "id": "bee3584f73d3",
      "priority": 2,
      "group": "9685cd5f9e4f"
    },
    {
      "type": "options",
      "formInTargetLanguage": "Zein motxila da zurea?",
      "meaningInSourceLanguage": "Which backpack is yours?",
      "id": "e2e71e8ffa11",
      "priority": 0,
      "group": "fbfcebfe33af"
    },
    {
      "type": "chips",
      "translatesToSourceLanguage": false,
      "phrase": [
        {
          "word": "Which",
          "definition": "zein"
        },
        {
          "word": "backpack",
          "definition": "motxila"
        },
        {
          "word": "is",
          "definition": "da\nda (izan)\ndago\ndago (egon)"
        },
        {
          "word": "yours?",
          "definition": "zuena\nzuenak\nzurea\nzureak"
        }
      ],
      "chips": [
        "Zein",
        "motxila",
        "da",
        "zurea",
        "eta",
        "dira",
        "zuria"
      ],
      "solutions": [
        [
          "Zein",
          "motxila",
          "da",
          "zurea"
        ]
      ],
      "formattedSolution": "Zein motxila da zurea?",
      "id": "46e30ba45b4b",
      "priority": 2,
      "group": "fbfcebfe33af"
    },
    {
      "type": "chips",
      "translatesToSourceLanguage": true,
      "phrase": [
        {
          "word": "Zein",
          "definition": "which"
        },
        {
          "word": "motxila",
          "definition": "backpack"
        },
        {
          "word": "da",
          "definition": "he is (izan)\nis\nit is (izan)\nshe is (izan)"
        },
        {
          "word": "zurea?",
          "definition": "yours"
        }
      ],
      "chips": [
        "Which",
        "backpack",
        "is",
        "yours",
        "his",
        "bus",
        "cars"
      ],
      "solutions": [
        [
          "Which",
          "backpack",
          "is",
          "yours"
        ]
      ],
      "formattedSolution": "Which backpack is yours?",
      "id": "136f247ba894",
      "priority": 2,
      "group": "fbfcebfe33af"
    },
    {
      "type": "options",
      "formInTargetLanguage": "Zein boligrafoa da zurea.",
      "meaningInSourceLanguage": "Which pen is yours?",
      "id": "c4aefc583349",
      "priority": 0,
      "group": "571b3e8350a4"
    },
    {
      "type": "chips",
      "translatesToSourceLanguage": false,
      "phrase": [
        {
          "word": "Which",
          "definition": "zein"
        },
        {
          "word": "pen",
          "definition": "boligrafo"
        },
        {
          "word": "is",
          "definition": "da\nda (izan)\ndago\ndago (egon)"
        },
        {
          "word": "yours?",
          "definition": "zuena\nzuenak\nzurea\nzureak"
        }
      ],
      "chips": [
        "Zein",
        "boligrafoa",
        "da",
        "zurea",
        "dira",
        "zara",
        "Hura"
      ],
      "solutions": [
        [
          "Zein",
          "boligrafoa",
          "da",
          "zurea"
        ]
      ],
      "formattedSolution": "Zein boligrafoa da zurea.",
      "id": "1b6e25a8b1a2",
      "priority": 2,
      "group": "571b3e8350a4"
    },
    {
      "type": "chips",
      "translatesToSourceLanguage": true,
      "phrase": [
        {
          "word": "Zein",
          "definition": "which"
        },
        {
          "word": "boligrafoa",
          "definition": "pen"
        },
        {
          "word": "da",
          "definition": "he is (izan)\nis\nit is (izan)\nshe is (izan)"
        },
        {
          "word": "zurea.",
          "definition": "yours"
        }
      ],
      "chips": [
        "Which",
        "pen",
        "is",
        "yours",
        "his",
        "in",
        "us"
      ],
      "solutions": [
        [
          "Which",
          "pen",
          "is",
          "yours"
        ]
      ],
      "formattedSolution": "Which pen is yours?",
      "id": "1f44b1dd2e72",
      "priority": 2,
      "group": "571b3e8350a4"
    },
    {
      "type": "options",
      "formInTargetLanguage": "Zein aterkia da zurea?",
      "meaningInSourceLanguage": "Which umbrella is yours?",
      "id": "d9d5c78d4e29",
      "priority": 0,
      "group": "2e824b9564af"
    },
    {
      "type": "chips",
      "translatesToSourceLanguage": false,
      "phrase": [
        {
          "word": "Which",
          "definition": "zein"
        },
        {
          "word": "umbrella",
          "definition": "aterki"
        },
        {
          "word": "is",
          "definition": "da\nda (izan)\ndago\ndago (egon)"
        },
        {
          "word": "yours?",
          "definition": "zuena\nzuenak\nzurea\nzureak"
        }
      ],
      "chips": [
        "Zein",
        "aterkia",
        "da",
        "zurea",
        "zuria",
        "zara",
        "Hura"
      ],
      "solutions": [
        [
          "Zein",
          "aterkia",
          "da",
          "zurea"
        ]
      ],
      "formattedSolution": "Zein aterkia da zurea?",
      "id": "ed271beccfd2",
      "priority": 2,
      "group": "2e824b9564af"
    },
    {
      "type": "chips",
      "translatesToSourceLanguage": true,
      "phrase": [
        {
          "word": "Zein",
          "definition": "which"
        },
        {
          "word": "aterkia",
          "definition": "umbrella"
        },
        {
          "word": "da",
          "definition": "he is (izan)\nis\nit is (izan)\nshe is (izan)"
        },
        {
          "word": "zurea?",
          "definition": "yours"
        }
      ],
      "chips": [
        "Which",
        "umbrella",
        "is",
        "yours",
        "his",
        "ours",
        "us"
      ],
      "solutions": [
        [
          "Which",
          "umbrella",
          "is",
          "yours"
        ]
      ],
      "formattedSolution": "Which umbrella is yours?",
      "id": "76152d3f4a3d",
      "priority": 2,
      "group": "2e824b9564af"
    },
    {
      "type": "options",
      "formInTargetLanguage": "Kotxe grisa berea da.",
      "meaningInSourceLanguage": "The gray car is hers.",
      "id": "ffbfe0d151d6",
      "priority": 0,
      "group": "75dfe286d929"
    },
    {
      "type": "chips",
      "translatesToSourceLanguage": false,
      "phrase": [
        {
          "word": "The",
          "definition": "-a"
        },
        {
          "word": "gray",
          "definition": "gris"
        },
        {
          "word": "car",
          "definition": "kotxe\nkotxea"
        },
        {
          "word": "is",
          "definition": "da\nda (izan)\ndago\ndago (egon)"
        },
        {
          "word": "hers.",
          "definition": "bere\nberea\nbereak"
        }
      ],
      "chips": [
        "Kotxe",
        "grisa",
        "berea",
        "da",
        "ere",
        "eta",
        "dira"
      ],
      "solutions": [
        [
          "Kotxe",
          "grisa",
          "berea",
          "da"
        ]
      ],
      "formattedSolution": "Kotxe grisa berea da.",
      "id": "4378ec863091",
      "priority": 2,
      "group": "75dfe286d929"
    },
    {
      "type": "chips",
      "translatesToSourceLanguage": true,
      "phrase": [
        {
          "word": "Kotxe",
          "definition": "car"
        },
        {
          "word": "grisa",
          "definition": "gray"
        },
        {
          "word": "berea",
          "definition": "hers\nhis\nits"
        },
        {
          "word": "da.",
          "definition": "he is (izan)\nis\nit is (izan)\nshe is (izan)"
        }
      ],
      "chips": [
        "The",
        "gray",
        "car",
        "is",
        "hers",
        "her",
        "has",
        "are",
        "or"
      ],
      "solutions": [
        [
          "The",
          "gray",
          "car",
          "is",
          "hers"
        ],
        [
          "The",
          "gray",
          "car",
          "is",
          "his"
        ]
      ],
      "formattedSolution": "The gray car is hers.",
      "id": "c74477b41ecc",
      "priority": 2,
      "group": "75dfe286d929"
    },
    {
      "type": "options",
      "formInTargetLanguage": "Motxila hori berea da.",
      "meaningInSourceLanguage": "That backpack is his.",
      "id": "152688552077",
      "priority": 0,
      "group": "2799bf879b9e"
    },
    {
      "type": "chips",
      "translatesToSourceLanguage": false,
      "phrase": [
        {
          "word": "That",
          "definition": "hori\nhura"
        },
        {
          "word": "backpack",
          "definition": "motxila"
        },
        {
          "word": "is",
          "definition": "da\nda (izan)\ndago\ndago (egon)"
        },
        {
          "word": "his.",
          "definition": "bere\nberea\nbereak"
        }
      ],
      "chips": [
        "Motxila",
        "hori",
        "berea",
        "da",
        "horia",
        "dira",
        "Nora"
      ],
      "solutions": [
        [
          "Motxila",
          "hori",
          "berea",
          "da"
        ]
      ],
      "formattedSolution": "Motxila hori berea da.",
      "id": "f8c481b65803",
      "priority": 2,
      "group": "2799bf879b9e"
    },
    {
      "type": "chips",
      "translatesToSourceLanguage": true,
      "phrase": [
        {
          "word": "Motxila",
          "definition": "backpack"
        },
        {
          "word": "hori",
          "definition": "that\nyellow"
        },
        {
          "word": "berea",
          "definition": "hers\nhis\nits"
        },
        {
          "word": "da.",
          "definition": "he is (izan)\nis\nit is (izan)\nshe is (izan)"
        }
      ],
      "chips": [
        "That",
        "backpack",
        "is",
        "his",
        "has",
        "This",
        "hat"
      ],
      "solutions": [
        [
          "That",
          "backpack",
          "is",
          "his"
        ],
        [
          "That",
          "backpack",
          "is",
          "hers"
        ]
      ],
      "formattedSolution": "That backpack is his.",
      "id": "00e3962e2cde",
      "priority": 2,
      "group": "2799bf879b9e"
    },
    {
      "type": "options",
      "formInTargetLanguage": "Zein arkatz da berea?",
      "meaningInSourceLanguage": "Which pencil is hers?",
      "id": "a829818040f5",
      "priority": 0,
      "group": "deac928af664"
    },
    {
      "type": "chips",
      "translatesToSourceLanguage": false,
      "phrase": [
        {
          "word": "Which",
          "definition": "zein"
        },
        {
          "word": "pencil",
          "definition": "arkatz\narkatza"
        },
        {
          "word": "is",
          "definition": "da\nda (izan)\ndago\ndago (egon)"
        },
        {
          "word": "hers?",
          "definition": "bere\nberea\nbereak"
        }
      ],
      "chips": [
        "Zein",
        "arkatz",
        "da",
        "berea",
        "ere",
        "eta",
        "bat"
      ],
      "solutions": [
        [
          "Zein",
          "arkatz",
          "da",
          "berea"
        ]
      ],
      "formattedSolution": "Zein arkatz da berea?",
      "id": "5f108a89d8b5",
      "priority": 2,
      "group": "deac928af664"
    },
    {
      "type": "chips",
      "translatesToSourceLanguage": true,
      "phrase": [
        {
          "word": "Zein",
          "definition": "which"
        },
        {
          "word": "arkatz",
          "definition": "pencil"
        },
        {
          "word": "da",
          "definition": "he is (izan)\nis\nit is (izan)\nshe is (izan)"
        },
        {
          "word": "berea?",
          "definition": "hers\nhis\nits"
        }
      ],
      "chips": [
        "Which",
        "pencil",
        "is",
        "hers",
        "his",
        "This",
        "her"
      ],
      "solutions": [
        [
          "Which",
          "pencil",
          "is",
          "hers"
        ],
        [
          "Which",
          "pencil",
          "is",
          "his"
        ]
      ],
      "formattedSolution": "Which pencil is hers?",
      "id": "c0ef6cb17db6",
      "priority": 2,
      "group": "deac928af664"
    },
    {
      "type": "options",
      "formInTargetLanguage": "Arkatz morea berea da.",
      "meaningInSourceLanguage": "The purple pencil is his.",
      "id": "2db42a252bbc",
      "priority": 0,
      "group": "7030d4b69819"
    },
    {
      "type": "chips",
      "translatesToSourceLanguage": false,
      "phrase": [
        {
          "word": "The",
          "definition": "-a"
        },
        {
          "word": "purple",
          "definition": "more\nmorea"
        },
        {
          "word": "pencil",
          "definition": "arkatz\narkatza"
        },
        {
          "word": "is",
          "definition": "da\nda (izan)\ndago\ndago (egon)"
        },
        {
          "word": "his.",
          "definition": "bere\nberea\nbereak"
        }
      ],
      "chips": [
        "Arkatz",
        "morea",
        "berea",
        "da",
        "ere",
        "dira",
        "nirea"
      ],
      "solutions": [
        [
          "Arkatz",
          "morea",
          "berea",
          "da"
        ]
      ],
      "formattedSolution": "Arkatz morea berea da.",
      "id": "27a3f27332d0",
      "priority": 2,
      "group": "7030d4b69819"
    },
    {
      "type": "chips",
      "translatesToSourceLanguage": true,
      "phrase": [
        {
          "word": "Arkatz",
          "definition": "pencil"
        },
        {
          "word": "morea",
          "definition": "purple"
        },
        {
          "word": "berea",
          "definition": "hers\nhis\nits"
        },
        {
          "word": "da.",
          "definition": "he is (izan)\nis\nit is (izan)\nshe is (izan)"
        }
      ],
      "chips": [
        "The",
        "purple",
        "pencil",
        "is",
        "his",
        "pig",
        "This",
        "His",
        "lie"
      ],
      "solutions": [
        [
          "The",
          "purple",
          "pencil",
          "is",
          "his"
        ],
        [
          "The",
          "purple",
          "pencil",
          "is",
          "hers"
        ]
      ],
      "formattedSolution": "The purple pencil is his.",
      "id": "2f0457e33e96",
      "priority": 2,
      "group": "7030d4b69819"
    },
    {
      "type": "options",
      "formInTargetLanguage": "Zein etxea da gurea?",
      "meaningInSourceLanguage": "Which house is ours?",
      "id": "95aeb42934a7",
      "priority": 0,
      "group": "5c760c614a2a"
    },
    {
      "type": "chips",
      "translatesToSourceLanguage": false,
      "phrase": [
        {
          "word": "Which",
          "definition": "zein"
        },
        {
          "word": "house",
          "definition": "etxe\netxea"
        },
        {
          "word": "is",
          "definition": "da\nda (izan)\ndago\ndago (egon)"
        },
        {
          "word": "ours?",
          "definition": "gurea\ngureak"
        }
      ],
      "chips": [
        "Zein",
        "etxea",
        "da",
        "gurea",
        "eta",
        "ere",
        "umea"
      ],
      "solutions": [
        [
          "Zein",
          "etxea",
          "da",
          "gurea"
        ]
      ],
      "formattedSolution": "Zein etxea da gurea?",
      "id": "55a40bc53901",
      "priority": 2,
      "group": "5c760c614a2a"
    },
    {
      "type": "chips",
      "translatesToSourceLanguage": true,
      "phrase": [
        {
          "word": "Zein",
          "definition": "which"
        },
        {
          "word": "etxea",
          "definition": "house"
        },
        {
          "word": "da",
          "definition": "he is (izan)\nis\nit is (izan)\nshe is (izan)"
        },
        {
          "word": "gurea?",
          "definition": "ours"
        }
      ],
      "chips": [
        "Which",
        "house",
        "is",
        "ours",
        "his",
        "us",
        "bus"
      ],
      "solutions": [
        [
          "Which",
          "house",
          "is",
          "ours"
        ]
      ],
      "formattedSolution": "Which house is ours?",
      "id": "46352c669f4d",
      "priority": 2,
      "group": "5c760c614a2a"
    },
    {
      "type": "options",
      "formInTargetLanguage": "Etxe zuri berria gurea da.",
      "meaningInSourceLanguage": "The new, white house is ours.",
      "id": "e0e99aa25bd3",
      "priority": 0,
      "group": "233ebdcd3af0"
    },
    {
      "type": "chips",
      "translatesToSourceLanguage": false,
      "phrase": [
        {
          "word": "The",
          "definition": "-a"
        },
        {
          "word": "new,",
          "definition": "berri"
        },
        {
          "word": "white",
          "definition": "zuri\nzuria"
        },
        {
          "word": "house",
          "definition": "etxe\netxea"
        },
        {
          "word": "is",
          "definition": "da\nda (izan)\ndago\ndago (egon)"
        },
        {
          "word": "ours.",
          "definition": "gurea\ngureak"
        }
      ],
      "chips": [
        "Etxe",
        "zuri",
        "berria",
        "gurea",
        "da",
        "Hura",
        "zuria",
        "gure",
        "zurea"
      ],
      "solutions": [
        [
          "Etxe",
          "zuri",
          "berria",
          "gurea",
          "da"
        ]
      ],
      "formattedSolution": "Etxe zuri berria gurea da.",
      "id": "5ec9bc8a68a1",
      "priority": 2,
      "group": "233ebdcd3af0"
    },
    {
      "type": "chips",
      "translatesToSourceLanguage": true,
      "phrase": [
        {
          "word": "Etxe",
          "definition": "house"
        },
        {
          "word": "zuri",
          "definition": "to you\nwhite"
        },
        {
          "word": "berria",
          "definition": "new"
        },
        {
          "word": "gurea",
          "definition": "ours"
        },
        {
          "word": "da.",
          "definition": "he is (izan)\nis\nit is (izan)\nshe is (izan)"
        }
      ],
      "chips": [
        "The",
        "new",
        "white",
        "house",
        "is",
        "ours",
        "his",
        "use",
        "one",
        "hee",
        "us"
      ],
      "solutions": [
        [
          "The",
          "new",
          "white",
          "house",
          "is",
          "ours"
        ]
      ],
      "formattedSolution": "The new, white house is ours.",
      "id": "53e68789e585",
      "priority": 2,
      "group": "233ebdcd3af0"
    },
    {
      "type": "options",
      "formInTargetLanguage": "Zein baloia da gurea?",
      "meaningInSourceLanguage": "Which ball is ours?",
      "id": "4aae39a7b739",
      "priority": 0,
      "group": "41f9942e42bd"
    },
    {
      "type": "chips",
      "translatesToSourceLanguage": false,
      "phrase": [
        {
          "word": "Which",
          "definition": "zein"
        },
        {
          "word": "ball",
          "definition": "baloi"
        },
        {
          "word": "is",
          "definition": "da\nda (izan)\ndago\ndago (egon)"
        },
        {
          "word": "ours?",
          "definition": "gurea\ngureak"
        }
      ],
      "chips": [
        "Zein",
        "baloia",
        "da",
        "gurea",
        "gara",
        "doa",
        "gela"
      ],
      "solutions": [
        [
          "Zein",
          "baloia",
          "da",
          "gurea"
        ]
      ],
      "formattedSolution": "Zein baloia da gurea?",
      "id": "5df84f208465",
      "priority": 2,
      "group": "41f9942e42bd"
    },
    {
      "type": "chips",
      "translatesToSourceLanguage": true,
      "phrase": [
        {
          "word": "Zein",
          "definition": "which"
        },
        {
          "word": "baloia",
          "definition": "ball"
        },
        {
          "word": "da",
          "definition": "he is (izan)\nis\nit is (izan)\nshe is (izan)"
        },
        {
          "word": "gurea?",
          "definition": "ours"
        }
      ],
      "chips": [
        "Which",
        "ball",
        "is",
        "ours",
        "his",
        "bus",
        "This"
      ],
      "solutions": [
        [
          "Which",
          "ball",
          "is",
          "ours"
        ]
      ],
      "formattedSolution": "Which ball is ours?",
      "id": "d48add2ad513",
      "priority": 2,
      "group": "41f9942e42bd"
    },
    {
      "type": "options",
      "formInTargetLanguage": "Bizikleta gorria gurea da.",
      "meaningInSourceLanguage": "The red bicycle is ours.",
      "id": "e9d521bfdb15",
      "priority": 0,
      "group": "21ced571783e"
    },
    {
      "type": "chips",
      "translatesToSourceLanguage": false,
      "phrase": [
        {
          "word": "The",
          "definition": "-a"
        },
        {
          "word": "red",
          "definition": "gorri\ngorria\ngorriak"
        },
        {
          "word": "bicycle",
          "definition": "bizikleta"
        },
        {
          "word": "is",
          "definition": "da\nda (izan)\ndago\ndago (egon)"
        },
        {
          "word": "ours.",
          "definition": "gurea\ngureak"
        }
      ],
      "chips": [
        "Bizikleta",
        "gorria",
        "gurea",
        "da",
        "zurea",
        "gara",
        "dira"
      ],
      "solutions": [
        [
          "Bizikleta",
          "gorria",
          "gurea",
          "da"
        ]
      ],
      "formattedSolution": "Bizikleta gorria gurea da.",
      "id": "30f399efd707",
      "priority": 2,
      "group": "21ced571783e"
    },
    {
      "type": "chips",
      "translatesToSourceLanguage": true,
      "phrase": [
        {
          "word": "Bizikleta",
          "definition": "bicycle\nbicycle(Noran case)"
        },
        {
          "word": "gorria",
          "definition": "red"
        },
        {
          "word": "gurea",
          "definition": "ours"
        },
        {
          "word": "da.",
          "definition": "he is (izan)\nis\nit is (izan)\nshe is (izan)"
        }
      ],
      "chips": [
        "The",
        "red",
        "bicycle",
        "is",
        "ours",
        "be",
        "ice",
        "are",
        "He"
      ],
      "solutions": [
        [
          "The",
          "red",
          "bicycle",
          "is",
          "ours"
        ]
      ],
      "formattedSolution": "The red bicycle is ours.",
      "id": "af76d3bba910",
      "priority": 2,
      "group": "21ced571783e"
    },
    {
      "type": "options",
      "formInTargetLanguage": "Zein erlojua da zuena?",
      "meaningInSourceLanguage": "Which watch is yours(plural)?",
      "id": "639ee3da12ed",
      "priority": 0,
      "group": "691788cf6203"
    },
    {
      "type": "chips",
      "translatesToSourceLanguage": false,
      "phrase": [
        {
          "word": "Which",
          "definition": "zein"
        },
        {
          "word": "watch",
          "definition": "erloju"
        },
        {
          "word": "is",
          "definition": "da\nda (izan)\ndago\ndago (egon)"
        },
        {
          "word": "yours(plural)?",
          "definition": "zuenak"
        }
      ],
      "chips": [
        "Zein",
        "erlojua",
        "da",
        "zuena",
        "eta",
        "edo",
        "zen"
      ],
      "solutions": [
        [
          "Zein",
          "erlojua",
          "da",
          "zuena"
        ]
      ],
      "formattedSolution": "Zein erlojua da zuena?",
      "id": "b92eb20c4c35",
      "priority": 2,
      "group": "691788cf6203"
    },
    {
      "type": "chips",
      "translatesToSourceLanguage": true,
      "phrase": [
        {
          "word": "Zein",
          "definition": "which"
        },
        {
          "word": "erlojua",
          "definition": "clock\nwatch"
        },
        {
          "word": "da",
          "definition": "he is (izan)\nis\nit is (izan)\nshe is (izan)"
        },
        {
          "word": "zuena?",
          "definition": "your (plural)\nyours (plural)"
        }
      ],
      "chips": [
        "Which",
        "watch",
        "is",
        "yours(plural",
        "rich",
        "fish",
        "his"
      ],
      "solutions": [
        [
          "Which",
          "watch",
          "is",
          "yours(plural"
        ],
        [
          "Which",
          "watch",
          "is",
          "yours"
        ],
        [
          "Which",
          "watch",
          "is",
          "are",
          "you'alls"
        ]
      ],
      "formattedSolution": "Which watch is yours(plural)?",
      "id": "1a1f26883f4e",
      "priority": 2,
      "group": "691788cf6203"
    },
    {
      "type": "options",
      "formInTargetLanguage": "Baloia zuria zuena da.",
      "meaningInSourceLanguage": "The white ball is yours(plural).",
      "id": "d46cb5ea1115",
      "priority": 0,
      "group": "9d05e745e01f"
    },
    {
      "type": "chips",
      "translatesToSourceLanguage": false,
      "phrase": [
        {
          "word": "The",
          "definition": "-a"
        },
        {
          "word": "white",
          "definition": "zuri\nzuria"
        },
        {
          "word": "ball",
          "definition": "baloi"
        },
        {
          "word": "is",
          "definition": "da\nda (izan)\ndago\ndago (egon)"
        },
        {
          "word": "yours(plural).",
          "definition": "zuenak"
        }
      ],
      "chips": [
        "Baloia",
        "zuria",
        "zuena",
        "da",
        "zara",
        "zurea",
        "euria"
      ],
      "solutions": [
        [
          "Baloia",
          "zuria",
          "zuena",
          "da"
        ]
      ],
      "formattedSolution": "Baloia zuria zuena da.",
      "id": "684f9f9e7922",
      "priority": 2,
      "group": "9d05e745e01f"
    },
    {
      "type": "chips",
      "translatesToSourceLanguage": true,
      "phrase": [
        {
          "word": "Baloia",
          "definition": "ball"
        },
        {
          "word": "zuria",
          "definition": "white"
        },
        {
          "word": "zuena",
          "definition": "your (plural)\nyours (plural)"
        },
        {
          "word": "da.",
          "definition": "he is (izan)\nis\nit is (izan)\nshe is (izan)"
        }
      ],
      "chips": [
        "The",
        "white",
        "ball",
        "is",
        "yours(plural",
        "all",
        "This",
        "his",
        "will"
      ],
      "solutions": [
        [
          "The",
          "white",
          "ball",
          "is",
          "yours(plural"
        ],
        [
          "The",
          "white",
          "ball",
          "is",
          "yours"
        ],
        [
          "The",
          "white",
          "ball",
          "is",
          "are",
          "you'alls"
        ]
      ],
      "formattedSolution": "The white ball is yours(plural).",
      "id": "c5ad80e8ec32",
      "priority": 2,
      "group": "9d05e745e01f"
    },
    {
      "type": "options",
      "formInTargetLanguage": "Zein bizikleta da zuena?",
      "meaningInSourceLanguage": "Which bicycle is yours(plural)?",
      "id": "b44de03e85ac",
      "priority": 0,
      "group": "4d6ee52dd7a3"
    },
    {
      "type": "chips",
      "translatesToSourceLanguage": false,
      "phrase": [
        {
          "word": "Which",
          "definition": "zein"
        },
        {
          "word": "bicycle",
          "definition": "bizikleta"
        },
        {
          "word": "is",
          "definition": "da\nda (izan)\ndago\ndago (egon)"
        },
        {
          "word": "yours(plural)?",
          "definition": "zuenak"
        }
      ],
      "chips": [
        "Zein",
        "bizikleta",
        "da",
        "zuena",
        "eta",
        "zen",
        "zuen"
      ],
      "solutions": [
        [
          "Zein",
          "bizikleta",
          "da",
          "zuena"
        ]
      ],
      "formattedSolution": "Zein bizikleta da zuena?",
      "id": "e36033ef18c2",
      "priority": 2,
      "group": "4d6ee52dd7a3"
    },
    {
      "type": "chips",
      "translatesToSourceLanguage": true,
      "phrase": [
        {
          "word": "Zein",
          "definition": "which"
        },
        {
          "word": "bizikleta",
          "definition": "bicycle\nbicycle(Noran case)"
        },
        {
          "word": "da",
          "definition": "he is (izan)\nis\nit is (izan)\nshe is (izan)"
        },
        {
          "word": "zuena?",
          "definition": "your (plural)\nyours (plural)"
        }
      ],
      "chips": [
        "Which",
        "bicycle",
        "is",
        "yours(plural",
        "his",
        "rich",
        "rice"
      ],
      "solutions": [
        [
          "Which",
          "bicycle",
          "is",
          "yours(plural"
        ],
        [
          "Which",
          "bicycle",
          "is",
          "yours"
        ],
        [
          "Which",
          "bicycle",
          "is",
          "are",
          "you'alls"
        ]
      ],
      "formattedSolution": "Which bicycle is yours(plural)?",
      "id": "ccad9f7a8528",
      "priority": 2,
      "group": "4d6ee52dd7a3"
    },
    {
      "type": "options",
      "formInTargetLanguage": "Erloju laranja zuena da.",
      "meaningInSourceLanguage": "The orange watch is yours(plural).",
      "id": "17e6d1b43987",
      "priority": 0,
      "group": "bf4299aac956"
    },
    {
      "type": "chips",
      "translatesToSourceLanguage": false,
      "phrase": [
        {
          "word": "The",
          "definition": "-a"
        },
        {
          "word": "orange",
          "definition": "laranja"
        },
        {
          "word": "watch",
          "definition": "erloju"
        },
        {
          "word": "is",
          "definition": "da\nda (izan)\ndago\ndago (egon)"
        },
        {
          "word": "yours(plural).",
          "definition": "zuenak"
        }
      ],
      "chips": [
        "Erloju",
        "laranja",
        "zuena",
        "da",
        "ona",
        "trena",
        "lan"
      ],
      "solutions": [
        [
          "Erloju",
          "laranja",
          "zuena",
          "da"
        ]
      ],
      "formattedSolution": "Erloju laranja zuena da.",
      "id": "89913283621c",
      "priority": 2,
      "group": "bf4299aac956"
    },
    {
      "type": "chips",
      "translatesToSourceLanguage": true,
      "phrase": [
        {
          "word": "Erloju",
          "definition": "clock\nwatch"
        },
        {
          "word": "laranja",
          "definition": "orange"
        },
        {
          "word": "zuena",
          "definition": "your (plural)\nyours (plural)"
        },
        {
          "word": "da.",
          "definition": "he is (izan)\nis\nit is (izan)\nshe is (izan)"
        }
      ],
      "chips": [
        "The",
        "orange",
        "watch",
        "is",
        "yours(plural",
        "ran",
        "one",
        "are",
        "or"
      ],
      "solutions": [
        [
          "The",
          "orange",
          "watch",
          "is",
          "yours(plural"
        ],
        [
          "The",
          "orange",
          "watch",
          "is",
          "yours"
        ],
        [
          "The",
          "orange",
          "watch",
          "is",
          "are",
          "you'alls"
        ]
      ],
      "formattedSolution": "The orange watch is yours(plural).",
      "id": "a544e9d8f676",
      "priority": 2,
      "group": "bf4299aac956"
    },
    {
      "type": "options",
      "formInTargetLanguage": "Zein liburua haiena da?",
      "meaningInSourceLanguage": "Which book is theirs?",
      "id": "3d2dd9b2a8d8",
      "priority": 0,
      "group": "333e73b81e60"
    },
    {
      "type": "chips",
      "translatesToSourceLanguage": false,
      "phrase": [
        {
          "word": "Which",
          "definition": "zein"
        },
        {
          "word": "book",
          "definition": "liburu"
        },
        {
          "word": "is",
          "definition": "da\nda (izan)\ndago\ndago (egon)"
        },
        {
          "word": "theirs?",
          "definition": "haiena\nhaienak"
        }
      ],
      "chips": [
        "Zein",
        "liburua",
        "haiena",
        "da",
        "dira",
        "baina",
        "mina"
      ],
      "solutions": [
        [
          "Zein",
          "liburua",
          "haiena",
          "da"
        ]
      ],
      "formattedSolution": "Zein liburua haiena da?",
      "id": "2b3e2d3318cc",
      "priority": 2,
      "group": "333e73b81e60"
    },
    {
      "type": "chips",
      "translatesToSourceLanguage": true,
      "phrase": [
        {
          "word": "Zein",
          "definition": "which"
        },
        {
          "word": "liburua",
          "definition": "a book\nbooks"
        },
        {
          "word": "haiena",
          "definition": "theirs"
        },
        {
          "word": "da?",
          "definition": "he is (izan)\nis\nit is (izan)\nshe is (izan)"
        }
      ],
      "chips": [
        "Which",
        "book",
        "is",
        "theirs",
        "his",
        "This",
        "thin"
      ],
      "solutions": [
        [
          "Which",
          "book",
          "is",
          "theirs"
        ]
      ],
      "formattedSolution": "Which book is theirs?",
      "id": "68a6450ea560",
      "priority": 2,
      "group": "333e73b81e60"
    },
    {
      "type": "options",
      "formInTargetLanguage": "Liburu horia zaharra haiena da.",
      "meaningInSourceLanguage": "The old yellow book is theirs.",
      "id": "d6709ade8511",
      "priority": 0,
      "group": "6ec3362da2c2"
    },
    {
      "type": "chips",
      "translatesToSourceLanguage": false,
      "phrase": [
        {
          "word": "The",
          "definition": "-a"
        },
        {
          "word": "old",
          "definition": "zahar\nzaharra"
        },
        {
          "word": "yellow",
          "definition": "hori"
        },
        {
          "word": "book",
          "definition": "liburu"
        },
        {
          "word": "is",
          "definition": "da\nda (izan)\ndago\ndago (egon)"
        },
        {
          "word": "theirs.",
          "definition": "haiena\nhaienak"
        }
      ],
      "chips": [
        "Liburu",
        "horia",
        "zaharra",
        "haiena",
        "da",
        "zara",
        "dira",
        "hari",
        "gara"
      ],
      "solutions": [
        [
          "Liburu",
          "horia",
          "zaharra",
          "haiena",
          "da"
        ]
      ],
      "formattedSolution": "Liburu horia zaharra haiena da.",
      "id": "2141e3c6d23b",
      "priority": 2,
      "group": "6ec3362da2c2"
    },
    {
      "type": "chips",
      "translatesToSourceLanguage": true,
      "phrase": [
        {
          "word": "Liburu",
          "definition": "book"
        },
        {
          "word": "horia",
          "definition": "yellow"
        },
        {
          "word": "zaharra",
          "definition": "old"
        },
        {
          "word": "haiena",
          "definition": "theirs"
        },
        {
          "word": "da.",
          "definition": "he is (izan)\nis\nit is (izan)\nshe is (izan)"
        }
      ],
      "chips": [
        "The",
        "old",
        "yellow",
        "book",
        "is",
        "theirs",
        "the",
        "or",
        "his",
        "her",
        "be"
      ],
      "solutions": [
        [
          "The",
          "old",
          "yellow",
          "book",
          "is",
          "theirs"
        ]
      ],
      "formattedSolution": "The old yellow book is theirs.",
      "id": "ceae657dfc6f",
      "priority": 2,
      "group": "6ec3362da2c2"
    },
    {
      "type": "options",
      "formInTargetLanguage": "Liburu hura haiena da.",
      "meaningInSourceLanguage": "That book over there is theirs.",
      "id": "50aabb4899cf",
      "priority": 0,
      "group": "91fea6c03e71"
    },
    {
      "type": "chips",
      "translatesToSourceLanguage": false,
      "phrase": [
        {
          "word": "That",
          "definition": "hori\nhura"
        },
        {
          "word": "book",
          "definition": "liburu"
        },
        {
          "word": "over",
          "definition": "amaitu\ngainean"
        },
        {
          "word": "there",
          "definition": "han\nhor"
        },
        {
          "word": "is",
          "definition": "da\nda (izan)\ndago\ndago (egon)"
        },
        {
          "word": "theirs.",
          "definition": "haiena\nhaienak"
        }
      ],
      "chips": [
        "Liburu",
        "hura",
        "haiena",
        "da",
        "dira",
        "Hura",
        "hiru"
      ],
      "solutions": [
        [
          "Liburu",
          "hura",
          "haiena",
          "da"
        ]
      ],
      "formattedSolution": "Liburu hura haiena da.",
      "id": "0fc13feba648",
      "priority": 2,
      "group": "91fea6c03e71"
    },
    {
      "type": "chips",
      "translatesToSourceLanguage": true,
      "phrase": [
        {
          "word": "Liburu",
          "definition": "book"
        },
        {
          "word": "hura",
          "definition": "he\nit\nitr\nshe\nthat over there"
        },
        {
          "word": "haiena",
          "definition": "theirs"
        },
        {
          "word": "da.",
          "definition": "he is (izan)\nis\nit is (izan)\nshe is (izan)"
        }
      ],
      "chips": [
        "That",
        "book",
        "over",
        "there",
        "is",
        "theirs",
        "her",
        "the",
        "hers",
        "hee",
        "This"
      ],
      "solutions": [
        [
          "That",
          "book",
          "over",
          "there",
          "is",
          "theirs"
        ]
      ],
      "formattedSolution": "That book over there is theirs.",
      "id": "61d8bdbdd47e",
      "priority": 2,
      "group": "91fea6c03e71"
    },
    {
      "type": "options",
      "formInTargetLanguage": "Zein arropa da haiena?",
      "meaningInSourceLanguage": "Which clothing is theirs?",
      "id": "56cfa3684c9b",
      "priority": 0,
      "group": "00058f74a8b5"
    },
    {
      "type": "chips",
      "translatesToSourceLanguage": false,
      "phrase": [
        {
          "word": "Which",
          "definition": "zein"
        },
        {
          "word": "clothing",
          "definition": "arropa"
        },
        {
          "word": "is",
          "definition": "da\nda (izan)\ndago\ndago (egon)"
        },
        {
          "word": "theirs?",
          "definition": "haiena\nhaienak"
        }
      ],
      "chips": [
        "Zein",
        "arropa",
        "da",
        "haiena",
        "eta",
        "dira",
        "baina"
      ],
      "solutions": [
        [
          "Zein",
          "arropa",
          "da",
          "haiena"
        ]
      ],
      "formattedSolution": "Zein arropa da haiena?",
      "id": "789716cdebf7",
      "priority": 2,
      "group": "00058f74a8b5"
    },
    {
      "type": "chips",
      "translatesToSourceLanguage": true,
      "phrase": [
        {
          "word": "Zein",
          "definition": "which"
        },
        {
          "word": "arropa",
          "definition": "clothes\nclothing"
        },
        {
          "word": "da",
          "definition": "he is (izan)\nis\nit is (izan)\nshe is (izan)"
        },
        {
          "word": "haiena?",
          "definition": "theirs"
        }
      ],
      "chips": [
        "Which",
        "clothing",
        "is",
        "theirs",
        "thin",
        "his",
        "This"
      ],
      "solutions": [
        [
          "Which",
          "clothing",
          "is",
          "theirs"
        ]
      ],
      "formattedSolution": "Which clothing is theirs?",
      "id": "ba78e09194a8",
      "priority": 2,
      "group": "00058f74a8b5"
    },
    {
      "type": "options",
      "formInTargetLanguage": "Arropa horia haiena da.",
      "meaningInSourceLanguage": "The yellow clothing is theirs.",
      "id": "88be9d54ff87",
      "priority": 0,
      "group": "2c906b22d52f"
    },
    {
      "type": "chips",
      "translatesToSourceLanguage": false,
      "phrase": [
        {
          "word": "The",
          "definition": "-a"
        },
        {
          "word": "yellow",
          "definition": "hori"
        },
        {
          "word": "clothing",
          "definition": "arropa"
        },
        {
          "word": "is",
          "definition": "da\nda (izan)\ndago\ndago (egon)"
        },
        {
          "word": "theirs.",
          "definition": "haiena\nhaienak"
        }
      ],
      "chips": [
        "Arropa",
        "horia",
        "haiena",
        "da",
        "hona",
        "dira",
        "ona"
      ],
      "solutions": [
        [
          "Arropa",
          "horia",
          "haiena",
          "da"
        ]
      ],
      "formattedSolution": "Arropa horia haiena da.",
      "id": "bb931bda5354",
      "priority": 2,
      "group": "2c906b22d52f"
    },
    {
      "type": "chips",
      "translatesToSourceLanguage": true,
      "phrase": [
        {
          "word": "Arropa",
          "definition": "clothes\nclothing"
        },
        {
          "word": "horia",
          "definition": "yellow"
        },
        {
          "word": "haiena",
          "definition": "theirs"
        },
        {
          "word": "da.",
          "definition": "he is (izan)\nis\nit is (izan)\nshe is (izan)"
        }
      ],
      "chips": [
        "The",
        "yellow",
        "clothing",
        "is",
        "theirs",
        "the",
        "thin",
        "This",
        "his"
      ],
      "solutions": [
        [
          "The",
          "yellow",
          "clothing",
          "is",
          "theirs"
        ]
      ],
      "formattedSolution": "The yellow clothing is theirs.",
      "id": "62647ac3dbc4",
      "priority": 2,
      "group": "2c906b22d52f"
    },
    {
      "type": "cards",
      "pictures": [
        "iam1.jpg",
        "iam2.jpg",
        "iam3.jpg"
      ],
      "formInTargetLanguage": "nirea",
      "meaningInSourceLanguage": "mine",
      "id": "7d5ad5bdc561",
      "priority": 0,
      "group": "1c77cf9859c8"
    },
    {
      "type": "shortInput",
      "pictures": [
        "iam1.jpg",
        "iam2.jpg",
        "iam3.jpg"
      ],
      "formInTargetLanguage": [
        "nirea"
      ],
      "phrase": [
        {
          "word": "mine",
          "definition": "nirea\nnireak"
        }
      ],
      "id": "f69af55f579e",
      "priority": 1,
      "group": "1c77cf9859c8"
    },
    {
      "type": "cards",
      "pictures": [
        "you1.jpg",
        "you2.jpg",
        "you3.jpg"
      ],
      "formInTargetLanguage": "zurea",
      "meaningInSourceLanguage": "yours",
      "id": "b56c95bc1180",
      "priority": 0,
      "group": "d9686208ac31"
    },
    {
      "type": "shortInput",
      "pictures": [
        "you1.jpg",
        "you2.jpg",
        "you3.jpg"
      ],
      "formInTargetLanguage": [
        "zurea"
      ],
      "phrase": [
        {
          "word": "yours",
          "definition": "zuena\nzuenak\nzurea\nzureak"
        }
      ],
      "id": "22089dce8b04",
      "priority": 1,
      "group": "d9686208ac31"
    },
    {
      "type": "cards",
      "pictures": [
        "he1.jpg",
        "she3.jpg",
        "he3.jpg"
      ],
      "formInTargetLanguage": "berea",
      "meaningInSourceLanguage": "his",
      "id": "c0e6bdf58789",
      "priority": 0,
      "group": "eb68350e3371"
    },
    {
      "type": "shortInput",
      "pictures": [
        "he1.jpg",
        "she3.jpg",
        "he3.jpg"
      ],
      "formInTargetLanguage": [
        "berea"
      ],
      "phrase": [
        {
          "word": "his",
          "definition": "bere\nberea\nbereak"
        }
      ],
      "id": "236d88879060",
      "priority": 1,
      "group": "eb68350e3371"
    },
    {
      "type": "cards",
      "pictures": [
        "we1.jpg",
        "we2.jpg",
        "we3.jpg"
      ],
      "formInTargetLanguage": "gurea",
      "meaningInSourceLanguage": "ours",
      "id": "1f4deb349c66",
      "priority": 0,
      "group": "646b0bc90748"
    },
    {
      "type": "shortInput",
      "pictures": [
        "we1.jpg",
        "we2.jpg",
        "we3.jpg"
      ],
      "formInTargetLanguage": [
        "gurea"
      ],
      "phrase": [
        {
          "word": "ours",
          "definition": "gurea\ngureak"
        }
      ],
      "id": "10e1c7dd256f",
      "priority": 1,
      "group": "646b0bc90748"
    },
    {
      "type": "cards",
      "pictures": [
        "you1.jpg",
        "you2.jpg",
        "you3.jpg"
      ],
      "formInTargetLanguage": "zuena",
      "meaningInSourceLanguage": "yours (plural)",
      "id": "8afe8b3df931",
      "priority": 0,
      "group": "c716f144ea27"
    },
    {
      "type": "shortInput",
      "pictures": [
        "you1.jpg",
        "you2.jpg",
        "you3.jpg"
      ],
      "formInTargetLanguage": [
        "zuena"
      ],
      "phrase": [
        {
          "word": "yours",
          "definition": "zuena\nzuenak\nzurea\nzureak"
        },
        {
          "word": "(plural)",
          "definition": "plurala"
        }
      ],
      "id": "3b32a8a03d98",
      "priority": 1,
      "group": "c716f144ea27"
    },
    {
      "type": "cards",
      "pictures": [
        "they1.jpg",
        "they2.jpg",
        "they3.jpg"
      ],
      "formInTargetLanguage": "haiena",
      "meaningInSourceLanguage": "theirs",
      "id": "de9103ae9bde",
      "priority": 0,
      "group": "d87c3188d5e1"
    },
    {
      "type": "shortInput",
      "pictures": [
        "they1.jpg",
        "they2.jpg",
        "they3.jpg"
      ],
      "formInTargetLanguage": [
        "haiena"
      ],
      "phrase": [
        {
          "word": "theirs",
          "definition": "haiena\nhaienak"
        }
      ],
      "id": "b3171139d18d",
      "priority": 1,
      "group": "d87c3188d5e1"
    },
    {
      "type": "cards",
      "pictures": [
        "choice1.jpg",
        "choice2.jpg",
        "choice3.jpg"
      ],
      "formInTargetLanguage": "zein",
      "meaningInSourceLanguage": "which",
      "id": "a835d34d1a06",
      "priority": 0,
      "group": "27057b993137"
    },
    {
      "type": "shortInput",
      "pictures": [
        "choice1.jpg",
        "choice2.jpg",
        "choice3.jpg"
      ],
      "formInTargetLanguage": [
        "zein"
      ],
      "phrase": [
        {
          "word": "which",
          "definition": "zein"
        }
      ],
      "id": "23bc7aaae407",
      "priority": 1,
      "group": "27057b993137"
    },
    {
      "type": "cards",
      "pictures": [
        "backpack1.jpg",
        "backpack2.jpg",
        "backpack3.jpg"
      ],
      "formInTargetLanguage": "motxila",
      "meaningInSourceLanguage": "backpack",
      "id": "0ddfe6ddc7d7",
      "priority": 0,
      "group": "494a824e1ee8"
    },
    {
      "type": "shortInput",
      "pictures": [
        "backpack1.jpg",
        "backpack2.jpg",
        "backpack3.jpg"
      ],
      "formInTargetLanguage": [
        "motxila"
      ],
      "phrase": [
        {
          "word": "backpack",
          "definition": "motxila"
        }
      ],
      "id": "3f4cf9df08da",
      "priority": 1,
      "group": "494a824e1ee8"
    }
  ]
}