{
  "id": "5ba527a8fae6",
  "levels": 6,
  "challenges": [
    {
      "type": "options",
      "formInTargetLanguage": "Dortoka zubiaren gainean dago.",
      "meaningInSourceLanguage": "The turtle is on the bridge.",
      "id": "f61255fc7f24",
      "priority": 0,
      "group": "17dddb12e49f"
    },
    {
      "type": "chips",
      "translatesToSourceLanguage": false,
      "phrase": [
        {
          "word": "The",
          "definition": "-a"
        },
        {
          "word": "turtle",
          "definition": "dortoka"
        },
        {
          "word": "is",
          "definition": "da\nda (izan)\ndago\ndago (egon)"
        },
        {
          "word": "on",
          "definition": "Inessive case\nNON case, not a word\ngainean\npart of phrase, not translated"
        },
        {
          "word": "the",
          "definition": "-a"
        },
        {
          "word": "bridge.",
          "definition": "zubi"
        }
      ],
      "chips": [
        "Dortoka",
        "zubiaren",
        "gainean",
        "dago",
        "zara",
        "gara",
        "ziren"
      ],
      "solutions": [
        [
          "Dortoka",
          "zubiaren",
          "gainean",
          "dago"
        ]
      ],
      "formattedSolution": "Dortoka zubiaren gainean dago.",
      "id": "5f9487afca32",
      "priority": 2,
      "group": "17dddb12e49f"
    },
    {
      "type": "chips",
      "translatesToSourceLanguage": true,
      "phrase": [
        {
          "word": "Dortoka",
          "definition": "a turtle\nturtle"
        },
        {
          "word": "zubiaren",
          "definition": "bridge (Noren case)"
        },
        {
          "word": "gainean",
          "definition": "on\nover"
        },
        {
          "word": "dago.",
          "definition": "he is (egon)\nis\nit is (egon)\nshe is (egon)"
        }
      ],
      "chips": [
        "The",
        "turtle",
        "is",
        "on",
        "the",
        "bridge",
        "be",
        "one",
        "are",
        "He",
        "She"
      ],
      "solutions": [
        [
          "The",
          "turtle",
          "is",
          "on",
          "the",
          "bridge"
        ],
        [
          "The",
          "turtle",
          "is",
          "on",
          "top",
          "of",
          "the",
          "bridge"
        ]
      ],
      "formattedSolution": "The turtle is on the bridge.",
      "id": "9bd1ad0b5147",
      "priority": 2,
      "group": "17dddb12e49f"
    },
    {
      "type": "options",
      "formInTargetLanguage": "Zubia ibaiaren gainean dago.",
      "meaningInSourceLanguage": "The bridge is over the river.",
      "id": "f40cb400ffc4",
      "priority": 0,
      "group": "be968dca7793"
    },
    {
      "type": "chips",
      "translatesToSourceLanguage": false,
      "phrase": [
        {
          "word": "The",
          "definition": "-a"
        },
        {
          "word": "bridge",
          "definition": "zubi"
        },
        {
          "word": "is",
          "definition": "da\nda (izan)\ndago\ndago (egon)"
        },
        {
          "word": "over",
          "definition": "amaitu\ngainean"
        },
        {
          "word": "the",
          "definition": "-a"
        },
        {
          "word": "river.",
          "definition": "ibai"
        }
      ],
      "chips": [
        "Zubia",
        "ibaiaren",
        "gainean",
        "dago",
        "ibaia",
        "ibaian",
        "baina"
      ],
      "solutions": [
        [
          "Zubia",
          "ibaiaren",
          "gainean",
          "dago"
        ]
      ],
      "formattedSolution": "Zubia ibaiaren gainean dago.",
      "id": "b5f5882ed173",
      "priority": 2,
      "group": "be968dca7793"
    },
    {
      "type": "chips",
      "translatesToSourceLanguage": true,
      "phrase": [
        {
          "word": "Zubia",
          "definition": "the bridge"
        },
        {
          "word": "ibaiaren",
          "definition": "of the river\nriver (Noren)"
        },
        {
          "word": "gainean",
          "definition": "on\nover"
        },
        {
          "word": "dago.",
          "definition": "he is (egon)\nis\nit is (egon)\nshe is (egon)"
        }
      ],
      "chips": [
        "The",
        "bridge",
        "is",
        "over",
        "the",
        "river",
        "lie",
        "ice",
        "She",
        "be",
        "one"
      ],
      "solutions": [
        [
          "The",
          "bridge",
          "is",
          "over",
          "the",
          "river"
        ],
        [
          "The",
          "bridge",
          "is",
          "above",
          "the",
          "river"
        ]
      ],
      "formattedSolution": "The bridge is over the river.",
      "id": "860288dd90da",
      "priority": 2,
      "group": "be968dca7793"
    },
    {
      "type": "options",
      "formInTargetLanguage": "Ibaia zubiaren azpian dago.",
      "meaningInSourceLanguage": "The river is under the bridge.",
      "id": "d4d673a0c864",
      "priority": 0,
      "group": "22df16ae698a"
    },
    {
      "type": "chips",
      "translatesToSourceLanguage": false,
      "phrase": [
        {
          "word": "The",
          "definition": "-a"
        },
        {
          "word": "river",
          "definition": "ibai"
        },
        {
          "word": "is",
          "definition": "da\nda (izan)\ndago\ndago (egon)"
        },
        {
          "word": "under",
          "definition": "azpian"
        },
        {
          "word": "the",
          "definition": "-a"
        },
        {
          "word": "bridge.",
          "definition": "zubi"
        }
      ],
      "chips": [
        "Ibaia",
        "zubiaren",
        "azpian",
        "dago",
        "zara",
        "ibaia",
        "anaia"
      ],
      "solutions": [
        [
          "Ibaia",
          "zubiaren",
          "azpian",
          "dago"
        ]
      ],
      "formattedSolution": "Ibaia zubiaren azpian dago.",
      "id": "3d294e6c366b",
      "priority": 2,
      "group": "22df16ae698a"
    },
    {
      "type": "chips",
      "translatesToSourceLanguage": true,
      "phrase": [
        {
          "word": "Ibaia",
          "definition": "river\nthe river"
        },
        {
          "word": "zubiaren",
          "definition": "bridge (Noren case)"
        },
        {
          "word": "azpian",
          "definition": "under"
        },
        {
          "word": "dago.",
          "definition": "he is (egon)\nis\nit is (egon)\nshe is (egon)"
        }
      ],
      "chips": [
        "The",
        "river",
        "is",
        "under",
        "the",
        "bridge",
        "lie",
        "ice",
        "She",
        "be",
        "side"
      ],
      "solutions": [
        [
          "The",
          "river",
          "is",
          "under",
          "the",
          "bridge"
        ]
      ],
      "formattedSolution": "The river is under the bridge.",
      "id": "1122b191e638",
      "priority": 2,
      "group": "22df16ae698a"
    },
    {
      "type": "options",
      "formInTargetLanguage": "Aulkia mahai azpian dago",
      "meaningInSourceLanguage": "The chair is under the table",
      "id": "8562db21462b",
      "priority": 0,
      "group": "64a40cf7508e"
    },
    {
      "type": "chips",
      "translatesToSourceLanguage": false,
      "phrase": [
        {
          "word": "The",
          "definition": "-a"
        },
        {
          "word": "chair",
          "definition": "aulki"
        },
        {
          "word": "is",
          "definition": "da\nda (izan)\ndago\ndago (egon)"
        },
        {
          "word": "under",
          "definition": "azpian"
        },
        {
          "word": "the",
          "definition": "-a"
        },
        {
          "word": "table",
          "definition": "mahai"
        }
      ],
      "chips": [
        "Aulkia",
        "mahai",
        "azpian",
        "dago",
        "anaia",
        "mahaia",
        "daki"
      ],
      "solutions": [
        [
          "Aulkia",
          "mahai",
          "azpian",
          "dago"
        ]
      ],
      "formattedSolution": "Aulkia mahai azpian dago",
      "id": "c35c7f12a0e1",
      "priority": 2,
      "group": "64a40cf7508e"
    },
    {
      "type": "chips",
      "translatesToSourceLanguage": true,
      "phrase": [
        {
          "word": "Aulkia",
          "definition": "chair\nthe chair"
        },
        {
          "word": "mahai",
          "definition": "table"
        },
        {
          "word": "azpian",
          "definition": "under"
        },
        {
          "word": "dago",
          "definition": "he is (egon)\nis\nit is (egon)\nshe is (egon)"
        }
      ],
      "chips": [
        "The",
        "chair",
        "is",
        "under",
        "the",
        "table",
        "She",
        "are",
        "her",
        "be",
        "lie"
      ],
      "solutions": [
        [
          "The",
          "chair",
          "is",
          "under",
          "the",
          "table"
        ]
      ],
      "formattedSolution": "The chair is under the table",
      "id": "0942a0528fac",
      "priority": 2,
      "group": "64a40cf7508e"
    },
    {
      "type": "options",
      "formInTargetLanguage": "Liburua poltsaren ondoan dago.",
      "meaningInSourceLanguage": "The book is next to the purse.",
      "id": "4b3ab3e53536",
      "priority": 0,
      "group": "cadbc157b916"
    },
    {
      "type": "chips",
      "translatesToSourceLanguage": false,
      "phrase": [
        {
          "word": "The",
          "definition": "-a"
        },
        {
          "word": "book",
          "definition": "liburu"
        },
        {
          "word": "is",
          "definition": "da\nda (izan)\ndago\ndago (egon)"
        },
        {
          "word": "next",
          "definition": "datorren\nhurrengoa\nondoan (next to)"
        },
        {
          "word": "to",
          "definition": "part of Ablative case\npart of same to you translation of berdin"
        },
        {
          "word": "the",
          "definition": "-a"
        },
        {
          "word": "purse.",
          "definition": "poltsa"
        }
      ],
      "chips": [
        "Liburua",
        "poltsaren",
        "ondoan",
        "dago",
        "doa",
        "ondoren",
        "zara"
      ],
      "solutions": [
        [
          "Liburua",
          "poltsaren",
          "ondoan",
          "dago"
        ]
      ],
      "formattedSolution": "Liburua poltsaren ondoan dago.",
      "id": "3f00d6b5802b",
      "priority": 2,
      "group": "cadbc157b916"
    },
    {
      "type": "chips",
      "translatesToSourceLanguage": true,
      "phrase": [
        {
          "word": "Liburua",
          "definition": "a book\nbooks"
        },
        {
          "word": "poltsaren",
          "definition": "purse(Noren case)"
        },
        {
          "word": "ondoan",
          "definition": "beside\nnext to"
        },
        {
          "word": "dago.",
          "definition": "he is (egon)\nis\nit is (egon)\nshe is (egon)"
        }
      ],
      "chips": [
        "The",
        "book",
        "is",
        "next",
        "to",
        "the",
        "purse",
        "be",
        "He",
        "We",
        "me",
        "use",
        "one"
      ],
      "solutions": [
        [
          "The",
          "book",
          "is",
          "next",
          "to",
          "the",
          "purse"
        ]
      ],
      "formattedSolution": "The book is next to the purse.",
      "id": "812e82f99068",
      "priority": 2,
      "group": "cadbc157b916"
    },
    {
      "type": "options",
      "formInTargetLanguage": "Txoria aulkiaren ondoan dago.",
      "meaningInSourceLanguage": "The bird is next to the chair.",
      "id": "618c94561502",
      "priority": 0,
      "group": "6402adc3390e"
    },
    {
      "type": "chips",
      "translatesToSourceLanguage": false,
      "phrase": [
        {
          "word": "The",
          "definition": "-a"
        },
        {
          "word": "bird",
          "definition": "txori\ntxoria"
        },
        {
          "word": "is",
          "definition": "da\nda (izan)\ndago\ndago (egon)"
        },
        {
          "word": "next",
          "definition": "datorren\nhurrengoa\nondoan (next to)"
        },
        {
          "word": "to",
          "definition": "part of Ablative case\npart of same to you translation of berdin"
        },
        {
          "word": "the",
          "definition": "-a"
        },
        {
          "word": "chair.",
          "definition": "aulki"
        }
      ],
      "chips": [
        "Txoria",
        "aulkiaren",
        "ondoan",
        "dago",
        "anaia",
        "doa",
        "udaren"
      ],
      "solutions": [
        [
          "Txoria",
          "aulkiaren",
          "ondoan",
          "dago"
        ]
      ],
      "formattedSolution": "Txoria aulkiaren ondoan dago.",
      "id": "e0cc1945c4eb",
      "priority": 2,
      "group": "6402adc3390e"
    },
    {
      "type": "chips",
      "translatesToSourceLanguage": true,
      "phrase": [
        {
          "word": "Txoria",
          "definition": "bird"
        },
        {
          "word": "aulkiaren",
          "definition": "chair (Noren case)"
        },
        {
          "word": "ondoan",
          "definition": "beside\nnext to"
        },
        {
          "word": "dago.",
          "definition": "he is (egon)\nis\nit is (egon)\nshe is (egon)"
        }
      ],
      "chips": [
        "The",
        "bird",
        "is",
        "next",
        "to",
        "the",
        "chair",
        "it",
        "her",
        "be",
        "He",
        "She",
        "We"
      ],
      "solutions": [
        [
          "The",
          "bird",
          "is",
          "next",
          "to",
          "the",
          "chair"
        ]
      ],
      "formattedSolution": "The bird is next to the chair.",
      "id": "94bd95867f6b",
      "priority": 2,
      "group": "6402adc3390e"
    },
    {
      "type": "options",
      "formInTargetLanguage": "Txakurra mahaiaren aurrean dago.",
      "meaningInSourceLanguage": "The dog is in front of the table.",
      "id": "380a810f0c0c",
      "priority": 0,
      "group": "342c9a6c5fec"
    },
    {
      "type": "chips",
      "translatesToSourceLanguage": false,
      "phrase": [
        {
          "word": "The",
          "definition": "-a"
        },
        {
          "word": "dog",
          "definition": "txakur\ntxakurra"
        },
        {
          "word": "is",
          "definition": "da\nda (izan)\ndago\ndago (egon)"
        },
        {
          "word": "in",
          "definition": "Inessive case\nNON case, not a word"
        },
        {
          "word": "front",
          "definition": "aurrean (in front of)\nfrontea"
        },
        {
          "word": "of",
          "definition": "de"
        },
        {
          "word": "the",
          "definition": "-a"
        },
        {
          "word": "table.",
          "definition": "mahai"
        }
      ],
      "chips": [
        "Txakurra",
        "mahaiaren",
        "aurrean",
        "dago",
        "udaren",
        "barre",
        "zara"
      ],
      "solutions": [
        [
          "Txakurra",
          "mahaiaren",
          "aurrean",
          "dago"
        ]
      ],
      "formattedSolution": "Txakurra mahaiaren aurrean dago.",
      "id": "9a54b42c4166",
      "priority": 2,
      "group": "342c9a6c5fec"
    },
    {
      "type": "chips",
      "translatesToSourceLanguage": true,
      "phrase": [
        {
          "word": "Txakurra",
          "definition": "a dog\npig"
        },
        {
          "word": "mahaiaren",
          "definition": "table (Noren case)"
        },
        {
          "word": "aurrean",
          "definition": "in front (of)\nin front of"
        },
        {
          "word": "dago.",
          "definition": "he is (egon)\nis\nit is (egon)\nshe is (egon)"
        }
      ],
      "chips": [
        "The",
        "dog",
        "is",
        "in",
        "front",
        "of",
        "the",
        "table",
        "on",
        "one",
        "be",
        "to",
        "He",
        "We",
        "or"
      ],
      "solutions": [
        [
          "The",
          "dog",
          "is",
          "in",
          "front",
          "of",
          "the",
          "table"
        ]
      ],
      "formattedSolution": "The dog is in front of the table.",
      "id": "36369b819d11",
      "priority": 2,
      "group": "342c9a6c5fec"
    },
    {
      "type": "options",
      "formInTargetLanguage": "Nire neskalaguna parkearen aurrean dago.",
      "meaningInSourceLanguage": "My girlfriend is in front of the park",
      "id": "c32b31cfbcc0",
      "priority": 0,
      "group": "655b8ed1af0f"
    },
    {
      "type": "chips",
      "translatesToSourceLanguage": false,
      "phrase": [
        {
          "word": "My",
          "definition": "nire"
        },
        {
          "word": "girlfriend",
          "definition": "neskalaguna"
        },
        {
          "word": "is",
          "definition": "da\nda (izan)\ndago\ndago (egon)"
        },
        {
          "word": "in",
          "definition": "Inessive case\nNON case, not a word"
        },
        {
          "word": "front",
          "definition": "aurrean (in front of)\nfrontea"
        },
        {
          "word": "of",
          "definition": "de"
        },
        {
          "word": "the",
          "definition": "-a"
        },
        {
          "word": "park",
          "definition": "parke"
        }
      ],
      "chips": [
        "Nire",
        "neskalaguna",
        "parkearen",
        "aurrean",
        "dago",
        "parkean",
        "zara",
        "gara",
        "gure"
      ],
      "solutions": [
        [
          "Nire",
          "neskalaguna",
          "parkearen",
          "aurrean",
          "dago"
        ]
      ],
      "formattedSolution": "Nire neskalaguna parkearen aurrean dago.",
      "id": "b930d75acf51",
      "priority": 2,
      "group": "655b8ed1af0f"
    },
    {
      "type": "chips",
      "translatesToSourceLanguage": true,
      "phrase": [
        {
          "word": "Nire",
          "definition": "my"
        },
        {
          "word": "neskalaguna",
          "definition": "girlfriend"
        },
        {
          "word": "parkearen",
          "definition": "park (Noren case)"
        },
        {
          "word": "aurrean",
          "definition": "in front (of)\nin front of"
        },
        {
          "word": "dago.",
          "definition": "he is (egon)\nis\nit is (egon)\nshe is (egon)"
        }
      ],
      "chips": [
        "My",
        "girlfriend",
        "is",
        "in",
        "front",
        "of",
        "the",
        "park",
        "on",
        "or",
        "it",
        "an",
        "In",
        "one",
        "are"
      ],
      "solutions": [
        [
          "My",
          "girlfriend",
          "is",
          "in",
          "front",
          "of",
          "the",
          "park"
        ]
      ],
      "formattedSolution": "My girlfriend is in front of the park",
      "id": "f947e452ae25",
      "priority": 2,
      "group": "655b8ed1af0f"
    },
    {
      "type": "options",
      "formInTargetLanguage": "Umeak atearen atzean daude.",
      "meaningInSourceLanguage": "The children are behind the door.",
      "id": "73f37e01d91c",
      "priority": 0,
      "group": "b894d384b05b"
    },
    {
      "type": "chips",
      "translatesToSourceLanguage": false,
      "phrase": [
        {
          "word": "The",
          "definition": "-a"
        },
        {
          "word": "children",
          "definition": "seme-alabak\nseme-alba\numeak"
        },
        {
          "word": "are",
          "definition": "daude\ndaude (egon)\ndaude (izan)\ndira\ndira (izan)\ngara\ngara (izan)\ngare\ngaude (egon)\nzara\nzara (izan)\nzarete\nzarete (izan)\nzaude  (egon)\nzaude (egon)\nzaudete (egon)"
        },
        {
          "word": "behind",
          "definition": "atzean"
        },
        {
          "word": "the",
          "definition": "-a"
        },
        {
          "word": "door.",
          "definition": "ate"
        }
      ],
      "chips": [
        "Umeak",
        "atearen",
        "atzean",
        "daude",
        "ateak",
        "batean",
        "astean"
      ],
      "solutions": [
        [
          "Umeak",
          "atearen",
          "atzean",
          "daude"
        ],
        [
          "Seme-albak",
          "atearen",
          "atzean",
          "daude"
        ]
      ],
      "formattedSolution": "Umeak atearen atzean daude.",
      "id": "19a6be222405",
      "priority": 2,
      "group": "b894d384b05b"
    },
    {
      "type": "chips",
      "translatesToSourceLanguage": true,
      "phrase": [
        {
          "word": "Umeak",
          "definition": "children"
        },
        {
          "word": "atearen",
          "definition": "door (Noren case)"
        },
        {
          "word": "atzean",
          "definition": "behind"
        },
        {
          "word": "daude.",
          "definition": "are\nare (egon)\nthey are (egon)"
        }
      ],
      "chips": [
        "The",
        "children",
        "are",
        "behind",
        "the",
        "door",
        "She",
        "then",
        "When",
        "one",
        "They"
      ],
      "solutions": [
        [
          "The",
          "children",
          "are",
          "behind",
          "the",
          "door"
        ]
      ],
      "formattedSolution": "The children are behind the door.",
      "id": "956a44defb50",
      "priority": 2,
      "group": "b894d384b05b"
    },
    {
      "type": "options",
      "formInTargetLanguage": "Zure mutillaguna behiaren atzean dago.",
      "meaningInSourceLanguage": "Your boyfriend is behind the cow.",
      "id": "9ac8721799b4",
      "priority": 0,
      "group": "239034fc5ee7"
    },
    {
      "type": "chips",
      "translatesToSourceLanguage": false,
      "phrase": [
        {
          "word": "Your",
          "definition": "zuen\nzure"
        },
        {
          "word": "boyfriend",
          "definition": "mutillaguna"
        },
        {
          "word": "is",
          "definition": "da\nda (izan)\ndago\ndago (egon)"
        },
        {
          "word": "behind",
          "definition": "atzean"
        },
        {
          "word": "the",
          "definition": "-a"
        },
        {
          "word": "cow.",
          "definition": "behi\nbehia"
        }
      ],
      "chips": [
        "Zure",
        "mutillaguna",
        "behiaren",
        "atzean",
        "dago",
        "tren",
        "Miren",
        "ziren",
        "Zein"
      ],
      "solutions": [
        [
          "Zure",
          "mutillaguna",
          "behiaren",
          "atzean",
          "dago"
        ]
      ],
      "formattedSolution": "Zure mutillaguna behiaren atzean dago.",
      "id": "ed47027981f3",
      "priority": 2,
      "group": "239034fc5ee7"
    },
    {
      "type": "chips",
      "translatesToSourceLanguage": true,
      "phrase": [
        {
          "word": "Zure",
          "definition": "your"
        },
        {
          "word": "mutillaguna",
          "definition": "boyfriend"
        },
        {
          "word": "behiaren",
          "definition": "cow (Noren)\ncow's"
        },
        {
          "word": "atzean",
          "definition": "behind"
        },
        {
          "word": "dago.",
          "definition": "he is (egon)\nis\nit is (egon)\nshe is (egon)"
        }
      ],
      "chips": [
        "Your",
        "boyfriend",
        "is",
        "behind",
        "the",
        "cow",
        "boy",
        "or",
        "in",
        "on",
        "be"
      ],
      "solutions": [
        [
          "Your",
          "boyfriend",
          "is",
          "behind",
          "the",
          "cow"
        ]
      ],
      "formattedSolution": "Your boyfriend is behind the cow.",
      "id": "00ea2137b001",
      "priority": 2,
      "group": "239034fc5ee7"
    },
    {
      "type": "options",
      "formInTargetLanguage": "Leihoa ezkerrean dago.",
      "meaningInSourceLanguage": "The window is on the left.",
      "id": "012121446b23",
      "priority": 0,
      "group": "e5cc935c24df"
    },
    {
      "type": "chips",
      "translatesToSourceLanguage": false,
      "phrase": [
        {
          "word": "The",
          "definition": "-a"
        },
        {
          "word": "window",
          "definition": "leiho"
        },
        {
          "word": "is",
          "definition": "da\nda (izan)\ndago\ndago (egon)"
        },
        {
          "word": "on",
          "definition": "Inessive case\nNON case, not a word\ngainean\npart of phrase, not translated"
        },
        {
          "word": "the",
          "definition": "-a"
        },
        {
          "word": "left.",
          "definition": "atera\nezker\nezker (direction)\ngelditen (is left) (verb)\ngelditu (was left) (verb)\ngeldituko (will be left) (verb)"
        }
      ],
      "chips": [
        "Leihoa",
        "ezkerrean",
        "dago",
        "beroa",
        "leihoa"
      ],
      "solutions": [
        [
          "Leihoa",
          "ezkerrean",
          "dago"
        ]
      ],
      "formattedSolution": "Leihoa ezkerrean dago.",
      "id": "d87b1ae9d6e0",
      "priority": 2,
      "group": "e5cc935c24df"
    },
    {
      "type": "chips",
      "translatesToSourceLanguage": true,
      "phrase": [
        {
          "word": "Leihoa",
          "definition": "the window"
        },
        {
          "word": "ezkerrean",
          "definition": "On the left\nOn the left(inessive of ezker)"
        },
        {
          "word": "dago.",
          "definition": "he is (egon)\nis\nit is (egon)\nshe is (egon)"
        }
      ],
      "chips": [
        "The",
        "window",
        "is",
        "on",
        "the",
        "left",
        "in",
        "one",
        "He",
        "We",
        "it"
      ],
      "solutions": [
        [
          "The",
          "window",
          "is",
          "on",
          "the",
          "left"
        ]
      ],
      "formattedSolution": "The window is on the left.",
      "id": "b54b9a0eb191",
      "priority": 2,
      "group": "e5cc935c24df"
    },
    {
      "type": "options",
      "formInTargetLanguage": "Bere arreba ezkerrean dago.",
      "meaningInSourceLanguage": "His sister  is on the left.",
      "id": "3fecc651e8a5",
      "priority": 0,
      "group": "8429781e7e02"
    },
    {
      "type": "chips",
      "translatesToSourceLanguage": false,
      "phrase": [
        {
          "word": "His",
          "definition": "bere\nberea\nbereak"
        },
        {
          "word": "sister",
          "definition": "ahizpa\narreba"
        },
        {
          "word": "is",
          "definition": "da\nda (izan)\ndago\ndago (egon)"
        },
        {
          "word": "on",
          "definition": "Inessive case\nNON case, not a word\ngainean\npart of phrase, not translated"
        },
        {
          "word": "the",
          "definition": "-a"
        },
        {
          "word": "left.",
          "definition": "atera\nezker\nezker (direction)\ngelditen (is left) (verb)\ngelditu (was left) (verb)\ngeldituko (will be left) (verb)"
        }
      ],
      "chips": [
        "Bere",
        "arreba",
        "ezkerrean",
        "dago",
        "ere",
        "bere",
        "berea"
      ],
      "solutions": [
        [
          "Bere",
          "arreba",
          "ezkerrean",
          "dago"
        ]
      ],
      "formattedSolution": "Bere arreba ezkerrean dago.",
      "id": "bd2516645e7f",
      "priority": 2,
      "group": "8429781e7e02"
    },
    {
      "type": "chips",
      "translatesToSourceLanguage": true,
      "phrase": [
        {
          "word": "Bere",
          "definition": "her\nhers\nhis\nhis/hers/its\nits"
        },
        {
          "word": "arreba",
          "definition": "sister of a brother"
        },
        {
          "word": "ezkerrean",
          "definition": "On the left\nOn the left(inessive of ezker)"
        },
        {
          "word": "dago.",
          "definition": "he is (egon)\nis\nit is (egon)\nshe is (egon)"
        }
      ],
      "chips": [
        "His",
        "sister",
        "is",
        "on",
        "the",
        "left",
        "it",
        "He",
        "his",
        "in",
        "sit"
      ],
      "solutions": [
        [
          "His",
          "sister",
          "is",
          "on",
          "the",
          "left"
        ]
      ],
      "formattedSolution": "His sister  is on the left.",
      "id": "7f59c9e3fc1e",
      "priority": 2,
      "group": "8429781e7e02"
    },
    {
      "type": "options",
      "formInTargetLanguage": "Nire lehengusua eskuinean dago.",
      "meaningInSourceLanguage": "My cousin is on the right.",
      "id": "2f9b6f7c1ea8",
      "priority": 0,
      "group": "2d7377cd1d90"
    },
    {
      "type": "chips",
      "translatesToSourceLanguage": false,
      "phrase": [
        {
          "word": "My",
          "definition": "nire"
        },
        {
          "word": "cousin",
          "definition": "lehengusina\nlehengusu"
        },
        {
          "word": "is",
          "definition": "da\nda (izan)\ndago\ndago (egon)"
        },
        {
          "word": "on",
          "definition": "Inessive case\nNON case, not a word\ngainean\npart of phrase, not translated"
        },
        {
          "word": "the",
          "definition": "-a"
        },
        {
          "word": "right.",
          "definition": "eskuin"
        }
      ],
      "chips": [
        "Nire",
        "lehengusua",
        "eskuinean",
        "dago",
        "esnea",
        "Miren",
        "ere"
      ],
      "solutions": [
        [
          "Nire",
          "lehengusua",
          "eskuinean",
          "dago"
        ]
      ],
      "formattedSolution": "Nire lehengusua eskuinean dago.",
      "id": "b47aeaf8f21c",
      "priority": 2,
      "group": "2d7377cd1d90"
    },
    {
      "type": "chips",
      "translatesToSourceLanguage": true,
      "phrase": [
        {
          "word": "Nire",
          "definition": "my"
        },
        {
          "word": "lehengusua",
          "definition": "cousin (male)"
        },
        {
          "word": "eskuinean",
          "definition": "On the right\nOn the right(inessive of eskuin)"
        },
        {
          "word": "dago.",
          "definition": "he is (egon)\nis\nit is (egon)\nshe is (egon)"
        }
      ],
      "chips": [
        "My",
        "cousin",
        "is",
        "on",
        "the",
        "right",
        "in",
        "it",
        "us",
        "Hi",
        "or"
      ],
      "solutions": [
        [
          "My",
          "cousin",
          "is",
          "on",
          "the",
          "right"
        ]
      ],
      "formattedSolution": "My cousin is on the right.",
      "id": "b077a0c7db90",
      "priority": 2,
      "group": "2d7377cd1d90"
    },
    {
      "type": "options",
      "formInTargetLanguage": "Bere ahizpa eskuinean dago.",
      "meaningInSourceLanguage": "Her sister is on the right.",
      "id": "30e97b2de822",
      "priority": 0,
      "group": "78953dc157c5"
    },
    {
      "type": "chips",
      "translatesToSourceLanguage": false,
      "phrase": [
        {
          "word": "Her",
          "definition": "bere"
        },
        {
          "word": "sister",
          "definition": "ahizpa\narreba"
        },
        {
          "word": "is",
          "definition": "da\nda (izan)\ndago\ndago (egon)"
        },
        {
          "word": "on",
          "definition": "Inessive case\nNON case, not a word\ngainean\npart of phrase, not translated"
        },
        {
          "word": "the",
          "definition": "-a"
        },
        {
          "word": "right.",
          "definition": "eskuin"
        }
      ],
      "chips": [
        "Bere",
        "ahizpa",
        "eskuinean",
        "dago",
        "dira",
        "ere",
        "suge"
      ],
      "solutions": [
        [
          "Bere",
          "ahizpa",
          "eskuinean",
          "dago"
        ]
      ],
      "formattedSolution": "Bere ahizpa eskuinean dago.",
      "id": "5bec45b9f80c",
      "priority": 2,
      "group": "78953dc157c5"
    },
    {
      "type": "chips",
      "translatesToSourceLanguage": true,
      "phrase": [
        {
          "word": "Bere",
          "definition": "her\nhers\nhis\nhis/hers/its\nits"
        },
        {
          "word": "ahizpa",
          "definition": "sister of a sister"
        },
        {
          "word": "eskuinean",
          "definition": "On the right\nOn the right(inessive of eskuin)"
        },
        {
          "word": "dago.",
          "definition": "he is (egon)\nis\nit is (egon)\nshe is (egon)"
        }
      ],
      "chips": [
        "Her",
        "sister",
        "is",
        "on",
        "the",
        "right",
        "it",
        "He",
        "in",
        "sit",
        "Hi"
      ],
      "solutions": [
        [
          "Her",
          "sister",
          "is",
          "on",
          "the",
          "right"
        ]
      ],
      "formattedSolution": "Her sister is on the right.",
      "id": "75382b069a9b",
      "priority": 2,
      "group": "78953dc157c5"
    },
    {
      "type": "options",
      "formInTargetLanguage": "Atea bi leihoen artean dago.",
      "meaningInSourceLanguage": "The door is between two windows.",
      "id": "424431ad563c",
      "priority": 0,
      "group": "676a897dd0ad"
    },
    {
      "type": "chips",
      "translatesToSourceLanguage": false,
      "phrase": [
        {
          "word": "The",
          "definition": "-a"
        },
        {
          "word": "door",
          "definition": "ate"
        },
        {
          "word": "is",
          "definition": "da\nda (izan)\ndago\ndago (egon)"
        },
        {
          "word": "between",
          "definition": "artean\neskuin"
        },
        {
          "word": "two",
          "definition": "bi"
        },
        {
          "word": "windows.",
          "definition": "leihoak"
        }
      ],
      "chips": [
        "Atea",
        "bi",
        "leihoen",
        "artean",
        "dago",
        "atea",
        "ate",
        "den",
        "te"
      ],
      "solutions": [
        [
          "Atea",
          "bi",
          "leihoen",
          "artean",
          "dago"
        ]
      ],
      "formattedSolution": "Atea bi leihoen artean dago.",
      "id": "e048f86ffe16",
      "priority": 2,
      "group": "676a897dd0ad"
    },
    {
      "type": "chips",
      "translatesToSourceLanguage": true,
      "phrase": [
        {
          "word": "Atea",
          "definition": "the door"
        },
        {
          "word": "bi",
          "definition": "two"
        },
        {
          "word": "leihoen",
          "definition": "windows (Noren case)"
        },
        {
          "word": "artean",
          "definition": "between"
        },
        {
          "word": "dago.",
          "definition": "he is (egon)\nis\nit is (egon)\nshe is (egon)"
        }
      ],
      "chips": [
        "The",
        "door",
        "is",
        "between",
        "two",
        "windows",
        "Two",
        "to",
        "the",
        "now",
        "owl"
      ],
      "solutions": [
        [
          "The",
          "door",
          "is",
          "between",
          "two",
          "windows"
        ]
      ],
      "formattedSolution": "The door is between two windows.",
      "id": "6761e9718e98",
      "priority": 2,
      "group": "676a897dd0ad"
    },
    {
      "type": "options",
      "formInTargetLanguage": "Parkea kalearen eskuin aldean dago.",
      "meaningInSourceLanguage": "The park is on the right side of the street.",
      "id": "b18b9878af27",
      "priority": 0,
      "group": "2dc496783d5c"
    },
    {
      "type": "chips",
      "translatesToSourceLanguage": false,
      "phrase": [
        {
          "word": "The",
          "definition": "-a"
        },
        {
          "word": "park",
          "definition": "parke"
        },
        {
          "word": "is",
          "definition": "da\nda (izan)\ndago\ndago (egon)"
        },
        {
          "word": "on",
          "definition": "Inessive case\nNON case, not a word\ngainean\npart of phrase, not translated"
        },
        {
          "word": "the",
          "definition": "-a"
        },
        {
          "word": "right",
          "definition": "eskuin"
        },
        {
          "word": "side",
          "definition": "alde"
        },
        {
          "word": "of",
          "definition": "de"
        },
        {
          "word": "the",
          "definition": "-a"
        },
        {
          "word": "street.",
          "definition": "kale"
        }
      ],
      "chips": [
        "Parkea",
        "kalearen",
        "eskuin",
        "aldean",
        "dago",
        "kalean",
        "kalea",
        "azken",
        "kale"
      ],
      "solutions": [
        [
          "Parkea",
          "kalearen",
          "eskuin",
          "aldean",
          "dago"
        ]
      ],
      "formattedSolution": "Parkea kalearen eskuin aldean dago.",
      "id": "0cd3f7f13a4a",
      "priority": 2,
      "group": "2dc496783d5c"
    },
    {
      "type": "chips",
      "translatesToSourceLanguage": true,
      "phrase": [
        {
          "word": "Parkea",
          "definition": "the park"
        },
        {
          "word": "kalearen",
          "definition": "street (noren)"
        },
        {
          "word": "eskuin",
          "definition": "between\nright"
        },
        {
          "word": "aldean",
          "definition": "side (Noren case)"
        },
        {
          "word": "dago.",
          "definition": "he is (egon)\nis\nit is (egon)\nshe is (egon)"
        }
      ],
      "chips": [
        "The",
        "park",
        "is",
        "on",
        "the",
        "right",
        "side",
        "of",
        "the",
        "street",
        "She",
        "one",
        "are",
        "He",
        "We",
        "it",
        "me",
        "be",
        "lie"
      ],
      "solutions": [
        [
          "The",
          "park",
          "is",
          "on",
          "the",
          "right",
          "side",
          "of",
          "the",
          "street"
        ]
      ],
      "formattedSolution": "The park is on the right side of the street.",
      "id": "fb001ca35b7b",
      "priority": 2,
      "group": "2dc496783d5c"
    },
    {
      "type": "options",
      "formInTargetLanguage": "Bere anaia atearen eskuin aldean dago.",
      "meaningInSourceLanguage": "His brother is on the right side of the door.",
      "id": "15e7a8b4319a",
      "priority": 0,
      "group": "2ee1a8a2943d"
    },
    {
      "type": "chips",
      "translatesToSourceLanguage": false,
      "phrase": [
        {
          "word": "His",
          "definition": "bere\nberea\nbereak"
        },
        {
          "word": "brother",
          "definition": "anaia\nneba"
        },
        {
          "word": "is",
          "definition": "da\nda (izan)\ndago\ndago (egon)"
        },
        {
          "word": "on",
          "definition": "Inessive case\nNON case, not a word\ngainean\npart of phrase, not translated"
        },
        {
          "word": "the",
          "definition": "-a"
        },
        {
          "word": "right",
          "definition": "eskuin"
        },
        {
          "word": "side",
          "definition": "alde"
        },
        {
          "word": "of",
          "definition": "de"
        },
        {
          "word": "the",
          "definition": "-a"
        },
        {
          "word": "door.",
          "definition": "ate"
        }
      ],
      "chips": [
        "Bere",
        "anaia",
        "atearen",
        "eskuin",
        "aldean",
        "dago",
        "edan",
        "ere",
        "Zein",
        "atera",
        "den"
      ],
      "solutions": [
        [
          "Bere",
          "anaia",
          "atearen",
          "eskuin",
          "aldean",
          "dago"
        ]
      ],
      "formattedSolution": "Bere anaia atearen eskuin aldean dago.",
      "id": "8d073bfebc90",
      "priority": 2,
      "group": "2ee1a8a2943d"
    },
    {
      "type": "chips",
      "translatesToSourceLanguage": true,
      "phrase": [
        {
          "word": "Bere",
          "definition": "her\nhers\nhis\nhis/hers/its\nits"
        },
        {
          "word": "anaia",
          "definition": "brother of a brother"
        },
        {
          "word": "atearen",
          "definition": "door (Noren case)"
        },
        {
          "word": "eskuin",
          "definition": "between\nright"
        },
        {
          "word": "aldean",
          "definition": "side (Noren case)"
        },
        {
          "word": "dago.",
          "definition": "he is (egon)\nis\nit is (egon)\nshe is (egon)"
        }
      ],
      "chips": [
        "His",
        "brother",
        "is",
        "on",
        "the",
        "right",
        "side",
        "of",
        "the",
        "door",
        "one",
        "or",
        "it",
        "He",
        "She",
        "The",
        "in",
        "be",
        "lie"
      ],
      "solutions": [
        [
          "His",
          "brother",
          "is",
          "on",
          "the",
          "right",
          "side",
          "of",
          "the",
          "door"
        ]
      ],
      "formattedSolution": "His brother is on the right side of the door.",
      "id": "5b3edf09d589",
      "priority": 2,
      "group": "2ee1a8a2943d"
    },
    {
      "type": "options",
      "formInTargetLanguage": "Kotxea zubiaren ezker aldean dago",
      "meaningInSourceLanguage": "The car is on the left side of the bridge.",
      "id": "92beb8b08ed7",
      "priority": 0,
      "group": "823ac64f9d79"
    },
    {
      "type": "chips",
      "translatesToSourceLanguage": false,
      "phrase": [
        {
          "word": "The",
          "definition": "-a"
        },
        {
          "word": "car",
          "definition": "kotxe\nkotxea"
        },
        {
          "word": "is",
          "definition": "da\nda (izan)\ndago\ndago (egon)"
        },
        {
          "word": "on",
          "definition": "Inessive case\nNON case, not a word\ngainean\npart of phrase, not translated"
        },
        {
          "word": "the",
          "definition": "-a"
        },
        {
          "word": "left",
          "definition": "atera\nezker\nezker (direction)\ngelditen (is left) (verb)\ngelditu (was left) (verb)\ngeldituko (will be left) (verb)"
        },
        {
          "word": "side",
          "definition": "alde"
        },
        {
          "word": "of",
          "definition": "de"
        },
        {
          "word": "the",
          "definition": "-a"
        },
        {
          "word": "bridge.",
          "definition": "zubi"
        }
      ],
      "chips": [
        "Kotxea",
        "zubiaren",
        "ezker",
        "aldean",
        "dago",
        "zuen",
        "zen",
        "ziren",
        "etxea"
      ],
      "solutions": [
        [
          "Kotxea",
          "zubiaren",
          "ezker",
          "aldean",
          "dago"
        ]
      ],
      "formattedSolution": "Kotxea zubiaren ezker aldean dago",
      "id": "fef859613546",
      "priority": 2,
      "group": "823ac64f9d79"
    },
    {
      "type": "chips",
      "translatesToSourceLanguage": true,
      "phrase": [
        {
          "word": "Kotxea",
          "definition": "a car\ncar"
        },
        {
          "word": "zubiaren",
          "definition": "bridge (Noren case)"
        },
        {
          "word": "ezker",
          "definition": "left"
        },
        {
          "word": "aldean",
          "definition": "side (Noren case)"
        },
        {
          "word": "dago",
          "definition": "he is (egon)\nis\nit is (egon)\nshe is (egon)"
        }
      ],
      "chips": [
        "The",
        "car",
        "is",
        "on",
        "the",
        "left",
        "side",
        "of",
        "the",
        "bridge",
        "be",
        "He",
        "We",
        "me",
        "lie",
        "one",
        "She",
        "ice",
        "are"
      ],
      "solutions": [
        [
          "The",
          "car",
          "is",
          "on",
          "the",
          "left",
          "side",
          "of",
          "the",
          "bridge"
        ]
      ],
      "formattedSolution": "The car is on the left side of the bridge.",
      "id": "0b84b31387a9",
      "priority": 2,
      "group": "823ac64f9d79"
    },
    {
      "type": "options",
      "formInTargetLanguage": "Bere neba txerriaren ezker aldean dago.",
      "meaningInSourceLanguage": "Her brother is on the left side of the pig.",
      "id": "2db4933b4156",
      "priority": 0,
      "group": "7d117c370cdf"
    },
    {
      "type": "chips",
      "translatesToSourceLanguage": false,
      "phrase": [
        {
          "word": "Her",
          "definition": "bere"
        },
        {
          "word": "brother",
          "definition": "anaia\nneba"
        },
        {
          "word": "is",
          "definition": "da\nda (izan)\ndago\ndago (egon)"
        },
        {
          "word": "on",
          "definition": "Inessive case\nNON case, not a word\ngainean\npart of phrase, not translated"
        },
        {
          "word": "the",
          "definition": "-a"
        },
        {
          "word": "left",
          "definition": "atera\nezker\nezker (direction)\ngelditen (is left) (verb)\ngelditu (was left) (verb)\ngeldituko (will be left) (verb)"
        },
        {
          "word": "side",
          "definition": "alde"
        },
        {
          "word": "of",
          "definition": "de"
        },
        {
          "word": "the",
          "definition": "-a"
        },
        {
          "word": "pig.",
          "definition": "txakurra\ntxerri\ntxerria"
        }
      ],
      "chips": [
        "Bere",
        "neba",
        "txerriaren",
        "ezker",
        "aldean",
        "dago",
        "ere",
        "bere",
        "den",
        "edan",
        "Zer"
      ],
      "solutions": [
        [
          "Bere",
          "neba",
          "txerriaren",
          "ezker",
          "aldean",
          "dago"
        ]
      ],
      "formattedSolution": "Bere neba txerriaren ezker aldean dago.",
      "id": "71ce62fff303",
      "priority": 2,
      "group": "7d117c370cdf"
    },
    {
      "type": "chips",
      "translatesToSourceLanguage": true,
      "phrase": [
        {
          "word": "Bere",
          "definition": "her\nhers\nhis\nhis/hers/its\nits"
        },
        {
          "word": "neba",
          "definition": "brother of a sister\nbrothers of a sister"
        },
        {
          "word": "txerriaren",
          "definition": "pig (Noren)\npig's"
        },
        {
          "word": "ezker",
          "definition": "left"
        },
        {
          "word": "aldean",
          "definition": "side (Noren case)"
        },
        {
          "word": "dago.",
          "definition": "he is (egon)\nis\nit is (egon)\nshe is (egon)"
        }
      ],
      "chips": [
        "Her",
        "brother",
        "is",
        "on",
        "the",
        "left",
        "side",
        "of",
        "the",
        "pig",
        "He",
        "be",
        "We",
        "me",
        "one",
        "or",
        "it",
        "her",
        "lie"
      ],
      "solutions": [
        [
          "Her",
          "brother",
          "is",
          "on",
          "the",
          "left",
          "side",
          "of",
          "the",
          "pig"
        ]
      ],
      "formattedSolution": "Her brother is on the left side of the pig.",
      "id": "d006d393d82c",
      "priority": 2,
      "group": "7d117c370cdf"
    },
    {
      "type": "cards",
      "pictures": [
        "nothing.jpg",
        "nothing.jpg",
        "nothing.jpg"
      ],
      "formInTargetLanguage": "alde",
      "meaningInSourceLanguage": "side",
      "id": "b7d35c61493f",
      "priority": 0,
      "group": "595b7e2b9661"
    },
    {
      "type": "shortInput",
      "pictures": [
        "nothing.jpg",
        "nothing.jpg",
        "nothing.jpg"
      ],
      "formInTargetLanguage": [
        "alde"
      ],
      "phrase": [
        {
          "word": "side",
          "definition": "alde"
        }
      ],
      "id": "159bfae5eaa9",
      "priority": 1,
      "group": "595b7e2b9661"
    },
    {
      "type": "cards",
      "pictures": [
        "nothing.jpg",
        "nothing.jpg",
        "nothing.jpg"
      ],
      "formInTargetLanguage": "ate",
      "meaningInSourceLanguage": "door",
      "id": "7083ad7d5904",
      "priority": 0,
      "group": "50b0ba8106d3"
    },
    {
      "type": "shortInput",
      "pictures": [
        "nothing.jpg",
        "nothing.jpg",
        "nothing.jpg"
      ],
      "formInTargetLanguage": [
        "ate"
      ],
      "phrase": [
        {
          "word": "door",
          "definition": "ate"
        }
      ],
      "id": "74aacd86f795",
      "priority": 1,
      "group": "50b0ba8106d3"
    },
    {
      "type": "cards",
      "pictures": [
        "nothing.jpg",
        "nothing.jpg",
        "nothing.jpg"
      ],
      "formInTargetLanguage": "leiho",
      "meaningInSourceLanguage": "window",
      "id": "83fa908aaa7b",
      "priority": 0,
      "group": "30693064fe4c"
    },
    {
      "type": "shortInput",
      "pictures": [
        "nothing.jpg",
        "nothing.jpg",
        "nothing.jpg"
      ],
      "formInTargetLanguage": [
        "leiho"
      ],
      "phrase": [
        {
          "word": "window",
          "definition": "leiho"
        }
      ],
      "id": "b1e06ce823c3",
      "priority": 1,
      "group": "30693064fe4c"
    },
    {
      "type": "cards",
      "pictures": [
        "nothing.jpg",
        "nothing.jpg",
        "nothing.jpg"
      ],
      "formInTargetLanguage": "mahai",
      "meaningInSourceLanguage": "table",
      "id": "2e680fdd1077",
      "priority": 0,
      "group": "ec363ec4fa1c"
    },
    {
      "type": "shortInput",
      "pictures": [
        "nothing.jpg",
        "nothing.jpg",
        "nothing.jpg"
      ],
      "formInTargetLanguage": [
        "mahai"
      ],
      "phrase": [
        {
          "word": "table",
          "definition": "mahai"
        }
      ],
      "id": "bdeb3dcd4cc0",
      "priority": 1,
      "group": "ec363ec4fa1c"
    },
    {
      "type": "cards",
      "pictures": [
        "nothing.jpg",
        "nothing.jpg",
        "nothing.jpg"
      ],
      "formInTargetLanguage": "aulki",
      "meaningInSourceLanguage": "chair",
      "id": "a6a8fd9dd677",
      "priority": 0,
      "group": "f9177fd2a39c"
    },
    {
      "type": "shortInput",
      "pictures": [
        "nothing.jpg",
        "nothing.jpg",
        "nothing.jpg"
      ],
      "formInTargetLanguage": [
        "aulki"
      ],
      "phrase": [
        {
          "word": "chair",
          "definition": "aulki"
        }
      ],
      "id": "813fc6fbdef5",
      "priority": 1,
      "group": "f9177fd2a39c"
    },
    {
      "type": "cards",
      "pictures": [
        "nothing.jpg",
        "nothing.jpg",
        "nothing.jpg"
      ],
      "formInTargetLanguage": "parke",
      "meaningInSourceLanguage": "park",
      "id": "9fbd48eac750",
      "priority": 0,
      "group": "83e60d5a6a37"
    },
    {
      "type": "shortInput",
      "pictures": [
        "nothing.jpg",
        "nothing.jpg",
        "nothing.jpg"
      ],
      "formInTargetLanguage": [
        "parke"
      ],
      "phrase": [
        {
          "word": "park",
          "definition": "parke"
        }
      ],
      "id": "066b2378c1aa",
      "priority": 1,
      "group": "83e60d5a6a37"
    },
    {
      "type": "cards",
      "pictures": [
        "nothing.jpg",
        "nothing.jpg",
        "nothing.jpg"
      ],
      "formInTargetLanguage": "zubi",
      "meaningInSourceLanguage": "bridge",
      "id": "69221bb09502",
      "priority": 0,
      "group": "fa80a8519ea7"
    },
    {
      "type": "shortInput",
      "pictures": [
        "nothing.jpg",
        "nothing.jpg",
        "nothing.jpg"
      ],
      "formInTargetLanguage": [
        "zubi"
      ],
      "phrase": [
        {
          "word": "bridge",
          "definition": "zubi"
        }
      ],
      "id": "8e6abe01d3f4",
      "priority": 1,
      "group": "fa80a8519ea7"
    },
    {
      "type": "cards",
      "pictures": [
        "nothing.jpg",
        "nothing.jpg",
        "nothing.jpg"
      ],
      "formInTargetLanguage": "ezker",
      "meaningInSourceLanguage": "left",
      "id": "67b5a1c1fbd8",
      "priority": 0,
      "group": "f48f2f2dc9d1"
    },
    {
      "type": "shortInput",
      "pictures": [
        "nothing.jpg",
        "nothing.jpg",
        "nothing.jpg"
      ],
      "formInTargetLanguage": [
        "ezker"
      ],
      "phrase": [
        {
          "word": "left",
          "definition": "atera\nezker\nezker (direction)\ngelditen (is left) (verb)\ngelditu (was left) (verb)\ngeldituko (will be left) (verb)"
        }
      ],
      "id": "f9d515a6a1bf",
      "priority": 1,
      "group": "f48f2f2dc9d1"
    },
    {
      "type": "cards",
      "pictures": [
        "nothing.jpg",
        "nothing.jpg",
        "nothing.jpg"
      ],
      "formInTargetLanguage": "eskuin",
      "meaningInSourceLanguage": "between",
      "id": "2d8b6878dc9f",
      "priority": 0,
      "group": "8c2f27a041e9"
    },
    {
      "type": "shortInput",
      "pictures": [
        "nothing.jpg",
        "nothing.jpg",
        "nothing.jpg"
      ],
      "formInTargetLanguage": [
        "eskuin"
      ],
      "phrase": [
        {
          "word": "between",
          "definition": "artean\neskuin"
        }
      ],
      "id": "56244afb06ee",
      "priority": 1,
      "group": "8c2f27a041e9"
    }
  ]
}