{
  "id": "3e8e332663cb",
  "levels": 7,
  "challenges": [
    {
      "type": "options",
      "formInTargetLanguage": "Kaixo. Nor zara zu?",
      "meaningInSourceLanguage": "Hello. Who are you?",
      "id": "ce6272d57129",
      "priority": 0,
      "group": "db6d74080573"
    },
    {
      "type": "chips",
      "translatesToSourceLanguage": false,
      "phrase": [
        {
          "word": "Hello.",
          "definition": "kaixo"
        },
        {
          "word": "Who",
          "definition": "nor\nnortzuk"
        },
        {
          "word": "are",
          "definition": "daude\ndaude (egon)\ndaude (izan)\ndira\ndira (izan)\ngara\ngara (izan)\ngare\ngaude (egon)\nzara\nzara (izan)\nzarete\nzarete (izan)\nzaude  (egon)\nzaude (egon)\nzaudete (egon)"
        },
        {
          "word": "you?",
          "definition": "zu\nzuek"
        }
      ],
      "chips": [
        "Kaixo",
        "Nor",
        "zara",
        "zu",
        "zaio",
        "Ni",
        "da"
      ],
      "solutions": [
        [
          "Kaixo",
          "Nor",
          "zara",
          "zu"
        ]
      ],
      "formattedSolution": "Kaixo. Nor zara zu?",
      "id": "e225aafea70f",
      "priority": 2,
      "group": "db6d74080573"
    },
    {
      "type": "chips",
      "translatesToSourceLanguage": true,
      "phrase": [
        {
          "word": "Kaixo.",
          "definition": "hello"
        },
        {
          "word": "Nor",
          "definition": "who"
        },
        {
          "word": "zara",
          "definition": "are\nyou are (izan)"
        },
        {
          "word": "zu?",
          "definition": "you"
        }
      ],
      "chips": [
        "Hello",
        "Who",
        "are",
        "you",
        "He",
        "We",
        "all"
      ],
      "solutions": [
        [
          "Hello",
          "Who",
          "are",
          "you"
        ],
        [
          "Hi",
          "Who",
          "are",
          "you"
        ]
      ],
      "formattedSolution": "Hello. Who are you?",
      "id": "66df8ac0102a",
      "priority": 2,
      "group": "db6d74080573"
    },
    {
      "type": "options",
      "formInTargetLanguage": "Zer zara zu?",
      "meaningInSourceLanguage": "What are you?",
      "id": "559285509516",
      "priority": 0,
      "group": "f72c5d779a5e"
    },
    {
      "type": "chips",
      "translatesToSourceLanguage": false,
      "phrase": [
        {
          "word": "What",
          "definition": "zer"
        },
        {
          "word": "are",
          "definition": "daude\ndaude (egon)\ndaude (izan)\ndira\ndira (izan)\ngara\ngara (izan)\ngare\ngaude (egon)\nzara\nzara (izan)\nzarete\nzarete (izan)\nzaude  (egon)\nzaude (egon)\nzaudete (egon)"
        },
        {
          "word": "you?",
          "definition": "zu\nzuek"
        }
      ],
      "chips": [
        "Zer",
        "zara",
        "zu",
        "zer",
        "Zu"
      ],
      "solutions": [
        [
          "Zer",
          "zara",
          "zu"
        ]
      ],
      "formattedSolution": "Zer zara zu?",
      "id": "eb79f9485139",
      "priority": 2,
      "group": "f72c5d779a5e"
    },
    {
      "type": "chips",
      "translatesToSourceLanguage": true,
      "phrase": [
        {
          "word": "Zer",
          "definition": "what"
        },
        {
          "word": "zara",
          "definition": "are\nyou are (izan)"
        },
        {
          "word": "zu?",
          "definition": "you"
        }
      ],
      "chips": [
        "What",
        "are",
        "you",
        "hat",
        "at"
      ],
      "solutions": [
        [
          "What",
          "are",
          "you"
        ]
      ],
      "formattedSolution": "What are you?",
      "id": "3f488a219dee",
      "priority": 2,
      "group": "f72c5d779a5e"
    },
    {
      "type": "options",
      "formInTargetLanguage": "Zu al zara irakaslea?",
      "meaningInSourceLanguage": "Are you the teacher?",
      "id": "73f5ab5d65ac",
      "priority": 0,
      "group": "461e66ba35fb"
    },
    {
      "type": "chips",
      "translatesToSourceLanguage": false,
      "phrase": [
        {
          "word": "Are",
          "definition": "daude\ndaude (egon)\ndaude (izan)\ndira\ndira (izan)\ngara\ngara (izan)\ngare\ngaude (egon)\nzara\nzara (izan)\nzarete\nzarete (izan)\nzaude  (egon)\nzaude (egon)\nzaudete (egon)"
        },
        {
          "word": "you",
          "definition": "zu\nzuek"
        },
        {
          "word": "the",
          "definition": "-a"
        },
        {
          "word": "teacher?",
          "definition": "irakasle\nirakaslea"
        }
      ],
      "chips": [
        "Zu",
        "al",
        "zara",
        "irakaslea",
        "ama",
        "kale",
        "da"
      ],
      "solutions": [
        [
          "Zu",
          "al",
          "zara",
          "irakaslea"
        ],
        [
          "Al",
          "zara",
          "irakaslea"
        ]
      ],
      "formattedSolution": "Zu al zara irakaslea?",
      "id": "34f3021900b1",
      "priority": 2,
      "group": "461e66ba35fb"
    },
    {
      "type": "chips",
      "translatesToSourceLanguage": true,
      "phrase": [
        {
          "word": "Zu",
          "definition": "you"
        },
        {
          "word": "al",
          "definition": "question word\nquestion_word"
        },
        {
          "word": "zara",
          "definition": "are\nyou are (izan)"
        },
        {
          "word": "irakaslea?",
          "definition": "a teacher\nteacher\nthe teacher"
        }
      ],
      "chips": [
        "Are",
        "you",
        "the",
        "teacher",
        "are",
        "She",
        "The"
      ],
      "solutions": [
        [
          "Are",
          "you",
          "the",
          "teacher"
        ],
        [
          "Are",
          "you",
          "a",
          "teacher"
        ]
      ],
      "formattedSolution": "Are you the teacher?",
      "id": "02188a179fdf",
      "priority": 2,
      "group": "461e66ba35fb"
    },
    {
      "type": "options",
      "formInTargetLanguage": "Zu irakaslea edo ikaslea zara?",
      "meaningInSourceLanguage": "Are you a teacher or a student?",
      "id": "2819758f39a1",
      "priority": 0,
      "group": "1e3bdab6c1b1"
    },
    {
      "type": "chips",
      "translatesToSourceLanguage": false,
      "phrase": [
        {
          "word": "Are",
          "definition": "daude\ndaude (egon)\ndaude (izan)\ndira\ndira (izan)\ngara\ngara (izan)\ngare\ngaude (egon)\nzara\nzara (izan)\nzarete\nzarete (izan)\nzaude  (egon)\nzaude (egon)\nzaudete (egon)"
        },
        {
          "word": "you",
          "definition": "zu\nzuek"
        },
        {
          "word": "a",
          "definition": "-a"
        },
        {
          "word": "teacher",
          "definition": "irakasle\nirakaslea"
        },
        {
          "word": "or",
          "definition": "edo"
        },
        {
          "word": "a",
          "definition": "-a"
        },
        {
          "word": "student?",
          "definition": "ikasle\nikaslea"
        }
      ],
      "chips": [
        "Zu",
        "irakaslea",
        "edo",
        "ikaslea",
        "zara",
        "kale",
        "kalea",
        "al",
        "ama"
      ],
      "solutions": [
        [
          "Zu",
          "irakaslea",
          "edo",
          "ikaslea",
          "zara"
        ],
        [
          "Irakaslea",
          "edo",
          "ikaslea",
          "zara"
        ]
      ],
      "formattedSolution": "Zu irakaslea edo ikaslea zara?",
      "id": "76743f87b19a",
      "priority": 2,
      "group": "1e3bdab6c1b1"
    },
    {
      "type": "chips",
      "translatesToSourceLanguage": true,
      "phrase": [
        {
          "word": "Zu",
          "definition": "you"
        },
        {
          "word": "irakaslea",
          "definition": "a teacher\nteacher\nthe teacher"
        },
        {
          "word": "edo",
          "definition": "or"
        },
        {
          "word": "ikaslea",
          "definition": "a student\nstudent\nthe student"
        },
        {
          "word": "zara?",
          "definition": "are\nyou are (izan)"
        }
      ],
      "chips": [
        "Are",
        "you",
        "a",
        "teacher",
        "or",
        "a",
        "student",
        "are",
        "an",
        "at",
        "ate",
        "tea",
        "am"
      ],
      "solutions": [
        [
          "Are",
          "you",
          "a",
          "teacher",
          "or",
          "a",
          "student"
        ],
        [
          "Are",
          "you",
          "the",
          "teacher",
          "or",
          "the",
          "student"
        ]
      ],
      "formattedSolution": "Are you a teacher or a student?",
      "id": "7e3a326ca933",
      "priority": 2,
      "group": "1e3bdab6c1b1"
    },
    {
      "type": "options",
      "formInTargetLanguage": "Nor da hura?",
      "meaningInSourceLanguage": "Who is he?",
      "id": "c4d4c0db5f1f",
      "priority": 0,
      "group": "f5e46a9a2a2e"
    },
    {
      "type": "chips",
      "translatesToSourceLanguage": false,
      "phrase": [
        {
          "word": "Who",
          "definition": "nor\nnortzuk"
        },
        {
          "word": "is",
          "definition": "da\nda (izan)\ndago\ndago (egon)"
        },
        {
          "word": "he?",
          "definition": "hura"
        }
      ],
      "chips": [
        "Nor",
        "da",
        "hura",
        "hor",
        "Nora"
      ],
      "solutions": [
        [
          "Nor",
          "da",
          "hura"
        ]
      ],
      "formattedSolution": "Nor da hura?",
      "id": "56d62c9348c8",
      "priority": 2,
      "group": "f5e46a9a2a2e"
    },
    {
      "type": "chips",
      "translatesToSourceLanguage": true,
      "phrase": [
        {
          "word": "Nor",
          "definition": "who"
        },
        {
          "word": "da",
          "definition": "he is (izan)\nis\nit is (izan)\nshe is (izan)"
        },
        {
          "word": "hura?",
          "definition": "he\nit\nitr\nshe\nthat over there"
        }
      ],
      "chips": [
        "Who",
        "is",
        "he",
        "We",
        "He"
      ],
      "solutions": [
        [
          "Who",
          "is",
          "he"
        ],
        [
          "Who",
          "is",
          "she"
        ]
      ],
      "formattedSolution": "Who is he?",
      "id": "deded8e97e8a",
      "priority": 2,
      "group": "f5e46a9a2a2e"
    },
    {
      "type": "options",
      "formInTargetLanguage": "Zer da hura?",
      "meaningInSourceLanguage": "What is he?",
      "id": "7c06d949bab2",
      "priority": 0,
      "group": "a0ae72eaecb4"
    },
    {
      "type": "chips",
      "translatesToSourceLanguage": false,
      "phrase": [
        {
          "word": "What",
          "definition": "zer"
        },
        {
          "word": "is",
          "definition": "da\nda (izan)\ndago\ndago (egon)"
        },
        {
          "word": "he?",
          "definition": "hura"
        }
      ],
      "chips": [
        "Zer",
        "da",
        "hura",
        "ur",
        "Zu"
      ],
      "solutions": [
        [
          "Zer",
          "da",
          "hura"
        ]
      ],
      "formattedSolution": "Zer da hura?",
      "id": "c94d86ec4a1a",
      "priority": 2,
      "group": "a0ae72eaecb4"
    },
    {
      "type": "chips",
      "translatesToSourceLanguage": true,
      "phrase": [
        {
          "word": "Zer",
          "definition": "what"
        },
        {
          "word": "da",
          "definition": "he is (izan)\nis\nit is (izan)\nshe is (izan)"
        },
        {
          "word": "hura?",
          "definition": "he\nit\nitr\nshe\nthat over there"
        }
      ],
      "chips": [
        "What",
        "is",
        "he",
        "We",
        "it"
      ],
      "solutions": [
        [
          "What",
          "is",
          "he"
        ],
        [
          "What",
          "is",
          "she"
        ],
        [
          "What",
          "is",
          "it"
        ]
      ],
      "formattedSolution": "What is he?",
      "id": "6f93c038a976",
      "priority": 2,
      "group": "a0ae72eaecb4"
    },
    {
      "type": "options",
      "formInTargetLanguage": "Hura neska da?",
      "meaningInSourceLanguage": "Is she a girl?",
      "id": "deaf32c233c7",
      "priority": 0,
      "group": "19975421eeff"
    },
    {
      "type": "chips",
      "translatesToSourceLanguage": false,
      "phrase": [
        {
          "word": "Is",
          "definition": "da\nda (izan)\ndago\ndago (egon)"
        },
        {
          "word": "she",
          "definition": "hura"
        },
        {
          "word": "a",
          "definition": "-a"
        },
        {
          "word": "girl?",
          "definition": "neska"
        }
      ],
      "chips": [
        "Hura",
        "neska",
        "da",
        "eta",
        "dira"
      ],
      "solutions": [
        [
          "Hura",
          "neska",
          "da"
        ],
        [
          "Neska",
          "da"
        ]
      ],
      "formattedSolution": "Hura neska da?",
      "id": "9b3ca73cabed",
      "priority": 2,
      "group": "19975421eeff"
    },
    {
      "type": "chips",
      "translatesToSourceLanguage": true,
      "phrase": [
        {
          "word": "Hura",
          "definition": "he\nit\nitr\nshe\nthat over there"
        },
        {
          "word": "neska",
          "definition": "a girl\ngirl\nthe girl"
        },
        {
          "word": "da?",
          "definition": "he is (izan)\nis\nit is (izan)\nshe is (izan)"
        }
      ],
      "chips": [
        "Is",
        "she",
        "a",
        "girl",
        "I",
        "is",
        "am"
      ],
      "solutions": [
        [
          "Is",
          "she",
          "a",
          "girl"
        ],
        [
          "Is",
          "she",
          "the",
          "girl"
        ]
      ],
      "formattedSolution": "Is she a girl?",
      "id": "504f7df9cb37",
      "priority": 2,
      "group": "19975421eeff"
    },
    {
      "type": "options",
      "formInTargetLanguage": "Hura mutila da?",
      "meaningInSourceLanguage": "Is he a boy?",
      "id": "88ace3224ad1",
      "priority": 0,
      "group": "85df5b9d3053"
    },
    {
      "type": "chips",
      "translatesToSourceLanguage": false,
      "phrase": [
        {
          "word": "Is",
          "definition": "da\nda (izan)\ndago\ndago (egon)"
        },
        {
          "word": "he",
          "definition": "hura"
        },
        {
          "word": "a",
          "definition": "-a"
        },
        {
          "word": "boy?",
          "definition": "mutil\nmutila"
        }
      ],
      "chips": [
        "Hura",
        "mutila",
        "da",
        "dira",
        "hura"
      ],
      "solutions": [
        [
          "Hura",
          "mutila",
          "da"
        ],
        [
          "Mutila",
          "da"
        ],
        [
          "Hura",
          "multila",
          "al",
          "da"
        ],
        [
          "Mutila",
          "al",
          "da"
        ]
      ],
      "formattedSolution": "Hura mutila da?",
      "id": "3fad99ed52a8",
      "priority": 2,
      "group": "85df5b9d3053"
    },
    {
      "type": "chips",
      "translatesToSourceLanguage": true,
      "phrase": [
        {
          "word": "Hura",
          "definition": "he\nit\nitr\nshe\nthat over there"
        },
        {
          "word": "mutila",
          "definition": "a boy\nboy\nthe boy"
        },
        {
          "word": "da?",
          "definition": "he is (izan)\nis\nit is (izan)\nshe is (izan)"
        }
      ],
      "chips": [
        "Is",
        "he",
        "a",
        "boy",
        "I",
        "be",
        "by"
      ],
      "solutions": [
        [
          "Is",
          "he",
          "a",
          "boy"
        ],
        [
          "Is",
          "he",
          "the",
          "boy"
        ]
      ],
      "formattedSolution": "Is he a boy?",
      "id": "3722413f4fa5",
      "priority": 2,
      "group": "85df5b9d3053"
    },
    {
      "type": "options",
      "formInTargetLanguage": "Hura al autobusa da?",
      "meaningInSourceLanguage": "Is it the bus?",
      "id": "c0bbd6d216b2",
      "priority": 0,
      "group": "f56f0ff8c1a4"
    },
    {
      "type": "chips",
      "translatesToSourceLanguage": false,
      "phrase": [
        {
          "word": "Is",
          "definition": "da\nda (izan)\ndago\ndago (egon)"
        },
        {
          "word": "it",
          "definition": "hura"
        },
        {
          "word": "the",
          "definition": "-a"
        },
        {
          "word": "bus?",
          "definition": "austobusa\nautobus\nautobusa"
        }
      ],
      "chips": [
        "Hura",
        "al",
        "autobusa",
        "da",
        "ama",
        "doa",
        "du"
      ],
      "solutions": [
        [
          "Hura",
          "al",
          "autobusa",
          "da"
        ],
        [
          "Al",
          "autobusa",
          "da"
        ],
        [
          "Hura",
          "autobusa",
          "da"
        ],
        [
          "Autobusa",
          "da"
        ]
      ],
      "formattedSolution": "Hura al autobusa da?",
      "id": "6baacc9f4074",
      "priority": 2,
      "group": "f56f0ff8c1a4"
    },
    {
      "type": "chips",
      "translatesToSourceLanguage": true,
      "phrase": [
        {
          "word": "Hura",
          "definition": "he\nit\nitr\nshe\nthat over there"
        },
        {
          "word": "al",
          "definition": "question word\nquestion_word"
        },
        {
          "word": "autobusa",
          "definition": "a bus\nbus"
        },
        {
          "word": "da?",
          "definition": "he is (izan)\nis\nit is (izan)\nshe is (izan)"
        }
      ],
      "chips": [
        "Is",
        "it",
        "the",
        "bus",
        "is",
        "us",
        "It"
      ],
      "solutions": [
        [
          "Is",
          "it",
          "the",
          "bus"
        ],
        [
          "Is",
          "it",
          "a",
          "bus"
        ]
      ],
      "formattedSolution": "Is it the bus?",
      "id": "c299bd972e6e",
      "priority": 2,
      "group": "f56f0ff8c1a4"
    },
    {
      "type": "options",
      "formInTargetLanguage": "Kotxe bat ere al da?",
      "meaningInSourceLanguage": "Is it also a car?",
      "id": "9a03e617fcbc",
      "priority": 0,
      "group": "e7cf549bad7c"
    },
    {
      "type": "chips",
      "translatesToSourceLanguage": false,
      "phrase": [
        {
          "word": "Is",
          "definition": "da\nda (izan)\ndago\ndago (egon)"
        },
        {
          "word": "it",
          "definition": "hura"
        },
        {
          "word": "also",
          "definition": "ere"
        },
        {
          "word": "a",
          "definition": "-a"
        },
        {
          "word": "car?",
          "definition": "kotxe\nkotxea"
        }
      ],
      "chips": [
        "Kotxe",
        "bat",
        "ere",
        "al",
        "da",
        "Bat",
        "ate",
        "te",
        "eta"
      ],
      "solutions": [
        [
          "Kotxe",
          "bat",
          "ere",
          "al",
          "da"
        ],
        [
          "Kotxea",
          "ere",
          "al",
          "da"
        ],
        [
          "Kotxe",
          "bat",
          "ere",
          "da"
        ],
        [
          "Kotxea",
          "ere",
          "da"
        ]
      ],
      "formattedSolution": "Kotxe bat ere al da?",
      "id": "dc37aeca00bd",
      "priority": 2,
      "group": "e7cf549bad7c"
    },
    {
      "type": "chips",
      "translatesToSourceLanguage": true,
      "phrase": [
        {
          "word": "Kotxe",
          "definition": "car"
        },
        {
          "word": "bat",
          "definition": "one"
        },
        {
          "word": "ere",
          "definition": "also"
        },
        {
          "word": "al",
          "definition": "question word\nquestion_word"
        },
        {
          "word": "da?",
          "definition": "he is (izan)\nis\nit is (izan)\nshe is (izan)"
        }
      ],
      "chips": [
        "Is",
        "it",
        "also",
        "a",
        "car",
        "at",
        "am",
        "is",
        "an"
      ],
      "solutions": [
        [
          "Is",
          "it",
          "also",
          "a",
          "car"
        ]
      ],
      "formattedSolution": "Is it also a car?",
      "id": "7daa21be3e38",
      "priority": 2,
      "group": "e7cf549bad7c"
    },
    {
      "type": "options",
      "formInTargetLanguage": "Hura autobusa edo kotxea da?",
      "meaningInSourceLanguage": "Is it a bus or a car?",
      "id": "1bf8b1afe9b7",
      "priority": 0,
      "group": "e6aa490f85d2"
    },
    {
      "type": "chips",
      "translatesToSourceLanguage": false,
      "phrase": [
        {
          "word": "Is",
          "definition": "da\nda (izan)\ndago\ndago (egon)"
        },
        {
          "word": "it",
          "definition": "hura"
        },
        {
          "word": "a",
          "definition": "-a"
        },
        {
          "word": "bus",
          "definition": "austobusa\nautobus\nautobusa"
        },
        {
          "word": "or",
          "definition": "edo"
        },
        {
          "word": "a",
          "definition": "-a"
        },
        {
          "word": "car?",
          "definition": "kotxe\nkotxea"
        }
      ],
      "chips": [
        "Hura",
        "autobusa",
        "edo",
        "kotxea",
        "da",
        "doa",
        "eta",
        "ona",
        "noa"
      ],
      "solutions": [
        [
          "Hura",
          "autobusa",
          "edo",
          "kotxea",
          "da"
        ],
        [
          "Autobusa",
          "edo",
          "kotxea",
          "da"
        ],
        [
          "Hura",
          "autobus",
          "bat",
          "edo",
          "kotxe",
          "bat",
          "da"
        ],
        [
          "Autobus",
          "bat",
          "edo",
          "kotxe",
          "bat",
          "da"
        ]
      ],
      "formattedSolution": "Hura autobusa edo kotxea da?",
      "id": "683e5d08481e",
      "priority": 2,
      "group": "e6aa490f85d2"
    },
    {
      "type": "chips",
      "translatesToSourceLanguage": true,
      "phrase": [
        {
          "word": "Hura",
          "definition": "he\nit\nitr\nshe\nthat over there"
        },
        {
          "word": "autobusa",
          "definition": "a bus\nbus"
        },
        {
          "word": "edo",
          "definition": "or"
        },
        {
          "word": "kotxea",
          "definition": "a car\ncar"
        },
        {
          "word": "da?",
          "definition": "he is (izan)\nis\nit is (izan)\nshe is (izan)"
        }
      ],
      "chips": [
        "Is",
        "it",
        "a",
        "bus",
        "or",
        "a",
        "car",
        "at",
        "I",
        "am",
        "is",
        "an",
        "us"
      ],
      "solutions": [
        [
          "Is",
          "it",
          "a",
          "bus",
          "or",
          "a",
          "car"
        ],
        [
          "Is",
          "it",
          "the",
          "bus",
          "or",
          "the",
          "car"
        ]
      ],
      "formattedSolution": "Is it a bus or a car?",
      "id": "f20777839587",
      "priority": 2,
      "group": "e6aa490f85d2"
    },
    {
      "type": "options",
      "formInTargetLanguage": "Nortzuk gara gu?",
      "meaningInSourceLanguage": "Who are we?",
      "id": "d3c4d5a966e6",
      "priority": 0,
      "group": "8e1c11c6f34b"
    },
    {
      "type": "chips",
      "translatesToSourceLanguage": false,
      "phrase": [
        {
          "word": "Who",
          "definition": "nor\nnortzuk"
        },
        {
          "word": "are",
          "definition": "daude\ndaude (egon)\ndaude (izan)\ndira\ndira (izan)\ngara\ngara (izan)\ngare\ngaude (egon)\nzara\nzara (izan)\nzarete\nzarete (izan)\nzaude  (egon)\nzaude (egon)\nzaudete (egon)"
        },
        {
          "word": "we?",
          "definition": "gu"
        }
      ],
      "chips": [
        "Nortzuk",
        "gara",
        "gu",
        "guk",
        "Nor"
      ],
      "solutions": [
        [
          "Nortzuk",
          "gara",
          "gu"
        ],
        [
          "Nortzuk",
          "gara"
        ]
      ],
      "formattedSolution": "Nortzuk gara gu?",
      "id": "746433c87a18",
      "priority": 2,
      "group": "8e1c11c6f34b"
    },
    {
      "type": "chips",
      "translatesToSourceLanguage": true,
      "phrase": [
        {
          "word": "Nortzuk",
          "definition": "who (plural)\nwho(plural)"
        },
        {
          "word": "gara",
          "definition": "are\nare (izan)"
        },
        {
          "word": "gu?",
          "definition": "we"
        }
      ],
      "chips": [
        "Who",
        "are",
        "we",
        "We",
        "He"
      ],
      "solutions": [
        [
          "Who",
          "are",
          "we"
        ]
      ],
      "formattedSolution": "Who are we?",
      "id": "9bef59ea58fe",
      "priority": 2,
      "group": "8e1c11c6f34b"
    },
    {
      "type": "options",
      "formInTargetLanguage": "Zer gara gu?",
      "meaningInSourceLanguage": "What are we?",
      "id": "38fc18696a3b",
      "priority": 0,
      "group": "6cb55b50f7d7"
    },
    {
      "type": "chips",
      "translatesToSourceLanguage": false,
      "phrase": [
        {
          "word": "What",
          "definition": "zer"
        },
        {
          "word": "are",
          "definition": "daude\ndaude (egon)\ndaude (izan)\ndira\ndira (izan)\ngara\ngara (izan)\ngare\ngaude (egon)\nzara\nzara (izan)\nzarete\nzarete (izan)\nzaude  (egon)\nzaude (egon)\nzaudete (egon)"
        },
        {
          "word": "we?",
          "definition": "gu"
        }
      ],
      "chips": [
        "Zer",
        "gara",
        "gu",
        "Zu",
        "zer"
      ],
      "solutions": [
        [
          "Zer",
          "gara",
          "gu"
        ],
        [
          "Zer",
          "gara"
        ]
      ],
      "formattedSolution": "Zer gara gu?",
      "id": "3115002aa40a",
      "priority": 2,
      "group": "6cb55b50f7d7"
    },
    {
      "type": "chips",
      "translatesToSourceLanguage": true,
      "phrase": [
        {
          "word": "Zer",
          "definition": "what"
        },
        {
          "word": "gara",
          "definition": "are\nare (izan)"
        },
        {
          "word": "gu?",
          "definition": "we"
        }
      ],
      "chips": [
        "What",
        "are",
        "we",
        "We",
        "at"
      ],
      "solutions": [
        [
          "What",
          "are",
          "we"
        ]
      ],
      "formattedSolution": "What are we?",
      "id": "5e8bf5a84c3c",
      "priority": 2,
      "group": "6cb55b50f7d7"
    },
    {
      "type": "options",
      "formInTargetLanguage": "Nortzuk zarete zuek?",
      "meaningInSourceLanguage": "Who are you(plural)?",
      "id": "921875907630",
      "priority": 0,
      "group": "1acba3fc94fb"
    },
    {
      "type": "chips",
      "translatesToSourceLanguage": false,
      "phrase": [
        {
          "word": "Who",
          "definition": "nor\nnortzuk"
        },
        {
          "word": "are",
          "definition": "daude\ndaude (egon)\ndaude (izan)\ndira\ndira (izan)\ngara\ngara (izan)\ngare\ngaude (egon)\nzara\nzara (izan)\nzarete\nzarete (izan)\nzaude  (egon)\nzaude (egon)\nzaudete (egon)"
        },
        {
          "word": "you(plural)?",
          "definition": "zuek"
        }
      ],
      "chips": [
        "Nortzuk",
        "zarete",
        "zuek",
        "zureak",
        "zuk"
      ],
      "solutions": [
        [
          "Nortzuk",
          "zarete",
          "zuek"
        ],
        [
          "Nortzuk",
          "zarete"
        ]
      ],
      "formattedSolution": "Nortzuk zarete zuek?",
      "id": "3162883e8406",
      "priority": 2,
      "group": "1acba3fc94fb"
    },
    {
      "type": "chips",
      "translatesToSourceLanguage": true,
      "phrase": [
        {
          "word": "Nortzuk",
          "definition": "who (plural)\nwho(plural)"
        },
        {
          "word": "zarete",
          "definition": "are\ntheir"
        },
        {
          "word": "zuek?",
          "definition": "you\nyou all\nyou'll\nyou(plural)\nyour (plural)\nyour/you (plural)"
        }
      ],
      "chips": [
        "Who",
        "are",
        "you(plural",
        "all",
        "Are"
      ],
      "solutions": [
        [
          "Who",
          "are",
          "you(plural"
        ],
        [
          "Who",
          "are",
          "you"
        ],
        [
          "Who",
          "are",
          "you'll"
        ],
        [
          "Who",
          "are",
          "y'all"
        ]
      ],
      "formattedSolution": "Who are you(plural)?",
      "id": "4f3db610a1be",
      "priority": 2,
      "group": "1acba3fc94fb"
    },
    {
      "type": "options",
      "formInTargetLanguage": "Nortzuk dira haiek?",
      "meaningInSourceLanguage": "Who are they?",
      "id": "62ad74349a4c",
      "priority": 0,
      "group": "9d5f3def7476"
    },
    {
      "type": "chips",
      "translatesToSourceLanguage": false,
      "phrase": [
        {
          "word": "Who",
          "definition": "nor\nnortzuk"
        },
        {
          "word": "are",
          "definition": "daude\ndaude (egon)\ndaude (izan)\ndira\ndira (izan)\ngara\ngara (izan)\ngare\ngaude (egon)\nzara\nzara (izan)\nzarete\nzarete (izan)\nzaude  (egon)\nzaude (egon)\nzaudete (egon)"
        },
        {
          "word": "they?",
          "definition": "haiek"
        }
      ],
      "chips": [
        "Nortzuk",
        "dira",
        "haiek",
        "hiru",
        "Haiek"
      ],
      "solutions": [
        [
          "Nortzuk",
          "dira",
          "haiek"
        ],
        [
          "Nortzuk",
          "dira"
        ]
      ],
      "formattedSolution": "Nortzuk dira haiek?",
      "id": "859fa3c3ad56",
      "priority": 2,
      "group": "9d5f3def7476"
    },
    {
      "type": "chips",
      "translatesToSourceLanguage": true,
      "phrase": [
        {
          "word": "Nortzuk",
          "definition": "who (plural)\nwho(plural)"
        },
        {
          "word": "dira",
          "definition": "are\nare (izan)"
        },
        {
          "word": "haiek?",
          "definition": "they\nthose over there, plural of hura"
        }
      ],
      "chips": [
        "Who",
        "are",
        "they",
        "the",
        "She"
      ],
      "solutions": [
        [
          "Who",
          "are",
          "they"
        ]
      ],
      "formattedSolution": "Who are they?",
      "id": "fa191a02b01a",
      "priority": 2,
      "group": "9d5f3def7476"
    },
    {
      "type": "options",
      "formInTargetLanguage": "Zer dira haiek?",
      "meaningInSourceLanguage": "What are they?",
      "id": "c0e828d97399",
      "priority": 0,
      "group": "a869aa2b0118"
    },
    {
      "type": "chips",
      "translatesToSourceLanguage": false,
      "phrase": [
        {
          "word": "What",
          "definition": "zer"
        },
        {
          "word": "are",
          "definition": "daude\ndaude (egon)\ndaude (izan)\ndira\ndira (izan)\ngara\ngara (izan)\ngare\ngaude (egon)\nzara\nzara (izan)\nzarete\nzarete (izan)\nzaude  (egon)\nzaude (egon)\nzaudete (egon)"
        },
        {
          "word": "they?",
          "definition": "haiek"
        }
      ],
      "chips": [
        "Zer",
        "dira",
        "haiek",
        "zer",
        "hiru"
      ],
      "solutions": [
        [
          "Zer",
          "dira",
          "haiek"
        ],
        [
          "Zer",
          "dira"
        ]
      ],
      "formattedSolution": "Zer dira haiek?",
      "id": "7ef53245a615",
      "priority": 2,
      "group": "a869aa2b0118"
    },
    {
      "type": "chips",
      "translatesToSourceLanguage": true,
      "phrase": [
        {
          "word": "Zer",
          "definition": "what"
        },
        {
          "word": "dira",
          "definition": "are\nare (izan)"
        },
        {
          "word": "haiek?",
          "definition": "they\nthose over there, plural of hura"
        }
      ],
      "chips": [
        "What",
        "are",
        "they",
        "the",
        "She"
      ],
      "solutions": [
        [
          "What",
          "are",
          "they"
        ]
      ],
      "formattedSolution": "What are they?",
      "id": "a874dfb87dbb",
      "priority": 2,
      "group": "a869aa2b0118"
    },
    {
      "type": "options",
      "formInTargetLanguage": "Haiek autobusak al dira?",
      "meaningInSourceLanguage": "Are they the buses?",
      "id": "6b4c05fa8195",
      "priority": 0,
      "group": "6e404c76900d"
    },
    {
      "type": "chips",
      "translatesToSourceLanguage": false,
      "phrase": [
        {
          "word": "Are",
          "definition": "daude\ndaude (egon)\ndaude (izan)\ndira\ndira (izan)\ngara\ngara (izan)\ngare\ngaude (egon)\nzara\nzara (izan)\nzarete\nzarete (izan)\nzaude  (egon)\nzaude (egon)\nzaudete (egon)"
        },
        {
          "word": "they",
          "definition": "haiek"
        },
        {
          "word": "the",
          "definition": "-a"
        },
        {
          "word": "buses?",
          "definition": "autobusak"
        }
      ],
      "chips": [
        "Haiek",
        "autobusak",
        "al",
        "dira",
        "aita",
        "biak",
        "da"
      ],
      "solutions": [
        [
          "Haiek",
          "autobusak",
          "al",
          "dira"
        ],
        [
          "Autobusak",
          "al",
          "dira"
        ],
        [
          "Haiek",
          "autobusak",
          "dira"
        ],
        [
          "Autobusak",
          "dira"
        ]
      ],
      "formattedSolution": "Haiek autobusak al dira?",
      "id": "529e939731ea",
      "priority": 2,
      "group": "6e404c76900d"
    },
    {
      "type": "chips",
      "translatesToSourceLanguage": true,
      "phrase": [
        {
          "word": "Haiek",
          "definition": "they\nthose over there, plural of hura"
        },
        {
          "word": "autobusak",
          "definition": "buses"
        },
        {
          "word": "al",
          "definition": "question word\nquestion_word"
        },
        {
          "word": "dira?",
          "definition": "are\nare (izan)"
        }
      ],
      "chips": [
        "Are",
        "they",
        "the",
        "buses",
        "She",
        "The",
        "then"
      ],
      "solutions": [
        [
          "Are",
          "they",
          "the",
          "buses"
        ]
      ],
      "formattedSolution": "Are they the buses?",
      "id": "2ae374679a7b",
      "priority": 2,
      "group": "6e404c76900d"
    },
    {
      "type": "options",
      "formInTargetLanguage": "Haiek autobusak edo kotxeak dira?",
      "meaningInSourceLanguage": "Are they buses or cars?",
      "id": "58dea3b028bf",
      "priority": 0,
      "group": "c3e71083897b"
    },
    {
      "type": "chips",
      "translatesToSourceLanguage": false,
      "phrase": [
        {
          "word": "Are",
          "definition": "daude\ndaude (egon)\ndaude (izan)\ndira\ndira (izan)\ngara\ngara (izan)\ngare\ngaude (egon)\nzara\nzara (izan)\nzarete\nzarete (izan)\nzaude  (egon)\nzaude (egon)\nzaudete (egon)"
        },
        {
          "word": "they",
          "definition": "haiek"
        },
        {
          "word": "buses",
          "definition": "autobusak"
        },
        {
          "word": "or",
          "definition": "edo"
        },
        {
          "word": "cars?",
          "definition": "kotxeak"
        }
      ],
      "chips": [
        "Haiek",
        "autobusak",
        "edo",
        "kotxeak",
        "dira",
        "ateak",
        "aita",
        "doa",
        "biak"
      ],
      "solutions": [
        [
          "Haiek",
          "autobusak",
          "edo",
          "kotxeak",
          "dira"
        ],
        [
          "Autobusak",
          "edo",
          "kotxeak",
          "dira"
        ]
      ],
      "formattedSolution": "Haiek autobusak edo kotxeak dira?",
      "id": "6d7902930638",
      "priority": 2,
      "group": "c3e71083897b"
    },
    {
      "type": "chips",
      "translatesToSourceLanguage": true,
      "phrase": [
        {
          "word": "Haiek",
          "definition": "they\nthose over there, plural of hura"
        },
        {
          "word": "autobusak",
          "definition": "buses"
        },
        {
          "word": "edo",
          "definition": "or"
        },
        {
          "word": "kotxeak",
          "definition": "cars"
        },
        {
          "word": "dira?",
          "definition": "are\nare (izan)"
        }
      ],
      "chips": [
        "Are",
        "they",
        "buses",
        "or",
        "cars",
        "are",
        "the",
        "her",
        "ours"
      ],
      "solutions": [
        [
          "Are",
          "they",
          "buses",
          "or",
          "cars"
        ],
        [
          "Are",
          "they",
          "the",
          "buses",
          "or",
          "the",
          "cars"
        ]
      ],
      "formattedSolution": "Are they buses or cars?",
      "id": "dc26db405a51",
      "priority": 2,
      "group": "c3e71083897b"
    },
    {
      "type": "options",
      "formInTargetLanguage": "Zer zarete zuek?",
      "meaningInSourceLanguage": "What are you(plural)?",
      "id": "86eeda25d747",
      "priority": 0,
      "group": "d41432db14a8"
    },
    {
      "type": "chips",
      "translatesToSourceLanguage": false,
      "phrase": [
        {
          "word": "What",
          "definition": "zer"
        },
        {
          "word": "are",
          "definition": "daude\ndaude (egon)\ndaude (izan)\ndira\ndira (izan)\ngara\ngara (izan)\ngare\ngaude (egon)\nzara\nzara (izan)\nzarete\nzarete (izan)\nzaude  (egon)\nzaude (egon)\nzaudete (egon)"
        },
        {
          "word": "you(plural)?",
          "definition": "zuek"
        }
      ],
      "chips": [
        "Zer",
        "zarete",
        "zuek",
        "zer",
        "Zuek"
      ],
      "solutions": [
        [
          "Zer",
          "zarete",
          "zuek"
        ],
        [
          "Zer",
          "zarete"
        ]
      ],
      "formattedSolution": "Zer zarete zuek?",
      "id": "8b63f1c201aa",
      "priority": 2,
      "group": "d41432db14a8"
    },
    {
      "type": "chips",
      "translatesToSourceLanguage": true,
      "phrase": [
        {
          "word": "Zer",
          "definition": "what"
        },
        {
          "word": "zarete",
          "definition": "are\ntheir"
        },
        {
          "word": "zuek?",
          "definition": "you\nyou all\nyou'll\nyou(plural)\nyour (plural)\nyour/you (plural)"
        }
      ],
      "chips": [
        "What",
        "are",
        "you(plural",
        "hat",
        "at"
      ],
      "solutions": [
        [
          "What",
          "are",
          "you(plural"
        ],
        [
          "What",
          "are",
          "you"
        ],
        [
          "What",
          "are",
          "you'll"
        ],
        [
          "What",
          "are",
          "y'all"
        ]
      ],
      "formattedSolution": "What are you(plural)?",
      "id": "60f677ae0f6b",
      "priority": 2,
      "group": "d41432db14a8"
    },
    {
      "type": "options",
      "formInTargetLanguage": "Zuek al zarete irakasleak?",
      "meaningInSourceLanguage": "Are you(plural) teachers?",
      "id": "d06ad018cd92",
      "priority": 0,
      "group": "9d6d252cb061"
    },
    {
      "type": "chips",
      "translatesToSourceLanguage": false,
      "phrase": [
        {
          "word": "Are",
          "definition": "daude\ndaude (egon)\ndaude (izan)\ndira\ndira (izan)\ngara\ngara (izan)\ngare\ngaude (egon)\nzara\nzara (izan)\nzarete\nzarete (izan)\nzaude  (egon)\nzaude (egon)\nzaudete (egon)"
        },
        {
          "word": "you(plural)",
          "definition": "zuek"
        },
        {
          "word": "teachers?",
          "definition": "irakasleak\nirakasleen (of the teachers)"
        }
      ],
      "chips": [
        "Zuek",
        "al",
        "zarete",
        "irakasleak",
        "kale",
        "kalea",
        "kaleak"
      ],
      "solutions": [
        [
          "Zuek",
          "al",
          "zarete",
          "irakasleak"
        ],
        [
          "Al",
          "zarete",
          "irakasleak"
        ]
      ],
      "formattedSolution": "Zuek al zarete irakasleak?",
      "id": "fae926ed149a",
      "priority": 2,
      "group": "9d6d252cb061"
    },
    {
      "type": "chips",
      "translatesToSourceLanguage": true,
      "phrase": [
        {
          "word": "Zuek",
          "definition": "you\nyou all\nyou'll\nyou(plural)\nyour (plural)\nyour/you (plural)"
        },
        {
          "word": "al",
          "definition": "question word\nquestion_word"
        },
        {
          "word": "zarete",
          "definition": "are\ntheir"
        },
        {
          "word": "irakasleak?",
          "definition": "teachers"
        }
      ],
      "chips": [
        "Are",
        "you(plural",
        "teachers",
        "are",
        "teacher"
      ],
      "solutions": [
        [
          "Are",
          "you(plural",
          "teachers"
        ],
        [
          "Are",
          "you",
          "teachers"
        ],
        [
          "Are",
          "you'll",
          "teachers"
        ],
        [
          "Are",
          "y'all",
          "teachers"
        ]
      ],
      "formattedSolution": "Are you(plural) teachers?",
      "id": "90899411d77b",
      "priority": 2,
      "group": "9d6d252cb061"
    },
    {
      "type": "options",
      "formInTargetLanguage": "Nortzuk irakasleak dira?",
      "meaningInSourceLanguage": "Who are the teachers?",
      "id": "66cc24fb400f",
      "priority": 0,
      "group": "893636695262"
    },
    {
      "type": "chips",
      "translatesToSourceLanguage": false,
      "phrase": [
        {
          "word": "Who",
          "definition": "nor\nnortzuk"
        },
        {
          "word": "are",
          "definition": "daude\ndaude (egon)\ndaude (izan)\ndira\ndira (izan)\ngara\ngara (izan)\ngare\ngaude (egon)\nzara\nzara (izan)\nzarete\nzarete (izan)\nzaude  (egon)\nzaude (egon)\nzaudete (egon)"
        },
        {
          "word": "the",
          "definition": "-a"
        },
        {
          "word": "teachers?",
          "definition": "irakasleak\nirakasleen (of the teachers)"
        }
      ],
      "chips": [
        "Nortzuk",
        "irakasleak",
        "dira",
        "nireak",
        "dirua"
      ],
      "solutions": [
        [
          "Nortzuk",
          "irakasleak",
          "dira"
        ]
      ],
      "formattedSolution": "Nortzuk irakasleak dira?",
      "id": "84daa4842799",
      "priority": 2,
      "group": "893636695262"
    },
    {
      "type": "chips",
      "translatesToSourceLanguage": true,
      "phrase": [
        {
          "word": "Nortzuk",
          "definition": "who (plural)\nwho(plural)"
        },
        {
          "word": "irakasleak",
          "definition": "teachers"
        },
        {
          "word": "dira?",
          "definition": "are\nare (izan)"
        }
      ],
      "chips": [
        "Who",
        "are",
        "the",
        "teachers",
        "She",
        "The",
        "then"
      ],
      "solutions": [
        [
          "Who",
          "are",
          "the",
          "teachers"
        ]
      ],
      "formattedSolution": "Who are the teachers?",
      "id": "70495a62b0c1",
      "priority": 2,
      "group": "893636695262"
    },
    {
      "type": "options",
      "formInTargetLanguage": "Nortzuk emakumeak dira?",
      "meaningInSourceLanguage": "Who are the women?",
      "id": "4e1bc9fe8269",
      "priority": 0,
      "group": "bca3422b5200"
    },
    {
      "type": "chips",
      "translatesToSourceLanguage": false,
      "phrase": [
        {
          "word": "Who",
          "definition": "nor\nnortzuk"
        },
        {
          "word": "are",
          "definition": "daude\ndaude (egon)\ndaude (izan)\ndira\ndira (izan)\ngara\ngara (izan)\ngare\ngaude (egon)\nzara\nzara (izan)\nzarete\nzarete (izan)\nzaude  (egon)\nzaude (egon)\nzaudete (egon)"
        },
        {
          "word": "the",
          "definition": "-a"
        },
        {
          "word": "women?",
          "definition": "emakumeak\nemakumeen (of the women)"
        }
      ],
      "chips": [
        "Nortzuk",
        "emakumeak",
        "dira",
        "moreak",
        "dirua"
      ],
      "solutions": [
        [
          "Nortzuk",
          "emakumeak",
          "dira"
        ]
      ],
      "formattedSolution": "Nortzuk emakumeak dira?",
      "id": "d4a9e154757c",
      "priority": 2,
      "group": "bca3422b5200"
    },
    {
      "type": "chips",
      "translatesToSourceLanguage": true,
      "phrase": [
        {
          "word": "Nortzuk",
          "definition": "who (plural)\nwho(plural)"
        },
        {
          "word": "emakumeak",
          "definition": "women"
        },
        {
          "word": "dira?",
          "definition": "are\nare (izan)"
        }
      ],
      "chips": [
        "Who",
        "are",
        "the",
        "women",
        "She",
        "The",
        "one"
      ],
      "solutions": [
        [
          "Who",
          "are",
          "the",
          "women"
        ]
      ],
      "formattedSolution": "Who are the women?",
      "id": "1d7c89c11ca0",
      "priority": 2,
      "group": "bca3422b5200"
    },
    {
      "type": "options",
      "formInTargetLanguage": "Nortzuk gizonak dira?",
      "meaningInSourceLanguage": "Who are the men?",
      "id": "2900bbcc386e",
      "priority": 0,
      "group": "43901de30b9d"
    },
    {
      "type": "chips",
      "translatesToSourceLanguage": false,
      "phrase": [
        {
          "word": "Who",
          "definition": "nor\nnortzuk"
        },
        {
          "word": "are",
          "definition": "daude\ndaude (egon)\ndaude (izan)\ndira\ndira (izan)\ngara\ngara (izan)\ngare\ngaude (egon)\nzara\nzara (izan)\nzarete\nzarete (izan)\nzaude  (egon)\nzaude (egon)\nzaudete (egon)"
        },
        {
          "word": "the",
          "definition": "-a"
        },
        {
          "word": "men?",
          "definition": "gizonak"
        }
      ],
      "chips": [
        "Nortzuk",
        "gizonak",
        "dira",
        "gonak",
        "Nora"
      ],
      "solutions": [
        [
          "Nortzuk",
          "gizonak",
          "dira"
        ]
      ],
      "formattedSolution": "Nortzuk gizonak dira?",
      "id": "e509ba27b0de",
      "priority": 2,
      "group": "43901de30b9d"
    },
    {
      "type": "chips",
      "translatesToSourceLanguage": true,
      "phrase": [
        {
          "word": "Nortzuk",
          "definition": "who (plural)\nwho(plural)"
        },
        {
          "word": "gizonak",
          "definition": "men"
        },
        {
          "word": "dira?",
          "definition": "are\nare (izan)"
        }
      ],
      "chips": [
        "Who",
        "are",
        "the",
        "men",
        "She",
        "We",
        "me"
      ],
      "solutions": [
        [
          "Who",
          "are",
          "the",
          "men"
        ]
      ],
      "formattedSolution": "Who are the men?",
      "id": "b1adf4a3e884",
      "priority": 2,
      "group": "43901de30b9d"
    },
    {
      "type": "options",
      "formInTargetLanguage": "Nortzuk dira haiek?",
      "meaningInSourceLanguage": "Who are they?",
      "id": "62ad74349a4c",
      "priority": 0,
      "group": "9d5f3def7476"
    },
    {
      "type": "chips",
      "translatesToSourceLanguage": false,
      "phrase": [
        {
          "word": "Who",
          "definition": "nor\nnortzuk"
        },
        {
          "word": "are",
          "definition": "daude\ndaude (egon)\ndaude (izan)\ndira\ndira (izan)\ngara\ngara (izan)\ngare\ngaude (egon)\nzara\nzara (izan)\nzarete\nzarete (izan)\nzaude  (egon)\nzaude (egon)\nzaudete (egon)"
        },
        {
          "word": "they?",
          "definition": "haiek"
        }
      ],
      "chips": [
        "Nortzuk",
        "dira",
        "haiek",
        "hiru",
        "Haiek"
      ],
      "solutions": [
        [
          "Nortzuk",
          "dira",
          "haiek"
        ],
        [
          "Nortzuk",
          "dira"
        ]
      ],
      "formattedSolution": "Nortzuk dira haiek?",
      "id": "859fa3c3ad56",
      "priority": 2,
      "group": "9d5f3def7476"
    },
    {
      "type": "chips",
      "translatesToSourceLanguage": true,
      "phrase": [
        {
          "word": "Nortzuk",
          "definition": "who (plural)\nwho(plural)"
        },
        {
          "word": "dira",
          "definition": "are\nare (izan)"
        },
        {
          "word": "haiek?",
          "definition": "they\nthose over there, plural of hura"
        }
      ],
      "chips": [
        "Who",
        "are",
        "they",
        "the",
        "She"
      ],
      "solutions": [
        [
          "Who",
          "are",
          "they"
        ]
      ],
      "formattedSolution": "Who are they?",
      "id": "fa191a02b01a",
      "priority": 2,
      "group": "9d5f3def7476"
    },
    {
      "type": "options",
      "formInTargetLanguage": "Haiek emakumeak edo gizonak dira?",
      "meaningInSourceLanguage": "Are they women or men?",
      "id": "62d82c40edf7",
      "priority": 0,
      "group": "37467f60c33c"
    },
    {
      "type": "chips",
      "translatesToSourceLanguage": false,
      "phrase": [
        {
          "word": "Are",
          "definition": "daude\ndaude (egon)\ndaude (izan)\ndira\ndira (izan)\ngara\ngara (izan)\ngare\ngaude (egon)\nzara\nzara (izan)\nzarete\nzarete (izan)\nzaude  (egon)\nzaude (egon)\nzaudete (egon)"
        },
        {
          "word": "they",
          "definition": "haiek"
        },
        {
          "word": "women",
          "definition": "emakumeak\nemakumeen (of the women)"
        },
        {
          "word": "or",
          "definition": "edo"
        },
        {
          "word": "men?",
          "definition": "gizonak"
        }
      ],
      "chips": [
        "Haiek",
        "emakumeak",
        "edo",
        "gizonak",
        "dira",
        "gida",
        "aita",
        "ateak",
        "biak"
      ],
      "solutions": [
        [
          "Haiek",
          "emakumeak",
          "edo",
          "gizonak",
          "dira"
        ],
        [
          "Emakumeak",
          "edo",
          "gizonak",
          "dira"
        ]
      ],
      "formattedSolution": "Haiek emakumeak edo gizonak dira?",
      "id": "b01d891a8599",
      "priority": 2,
      "group": "37467f60c33c"
    },
    {
      "type": "chips",
      "translatesToSourceLanguage": true,
      "phrase": [
        {
          "word": "Haiek",
          "definition": "they\nthose over there, plural of hura"
        },
        {
          "word": "emakumeak",
          "definition": "women"
        },
        {
          "word": "edo",
          "definition": "or"
        },
        {
          "word": "gizonak",
          "definition": "men"
        },
        {
          "word": "dira?",
          "definition": "are\nare (izan)"
        }
      ],
      "chips": [
        "Are",
        "they",
        "women",
        "or",
        "men",
        "me",
        "ten",
        "one",
        "are"
      ],
      "solutions": [
        [
          "Are",
          "they",
          "women",
          "or",
          "men"
        ]
      ],
      "formattedSolution": "Are they women or men?",
      "id": "523f0deda317",
      "priority": 2,
      "group": "37467f60c33c"
    },
    {
      "type": "cards",
      "pictures": [
        "what1.jpg",
        "what2.jpg",
        "what3.jpg"
      ],
      "formInTargetLanguage": "zer",
      "meaningInSourceLanguage": "what",
      "id": "2ce29d8c5980",
      "priority": 0,
      "group": "01ec109f3a36"
    },
    {
      "type": "shortInput",
      "pictures": [
        "what1.jpg",
        "what2.jpg",
        "what3.jpg"
      ],
      "formInTargetLanguage": [
        "zer"
      ],
      "phrase": [
        {
          "word": "what",
          "definition": "zer"
        }
      ],
      "id": "df9351f9962b",
      "priority": 1,
      "group": "01ec109f3a36"
    },
    {
      "type": "cards",
      "pictures": [
        "who1.jpg",
        "who2.jpg",
        "who3.jpg"
      ],
      "formInTargetLanguage": "nor",
      "meaningInSourceLanguage": "who",
      "id": "36c6a312ffcf",
      "priority": 0,
      "group": "bf6acee6f724"
    },
    {
      "type": "shortInput",
      "pictures": [
        "who1.jpg",
        "who2.jpg",
        "who3.jpg"
      ],
      "formInTargetLanguage": [
        "nor"
      ],
      "phrase": [
        {
          "word": "who",
          "definition": "nor\nnortzuk"
        }
      ],
      "id": "3307f093eccb",
      "priority": 1,
      "group": "bf6acee6f724"
    },
    {
      "type": "cards",
      "pictures": [
        "who1.jpg",
        "who2.jpg",
        "who3.jpg"
      ],
      "formInTargetLanguage": "nortzuk",
      "meaningInSourceLanguage": "who(plural)",
      "id": "3da9dd2d7543",
      "priority": 0,
      "group": "0dab3f918302"
    },
    {
      "type": "shortInput",
      "pictures": [
        "who1.jpg",
        "who2.jpg",
        "who3.jpg"
      ],
      "formInTargetLanguage": [
        "nortzuk"
      ],
      "phrase": [
        {
          "word": "who(plural)",
          "definition": "nortzuk"
        }
      ],
      "id": "e6375e9adf12",
      "priority": 1,
      "group": "0dab3f918302"
    },
    {
      "type": "cards",
      "pictures": [
        "bus1.jpg",
        "bus2.jpg",
        "bus3.jpg"
      ],
      "formInTargetLanguage": "autobus",
      "meaningInSourceLanguage": "bus",
      "id": "f6fc1d403703",
      "priority": 0,
      "group": "15e4d0985ca7"
    },
    {
      "type": "shortInput",
      "pictures": [
        "bus1.jpg",
        "bus2.jpg",
        "bus3.jpg"
      ],
      "formInTargetLanguage": [
        "autobus"
      ],
      "phrase": [
        {
          "word": "bus",
          "definition": "austobusa\nautobus\nautobusa"
        }
      ],
      "id": "0044091206ee",
      "priority": 1,
      "group": "15e4d0985ca7"
    },
    {
      "type": "cards",
      "pictures": [
        "car1.jpg",
        "car2.jpg",
        "car3.jpg"
      ],
      "formInTargetLanguage": "kotxe",
      "meaningInSourceLanguage": "car",
      "id": "7fa28436d9fe",
      "priority": 0,
      "group": "cf30fc0532b5"
    },
    {
      "type": "shortInput",
      "pictures": [
        "car1.jpg",
        "car2.jpg",
        "car3.jpg"
      ],
      "formInTargetLanguage": [
        "kotxe"
      ],
      "phrase": [
        {
          "word": "car",
          "definition": "kotxe\nkotxea"
        }
      ],
      "id": "63cf329cdc5b",
      "priority": 1,
      "group": "cf30fc0532b5"
    },
    {
      "type": "cards",
      "pictures": [
        "buses1.jpg",
        "buses2.jpg",
        "buses3.jpg"
      ],
      "formInTargetLanguage": "autobusak",
      "meaningInSourceLanguage": "buses",
      "id": "34d4786dfabc",
      "priority": 0,
      "group": "eb0b2a245ceb"
    },
    {
      "type": "shortInput",
      "pictures": [
        "buses1.jpg",
        "buses2.jpg",
        "buses3.jpg"
      ],
      "formInTargetLanguage": [
        "autobusak"
      ],
      "phrase": [
        {
          "word": "buses",
          "definition": "autobusak"
        }
      ],
      "id": "56069ec021f1",
      "priority": 1,
      "group": "eb0b2a245ceb"
    },
    {
      "type": "cards",
      "pictures": [
        "cars1.jpg",
        "cars2.jpg",
        "cars3.jpg"
      ],
      "formInTargetLanguage": "kotxeak",
      "meaningInSourceLanguage": "cars",
      "id": "55f4bab58b81",
      "priority": 0,
      "group": "9bafdd1cdf95"
    },
    {
      "type": "shortInput",
      "pictures": [
        "cars1.jpg",
        "cars2.jpg",
        "cars3.jpg"
      ],
      "formInTargetLanguage": [
        "kotxeak"
      ],
      "phrase": [
        {
          "word": "cars",
          "definition": "kotxeak"
        }
      ],
      "id": "1a19a757ca4f",
      "priority": 1,
      "group": "9bafdd1cdf95"
    },
    {
      "type": "cards",
      "pictures": null,
      "formInTargetLanguage": "al",
      "meaningInSourceLanguage": "question_word",
      "id": "0e896ffa9ddf",
      "priority": 0,
      "group": "313ea9afb4d1"
    },
    {
      "type": "shortInput",
      "pictures": null,
      "formInTargetLanguage": [
        "al"
      ],
      "phrase": [
        {
          "word": "question_word",
          "definition": "al"
        }
      ],
      "id": "5d7c8f00b8b2",
      "priority": 1,
      "group": "313ea9afb4d1"
    },
    {
      "type": "cards",
      "pictures": [
        "choice1.jpg",
        "choice2.jpg",
        "choice3.jpg"
      ],
      "formInTargetLanguage": "edo",
      "meaningInSourceLanguage": "or",
      "id": "15082decfaf5",
      "priority": 0,
      "group": "348367a98f38"
    },
    {
      "type": "shortInput",
      "pictures": [
        "choice1.jpg",
        "choice2.jpg",
        "choice3.jpg"
      ],
      "formInTargetLanguage": [
        "edo"
      ],
      "phrase": [
        {
          "word": "or",
          "definition": "edo"
        }
      ],
      "id": "a313b10e3785",
      "priority": 1,
      "group": "348367a98f38"
    }
  ]
}