{
  "id": "7602c47c911a",
  "levels": 4,
  "challenges": [
    {
      "type": "options",
      "formInTargetLanguage": "Egunero nik euskara irakasten dut.",
      "meaningInSourceLanguage": "Every day I teach Basque.",
      "id": "39e1956a5407",
      "priority": 0,
      "group": "0e13696dd680"
    },
    {
      "type": "chips",
      "translatesToSourceLanguage": false,
      "phrase": [
        {
          "word": "Every",
          "definition": "-ero"
        },
        {
          "word": "day",
          "definition": "egun"
        },
        {
          "word": "I",
          "definition": "ni"
        },
        {
          "word": "teach",
          "definition": "irakasten\nirakastera\nirakatsiko (future)"
        },
        {
          "word": "Basque.",
          "definition": "Euskal\neuskaldun\neuskara"
        }
      ],
      "chips": [
        "Egunero",
        "nik",
        "euskara",
        "irakasten",
        "dut",
        "guk",
        "ere",
        "zuk",
        "dute"
      ],
      "solutions": [
        [
          "Egunero",
          "nik",
          "euskara",
          "irakasten",
          "dut"
        ],
        [
          "Egunero",
          "euskara",
          "irakasten",
          "dut"
        ],
        [
          "Nik",
          "euskara",
          "irakasten",
          "dut",
          "egunero"
        ],
        [
          "Euskara",
          "irakasten",
          "dut",
          "egunero"
        ]
      ],
      "formattedSolution": "Egunero nik euskara irakasten dut.",
      "id": "ac60966a3c79",
      "priority": 2,
      "group": "0e13696dd680"
    },
    {
      "type": "chips",
      "translatesToSourceLanguage": true,
      "phrase": [
        {
          "word": "Egunero",
          "definition": "every day"
        },
        {
          "word": "nik",
          "definition": "I"
        },
        {
          "word": "euskara",
          "definition": "Basque Language"
        },
        {
          "word": "irakasten",
          "definition": "teach"
        },
        {
          "word": "dut.",
          "definition": "I have it\nI have/ukan it"
        }
      ],
      "chips": [
        "Every",
        "day",
        "I",
        "teach",
        "Basque",
        "a",
        "lay",
        "May",
        "eat"
      ],
      "solutions": [
        [
          "Every",
          "day",
          "I",
          "teach",
          "Basque"
        ],
        [
          "I",
          "teach",
          "Basque",
          "every",
          "day"
        ]
      ],
      "formattedSolution": "Every day I teach Basque.",
      "id": "4a4346120cd7",
      "priority": 2,
      "group": "0e13696dd680"
    },
    {
      "type": "options",
      "formInTargetLanguage": "Egunero zuk motxila bat eramaten duzu eskolara.",
      "meaningInSourceLanguage": "Every day you carry a backpack to school.",
      "id": "b7175cc287a1",
      "priority": 0,
      "group": "d0d59d5d8c60"
    },
    {
      "type": "chips",
      "translatesToSourceLanguage": false,
      "phrase": [
        {
          "word": "Every",
          "definition": "-ero"
        },
        {
          "word": "day",
          "definition": "egun"
        },
        {
          "word": "you",
          "definition": "zu\nzuek"
        },
        {
          "word": "carry",
          "definition": "eramango (future)\neramaten\nermango (future)"
        },
        {
          "word": "a",
          "definition": "-a"
        },
        {
          "word": "backpack",
          "definition": "motxila"
        },
        {
          "word": "to",
          "definition": "part of Ablative case\npart of same to you translation of berdin"
        },
        {
          "word": "school.",
          "definition": "eskola"
        }
      ],
      "chips": [
        "Egunero",
        "zuk",
        "motxila",
        "bat",
        "eramaten",
        "duzu",
        "eskolara",
        "zara",
        "ere",
        "eta",
        "gara",
        "lau",
        "bata"
      ],
      "solutions": [
        [
          "Egunero",
          "zuk",
          "motxila",
          "bat",
          "eramaten",
          "duzu",
          "eskolara"
        ],
        [
          "Egunero",
          "motxila",
          "bat",
          "eramaten",
          "duzu",
          "eskolara"
        ],
        [
          "Zuk",
          "motxila",
          "bat",
          "eramaten",
          "duzu",
          "eskolara",
          "egunero"
        ],
        [
          "Motxila",
          "bat",
          "eramaten",
          "duzu",
          "eskolara",
          "egunero"
        ]
      ],
      "formattedSolution": "Egunero zuk motxila bat eramaten duzu eskolara.",
      "id": "520270a185f0",
      "priority": 2,
      "group": "d0d59d5d8c60"
    },
    {
      "type": "chips",
      "translatesToSourceLanguage": true,
      "phrase": [
        {
          "word": "Egunero",
          "definition": "every day"
        },
        {
          "word": "zuk",
          "definition": "you"
        },
        {
          "word": "motxila",
          "definition": "backpack"
        },
        {
          "word": "bat",
          "definition": "one"
        },
        {
          "word": "eramaten",
          "definition": "carry"
        },
        {
          "word": "duzu",
          "definition": "You have it\nYou have/ukan it"
        },
        {
          "word": "eskolara.",
          "definition": "to school"
        }
      ],
      "chips": [
        "Every",
        "day",
        "you",
        "carry",
        "a",
        "backpack",
        "to",
        "school",
        "car",
        "say",
        "cry",
        "boy",
        "cat",
        "lay",
        "bar"
      ],
      "solutions": [
        [
          "Every",
          "day",
          "you",
          "carry",
          "a",
          "backpack",
          "to",
          "school"
        ],
        [
          "You",
          "carry",
          "a",
          "backpack",
          "to",
          "school",
          "every",
          "day"
        ]
      ],
      "formattedSolution": "Every day you carry a backpack to school.",
      "id": "c1a671b15519",
      "priority": 2,
      "group": "d0d59d5d8c60"
    },
    {
      "type": "options",
      "formInTargetLanguage": "Egunero irakasleak \"Ireki zure liburuak\" esaten du.",
      "meaningInSourceLanguage": "Every day the teacher says \"Open your books\".",
      "id": "e4f1e20c8f6a",
      "priority": 0,
      "group": "0daec14ca6b5"
    },
    {
      "type": "chips",
      "translatesToSourceLanguage": false,
      "phrase": [
        {
          "word": "Every",
          "definition": "-ero"
        },
        {
          "word": "day",
          "definition": "egun"
        },
        {
          "word": "the",
          "definition": "-a"
        },
        {
          "word": "teacher",
          "definition": "irakasle\nirakaslea"
        },
        {
          "word": "says",
          "definition": "esaten"
        },
        {
          "word": "\"Open",
          "definition": "ireki\nirekiko\nirekitzen"
        },
        {
          "word": "your",
          "definition": "zuen\nzure"
        },
        {
          "word": "books\".",
          "definition": "liburuak"
        }
      ],
      "chips": [
        "Egunero",
        "irakasleak",
        "Ireki",
        "zure",
        "liburuak",
        "esaten",
        "du",
        "ere",
        "gure",
        "zurea",
        "gurea",
        "Zuek",
        "Zure"
      ],
      "solutions": [
        [
          "Egunero",
          "irakasleak",
          "Ireki",
          "zure",
          "liburuak",
          "esaten",
          "du"
        ],
        [
          "Irakasleak",
          "Ireki",
          "zure",
          "liburuak",
          "esaten",
          "du",
          "egunero"
        ]
      ],
      "formattedSolution": "Egunero irakasleak \"Ireki zure liburuak\" esaten du.",
      "id": "1e0d7d880790",
      "priority": 2,
      "group": "0daec14ca6b5"
    },
    {
      "type": "chips",
      "translatesToSourceLanguage": true,
      "phrase": [
        {
          "word": "Egunero",
          "definition": "every day"
        },
        {
          "word": "irakasleak",
          "definition": "teachers"
        },
        {
          "word": "\"Ireki",
          "definition": "opened"
        },
        {
          "word": "zure",
          "definition": "your"
        },
        {
          "word": "liburuak\"",
          "definition": "books"
        },
        {
          "word": "esaten",
          "definition": "say"
        },
        {
          "word": "du.",
          "definition": "He has it\nHe/she/it has/ukan it"
        }
      ],
      "chips": [
        "Every",
        "day",
        "the",
        "teacher",
        "says",
        "Open",
        "your",
        "books",
        "her",
        "over",
        "does",
        "bar",
        "then",
        "say",
        "beer"
      ],
      "solutions": [
        [
          "Every",
          "day",
          "the",
          "teacher",
          "says",
          "Open",
          "your",
          "books"
        ],
        [
          "The",
          "teacher",
          "says",
          "Open",
          "your",
          "books",
          "every",
          "day"
        ]
      ],
      "formattedSolution": "Every day the teacher says \"Open your books\".",
      "id": "a13171430385",
      "priority": 2,
      "group": "0daec14ca6b5"
    },
    {
      "type": "options",
      "formInTargetLanguage": "Egunero guk hontz berde bat hiltzen dugu.",
      "meaningInSourceLanguage": "Every day we kill a green owl.",
      "id": "ce7ed484658c",
      "priority": 0,
      "group": "bb2658863d3d"
    },
    {
      "type": "chips",
      "translatesToSourceLanguage": false,
      "phrase": [
        {
          "word": "Every",
          "definition": "-ero"
        },
        {
          "word": "day",
          "definition": "egun"
        },
        {
          "word": "we",
          "definition": "gu"
        },
        {
          "word": "kill",
          "definition": "hilko (future)\nhiltzen\nhiltzera"
        },
        {
          "word": "a",
          "definition": "-a"
        },
        {
          "word": "green",
          "definition": "berde"
        },
        {
          "word": "owl.",
          "definition": "hontz\nhontza"
        }
      ],
      "chips": [
        "Egunero",
        "guk",
        "hontz",
        "berde",
        "bat",
        "hiltzen",
        "dugu",
        "dute",
        "gure",
        "dut",
        "ere",
        "Egun",
        "zen"
      ],
      "solutions": [
        [
          "Egunero",
          "guk",
          "hontz",
          "berde",
          "bat",
          "hiltzen",
          "dugu"
        ],
        [
          "Egunero",
          "hontz",
          "berde",
          "bat",
          "hiltzen",
          "dugu"
        ],
        [
          "Guk",
          "hontz",
          "berde",
          "bat",
          "hiltzen",
          "dugu",
          "egunero"
        ],
        [
          "Hontz",
          "berde",
          "bat",
          "hiltzen",
          "dugu",
          "egunero"
        ]
      ],
      "formattedSolution": "Egunero guk hontz berde bat hiltzen dugu.",
      "id": "8a71d8726748",
      "priority": 2,
      "group": "bb2658863d3d"
    },
    {
      "type": "chips",
      "translatesToSourceLanguage": true,
      "phrase": [
        {
          "word": "Egunero",
          "definition": "every day"
        },
        {
          "word": "guk",
          "definition": "we"
        },
        {
          "word": "hontz",
          "definition": "owl"
        },
        {
          "word": "berde",
          "definition": "green"
        },
        {
          "word": "bat",
          "definition": "one"
        },
        {
          "word": "hiltzen",
          "definition": "kill"
        },
        {
          "word": "dugu.",
          "definition": "We have it\nWe have/ukan it"
        }
      ],
      "chips": [
        "Every",
        "day",
        "we",
        "kill",
        "a",
        "green",
        "owl",
        "are",
        "He",
        "We",
        "or",
        "me",
        "an"
      ],
      "solutions": [
        [
          "Every",
          "day",
          "we",
          "kill",
          "a",
          "green",
          "owl"
        ],
        [
          "We",
          "kill",
          "a",
          "green",
          "owl",
          "every",
          "day"
        ]
      ],
      "formattedSolution": "Every day we kill a green owl.",
      "id": "0eee9385cb54",
      "priority": 2,
      "group": "bb2658863d3d"
    },
    {
      "type": "options",
      "formInTargetLanguage": "Egunero zuek autobusa gelditzen duzue hemen.",
      "meaningInSourceLanguage": "Every day you all stop the bus here.",
      "id": "94b61ef38607",
      "priority": 0,
      "group": "27c5190d17d8"
    },
    {
      "type": "chips",
      "translatesToSourceLanguage": false,
      "phrase": [
        {
          "word": "Every",
          "definition": "-ero"
        },
        {
          "word": "day",
          "definition": "egun"
        },
        {
          "word": "you",
          "definition": "zu\nzuek"
        },
        {
          "word": "all",
          "definition": "part of plural form of you\npart of you plural, you all"
        },
        {
          "word": "stop",
          "definition": "gelditu\ngelditu (command)\ngeldituko  (future)\ngelditzea\ngelditzen"
        },
        {
          "word": "the",
          "definition": "-a"
        },
        {
          "word": "bus",
          "definition": "austobusa\nautobus\nautobusa"
        },
        {
          "word": "here.",
          "definition": "hemen"
        }
      ],
      "chips": [
        "Egunero",
        "zuek",
        "autobusa",
        "gelditzen",
        "duzue",
        "hemen",
        "zuen",
        "zuzen",
        "dute",
        "zuten",
        "luzea"
      ],
      "solutions": [
        [
          "Egunero",
          "zuek",
          "autobusa",
          "gelditzen",
          "duzue",
          "hemen"
        ],
        [
          "Egunero",
          "autobusa",
          "gelditzen",
          "duzue",
          "hemen"
        ],
        [
          "Zuek",
          "autobusa",
          "gelditzen",
          "duzue",
          "hemen",
          "egunero"
        ],
        [
          "Autobusa",
          "gelditzen",
          "duzue",
          "hemen",
          "egunero"
        ]
      ],
      "formattedSolution": "Egunero zuek autobusa gelditzen duzue hemen.",
      "id": "421c51a04272",
      "priority": 2,
      "group": "27c5190d17d8"
    },
    {
      "type": "chips",
      "translatesToSourceLanguage": true,
      "phrase": [
        {
          "word": "Egunero",
          "definition": "every day"
        },
        {
          "word": "zuek",
          "definition": "you\nyou all\nyou'll\nyou(plural)\nyour (plural)\nyour/you (plural)"
        },
        {
          "word": "autobusa",
          "definition": "a bus\nbus"
        },
        {
          "word": "gelditzen",
          "definition": "stop"
        },
        {
          "word": "duzue",
          "definition": "You (plural) have/ukan  it\nYou all have it"
        },
        {
          "word": "hemen.",
          "definition": "here"
        }
      ],
      "chips": [
        "Every",
        "day",
        "you",
        "all",
        "stop",
        "the",
        "bus",
        "here",
        "her",
        "boy",
        "are",
        "hee",
        "top",
        "dry",
        "ate"
      ],
      "solutions": [
        [
          "Every",
          "day",
          "you",
          "all",
          "stop",
          "the",
          "bus",
          "here"
        ],
        [
          "Every",
          "day",
          "you",
          "plural",
          "stop",
          "the",
          "bus",
          "here"
        ],
        [
          "Every",
          "day",
          "you'll",
          "stop",
          "the",
          "bus",
          "here"
        ],
        [
          "Every",
          "day",
          "you",
          "stop",
          "the",
          "bus",
          "here"
        ],
        [
          "You",
          "all",
          "stop",
          "the",
          "bus",
          "here",
          "every",
          "day"
        ],
        [
          "You",
          "plural",
          "stop",
          "the",
          "bus",
          "here",
          "every",
          "day"
        ],
        [
          "You'll",
          "stop",
          "the",
          "bus",
          "here",
          "every",
          "day"
        ],
        [
          "You",
          "stop",
          "the",
          "bus",
          "here",
          "every",
          "day"
        ]
      ],
      "formattedSolution": "Every day you all stop the bus here.",
      "id": "1a3ac8f6d4a0",
      "priority": 2,
      "group": "27c5190d17d8"
    },
    {
      "type": "options",
      "formInTargetLanguage": "Egunero haiek autobusa hartzen dute eskolara.",
      "meaningInSourceLanguage": "Every day they take the bus to school.",
      "id": "bf97b84cd416",
      "priority": 0,
      "group": "3d3c05d1e0eb"
    },
    {
      "type": "chips",
      "translatesToSourceLanguage": false,
      "phrase": [
        {
          "word": "Every",
          "definition": "-ero"
        },
        {
          "word": "day",
          "definition": "egun"
        },
        {
          "word": "they",
          "definition": "haiek"
        },
        {
          "word": "take",
          "definition": "hartu\nhartu (command)\nhartuko (future)\nhartzen"
        },
        {
          "word": "the",
          "definition": "-a"
        },
        {
          "word": "bus",
          "definition": "austobusa\nautobus\nautobusa"
        },
        {
          "word": "to",
          "definition": "part of Ablative case\npart of same to you translation of berdin"
        },
        {
          "word": "school.",
          "definition": "eskola"
        }
      ],
      "chips": [
        "Egunero",
        "haiek",
        "autobusa",
        "hartzen",
        "dute",
        "eskolara",
        "arte",
        "astea",
        "ate",
        "hauek",
        "gure"
      ],
      "solutions": [
        [
          "Egunero",
          "haiek",
          "autobusa",
          "hartzen",
          "dute",
          "eskolara"
        ],
        [
          "Egunero",
          "autobusa",
          "hartzen",
          "dute",
          "eskolara"
        ],
        [
          "Haiek",
          "autobusa",
          "hartzen",
          "dute",
          "eskolara",
          "egunero"
        ],
        [
          "Autobusa",
          "hartzen",
          "dute",
          "eskolara",
          "egunero"
        ]
      ],
      "formattedSolution": "Egunero haiek autobusa hartzen dute eskolara.",
      "id": "a6d19bbe7816",
      "priority": 2,
      "group": "3d3c05d1e0eb"
    },
    {
      "type": "chips",
      "translatesToSourceLanguage": true,
      "phrase": [
        {
          "word": "Egunero",
          "definition": "every day"
        },
        {
          "word": "haiek",
          "definition": "they\nthose over there, plural of hura"
        },
        {
          "word": "autobusa",
          "definition": "a bus\nbus"
        },
        {
          "word": "hartzen",
          "definition": "take"
        },
        {
          "word": "dute",
          "definition": "They have it\nThey have/ukan it"
        },
        {
          "word": "eskolara.",
          "definition": "to school"
        }
      ],
      "chips": [
        "Every",
        "day",
        "they",
        "take",
        "the",
        "bus",
        "to",
        "school",
        "She",
        "The",
        "boy",
        "hee",
        "her",
        "two",
        "ten"
      ],
      "solutions": [
        [
          "Every",
          "day",
          "they",
          "take",
          "the",
          "bus",
          "to",
          "school"
        ],
        [
          "They",
          "take",
          "the",
          "bus",
          "to",
          "school",
          "every",
          "day"
        ]
      ],
      "formattedSolution": "Every day they take the bus to school.",
      "id": "7ed07eaa9d9a",
      "priority": 2,
      "group": "3d3c05d1e0eb"
    },
    {
      "type": "options",
      "formInTargetLanguage": "Egunero haiek ingelesa eta euskara irakasten dituzte.",
      "meaningInSourceLanguage": "Every day they teach English and Basque.",
      "id": "6f6e3ce35d92",
      "priority": 0,
      "group": "5fd16072b818"
    },
    {
      "type": "chips",
      "translatesToSourceLanguage": false,
      "phrase": [
        {
          "word": "Every",
          "definition": "-ero"
        },
        {
          "word": "day",
          "definition": "egun"
        },
        {
          "word": "they",
          "definition": "haiek"
        },
        {
          "word": "teach",
          "definition": "irakasten\nirakastera\nirakatsiko (future)"
        },
        {
          "word": "English",
          "definition": "ingeles"
        },
        {
          "word": "and",
          "definition": "eta"
        },
        {
          "word": "Basque.",
          "definition": "Euskal\neuskaldun\neuskara"
        }
      ],
      "chips": [
        "Egunero",
        "haiek",
        "ingelesa",
        "eta",
        "euskara",
        "irakasten",
        "dituzte",
        "ere",
        "astea",
        "dute",
        "irte",
        "egitea",
        "ate"
      ],
      "solutions": [
        [
          "Egunero",
          "haiek",
          "ingelesa",
          "eta",
          "euskara",
          "irakasten",
          "dituzte"
        ],
        [
          "Egunero",
          "ingelesa",
          "eta",
          "euskara",
          "irakasten",
          "dituzte"
        ],
        [
          "Haiek",
          "ingelesa",
          "eta",
          "euskara",
          "irakasten",
          "dituzte",
          "egunero"
        ],
        [
          "Ingelesa",
          "eta",
          "euskara",
          "irakasten",
          "dituzte",
          "egunero"
        ]
      ],
      "formattedSolution": "Egunero haiek ingelesa eta euskara irakasten dituzte.",
      "id": "8fb4f147bd43",
      "priority": 2,
      "group": "5fd16072b818"
    },
    {
      "type": "chips",
      "translatesToSourceLanguage": true,
      "phrase": [
        {
          "word": "Egunero",
          "definition": "every day"
        },
        {
          "word": "haiek",
          "definition": "they\nthose over there, plural of hura"
        },
        {
          "word": "ingelesa",
          "definition": "English language"
        },
        {
          "word": "eta",
          "definition": "and"
        },
        {
          "word": "euskara",
          "definition": "Basque Language"
        },
        {
          "word": "irakasten",
          "definition": "teach"
        },
        {
          "word": "dituzte.",
          "definition": "They have them"
        }
      ],
      "chips": [
        "Every",
        "day",
        "they",
        "teach",
        "English",
        "and",
        "Basque",
        "any",
        "lay",
        "are",
        "the",
        "an",
        "many"
      ],
      "solutions": [
        [
          "Every",
          "day",
          "they",
          "teach",
          "English",
          "and",
          "Basque"
        ],
        [
          "They",
          "teach",
          "English",
          "and",
          "Basque",
          "every",
          "day"
        ]
      ],
      "formattedSolution": "Every day they teach English and Basque.",
      "id": "f3e6eda623cc",
      "priority": 2,
      "group": "5fd16072b818"
    },
    {
      "type": "options",
      "formInTargetLanguage": "Egunero zuek arkatzak eramaten dituzue eskolara.",
      "meaningInSourceLanguage": "Every day you all) carry pencils to school.",
      "id": "c3dcb80073d7",
      "priority": 0,
      "group": "e470595c6f9e"
    },
    {
      "type": "chips",
      "translatesToSourceLanguage": false,
      "phrase": [
        {
          "word": "Every",
          "definition": "-ero"
        },
        {
          "word": "day",
          "definition": "egun"
        },
        {
          "word": "you",
          "definition": "zu\nzuek"
        },
        {
          "word": "all)",
          "definition": "part of plural form of you\npart of you plural, you all"
        },
        {
          "word": "carry",
          "definition": "eramango (future)\neramaten\nermango (future)"
        },
        {
          "word": "pencils",
          "definition": "arkatzak"
        },
        {
          "word": "to",
          "definition": "part of Ablative case\npart of same to you translation of berdin"
        },
        {
          "word": "school.",
          "definition": "eskola"
        }
      ],
      "chips": [
        "Egunero",
        "zuek",
        "arkatzak",
        "eramaten",
        "dituzue",
        "eskolara",
        "ere",
        "arte",
        "ezker",
        "ateak",
        "eskuak"
      ],
      "solutions": [
        [
          "Egunero",
          "zuek",
          "arkatzak",
          "eramaten",
          "dituzue",
          "eskolara"
        ],
        [
          "Egunero",
          "arkatzak",
          "eramaten",
          "dituzue",
          "eskolara"
        ],
        [
          "Zuek",
          "arkatzak",
          "eramaten",
          "dituzue",
          "eskolara",
          "egunero"
        ],
        [
          "Arkatzak",
          "eramaten",
          "dituzue",
          "eskolara",
          "egunero"
        ]
      ],
      "formattedSolution": "Egunero zuek arkatzak eramaten dituzue eskolara.",
      "id": "4f1e7f0403a3",
      "priority": 2,
      "group": "e470595c6f9e"
    },
    {
      "type": "chips",
      "translatesToSourceLanguage": true,
      "phrase": [
        {
          "word": "Egunero",
          "definition": "every day"
        },
        {
          "word": "zuek",
          "definition": "you\nyou all\nyou'll\nyou(plural)\nyour (plural)\nyour/you (plural)"
        },
        {
          "word": "arkatzak",
          "definition": "pencils"
        },
        {
          "word": "eramaten",
          "definition": "carry"
        },
        {
          "word": "dituzue",
          "definition": "You (plural) have them\nYou all have them"
        },
        {
          "word": "eskolara.",
          "definition": "to school"
        }
      ],
      "chips": [
        "Every",
        "day",
        "you",
        "all",
        "carry",
        "pencils",
        "to",
        "school",
        "cry",
        "car",
        "boy",
        "cow",
        "dry",
        "any",
        "say"
      ],
      "solutions": [
        [
          "Every",
          "day",
          "you",
          "all",
          "carry",
          "pencils",
          "to",
          "school"
        ],
        [
          "Every",
          "day",
          "you",
          "plural",
          "carry",
          "pencils",
          "to",
          "school"
        ],
        [
          "Every",
          "day",
          "you'll",
          "carry",
          "pencils",
          "to",
          "school"
        ],
        [
          "Every",
          "day",
          "you",
          "carry",
          "pencils",
          "to",
          "school"
        ],
        [
          "You",
          "all",
          "carry",
          "pencils",
          "to",
          "school",
          "every",
          "day"
        ],
        [
          "You",
          "plural",
          "carry",
          "pencils",
          "to",
          "school",
          "every",
          "day"
        ],
        [
          "You'll",
          "carry",
          "pencils",
          "to",
          "school",
          "every",
          "day"
        ],
        [
          "You",
          "carry",
          "pencils",
          "to",
          "school",
          "every",
          "day"
        ]
      ],
      "formattedSolution": "Every day you all) carry pencils to school.",
      "id": "1a085ea2c89f",
      "priority": 2,
      "group": "e470595c6f9e"
    },
    {
      "type": "options",
      "formInTargetLanguage": "Egunero guk \"kaixo\" eta \"zer moduz\" esaten dugu euskaraz eta espainieraz.",
      "meaningInSourceLanguage": "Every day we say \"hi\" and \"how are you\" in Basque and Spanish.",
      "id": "1f3843d467db",
      "priority": 0,
      "group": "f89e182a6c58"
    },
    {
      "type": "chips",
      "translatesToSourceLanguage": false,
      "phrase": [
        {
          "word": "Every",
          "definition": "-ero"
        },
        {
          "word": "day",
          "definition": "egun"
        },
        {
          "word": "we",
          "definition": "gu"
        },
        {
          "word": "say",
          "definition": "esango (future)\nesaten"
        },
        {
          "word": "\"hi\"",
          "definition": "epa"
        },
        {
          "word": "and",
          "definition": "eta"
        },
        {
          "word": "\"how",
          "definition": "nola\nzer(what)"
        },
        {
          "word": "are",
          "definition": "daude\ndaude (egon)\ndaude (izan)\ndira\ndira (izan)\ngara\ngara (izan)\ngare\ngaude (egon)\nzara\nzara (izan)\nzarete\nzarete (izan)\nzaude  (egon)\nzaude (egon)\nzaudete (egon)"
        },
        {
          "word": "you\"",
          "definition": "zu\nzuek"
        },
        {
          "word": "in",
          "definition": "Inessive case\nNON case, not a word"
        },
        {
          "word": "Basque",
          "definition": "Euskal\neuskaldun\neuskara"
        },
        {
          "word": "and",
          "definition": "eta"
        },
        {
          "word": "Spanish.",
          "definition": "espainiar\nespainiera"
        }
      ],
      "chips": [
        "Egunero",
        "guk",
        "kaixo",
        "eta",
        "zer",
        "moduz",
        "esaten",
        "dugu",
        "euskaraz",
        "eta",
        "espainieraz",
        "esan",
        "ere",
        "euro",
        "gara",
        "ezer",
        "edan",
        "ate",
        "zara",
        "edo",
        "euri"
      ],
      "solutions": [
        [
          "Egunero",
          "guk",
          "kaixo",
          "eta",
          "zer",
          "moduz",
          "esaten",
          "dugu",
          "euskaraz",
          "eta",
          "espainieraz"
        ],
        [
          "Egunero",
          "kaixo",
          "eta",
          "zer",
          "moduz",
          "esaten",
          "dugu",
          "euskaraz",
          "eta",
          "espainieraz"
        ],
        [
          "Guk",
          "kaixo",
          "eta",
          "zer",
          "moduz",
          "esaten",
          "dugu",
          "euskaraz",
          "eta",
          "espainieraz",
          "egunero"
        ],
        [
          "Kaixo",
          "eta",
          "zer",
          "moduz",
          "esaten",
          "dugu",
          "euskaraz",
          "eta",
          "espainieraz",
          "egunero"
        ]
      ],
      "formattedSolution": "Egunero guk \"kaixo\" eta \"zer moduz\" esaten dugu euskaraz eta espainieraz.",
      "id": "ffc35cb3319f",
      "priority": 2,
      "group": "f89e182a6c58"
    },
    {
      "type": "chips",
      "translatesToSourceLanguage": true,
      "phrase": [
        {
          "word": "Egunero",
          "definition": "every day"
        },
        {
          "word": "guk",
          "definition": "we"
        },
        {
          "word": "\"kaixo\"",
          "definition": "hello"
        },
        {
          "word": "eta",
          "definition": "and"
        },
        {
          "word": "\"zer",
          "definition": "what"
        },
        {
          "word": "moduz\"",
          "definition": "are you"
        },
        {
          "word": "esaten",
          "definition": "say"
        },
        {
          "word": "dugu",
          "definition": "We have it\nWe have/ukan it"
        },
        {
          "word": "euskaraz",
          "definition": "in Basque"
        },
        {
          "word": "eta",
          "definition": "and"
        },
        {
          "word": "espainieraz.",
          "definition": "in Spanish"
        }
      ],
      "chips": [
        "Every",
        "day",
        "we",
        "say",
        "hi",
        "and",
        "how",
        "are",
        "you",
        "in",
        "Basque",
        "and",
        "Spanish",
        "an",
        "any",
        "am",
        "a",
        "at",
        "San",
        "on",
        "ate",
        "man",
        "one",
        "had",
        "so"
      ],
      "solutions": [
        [
          "Every",
          "day",
          "we",
          "say",
          "hi",
          "and",
          "how",
          "are",
          "you",
          "in",
          "Basque",
          "and",
          "Spanish"
        ],
        [
          "We",
          "say",
          "hi",
          "and",
          "how",
          "are",
          "you",
          "in",
          "Basque",
          "and",
          "Spanish",
          "every",
          "day"
        ]
      ],
      "formattedSolution": "Every day we say \"hi\" and \"how are you\" in Basque and Spanish.",
      "id": "95fdd5660a39",
      "priority": 2,
      "group": "f89e182a6c58"
    },
    {
      "type": "options",
      "formInTargetLanguage": "Egunero Mikelek bi oilasko zuri hiltzen ditu.",
      "meaningInSourceLanguage": "Every day Mikel kills two white chickens.",
      "id": "1804e6c2b6d4",
      "priority": 0,
      "group": "bd2d1895aa17"
    },
    {
      "type": "chips",
      "translatesToSourceLanguage": false,
      "phrase": [
        {
          "word": "Every",
          "definition": "-ero"
        },
        {
          "word": "day",
          "definition": "egun"
        },
        {
          "word": "Mikel",
          "definition": "Mikel\nMikel (male name)\nMikel (name)\nMikel(male name)"
        },
        {
          "word": "kills",
          "definition": "hiltzen"
        },
        {
          "word": "two",
          "definition": "bi"
        },
        {
          "word": "white",
          "definition": "zuri\nzuria"
        },
        {
          "word": "chickens.",
          "definition": "oilaskoak"
        }
      ],
      "chips": [
        "Egunero",
        "Mikelek",
        "bi",
        "oilasko",
        "zuri",
        "hiltzen",
        "ditu",
        "oilo",
        "nire",
        "hil",
        "dira",
        "Lili",
        "hiru"
      ],
      "solutions": [
        [
          "Egunero",
          "Mikelek",
          "bi",
          "oilasko",
          "zuri",
          "hiltzen",
          "ditu"
        ],
        [
          "Mikelek",
          "bi",
          "oilasko",
          "zuri",
          "hiltzen",
          "ditu",
          "egunero"
        ]
      ],
      "formattedSolution": "Egunero Mikelek bi oilasko zuri hiltzen ditu.",
      "id": "dbb39c2c1418",
      "priority": 2,
      "group": "bd2d1895aa17"
    },
    {
      "type": "chips",
      "translatesToSourceLanguage": true,
      "phrase": [
        {
          "word": "Egunero",
          "definition": "every day"
        },
        {
          "word": "Mikelek",
          "definition": "Mikel"
        },
        {
          "word": "bi",
          "definition": "two"
        },
        {
          "word": "oilasko",
          "definition": "chicken"
        },
        {
          "word": "zuri",
          "definition": "to you\nwhite"
        },
        {
          "word": "hiltzen",
          "definition": "kill"
        },
        {
          "word": "ditu.",
          "definition": "He has them\nHe/she/it has them"
        }
      ],
      "chips": [
        "Every",
        "day",
        "Mikel",
        "kills",
        "two",
        "white",
        "chickens",
        "ice",
        "his",
        "lie",
        "the",
        "lies",
        "like"
      ],
      "solutions": [
        [
          "Every",
          "day",
          "Mikel",
          "kills",
          "two",
          "white",
          "chickens"
        ],
        [
          "Mikel",
          "kills",
          "two",
          "white",
          "chickens",
          "every",
          "day"
        ]
      ],
      "formattedSolution": "Every day Mikel kills two white chickens.",
      "id": "7c8a45807015",
      "priority": 2,
      "group": "bd2d1895aa17"
    },
    {
      "type": "options",
      "formInTargetLanguage": "Egunero zuk trenak gelditzen dituzu hemen.",
      "meaningInSourceLanguage": "Every day you stop the trains here.",
      "id": "7665802eeb2f",
      "priority": 0,
      "group": "05dcacf18337"
    },
    {
      "type": "chips",
      "translatesToSourceLanguage": false,
      "phrase": [
        {
          "word": "Every",
          "definition": "-ero"
        },
        {
          "word": "day",
          "definition": "egun"
        },
        {
          "word": "you",
          "definition": "zu\nzuek"
        },
        {
          "word": "stop",
          "definition": "gelditu\ngelditu (command)\ngeldituko  (future)\ngelditzea\ngelditzen"
        },
        {
          "word": "the",
          "definition": "-a"
        },
        {
          "word": "trains",
          "definition": "trenak"
        },
        {
          "word": "here.",
          "definition": "hemen"
        }
      ],
      "chips": [
        "Egunero",
        "zuk",
        "trenak",
        "gelditzen",
        "dituzu",
        "hemen",
        "gizen",
        "zuen",
        "tren",
        "izen",
        "zen"
      ],
      "solutions": [
        [
          "Egunero",
          "zuk",
          "trenak",
          "gelditzen",
          "dituzu",
          "hemen"
        ],
        [
          "Egunero",
          "zuk",
          "trenak",
          "gelditzen",
          "dituzu",
          "hemen"
        ],
        [
          "Zuk",
          "trenak",
          "gelditzen",
          "dituzu",
          "hemen",
          "egunero"
        ],
        [
          "Trenak",
          "gelditzen",
          "dituzu",
          "hemen",
          "egunero"
        ]
      ],
      "formattedSolution": "Egunero zuk trenak gelditzen dituzu hemen.",
      "id": "e916f4b170fc",
      "priority": 2,
      "group": "05dcacf18337"
    },
    {
      "type": "chips",
      "translatesToSourceLanguage": true,
      "phrase": [
        {
          "word": "Egunero",
          "definition": "every day"
        },
        {
          "word": "zuk",
          "definition": "you"
        },
        {
          "word": "trenak",
          "definition": "trains"
        },
        {
          "word": "gelditzen",
          "definition": "stop"
        },
        {
          "word": "dituzu",
          "definition": "You have them"
        },
        {
          "word": "hemen.",
          "definition": "here"
        }
      ],
      "chips": [
        "Every",
        "day",
        "you",
        "stop",
        "the",
        "trains",
        "here",
        "her",
        "ten",
        "top",
        "dry",
        "tea",
        "are"
      ],
      "solutions": [
        [
          "Every",
          "day",
          "you",
          "stop",
          "the",
          "trains",
          "here"
        ],
        [
          "You",
          "stop",
          "the",
          "trains",
          "here",
          "every",
          "day"
        ]
      ],
      "formattedSolution": "Every day you stop the trains here.",
      "id": "0ddbb59d48d4",
      "priority": 2,
      "group": "05dcacf18337"
    },
    {
      "type": "options",
      "formInTargetLanguage": "Egunero nik bi tren hartzen ditut Donostiara.",
      "meaningInSourceLanguage": "Every day I take two train to San Sebastian.",
      "id": "04a0b79d6de1",
      "priority": 0,
      "group": "63f81bc08810"
    },
    {
      "type": "chips",
      "translatesToSourceLanguage": false,
      "phrase": [
        {
          "word": "Every",
          "definition": "-ero"
        },
        {
          "word": "day",
          "definition": "egun"
        },
        {
          "word": "I",
          "definition": "ni"
        },
        {
          "word": "take",
          "definition": "hartu\nhartu (command)\nhartuko (future)\nhartzen"
        },
        {
          "word": "two",
          "definition": "bi"
        },
        {
          "word": "train",
          "definition": "tren"
        },
        {
          "word": "to",
          "definition": "part of Ablative case\npart of same to you translation of berdin"
        },
        {
          "word": "San",
          "definition": "santua (saint)"
        },
        {
          "word": "Sebastian.",
          "definition": "Saint Sebastian\nSebastian"
        }
      ],
      "chips": [
        "Egunero",
        "nik",
        "bi",
        "tren",
        "hartzen",
        "ditut",
        "Donostiara",
        "nire",
        "niri",
        "te",
        "ere",
        "dira",
        "zen"
      ],
      "solutions": [
        [
          "Egunero",
          "nik",
          "bi",
          "tren",
          "hartzen",
          "ditut",
          "Donostiara"
        ],
        [
          "Egunero",
          "bi",
          "tren",
          "hartzen",
          "ditut",
          "Donostiara"
        ],
        [
          "Nik",
          "bi",
          "tren",
          "hartzen",
          "ditut",
          "Donostiara",
          "egunero"
        ],
        [
          "Bi",
          "tren",
          "hartzen",
          "ditut",
          "Donostiara",
          "egunero"
        ]
      ],
      "formattedSolution": "Egunero nik bi tren hartzen ditut Donostiara.",
      "id": "b424435fc32d",
      "priority": 2,
      "group": "63f81bc08810"
    },
    {
      "type": "chips",
      "translatesToSourceLanguage": true,
      "phrase": [
        {
          "word": "Egunero",
          "definition": "every day"
        },
        {
          "word": "nik",
          "definition": "I"
        },
        {
          "word": "bi",
          "definition": "two"
        },
        {
          "word": "tren",
          "definition": "train"
        },
        {
          "word": "hartzen",
          "definition": "take"
        },
        {
          "word": "ditut",
          "definition": "I have them"
        },
        {
          "word": "Donostiara.",
          "definition": "To San Sebastian\nin San Sebastian (city in Basque Country)"
        }
      ],
      "chips": [
        "Every",
        "day",
        "I",
        "take",
        "two",
        "train",
        "to",
        "San",
        "Sebastian",
        "an",
        "ten",
        "ran",
        "a",
        "man",
        "at",
        "can",
        "eat"
      ],
      "solutions": [
        [
          "Every",
          "day",
          "I",
          "take",
          "two",
          "train",
          "to",
          "San",
          "Sebastian"
        ],
        [
          "I",
          "take",
          "two",
          "train",
          "to",
          "San",
          "Sebastian",
          "every",
          "day"
        ]
      ],
      "formattedSolution": "Every day I take two train to San Sebastian.",
      "id": "dae1f5b396d1",
      "priority": 2,
      "group": "63f81bc08810"
    },
    {
      "type": "cards",
      "pictures": [
        "nothing.jpg",
        "nothing.jpg",
        "nothing.jpg"
      ],
      "formInTargetLanguage": "irakasten",
      "meaningInSourceLanguage": "teach",
      "id": "0c81fe80f755",
      "priority": 0,
      "group": "d28bc6ae7067"
    },
    {
      "type": "shortInput",
      "pictures": [
        "nothing.jpg",
        "nothing.jpg",
        "nothing.jpg"
      ],
      "formInTargetLanguage": [
        "irakasten"
      ],
      "phrase": [
        {
          "word": "teach",
          "definition": "irakasten\nirakastera\nirakatsiko (future)"
        }
      ],
      "id": "38338e202152",
      "priority": 1,
      "group": "d28bc6ae7067"
    },
    {
      "type": "cards",
      "pictures": [
        "nothing.jpg",
        "nothing.jpg",
        "nothing.jpg"
      ],
      "formInTargetLanguage": "eramaten",
      "meaningInSourceLanguage": "carry",
      "id": "1c6e5aad5a15",
      "priority": 0,
      "group": "aec66ab484f0"
    },
    {
      "type": "shortInput",
      "pictures": [
        "nothing.jpg",
        "nothing.jpg",
        "nothing.jpg"
      ],
      "formInTargetLanguage": [
        "eramaten"
      ],
      "phrase": [
        {
          "word": "carry",
          "definition": "eramango (future)\neramaten\nermango (future)"
        }
      ],
      "id": "7750fdca3654",
      "priority": 1,
      "group": "aec66ab484f0"
    },
    {
      "type": "cards",
      "pictures": [
        "nothing.jpg",
        "nothing.jpg",
        "nothing.jpg"
      ],
      "formInTargetLanguage": "esaten",
      "meaningInSourceLanguage": "say",
      "id": "2a66d4d3afac",
      "priority": 0,
      "group": "25163dc6789c"
    },
    {
      "type": "shortInput",
      "pictures": [
        "nothing.jpg",
        "nothing.jpg",
        "nothing.jpg"
      ],
      "formInTargetLanguage": [
        "esaten"
      ],
      "phrase": [
        {
          "word": "say",
          "definition": "esango (future)\nesaten"
        }
      ],
      "id": "bd11d2eda54e",
      "priority": 1,
      "group": "25163dc6789c"
    },
    {
      "type": "cards",
      "pictures": [
        "nothing.jpg",
        "nothing.jpg",
        "nothing.jpg"
      ],
      "formInTargetLanguage": "hiltzen",
      "meaningInSourceLanguage": "kill",
      "id": "ba35c03d715c",
      "priority": 0,
      "group": "5b99eefd64c4"
    },
    {
      "type": "shortInput",
      "pictures": [
        "nothing.jpg",
        "nothing.jpg",
        "nothing.jpg"
      ],
      "formInTargetLanguage": [
        "hiltzen"
      ],
      "phrase": [
        {
          "word": "kill",
          "definition": "hilko (future)\nhiltzen\nhiltzera"
        }
      ],
      "id": "1c9da4a245f6",
      "priority": 1,
      "group": "5b99eefd64c4"
    },
    {
      "type": "cards",
      "pictures": [
        "nothing.jpg",
        "nothing.jpg",
        "nothing.jpg"
      ],
      "formInTargetLanguage": "gelditzen",
      "meaningInSourceLanguage": "stop",
      "id": "ca981fe44757",
      "priority": 0,
      "group": "274a4c42abfc"
    },
    {
      "type": "shortInput",
      "pictures": [
        "nothing.jpg",
        "nothing.jpg",
        "nothing.jpg"
      ],
      "formInTargetLanguage": [
        "gelditzen"
      ],
      "phrase": [
        {
          "word": "stop",
          "definition": "gelditu\ngelditu (command)\ngeldituko  (future)\ngelditzea\ngelditzen"
        }
      ],
      "id": "46eae1938b65",
      "priority": 1,
      "group": "274a4c42abfc"
    },
    {
      "type": "cards",
      "pictures": [
        "nothing.jpg",
        "nothing.jpg",
        "nothing.jpg"
      ],
      "formInTargetLanguage": "hartzen",
      "meaningInSourceLanguage": "take",
      "id": "3012a75e938e",
      "priority": 0,
      "group": "852b93f1fc55"
    },
    {
      "type": "shortInput",
      "pictures": [
        "nothing.jpg",
        "nothing.jpg",
        "nothing.jpg"
      ],
      "formInTargetLanguage": [
        "hartzen"
      ],
      "phrase": [
        {
          "word": "take",
          "definition": "hartu\nhartu (command)\nhartuko (future)\nhartzen"
        }
      ],
      "id": "826964ecfda7",
      "priority": 1,
      "group": "852b93f1fc55"
    }
  ]
}