{
  "id": "dfc3079b79ff",
  "levels": 5,
  "challenges": [
    {
      "type": "options",
      "formInTargetLanguage": "Ni hilero bilbon egoten naiz.",
      "meaningInSourceLanguage": "I am in Bilbao every month.",
      "id": "6b8cb0cff81b",
      "priority": 0,
      "group": "253339c020bb"
    },
    {
      "type": "chips",
      "translatesToSourceLanguage": false,
      "phrase": [
        {
          "word": "I",
          "definition": "ni"
        },
        {
          "word": "am",
          "definition": "NORTAZ case\nnago (egon)\nnaiz\nnaiz (izan)"
        },
        {
          "word": "in",
          "definition": "Inessive case\nNON case, not a word"
        },
        {
          "word": "Bilbao",
          "definition": "Bilbo"
        },
        {
          "word": "every",
          "definition": "-ero"
        },
        {
          "word": "month.",
          "definition": "hil\nhilabete\nhilabetean (in a)"
        }
      ],
      "chips": [
        "Ni",
        "hilero",
        "bilbon",
        "egoten",
        "naiz",
        "oilo",
        "hil",
        "ni",
        "gizen"
      ],
      "solutions": [
        [
          "Ni",
          "hilero",
          "bilbon",
          "egoten",
          "naiz"
        ],
        [
          "Hilero",
          "bilbon",
          "egoten",
          "naiz"
        ]
      ],
      "formattedSolution": "Ni hilero bilbon egoten naiz.",
      "id": "f85cd7dfb95c",
      "priority": 2,
      "group": "253339c020bb"
    },
    {
      "type": "chips",
      "translatesToSourceLanguage": true,
      "phrase": [
        {
          "word": "Ni",
          "definition": "I\nme"
        },
        {
          "word": "hilero",
          "definition": "every month"
        },
        {
          "word": "bilbon",
          "definition": "in Bilbao\nin Bilboa"
        },
        {
          "word": "egoten",
          "definition": "stay\nstay/be at a location\nstay/being at a location"
        },
        {
          "word": "naiz.",
          "definition": "I am (izan)\nam\nam (izan)"
        }
      ],
      "chips": [
        "I",
        "am",
        "in",
        "Bilbao",
        "every",
        "month",
        "an",
        "a",
        "it",
        "on",
        "In"
      ],
      "solutions": [
        [
          "I",
          "am",
          "in",
          "Bilbao",
          "every",
          "month"
        ]
      ],
      "formattedSolution": "I am in Bilbao every month.",
      "id": "6c4eb477290a",
      "priority": 2,
      "group": "253339c020bb"
    },
    {
      "type": "options",
      "formInTargetLanguage": "Zu gauero erortzen zara.",
      "meaningInSourceLanguage": "You fall every night.",
      "id": "848cb5e5555b",
      "priority": 0,
      "group": "882fdc967972"
    },
    {
      "type": "chips",
      "translatesToSourceLanguage": false,
      "phrase": [
        {
          "word": "You",
          "definition": "zu\nzuek"
        },
        {
          "word": "fall",
          "definition": "eroriko\neroriko (verb)\nerortzen\nerortzen (verb)\nudazkena (season)"
        },
        {
          "word": "every",
          "definition": "-ero"
        },
        {
          "word": "night.",
          "definition": "gau\ngaua"
        }
      ],
      "chips": [
        "Zu",
        "gauero",
        "erortzen",
        "zara",
        "ere",
        "gara",
        "Zure"
      ],
      "solutions": [
        [
          "Zu",
          "gauero",
          "erortzen",
          "zara"
        ],
        [
          "Gauero",
          "erortzen",
          "zara"
        ]
      ],
      "formattedSolution": "Zu gauero erortzen zara.",
      "id": "1dddfd42acea",
      "priority": 2,
      "group": "882fdc967972"
    },
    {
      "type": "chips",
      "translatesToSourceLanguage": true,
      "phrase": [
        {
          "word": "Zu",
          "definition": "you"
        },
        {
          "word": "gauero",
          "definition": "every night"
        },
        {
          "word": "erortzen",
          "definition": "fall\nfalling"
        },
        {
          "word": "zara.",
          "definition": "are\nyou are (izan)"
        }
      ],
      "chips": [
        "You",
        "fall",
        "every",
        "night",
        "all",
        "not",
        "fat"
      ],
      "solutions": [
        [
          "You",
          "fall",
          "every",
          "night"
        ]
      ],
      "formattedSolution": "You fall every night.",
      "id": "c168b1e1fa19",
      "priority": 2,
      "group": "882fdc967972"
    },
    {
      "type": "options",
      "formInTargetLanguage": "Hura egunero hemen eserten da.",
      "meaningInSourceLanguage": "He sits here every day.",
      "id": "5c127baf1fdd",
      "priority": 0,
      "group": "832a1e024fa6"
    },
    {
      "type": "chips",
      "translatesToSourceLanguage": false,
      "phrase": [
        {
          "word": "He",
          "definition": "hura"
        },
        {
          "word": "sits",
          "definition": "eserten"
        },
        {
          "word": "here",
          "definition": "hemen"
        },
        {
          "word": "every",
          "definition": "-ero"
        },
        {
          "word": "day.",
          "definition": "egun"
        }
      ],
      "chips": [
        "Hura",
        "egunero",
        "hemen",
        "eserten",
        "da",
        "ere",
        "euro",
        "hura",
        "ezer"
      ],
      "solutions": [
        [
          "Hura",
          "egunero",
          "hemen",
          "eserten",
          "da"
        ],
        [
          "Egunero",
          "hemen",
          "eserten",
          "da"
        ]
      ],
      "formattedSolution": "Hura egunero hemen eserten da.",
      "id": "953aedfaea93",
      "priority": 2,
      "group": "832a1e024fa6"
    },
    {
      "type": "chips",
      "translatesToSourceLanguage": true,
      "phrase": [
        {
          "word": "Hura",
          "definition": "he\nit\nitr\nshe\nthat over there"
        },
        {
          "word": "egunero",
          "definition": "every day"
        },
        {
          "word": "hemen",
          "definition": "here"
        },
        {
          "word": "eserten",
          "definition": "sit"
        },
        {
          "word": "da.",
          "definition": "he is (izan)\nis\nit is (izan)\nshe is (izan)"
        }
      ],
      "chips": [
        "He",
        "sits",
        "here",
        "every",
        "day",
        "her",
        "very",
        "he",
        "hee"
      ],
      "solutions": [
        [
          "He",
          "sits",
          "here",
          "every",
          "day"
        ],
        [
          "She",
          "sits",
          "here",
          "every",
          "day"
        ]
      ],
      "formattedSolution": "He sits here every day.",
      "id": "1e94ac12cbbe",
      "priority": 2,
      "group": "832a1e024fa6"
    },
    {
      "type": "options",
      "formInTargetLanguage": "Gu seietan esnatzen gara.",
      "meaningInSourceLanguage": "We wake up at six.",
      "id": "af85e7724d13",
      "priority": 0,
      "group": "747a8e97c369"
    },
    {
      "type": "chips",
      "translatesToSourceLanguage": false,
      "phrase": [
        {
          "word": "We",
          "definition": "gu"
        },
        {
          "word": "wake",
          "definition": "esnatuko\nesnatzen"
        },
        {
          "word": "up",
          "definition": "gora\npart of wake up"
        },
        {
          "word": "at",
          "definition": "not translated, part of insessive case"
        },
        {
          "word": "six.",
          "definition": "sei"
        }
      ],
      "chips": [
        "Gu",
        "seietan",
        "esnatzen",
        "gara",
        "eta",
        "esan",
        "ere"
      ],
      "solutions": [
        [
          "Gu",
          "seietan",
          "esnatzen",
          "gara"
        ],
        [
          "Seietan",
          "esnatzen",
          "gara"
        ]
      ],
      "formattedSolution": "Gu seietan esnatzen gara.",
      "id": "4a5c8fd0d8c6",
      "priority": 2,
      "group": "747a8e97c369"
    },
    {
      "type": "chips",
      "translatesToSourceLanguage": true,
      "phrase": [
        {
          "word": "Gu",
          "definition": "we"
        },
        {
          "word": "seietan",
          "definition": "at six"
        },
        {
          "word": "esnatzen",
          "definition": "wake up\nwaking"
        },
        {
          "word": "gara.",
          "definition": "are\nare (izan)"
        }
      ],
      "chips": [
        "We",
        "wake",
        "up",
        "at",
        "six",
        "we",
        "am",
        "a",
        "He"
      ],
      "solutions": [
        [
          "We",
          "wake",
          "up",
          "at",
          "six"
        ]
      ],
      "formattedSolution": "We wake up at six.",
      "id": "eb16ac10fe4c",
      "priority": 2,
      "group": "747a8e97c369"
    },
    {
      "type": "options",
      "formInTargetLanguage": "Zuek hilero ibiltzen  zarete Madrilen.",
      "meaningInSourceLanguage": "You all walk in Madrid every month.",
      "id": "f4d3a1dceb80",
      "priority": 0,
      "group": "81024803e337"
    },
    {
      "type": "chips",
      "translatesToSourceLanguage": false,
      "phrase": [
        {
          "word": "You",
          "definition": "zu\nzuek"
        },
        {
          "word": "all",
          "definition": "part of plural form of you\npart of you plural, you all"
        },
        {
          "word": "walk",
          "definition": "ibiliko\nibiliko (izan future)\nibiltzen\nibiltzen (izan present)"
        },
        {
          "word": "in",
          "definition": "Inessive case\nNON case, not a word"
        },
        {
          "word": "Madrid",
          "definition": "Madril\nMadril (city)"
        },
        {
          "word": "every",
          "definition": "-ero"
        },
        {
          "word": "month.",
          "definition": "hil\nhilabete\nhilabetean (in a)"
        }
      ],
      "chips": [
        "Zuek",
        "hilero",
        "ibiltzen",
        "zarete",
        "Madrilen",
        "Miren",
        "ziren",
        "haien",
        "izen"
      ],
      "solutions": [
        [
          "Zuek",
          "hilero",
          "ibiltzen",
          "zarete",
          "Madrilen"
        ],
        [
          "Hilero",
          "ibiltzen",
          "zarete",
          "Madrilen"
        ]
      ],
      "formattedSolution": "Zuek hilero ibiltzen  zarete Madrilen.",
      "id": "a7c4de52692a",
      "priority": 2,
      "group": "81024803e337"
    },
    {
      "type": "chips",
      "translatesToSourceLanguage": true,
      "phrase": [
        {
          "word": "Zuek",
          "definition": "you\nyou all\nyou'll\nyou(plural)\nyour (plural)\nyour/you (plural)"
        },
        {
          "word": "hilero",
          "definition": "every month"
        },
        {
          "word": "ibiltzen",
          "definition": "walk\nwalking"
        },
        {
          "word": "zarete",
          "definition": "are\ntheir"
        },
        {
          "word": "Madrilen.",
          "definition": "in Madrid\nin madrid"
        }
      ],
      "chips": [
        "You",
        "all",
        "walk",
        "in",
        "Madrid",
        "every",
        "month",
        "and",
        "an",
        "any",
        "man",
        "are",
        "or"
      ],
      "solutions": [
        [
          "You",
          "all",
          "walk",
          "in",
          "Madrid",
          "every",
          "month"
        ],
        [
          "You",
          "plural",
          "walk",
          "in",
          "Madrid",
          "every",
          "month"
        ],
        [
          "You",
          "walk",
          "in",
          "Madrid",
          "every",
          "month"
        ]
      ],
      "formattedSolution": "You all walk in Madrid every month.",
      "id": "f3c4e023f563",
      "priority": 2,
      "group": "81024803e337"
    },
    {
      "type": "options",
      "formInTargetLanguage": "Haiek egunero seietan iristen dira.",
      "meaningInSourceLanguage": "They arrive every day at six.",
      "id": "9b7309258d6c",
      "priority": 0,
      "group": "63f8e27e5c5e"
    },
    {
      "type": "chips",
      "translatesToSourceLanguage": false,
      "phrase": [
        {
          "word": "They",
          "definition": "haiek"
        },
        {
          "word": "arrive",
          "definition": "etorri\niristen\niritsiko"
        },
        {
          "word": "every",
          "definition": "-ero"
        },
        {
          "word": "day",
          "definition": "egun"
        },
        {
          "word": "at",
          "definition": "not translated, part of insessive case"
        },
        {
          "word": "six.",
          "definition": "sei"
        }
      ],
      "chips": [
        "Haiek",
        "egunero",
        "seietan",
        "iristen",
        "dira",
        "haien",
        "egiten",
        "haiek",
        "ginen"
      ],
      "solutions": [
        [
          "Haiek",
          "egunero",
          "seietan",
          "iristen",
          "dira"
        ],
        [
          "Egunero",
          "seietan",
          "iristen",
          "dira"
        ]
      ],
      "formattedSolution": "Haiek egunero seietan iristen dira.",
      "id": "36635f3bb0e3",
      "priority": 2,
      "group": "63f8e27e5c5e"
    },
    {
      "type": "chips",
      "translatesToSourceLanguage": true,
      "phrase": [
        {
          "word": "Haiek",
          "definition": "they\nthose over there, plural of hura"
        },
        {
          "word": "egunero",
          "definition": "every day"
        },
        {
          "word": "seietan",
          "definition": "at six"
        },
        {
          "word": "iristen",
          "definition": "arrive\narriving"
        },
        {
          "word": "dira.",
          "definition": "are\nare (izan)"
        }
      ],
      "chips": [
        "They",
        "arrive",
        "every",
        "day",
        "at",
        "six",
        "are",
        "dry",
        "ate",
        "say",
        "her"
      ],
      "solutions": [
        [
          "They",
          "arrive",
          "every",
          "day",
          "at",
          "six"
        ]
      ],
      "formattedSolution": "They arrive every day at six.",
      "id": "191e294221f4",
      "priority": 2,
      "group": "63f8e27e5c5e"
    },
    {
      "type": "options",
      "formInTargetLanguage": "Ni egunero hamarretan iristen naiz.",
      "meaningInSourceLanguage": "I arrive every day at ten.",
      "id": "9346e50585c5",
      "priority": 0,
      "group": "08701d968693"
    },
    {
      "type": "chips",
      "translatesToSourceLanguage": false,
      "phrase": [
        {
          "word": "I",
          "definition": "ni"
        },
        {
          "word": "arrive",
          "definition": "etorri\niristen\niritsiko"
        },
        {
          "word": "every",
          "definition": "-ero"
        },
        {
          "word": "day",
          "definition": "egun"
        },
        {
          "word": "at",
          "definition": "not translated, part of insessive case"
        },
        {
          "word": "ten.",
          "definition": "hama\nhamar"
        }
      ],
      "chips": [
        "Ni",
        "egunero",
        "hamarretan",
        "iristen",
        "naiz",
        "haien",
        "egin",
        "nire",
        "ezin"
      ],
      "solutions": [
        [
          "Ni",
          "egunero",
          "hamarretan",
          "iristen",
          "naiz"
        ],
        [
          "Egunero",
          "hamarretan",
          "iristen",
          "naiz"
        ]
      ],
      "formattedSolution": "Ni egunero hamarretan iristen naiz.",
      "id": "087476f047e4",
      "priority": 2,
      "group": "08701d968693"
    },
    {
      "type": "chips",
      "translatesToSourceLanguage": true,
      "phrase": [
        {
          "word": "Ni",
          "definition": "I\nme"
        },
        {
          "word": "egunero",
          "definition": "every day"
        },
        {
          "word": "hamarretan",
          "definition": "at ten"
        },
        {
          "word": "iristen",
          "definition": "arrive\narriving"
        },
        {
          "word": "naiz.",
          "definition": "I am (izan)\nam\nam (izan)"
        }
      ],
      "chips": [
        "I",
        "arrive",
        "every",
        "day",
        "at",
        "ten",
        "a",
        "an",
        "ate",
        "am",
        "are"
      ],
      "solutions": [
        [
          "I",
          "arrive",
          "every",
          "day",
          "at",
          "ten"
        ]
      ],
      "formattedSolution": "I arrive every day at ten.",
      "id": "d33298d572da",
      "priority": 2,
      "group": "08701d968693"
    },
    {
      "type": "options",
      "formInTargetLanguage": "Zu urtero ibiltzen zara hemen.",
      "meaningInSourceLanguage": "You walk here every year.",
      "id": "0e50b5444553",
      "priority": 0,
      "group": "0897b956770a"
    },
    {
      "type": "chips",
      "translatesToSourceLanguage": false,
      "phrase": [
        {
          "word": "You",
          "definition": "zu\nzuek"
        },
        {
          "word": "walk",
          "definition": "ibiliko\nibiliko (izan future)\nibiltzen\nibiltzen (izan present)"
        },
        {
          "word": "here",
          "definition": "hemen"
        },
        {
          "word": "every",
          "definition": "-ero"
        },
        {
          "word": "year.",
          "definition": "urte"
        }
      ],
      "chips": [
        "Zu",
        "urtero",
        "ibiltzen",
        "zara",
        "hemen",
        "zen",
        "ere",
        "Zer",
        "arte"
      ],
      "solutions": [
        [
          "Zu",
          "urtero",
          "ibiltzen",
          "zara",
          "hemen"
        ],
        [
          "Urtero",
          "ibiltzen",
          "zara",
          "hemen"
        ]
      ],
      "formattedSolution": "Zu urtero ibiltzen zara hemen.",
      "id": "7e2610ec9d85",
      "priority": 2,
      "group": "0897b956770a"
    },
    {
      "type": "chips",
      "translatesToSourceLanguage": true,
      "phrase": [
        {
          "word": "Zu",
          "definition": "you"
        },
        {
          "word": "urtero",
          "definition": "every year"
        },
        {
          "word": "ibiltzen",
          "definition": "walk\nwalking"
        },
        {
          "word": "zara",
          "definition": "are\nyou are (izan)"
        },
        {
          "word": "hemen.",
          "definition": "here"
        }
      ],
      "chips": [
        "You",
        "walk",
        "here",
        "every",
        "year",
        "her",
        "wer",
        "were",
        "very"
      ],
      "solutions": [
        [
          "You",
          "walk",
          "here",
          "every",
          "year"
        ]
      ],
      "formattedSolution": "You walk here every year.",
      "id": "45eab0220163",
      "priority": 2,
      "group": "0897b956770a"
    },
    {
      "type": "options",
      "formInTargetLanguage": "Hura egunero esnatzen da bostetan.",
      "meaningInSourceLanguage": "He wakes up every day at five.",
      "id": "fbf54ad8f898",
      "priority": 0,
      "group": "712885b4ad43"
    },
    {
      "type": "chips",
      "translatesToSourceLanguage": false,
      "phrase": [
        {
          "word": "He",
          "definition": "hura"
        },
        {
          "word": "wakes",
          "definition": "esnatzen"
        },
        {
          "word": "up",
          "definition": "gora\npart of wake up"
        },
        {
          "word": "every",
          "definition": "-ero"
        },
        {
          "word": "day",
          "definition": "egun"
        },
        {
          "word": "at",
          "definition": "not translated, part of insessive case"
        },
        {
          "word": "five.",
          "definition": "bost"
        }
      ],
      "chips": [
        "Hura",
        "egunero",
        "esnatzen",
        "da",
        "bostetan",
        "esan",
        "edan",
        "esnea",
        "eta"
      ],
      "solutions": [
        [
          "Hura",
          "egunero",
          "esnatzen",
          "da",
          "bostetan"
        ],
        [
          "Egunero",
          "esnatzen",
          "da",
          "bostetan"
        ]
      ],
      "formattedSolution": "Hura egunero esnatzen da bostetan.",
      "id": "967e53cd4054",
      "priority": 2,
      "group": "712885b4ad43"
    },
    {
      "type": "chips",
      "translatesToSourceLanguage": true,
      "phrase": [
        {
          "word": "Hura",
          "definition": "he\nit\nitr\nshe\nthat over there"
        },
        {
          "word": "egunero",
          "definition": "every day"
        },
        {
          "word": "esnatzen",
          "definition": "wake up\nwaking"
        },
        {
          "word": "da",
          "definition": "he is (izan)\nis\nit is (izan)\nshe is (izan)"
        },
        {
          "word": "bostetan.",
          "definition": "at five"
        }
      ],
      "chips": [
        "He",
        "wakes",
        "up",
        "every",
        "day",
        "at",
        "five",
        "We",
        "he",
        "me",
        "be",
        "ate",
        "am"
      ],
      "solutions": [
        [
          "He",
          "wakes",
          "up",
          "every",
          "day",
          "at",
          "five"
        ],
        [
          "She",
          "wakes",
          "up",
          "every",
          "day",
          "at",
          "five"
        ]
      ],
      "formattedSolution": "He wakes up every day at five.",
      "id": "ad043e07f82b",
      "priority": 2,
      "group": "712885b4ad43"
    },
    {
      "type": "options",
      "formInTargetLanguage": "Gu gauero han eserten gara.",
      "meaningInSourceLanguage": "We sit there every night.",
      "id": "89a0bc8efc15",
      "priority": 0,
      "group": "0a2b79a080a8"
    },
    {
      "type": "chips",
      "translatesToSourceLanguage": false,
      "phrase": [
        {
          "word": "We",
          "definition": "gu"
        },
        {
          "word": "sit",
          "definition": "eseri\neseri (command)\neseriko\neseriko (future)\neserten\neserten (present habitual)"
        },
        {
          "word": "there",
          "definition": "han\nhor"
        },
        {
          "word": "every",
          "definition": "-ero"
        },
        {
          "word": "night.",
          "definition": "gau\ngaua"
        }
      ],
      "chips": [
        "Gu",
        "gauero",
        "han",
        "eserten",
        "gara",
        "gaur",
        "ere",
        "hau",
        "gure"
      ],
      "solutions": [
        [
          "Gu",
          "gauero",
          "han",
          "eserten",
          "gara"
        ],
        [
          "Gauero",
          "han",
          "eserten",
          "gara"
        ]
      ],
      "formattedSolution": "Gu gauero han eserten gara.",
      "id": "7824c25cb0c2",
      "priority": 2,
      "group": "0a2b79a080a8"
    },
    {
      "type": "chips",
      "translatesToSourceLanguage": true,
      "phrase": [
        {
          "word": "Gu",
          "definition": "we"
        },
        {
          "word": "gauero",
          "definition": "every night"
        },
        {
          "word": "han",
          "definition": "over there\nthere"
        },
        {
          "word": "eserten",
          "definition": "sit"
        },
        {
          "word": "gara.",
          "definition": "are\nare (izan)"
        }
      ],
      "chips": [
        "We",
        "sit",
        "there",
        "every",
        "night",
        "the",
        "her",
        "She",
        "it"
      ],
      "solutions": [
        [
          "We",
          "sit",
          "there",
          "every",
          "night"
        ]
      ],
      "formattedSolution": "We sit there every night.",
      "id": "57c86c0306da",
      "priority": 2,
      "group": "0a2b79a080a8"
    },
    {
      "type": "options",
      "formInTargetLanguage": "Zuek egunero erortzen zarete.",
      "meaningInSourceLanguage": "You all fall every day.",
      "id": "e67a36b8d19a",
      "priority": 0,
      "group": "d02c3dd768e3"
    },
    {
      "type": "chips",
      "translatesToSourceLanguage": false,
      "phrase": [
        {
          "word": "You",
          "definition": "zu\nzuek"
        },
        {
          "word": "all",
          "definition": "part of plural form of you\npart of you plural, you all"
        },
        {
          "word": "fall",
          "definition": "eroriko\neroriko (verb)\nerortzen\nerortzen (verb)\nudazkena (season)"
        },
        {
          "word": "every",
          "definition": "-ero"
        },
        {
          "word": "day.",
          "definition": "egun"
        }
      ],
      "chips": [
        "Zuek",
        "egunero",
        "erortzen",
        "zarete",
        "ere",
        "zuek",
        "arte"
      ],
      "solutions": [
        [
          "Zuek",
          "egunero",
          "erortzen",
          "zarete"
        ],
        [
          "Egunero",
          "erortzen",
          "zarete"
        ]
      ],
      "formattedSolution": "Zuek egunero erortzen zarete.",
      "id": "22d8284f057b",
      "priority": 2,
      "group": "d02c3dd768e3"
    },
    {
      "type": "chips",
      "translatesToSourceLanguage": true,
      "phrase": [
        {
          "word": "Zuek",
          "definition": "you\nyou all\nyou'll\nyou(plural)\nyour (plural)\nyour/you (plural)"
        },
        {
          "word": "egunero",
          "definition": "every day"
        },
        {
          "word": "erortzen",
          "definition": "fall\nfalling"
        },
        {
          "word": "zarete.",
          "definition": "are\ntheir"
        }
      ],
      "chips": [
        "You",
        "all",
        "fall",
        "every",
        "day",
        "tall",
        "ball",
        "lay",
        "dry"
      ],
      "solutions": [
        [
          "You",
          "all",
          "fall",
          "every",
          "day"
        ],
        [
          "You",
          "plural",
          "fall",
          "every",
          "day"
        ],
        [
          "You",
          "fall",
          "every",
          "day"
        ]
      ],
      "formattedSolution": "You all fall every day.",
      "id": "840773447b17",
      "priority": 2,
      "group": "d02c3dd768e3"
    },
    {
      "type": "options",
      "formInTargetLanguage": "Haiek Frantzian egoten dira urtero.",
      "meaningInSourceLanguage": "They stay in France every year.",
      "id": "47ee12ec2d49",
      "priority": 0,
      "group": "ef4b1cd4804e"
    },
    {
      "type": "chips",
      "translatesToSourceLanguage": false,
      "phrase": [
        {
          "word": "They",
          "definition": "haiek"
        },
        {
          "word": "stay",
          "definition": "egon\negon (command)\negongo\negongo (future)\negoten\negoten (present habitual)\ngeratu\ngeratu (present)\ngeratuko (future)"
        },
        {
          "word": "in",
          "definition": "Inessive case\nNON case, not a word"
        },
        {
          "word": "France",
          "definition": "Francia\nFrantzia"
        },
        {
          "word": "every",
          "definition": "-ero"
        },
        {
          "word": "year.",
          "definition": "urte"
        }
      ],
      "chips": [
        "Haiek",
        "Frantzian",
        "egoten",
        "dira",
        "urtero",
        "haien",
        "aita",
        "urte",
        "atera"
      ],
      "solutions": [
        [
          "Haiek",
          "Frantzian",
          "egoten",
          "dira",
          "urtero"
        ],
        [
          "Frantzian",
          "egoten",
          "dira",
          "urtero"
        ]
      ],
      "formattedSolution": "Haiek Frantzian egoten dira urtero.",
      "id": "096407198d80",
      "priority": 2,
      "group": "ef4b1cd4804e"
    },
    {
      "type": "chips",
      "translatesToSourceLanguage": true,
      "phrase": [
        {
          "word": "Haiek",
          "definition": "they\nthose over there, plural of hura"
        },
        {
          "word": "Frantzian",
          "definition": "in France"
        },
        {
          "word": "egoten",
          "definition": "stay\nstay/be at a location\nstay/being at a location"
        },
        {
          "word": "dira",
          "definition": "are\nare (izan)"
        },
        {
          "word": "urtero.",
          "definition": "every year"
        }
      ],
      "chips": [
        "They",
        "stay",
        "in",
        "France",
        "every",
        "year",
        "say",
        "an",
        "gray",
        "her",
        "ten"
      ],
      "solutions": [
        [
          "They",
          "stay",
          "in",
          "France",
          "every",
          "year"
        ]
      ],
      "formattedSolution": "They stay in France every year.",
      "id": "308b43cab272",
      "priority": 2,
      "group": "ef4b1cd4804e"
    },
    {
      "type": "cards",
      "pictures": [
        "nothing.jpg",
        "nothing.jpg",
        "nothing.jpg"
      ],
      "formInTargetLanguage": "egunero",
      "meaningInSourceLanguage": "every day",
      "id": "b211697d3806",
      "priority": 0,
      "group": "39bcdd83fe37"
    },
    {
      "type": "shortInput",
      "pictures": [
        "nothing.jpg",
        "nothing.jpg",
        "nothing.jpg"
      ],
      "formInTargetLanguage": [
        "egunero"
      ],
      "phrase": [
        {
          "word": "every",
          "definition": "-ero"
        },
        {
          "word": "day",
          "definition": "egun"
        }
      ],
      "id": "a75d832c8da9",
      "priority": 1,
      "group": "39bcdd83fe37"
    },
    {
      "type": "cards",
      "pictures": [
        "nothing.jpg",
        "nothing.jpg",
        "nothing.jpg"
      ],
      "formInTargetLanguage": "gauero",
      "meaningInSourceLanguage": "every night",
      "id": "b81b46153636",
      "priority": 0,
      "group": "f9cf0ee7ce3a"
    },
    {
      "type": "shortInput",
      "pictures": [
        "nothing.jpg",
        "nothing.jpg",
        "nothing.jpg"
      ],
      "formInTargetLanguage": [
        "gauero"
      ],
      "phrase": [
        {
          "word": "every",
          "definition": "-ero"
        },
        {
          "word": "night",
          "definition": "gau\ngaua"
        }
      ],
      "id": "39ccf8bdedd9",
      "priority": 1,
      "group": "f9cf0ee7ce3a"
    },
    {
      "type": "cards",
      "pictures": [
        "nothing.jpg",
        "nothing.jpg",
        "nothing.jpg"
      ],
      "formInTargetLanguage": "hilero",
      "meaningInSourceLanguage": "every month",
      "id": "f72e97cc4576",
      "priority": 0,
      "group": "dd22f05615bb"
    },
    {
      "type": "shortInput",
      "pictures": [
        "nothing.jpg",
        "nothing.jpg",
        "nothing.jpg"
      ],
      "formInTargetLanguage": [
        "hilero"
      ],
      "phrase": [
        {
          "word": "every",
          "definition": "-ero"
        },
        {
          "word": "month",
          "definition": "hil\nhilabete\nhilabetean (in a)"
        }
      ],
      "id": "b0887d6cc5f3",
      "priority": 1,
      "group": "dd22f05615bb"
    },
    {
      "type": "cards",
      "pictures": [
        "nothing.jpg",
        "nothing.jpg",
        "nothing.jpg"
      ],
      "formInTargetLanguage": "urtero",
      "meaningInSourceLanguage": "every year",
      "id": "4694acde44bf",
      "priority": 0,
      "group": "d5ca73d1f7bf"
    },
    {
      "type": "shortInput",
      "pictures": [
        "nothing.jpg",
        "nothing.jpg",
        "nothing.jpg"
      ],
      "formInTargetLanguage": [
        "urtero"
      ],
      "phrase": [
        {
          "word": "every",
          "definition": "-ero"
        },
        {
          "word": "year",
          "definition": "urte"
        }
      ],
      "id": "fad6e704a885",
      "priority": 1,
      "group": "d5ca73d1f7bf"
    },
    {
      "type": "cards",
      "pictures": [
        "nothing.jpg",
        "nothing.jpg",
        "nothing.jpg"
      ],
      "formInTargetLanguage": "egoten",
      "meaningInSourceLanguage": "stay",
      "id": "62caea5f4e21",
      "priority": 0,
      "group": "05624ee790bf"
    },
    {
      "type": "shortInput",
      "pictures": [
        "nothing.jpg",
        "nothing.jpg",
        "nothing.jpg"
      ],
      "formInTargetLanguage": [
        "egoten"
      ],
      "phrase": [
        {
          "word": "stay",
          "definition": "egon\negon (command)\negongo\negongo (future)\negoten\negoten (present habitual)\ngeratu\ngeratu (present)\ngeratuko (future)"
        }
      ],
      "id": "7caeea9a8298",
      "priority": 1,
      "group": "05624ee790bf"
    },
    {
      "type": "cards",
      "pictures": [
        "nothing.jpg",
        "nothing.jpg",
        "nothing.jpg"
      ],
      "formInTargetLanguage": "erortzen",
      "meaningInSourceLanguage": "fall",
      "id": "a8fb5462310d",
      "priority": 0,
      "group": "4847f5ef619e"
    },
    {
      "type": "shortInput",
      "pictures": [
        "nothing.jpg",
        "nothing.jpg",
        "nothing.jpg"
      ],
      "formInTargetLanguage": [
        "erortzen"
      ],
      "phrase": [
        {
          "word": "fall",
          "definition": "eroriko\neroriko (verb)\nerortzen\nerortzen (verb)\nudazkena (season)"
        }
      ],
      "id": "ff6ec8dec1b8",
      "priority": 1,
      "group": "4847f5ef619e"
    },
    {
      "type": "cards",
      "pictures": [
        "nothing.jpg",
        "nothing.jpg",
        "nothing.jpg"
      ],
      "formInTargetLanguage": "eserten",
      "meaningInSourceLanguage": "sit",
      "id": "f90412a542c9",
      "priority": 0,
      "group": "56597e34a55f"
    },
    {
      "type": "shortInput",
      "pictures": [
        "nothing.jpg",
        "nothing.jpg",
        "nothing.jpg"
      ],
      "formInTargetLanguage": [
        "eserten"
      ],
      "phrase": [
        {
          "word": "sit",
          "definition": "eseri\neseri (command)\neseriko\neseriko (future)\neserten\neserten (present habitual)"
        }
      ],
      "id": "84a192e02134",
      "priority": 1,
      "group": "56597e34a55f"
    },
    {
      "type": "cards",
      "pictures": [
        "nothing.jpg",
        "nothing.jpg",
        "nothing.jpg"
      ],
      "formInTargetLanguage": "esnatzen",
      "meaningInSourceLanguage": "wake up",
      "id": "2ee4b8cac43e",
      "priority": 0,
      "group": "925ce10b0ccc"
    },
    {
      "type": "shortInput",
      "pictures": [
        "nothing.jpg",
        "nothing.jpg",
        "nothing.jpg"
      ],
      "formInTargetLanguage": [
        "esnatzen"
      ],
      "phrase": [
        {
          "word": "wake",
          "definition": "esnatuko\nesnatzen"
        },
        {
          "word": "up",
          "definition": "gora\npart of wake up"
        }
      ],
      "id": "5af579f40dba",
      "priority": 1,
      "group": "925ce10b0ccc"
    },
    {
      "type": "cards",
      "pictures": [
        "nothing.jpg",
        "nothing.jpg",
        "nothing.jpg"
      ],
      "formInTargetLanguage": "ibiltzen",
      "meaningInSourceLanguage": "walk",
      "id": "fb119de06e03",
      "priority": 0,
      "group": "73d1a783adbb"
    },
    {
      "type": "shortInput",
      "pictures": [
        "nothing.jpg",
        "nothing.jpg",
        "nothing.jpg"
      ],
      "formInTargetLanguage": [
        "ibiltzen"
      ],
      "phrase": [
        {
          "word": "walk",
          "definition": "ibiliko\nibiliko (izan future)\nibiltzen\nibiltzen (izan present)"
        }
      ],
      "id": "c74d949bad5c",
      "priority": 1,
      "group": "73d1a783adbb"
    },
    {
      "type": "cards",
      "pictures": [
        "nothing.jpg",
        "nothing.jpg",
        "nothing.jpg"
      ],
      "formInTargetLanguage": "iristen",
      "meaningInSourceLanguage": "arrive",
      "id": "af1b0d86de46",
      "priority": 0,
      "group": "2e5eedcc9d6d"
    },
    {
      "type": "shortInput",
      "pictures": [
        "nothing.jpg",
        "nothing.jpg",
        "nothing.jpg"
      ],
      "formInTargetLanguage": [
        "iristen"
      ],
      "phrase": [
        {
          "word": "arrive",
          "definition": "etorri\niristen\niritsiko"
        }
      ],
      "id": "10373d82451f",
      "priority": 1,
      "group": "2e5eedcc9d6d"
    }
  ]
}