{
  "id": "b3cff5d2b8b7",
  "levels": 5,
  "challenges": [
    {
      "type": "options",
      "formInTargetLanguage": "Ni orain basoan nabil.",
      "meaningInSourceLanguage": "I am now walking in the forest.",
      "id": "b91b98262d0d",
      "priority": 0,
      "group": "1d2d7f55129f"
    },
    {
      "type": "chips",
      "translatesToSourceLanguage": false,
      "phrase": [
        {
          "word": "I",
          "definition": "ni"
        },
        {
          "word": "am",
          "definition": "NORTAZ case\nnago (egon)\nnaiz\nnaiz (izan)"
        },
        {
          "word": "now",
          "definition": "orain"
        },
        {
          "word": "walking",
          "definition": "dabil (he/she/it is walking)\ndabiltza (they are walking)\ngabiltza (we are walking)\ngenbiltzan (We  were walking)\nibiltzen\nnabil (I am walking)\nnenbilen (I was walking)\nzabiltza (you are walking)\nzabiltzate (you (plural) are walking)\nzebilen (He/she/it was walking)\nzebiltzan (They were walking)\nzenbiltzan (You were walking)\nzenbiltzaten (You (plural) were walking)"
        },
        {
          "word": "in",
          "definition": "Inessive case\nNON case, not a word"
        },
        {
          "word": "the",
          "definition": "-a"
        },
        {
          "word": "forest.",
          "definition": "baso"
        }
      ],
      "chips": [
        "Ni",
        "orain",
        "basoan",
        "nabil",
        "naiz",
        "Bai",
        "bi"
      ],
      "solutions": [
        [
          "Ni",
          "orain",
          "basoan",
          "nabil"
        ],
        [
          "Orain",
          "basoan",
          "nabil"
        ]
      ],
      "formattedSolution": "Ni orain basoan nabil.",
      "id": "407920f0c9b6",
      "priority": 2,
      "group": "1d2d7f55129f"
    },
    {
      "type": "chips",
      "translatesToSourceLanguage": true,
      "phrase": [
        {
          "word": "Ni",
          "definition": "I\nme"
        },
        {
          "word": "orain",
          "definition": "now"
        },
        {
          "word": "basoan",
          "definition": "in a forest\nin the forest"
        },
        {
          "word": "nabil.",
          "definition": "I am walking"
        }
      ],
      "chips": [
        "I",
        "am",
        "now",
        "walking",
        "in",
        "the",
        "forest",
        "an",
        "on",
        "a",
        "is",
        "or",
        "it"
      ],
      "solutions": [
        [
          "I",
          "am",
          "now",
          "walking",
          "in",
          "the",
          "forest"
        ]
      ],
      "formattedSolution": "I am now walking in the forest.",
      "id": "e9a5b330e7c3",
      "priority": 2,
      "group": "1d2d7f55129f"
    },
    {
      "type": "options",
      "formInTargetLanguage": "Zu parkean zabiltza.",
      "meaningInSourceLanguage": "You are walking in the park.",
      "id": "a20a0898448a",
      "priority": 0,
      "group": "b8888ed07842"
    },
    {
      "type": "chips",
      "translatesToSourceLanguage": false,
      "phrase": [
        {
          "word": "You",
          "definition": "zu\nzuek"
        },
        {
          "word": "are",
          "definition": "daude\ndaude (egon)\ndaude (izan)\ndira\ndira (izan)\ngara\ngara (izan)\ngare\ngaude (egon)\nzara\nzara (izan)\nzarete\nzarete (izan)\nzaude  (egon)\nzaude (egon)\nzaudete (egon)"
        },
        {
          "word": "walking",
          "definition": "dabil (he/she/it is walking)\ndabiltza (they are walking)\ngabiltza (we are walking)\ngenbiltzan (We  were walking)\nibiltzen\nnabil (I am walking)\nnenbilen (I was walking)\nzabiltza (you are walking)\nzabiltzate (you (plural) are walking)\nzebilen (He/she/it was walking)\nzebiltzan (They were walking)\nzenbiltzan (You were walking)\nzenbiltzaten (You (plural) were walking)"
        },
        {
          "word": "in",
          "definition": "Inessive case\nNON case, not a word"
        },
        {
          "word": "the",
          "definition": "-a"
        },
        {
          "word": "park.",
          "definition": "parke"
        }
      ],
      "chips": [
        "Zu",
        "parkean",
        "zabiltza",
        "zara",
        "altua"
      ],
      "solutions": [
        [
          "Zu",
          "parkean",
          "zabiltza"
        ],
        [
          "Parkean",
          "zabiltza"
        ]
      ],
      "formattedSolution": "Zu parkean zabiltza.",
      "id": "2f68b59ce9ee",
      "priority": 2,
      "group": "b8888ed07842"
    },
    {
      "type": "chips",
      "translatesToSourceLanguage": true,
      "phrase": [
        {
          "word": "Zu",
          "definition": "you"
        },
        {
          "word": "parkean",
          "definition": "in a park"
        },
        {
          "word": "zabiltza.",
          "definition": "you are walking"
        }
      ],
      "chips": [
        "You",
        "are",
        "walking",
        "in",
        "the",
        "park",
        "an",
        "and",
        "lie",
        "any",
        "ate"
      ],
      "solutions": [
        [
          "You",
          "are",
          "walking",
          "in",
          "the",
          "park"
        ]
      ],
      "formattedSolution": "You are walking in the park.",
      "id": "ea97ca77a19f",
      "priority": 2,
      "group": "b8888ed07842"
    },
    {
      "type": "options",
      "formInTargetLanguage": "Nire arreba  hondartzan dabil.",
      "meaningInSourceLanguage": "My sister is walking on the beach.",
      "id": "1cfd61f9c1ec",
      "priority": 0,
      "group": "190e3ef6f8be"
    },
    {
      "type": "chips",
      "translatesToSourceLanguage": false,
      "phrase": [
        {
          "word": "My",
          "definition": "nire"
        },
        {
          "word": "sister",
          "definition": "ahizpa\narreba"
        },
        {
          "word": "is",
          "definition": "da\nda (izan)\ndago\ndago (egon)"
        },
        {
          "word": "walking",
          "definition": "dabil (he/she/it is walking)\ndabiltza (they are walking)\ngabiltza (we are walking)\ngenbiltzan (We  were walking)\nibiltzen\nnabil (I am walking)\nnenbilen (I was walking)\nzabiltza (you are walking)\nzabiltzate (you (plural) are walking)\nzebilen (He/she/it was walking)\nzebiltzan (They were walking)\nzenbiltzan (You were walking)\nzenbiltzaten (You (plural) were walking)"
        },
        {
          "word": "on",
          "definition": "Inessive case\nNON case, not a word\ngainean\npart of phrase, not translated"
        },
        {
          "word": "the",
          "definition": "-a"
        },
        {
          "word": "beach.",
          "definition": "hondartza"
        }
      ],
      "chips": [
        "Nire",
        "arreba",
        "hondartzan",
        "dabil",
        "dira",
        "arte",
        "nirea"
      ],
      "solutions": [
        [
          "Nire",
          "arreba",
          "hondartzan",
          "dabil"
        ],
        [
          "Nire",
          "ahizpa",
          "hondartzan",
          "dabil"
        ]
      ],
      "formattedSolution": "Nire arreba  hondartzan dabil.",
      "id": "4080e292da02",
      "priority": 2,
      "group": "190e3ef6f8be"
    },
    {
      "type": "chips",
      "translatesToSourceLanguage": true,
      "phrase": [
        {
          "word": "Nire",
          "definition": "my"
        },
        {
          "word": "arreba",
          "definition": "sister of a brother"
        },
        {
          "word": "hondartzan",
          "definition": "on the beach"
        },
        {
          "word": "dabil.",
          "definition": "he is walking\nhe/she/it is walking"
        }
      ],
      "chips": [
        "My",
        "sister",
        "is",
        "walking",
        "on",
        "the",
        "beach",
        "in",
        "it",
        "an",
        "be",
        "He",
        "We"
      ],
      "solutions": [
        [
          "My",
          "sister",
          "is",
          "walking",
          "on",
          "the",
          "beach"
        ]
      ],
      "formattedSolution": "My sister is walking on the beach.",
      "id": "806781b64068",
      "priority": 2,
      "group": "190e3ef6f8be"
    },
    {
      "type": "options",
      "formInTargetLanguage": "Gu aireportuan gabiltza.",
      "meaningInSourceLanguage": "We are walking in the airport.",
      "id": "16259ff9f336",
      "priority": 0,
      "group": "206ab087f1c5"
    },
    {
      "type": "chips",
      "translatesToSourceLanguage": false,
      "phrase": [
        {
          "word": "We",
          "definition": "gu"
        },
        {
          "word": "are",
          "definition": "daude\ndaude (egon)\ndaude (izan)\ndira\ndira (izan)\ngara\ngara (izan)\ngare\ngaude (egon)\nzara\nzara (izan)\nzarete\nzarete (izan)\nzaude  (egon)\nzaude (egon)\nzaudete (egon)"
        },
        {
          "word": "walking",
          "definition": "dabil (he/she/it is walking)\ndabiltza (they are walking)\ngabiltza (we are walking)\ngenbiltzan (We  were walking)\nibiltzen\nnabil (I am walking)\nnenbilen (I was walking)\nzabiltza (you are walking)\nzabiltzate (you (plural) are walking)\nzebilen (He/she/it was walking)\nzebiltzan (They were walking)\nzenbiltzan (You were walking)\nzenbiltzaten (You (plural) were walking)"
        },
        {
          "word": "in",
          "definition": "Inessive case\nNON case, not a word"
        },
        {
          "word": "the",
          "definition": "-a"
        },
        {
          "word": "airport.",
          "definition": "aireportua"
        }
      ],
      "chips": [
        "Gu",
        "aireportuan",
        "gabiltza",
        "altua",
        "aita"
      ],
      "solutions": [
        [
          "Gu",
          "aireportuan",
          "gabiltza"
        ],
        [
          "Aireportuan",
          "gabiltza"
        ]
      ],
      "formattedSolution": "Gu aireportuan gabiltza.",
      "id": "ddd7ebbf8760",
      "priority": 2,
      "group": "206ab087f1c5"
    },
    {
      "type": "chips",
      "translatesToSourceLanguage": true,
      "phrase": [
        {
          "word": "Gu",
          "definition": "we"
        },
        {
          "word": "aireportuan",
          "definition": "in the airport"
        },
        {
          "word": "gabiltza.",
          "definition": "we are walking"
        }
      ],
      "chips": [
        "We",
        "are",
        "walking",
        "in",
        "the",
        "airport",
        "an",
        "lie",
        "one",
        "it",
        "we"
      ],
      "solutions": [
        [
          "We",
          "are",
          "walking",
          "in",
          "the",
          "airport"
        ]
      ],
      "formattedSolution": "We are walking in the airport.",
      "id": "0da2444f729d",
      "priority": 2,
      "group": "206ab087f1c5"
    },
    {
      "type": "options",
      "formInTargetLanguage": "Zuek Espainian zabiltzate.",
      "meaningInSourceLanguage": "You all are walking in Spain.",
      "id": "d0b5a1f10fe9",
      "priority": 0,
      "group": "89df7263522e"
    },
    {
      "type": "chips",
      "translatesToSourceLanguage": false,
      "phrase": [
        {
          "word": "You",
          "definition": "zu\nzuek"
        },
        {
          "word": "all",
          "definition": "part of plural form of you\npart of you plural, you all"
        },
        {
          "word": "are",
          "definition": "daude\ndaude (egon)\ndaude (izan)\ndira\ndira (izan)\ngara\ngara (izan)\ngare\ngaude (egon)\nzara\nzara (izan)\nzarete\nzarete (izan)\nzaude  (egon)\nzaude (egon)\nzaudete (egon)"
        },
        {
          "word": "walking",
          "definition": "dabil (he/she/it is walking)\ndabiltza (they are walking)\ngabiltza (we are walking)\ngenbiltzan (We  were walking)\nibiltzen\nnabil (I am walking)\nnenbilen (I was walking)\nzabiltza (you are walking)\nzabiltzate (you (plural) are walking)\nzebilen (He/she/it was walking)\nzebiltzan (They were walking)\nzenbiltzan (You were walking)\nzenbiltzaten (You (plural) were walking)"
        },
        {
          "word": "in",
          "definition": "Inessive case\nNON case, not a word"
        },
        {
          "word": "Spain.",
          "definition": "Espainia"
        }
      ],
      "chips": [
        "Zuek",
        "Espainian",
        "zabiltzate",
        "aita",
        "baina"
      ],
      "solutions": [
        [
          "Zuek",
          "Espainian",
          "zabiltzate"
        ],
        [
          "Espainian",
          "zabiltzate"
        ]
      ],
      "formattedSolution": "Zuek Espainian zabiltzate.",
      "id": "d877f21867bf",
      "priority": 2,
      "group": "89df7263522e"
    },
    {
      "type": "chips",
      "translatesToSourceLanguage": true,
      "phrase": [
        {
          "word": "Zuek",
          "definition": "you\nyou all\nyou'll\nyou(plural)\nyour (plural)\nyour/you (plural)"
        },
        {
          "word": "Espainian",
          "definition": "in Spain"
        },
        {
          "word": "zabiltzate.",
          "definition": "you (plural) are walking\nyou all are walking"
        }
      ],
      "chips": [
        "You",
        "all",
        "are",
        "walking",
        "in",
        "Spain",
        "an",
        "and",
        "San",
        "rain",
        "any"
      ],
      "solutions": [
        [
          "You",
          "all",
          "are",
          "walking",
          "in",
          "Spain"
        ],
        [
          "You",
          "plural",
          "are",
          "walking",
          "in",
          "Spain"
        ],
        [
          "You'll",
          "are",
          "walking",
          "in",
          "Spain"
        ],
        [
          "You",
          "are",
          "walking",
          "in",
          "Spain"
        ]
      ],
      "formattedSolution": "You all are walking in Spain.",
      "id": "6a849ec74b22",
      "priority": 2,
      "group": "89df7263522e"
    },
    {
      "type": "options",
      "formInTargetLanguage": "Nire anaiak plazan dabiltza.",
      "meaningInSourceLanguage": "My brothers are walking in the plaza.",
      "id": "4e38b2a2a726",
      "priority": 0,
      "group": "2eaad0fec228"
    },
    {
      "type": "chips",
      "translatesToSourceLanguage": false,
      "phrase": [
        {
          "word": "My",
          "definition": "nire"
        },
        {
          "word": "brothers",
          "definition": "anaiak\narrebak\nnebak"
        },
        {
          "word": "are",
          "definition": "daude\ndaude (egon)\ndaude (izan)\ndira\ndira (izan)\ngara\ngara (izan)\ngare\ngaude (egon)\nzara\nzara (izan)\nzarete\nzarete (izan)\nzaude  (egon)\nzaude (egon)\nzaudete (egon)"
        },
        {
          "word": "walking",
          "definition": "dabil (he/she/it is walking)\ndabiltza (they are walking)\ngabiltza (we are walking)\ngenbiltzan (We  were walking)\nibiltzen\nnabil (I am walking)\nnenbilen (I was walking)\nzabiltza (you are walking)\nzabiltzate (you (plural) are walking)\nzebilen (He/she/it was walking)\nzebiltzan (They were walking)\nzenbiltzan (You were walking)\nzenbiltzaten (You (plural) were walking)"
        },
        {
          "word": "in",
          "definition": "Inessive case\nNON case, not a word"
        },
        {
          "word": "the",
          "definition": "-a"
        },
        {
          "word": "plaza.",
          "definition": "plaza"
        }
      ],
      "chips": [
        "Nire",
        "anaiak",
        "plazan",
        "dabiltza",
        "aita",
        "alaba",
        "anaia"
      ],
      "solutions": [
        [
          "Nire",
          "anaiak",
          "plazan",
          "dabiltza"
        ],
        [
          "Nire",
          "nebak",
          "plazan",
          "dabiltza"
        ]
      ],
      "formattedSolution": "Nire anaiak plazan dabiltza.",
      "id": "f86eabceed73",
      "priority": 2,
      "group": "2eaad0fec228"
    },
    {
      "type": "chips",
      "translatesToSourceLanguage": true,
      "phrase": [
        {
          "word": "Nire",
          "definition": "my"
        },
        {
          "word": "anaiak",
          "definition": "brothers of a brother"
        },
        {
          "word": "plazan",
          "definition": "in a\nin a plaza"
        },
        {
          "word": "dabiltza.",
          "definition": "they are walking"
        }
      ],
      "chips": [
        "My",
        "brothers",
        "are",
        "walking",
        "in",
        "the",
        "plaza",
        "an",
        "lie",
        "ate",
        "one",
        "at",
        "be"
      ],
      "solutions": [
        [
          "My",
          "brothers",
          "are",
          "walking",
          "in",
          "the",
          "plaza"
        ],
        [
          "My",
          "brothers",
          "are",
          "walking",
          "on",
          "the",
          "plaza"
        ]
      ],
      "formattedSolution": "My brothers are walking in the plaza.",
      "id": "d13372191d82",
      "priority": 2,
      "group": "2eaad0fec228"
    },
    {
      "type": "options",
      "formInTargetLanguage": "Gure bilobak mendian ibiltzen dira.",
      "meaningInSourceLanguage": "Our grandchildren are walking in the mountains.",
      "id": "919cd0e8f67b",
      "priority": 0,
      "group": "41f1372f2871"
    },
    {
      "type": "chips",
      "translatesToSourceLanguage": false,
      "phrase": [
        {
          "word": "Our",
          "definition": "gure"
        },
        {
          "word": "grandchildren",
          "definition": "bilobak"
        },
        {
          "word": "are",
          "definition": "daude\ndaude (egon)\ndaude (izan)\ndira\ndira (izan)\ngara\ngara (izan)\ngare\ngaude (egon)\nzara\nzara (izan)\nzarete\nzarete (izan)\nzaude  (egon)\nzaude (egon)\nzaudete (egon)"
        },
        {
          "word": "walking",
          "definition": "dabil (he/she/it is walking)\ndabiltza (they are walking)\ngabiltza (we are walking)\ngenbiltzan (We  were walking)\nibiltzen\nnabil (I am walking)\nnenbilen (I was walking)\nzabiltza (you are walking)\nzabiltzate (you (plural) are walking)\nzebilen (He/she/it was walking)\nzebiltzan (They were walking)\nzenbiltzan (You were walking)\nzenbiltzaten (You (plural) were walking)"
        },
        {
          "word": "in",
          "definition": "Inessive case\nNON case, not a word"
        },
        {
          "word": "the",
          "definition": "-a"
        },
        {
          "word": "mountains.",
          "definition": "mendiak"
        }
      ],
      "chips": [
        "Gure",
        "bilobak",
        "mendian",
        "ibiltzen",
        "dira",
        "nire",
        "bidea",
        "mila",
        "biak"
      ],
      "solutions": [
        [
          "Gure",
          "bilobak",
          "mendian",
          "ibiltzen",
          "dira"
        ]
      ],
      "formattedSolution": "Gure bilobak mendian ibiltzen dira.",
      "id": "ab790f6c52b3",
      "priority": 2,
      "group": "41f1372f2871"
    },
    {
      "type": "chips",
      "translatesToSourceLanguage": true,
      "phrase": [
        {
          "word": "Gure",
          "definition": "our"
        },
        {
          "word": "bilobak",
          "definition": "grandchildren"
        },
        {
          "word": "mendian",
          "definition": "in, on the mountain\non the mountain\nupon the mountain"
        },
        {
          "word": "ibiltzen",
          "definition": "walk\nwalking"
        },
        {
          "word": "dira.",
          "definition": "are\nare (izan)"
        }
      ],
      "chips": [
        "Our",
        "grandchildren",
        "are",
        "walking",
        "in",
        "the",
        "mountains",
        "and",
        "an",
        "rain",
        "man",
        "one",
        "thin"
      ],
      "solutions": [
        [
          "Our",
          "grandchildren",
          "are",
          "walking",
          "in",
          "the",
          "mountains"
        ]
      ],
      "formattedSolution": "Our grandchildren are walking in the mountains.",
      "id": "7c86996ff315",
      "priority": 2,
      "group": "41f1372f2871"
    },
    {
      "type": "options",
      "formInTargetLanguage": "Ni normalean hondartzan ibiltzen naiz, baina gaur ni basoan nabil.",
      "meaningInSourceLanguage": "I usually walk on the beach, but today I am walking in the forest.",
      "id": "9107b3ea99df",
      "priority": 0,
      "group": "90d230217175"
    },
    {
      "type": "chips",
      "translatesToSourceLanguage": false,
      "phrase": [
        {
          "word": "I",
          "definition": "ni"
        },
        {
          "word": "usually",
          "definition": "normalean\nohi"
        },
        {
          "word": "walk",
          "definition": "ibiliko\nibiliko (izan future)\nibiltzen\nibiltzen (izan present)"
        },
        {
          "word": "on",
          "definition": "Inessive case\nNON case, not a word\ngainean\npart of phrase, not translated"
        },
        {
          "word": "the",
          "definition": "-a"
        },
        {
          "word": "beach,",
          "definition": "hondartza"
        },
        {
          "word": "but",
          "definition": "baina\nbaina, baizik"
        },
        {
          "word": "today",
          "definition": "gaur"
        },
        {
          "word": "I",
          "definition": "ni"
        },
        {
          "word": "am",
          "definition": "NORTAZ case\nnago (egon)\nnaiz\nnaiz (izan)"
        },
        {
          "word": "walking",
          "definition": "dabil (he/she/it is walking)\ndabiltza (they are walking)\ngabiltza (we are walking)\ngenbiltzan (We  were walking)\nibiltzen\nnabil (I am walking)\nnenbilen (I was walking)\nzabiltza (you are walking)\nzabiltzate (you (plural) are walking)\nzebilen (He/she/it was walking)\nzebiltzan (They were walking)\nzenbiltzan (You were walking)\nzenbiltzaten (You (plural) were walking)"
        },
        {
          "word": "in",
          "definition": "Inessive case\nNON case, not a word"
        },
        {
          "word": "the",
          "definition": "-a"
        },
        {
          "word": "forest.",
          "definition": "baso"
        }
      ],
      "chips": [
        "Ni",
        "normalean",
        "hondartzan",
        "ibiltzen",
        "naiz",
        "baina",
        "gaur",
        "ni",
        "basoan",
        "nabil",
        "maiz",
        "aita",
        "bata",
        "lan",
        "Bai",
        "haien",
        "han",
        "bati",
        "zait"
      ],
      "solutions": [
        [
          "Ni",
          "normalean",
          "hondartzan",
          "ibiltzen",
          "naiz",
          "baina",
          "gaur",
          "ni",
          "basoan",
          "nabil"
        ],
        [
          "Normalean",
          "hondartzan",
          "ibiltzen",
          "naiz",
          "baina",
          "gaur",
          "ni",
          "basoan",
          "nabil"
        ]
      ],
      "formattedSolution": "Ni normalean hondartzan ibiltzen naiz, baina gaur ni basoan nabil.",
      "id": "a2e7635c6163",
      "priority": 2,
      "group": "90d230217175"
    },
    {
      "type": "chips",
      "translatesToSourceLanguage": true,
      "phrase": [
        {
          "word": "Ni",
          "definition": "I\nme"
        },
        {
          "word": "normalean",
          "definition": "normally\nusually"
        },
        {
          "word": "hondartzan",
          "definition": "on the beach"
        },
        {
          "word": "ibiltzen",
          "definition": "walk\nwalking"
        },
        {
          "word": "naiz,",
          "definition": "I am (izan)\nam\nam (izan)"
        },
        {
          "word": "baina",
          "definition": "but\nbut(contrast)"
        },
        {
          "word": "gaur",
          "definition": "today"
        },
        {
          "word": "ni",
          "definition": "I\nme"
        },
        {
          "word": "basoan",
          "definition": "in a forest\nin the forest"
        },
        {
          "word": "nabil.",
          "definition": "I am walking"
        }
      ],
      "chips": [
        "I",
        "usually",
        "walk",
        "on",
        "the",
        "beach",
        "but",
        "today",
        "I",
        "am",
        "walking",
        "in",
        "the",
        "forest",
        "an",
        "a",
        "at",
        "be",
        "In",
        "to",
        "any",
        "eat",
        "ran",
        "man",
        "one",
        "are",
        "He"
      ],
      "solutions": [
        [
          "I",
          "usually",
          "walk",
          "on",
          "the",
          "beach",
          "but",
          "today",
          "I",
          "am",
          "walking",
          "in",
          "the",
          "forest"
        ]
      ],
      "formattedSolution": "I usually walk on the beach, but today I am walking in the forest.",
      "id": "105531a58d59",
      "priority": 2,
      "group": "90d230217175"
    },
    {
      "type": "options",
      "formInTargetLanguage": "Zu normalean parkean ibiltzen zara, baina gaur zu plazan zoaz.",
      "meaningInSourceLanguage": "You normally walk in the park, but today you are walking on the plaza.",
      "id": "436efc2b5607",
      "priority": 0,
      "group": "7baa6178d1c7"
    },
    {
      "type": "chips",
      "translatesToSourceLanguage": false,
      "phrase": [
        {
          "word": "You",
          "definition": "zu\nzuek"
        },
        {
          "word": "normally",
          "definition": "normalean"
        },
        {
          "word": "walk",
          "definition": "ibiliko\nibiliko (izan future)\nibiltzen\nibiltzen (izan present)"
        },
        {
          "word": "in",
          "definition": "Inessive case\nNON case, not a word"
        },
        {
          "word": "the",
          "definition": "-a"
        },
        {
          "word": "park,",
          "definition": "parke"
        },
        {
          "word": "but",
          "definition": "baina\nbaina, baizik"
        },
        {
          "word": "today",
          "definition": "gaur"
        },
        {
          "word": "you",
          "definition": "zu\nzuek"
        },
        {
          "word": "are",
          "definition": "daude\ndaude (egon)\ndaude (izan)\ndira\ndira (izan)\ngara\ngara (izan)\ngare\ngaude (egon)\nzara\nzara (izan)\nzarete\nzarete (izan)\nzaude  (egon)\nzaude (egon)\nzaudete (egon)"
        },
        {
          "word": "walking",
          "definition": "dabil (he/she/it is walking)\ndabiltza (they are walking)\ngabiltza (we are walking)\ngenbiltzan (We  were walking)\nibiltzen\nnabil (I am walking)\nnenbilen (I was walking)\nzabiltza (you are walking)\nzabiltzate (you (plural) are walking)\nzebilen (He/she/it was walking)\nzebiltzan (They were walking)\nzenbiltzan (You were walking)\nzenbiltzaten (You (plural) were walking)"
        },
        {
          "word": "on",
          "definition": "Inessive case\nNON case, not a word\ngainean\npart of phrase, not translated"
        },
        {
          "word": "the",
          "definition": "-a"
        },
        {
          "word": "plaza.",
          "definition": "plaza"
        }
      ],
      "chips": [
        "Zu",
        "normalean",
        "parkean",
        "ibiltzen",
        "zara",
        "baina",
        "gaur",
        "zu",
        "plazan",
        "zoaz",
        "lan",
        "zen",
        "lau",
        "gara",
        "han",
        "ama",
        "bata",
        "izan",
        "zaie"
      ],
      "solutions": [
        [
          "Zu",
          "normalean",
          "parkean",
          "ibiltzen",
          "zara",
          "baina",
          "gaur",
          "zu",
          "plazan",
          "zoaz"
        ],
        [
          "Zu",
          "normalean",
          "parkean",
          "ibiltzen",
          "zara",
          "baina",
          "gaur",
          "plazan",
          "zoaz"
        ],
        [
          "Normalean",
          "parkean",
          "ibiltzen",
          "zara",
          "baina",
          "gaur",
          "zu",
          "plazan",
          "zoaz"
        ],
        [
          "Normalean",
          "parkean",
          "ibiltzen",
          "zara",
          "baina",
          "gaur",
          "plazan",
          "zoaz"
        ]
      ],
      "formattedSolution": "Zu normalean parkean ibiltzen zara, baina gaur zu plazan zoaz.",
      "id": "4035fd3d81c9",
      "priority": 2,
      "group": "7baa6178d1c7"
    },
    {
      "type": "chips",
      "translatesToSourceLanguage": true,
      "phrase": [
        {
          "word": "Zu",
          "definition": "you"
        },
        {
          "word": "normalean",
          "definition": "normally\nusually"
        },
        {
          "word": "parkean",
          "definition": "in a park"
        },
        {
          "word": "ibiltzen",
          "definition": "walk\nwalking"
        },
        {
          "word": "zara,",
          "definition": "are\nyou are (izan)"
        },
        {
          "word": "baina",
          "definition": "but\nbut(contrast)"
        },
        {
          "word": "gaur",
          "definition": "today"
        },
        {
          "word": "zu",
          "definition": "you"
        },
        {
          "word": "plazan",
          "definition": "in a\nin a plaza"
        },
        {
          "word": "zoaz.",
          "definition": "you are going"
        }
      ],
      "chips": [
        "You",
        "normally",
        "walk",
        "in",
        "the",
        "park",
        "but",
        "today",
        "you",
        "are",
        "walking",
        "on",
        "the",
        "plaza",
        "an",
        "any",
        "man",
        "and",
        "all",
        "or",
        "at",
        "ran",
        "am",
        "a",
        "one",
        "San",
        "day"
      ],
      "solutions": [
        [
          "You",
          "normally",
          "walk",
          "in",
          "the",
          "park",
          "but",
          "today",
          "you",
          "are",
          "walking",
          "on",
          "the",
          "plaza"
        ]
      ],
      "formattedSolution": "You normally walk in the park, but today you are walking on the plaza.",
      "id": "c18b32f6552a",
      "priority": 2,
      "group": "7baa6178d1c7"
    },
    {
      "type": "options",
      "formInTargetLanguage": "Nire emaztea merkatuan dabil.",
      "meaningInSourceLanguage": "My wife is walking in the market.",
      "id": "af5b1ebb3a76",
      "priority": 0,
      "group": "0e198015a79d"
    },
    {
      "type": "chips",
      "translatesToSourceLanguage": false,
      "phrase": [
        {
          "word": "My",
          "definition": "nire"
        },
        {
          "word": "wife",
          "definition": "emaztea"
        },
        {
          "word": "is",
          "definition": "da\nda (izan)\ndago\ndago (egon)"
        },
        {
          "word": "walking",
          "definition": "dabil (he/she/it is walking)\ndabiltza (they are walking)\ngabiltza (we are walking)\ngenbiltzan (We  were walking)\nibiltzen\nnabil (I am walking)\nnenbilen (I was walking)\nzabiltza (you are walking)\nzabiltzate (you (plural) are walking)\nzebilen (He/she/it was walking)\nzebiltzan (They were walking)\nzenbiltzan (You were walking)\nzenbiltzaten (You (plural) were walking)"
        },
        {
          "word": "in",
          "definition": "Inessive case\nNON case, not a word"
        },
        {
          "word": "the",
          "definition": "-a"
        },
        {
          "word": "market.",
          "definition": "merkatu"
        }
      ],
      "chips": [
        "Nire",
        "emaztea",
        "merkatuan",
        "dabil",
        "katua",
        "edaten",
        "arte"
      ],
      "solutions": [
        [
          "Nire",
          "emaztea",
          "merkatuan",
          "dabil"
        ]
      ],
      "formattedSolution": "Nire emaztea merkatuan dabil.",
      "id": "b680536103db",
      "priority": 2,
      "group": "0e198015a79d"
    },
    {
      "type": "chips",
      "translatesToSourceLanguage": true,
      "phrase": [
        {
          "word": "Nire",
          "definition": "my"
        },
        {
          "word": "emaztea",
          "definition": "wife"
        },
        {
          "word": "merkatuan",
          "definition": "in the market"
        },
        {
          "word": "dabil.",
          "definition": "he is walking\nhe/she/it is walking"
        }
      ],
      "chips": [
        "My",
        "wife",
        "is",
        "walking",
        "in",
        "the",
        "market",
        "it",
        "lie",
        "me",
        "an",
        "wine",
        "ice"
      ],
      "solutions": [
        [
          "My",
          "wife",
          "is",
          "walking",
          "in",
          "the",
          "market"
        ]
      ],
      "formattedSolution": "My wife is walking in the market.",
      "id": "52198f2a2b38",
      "priority": 2,
      "group": "0e198015a79d"
    },
    {
      "type": "options",
      "formInTargetLanguage": "Gu orain Irunen gabiltza.",
      "meaningInSourceLanguage": "We are now walking in Irun.",
      "id": "4923bbf4dd05",
      "priority": 0,
      "group": "61b29aa04303"
    },
    {
      "type": "chips",
      "translatesToSourceLanguage": false,
      "phrase": [
        {
          "word": "We",
          "definition": "gu"
        },
        {
          "word": "are",
          "definition": "daude\ndaude (egon)\ndaude (izan)\ndira\ndira (izan)\ngara\ngara (izan)\ngare\ngaude (egon)\nzara\nzara (izan)\nzarete\nzarete (izan)\nzaude  (egon)\nzaude (egon)\nzaudete (egon)"
        },
        {
          "word": "now",
          "definition": "orain"
        },
        {
          "word": "walking",
          "definition": "dabil (he/she/it is walking)\ndabiltza (they are walking)\ngabiltza (we are walking)\ngenbiltzan (We  were walking)\nibiltzen\nnabil (I am walking)\nnenbilen (I was walking)\nzabiltza (you are walking)\nzabiltzate (you (plural) are walking)\nzebilen (He/she/it was walking)\nzebiltzan (They were walking)\nzenbiltzan (You were walking)\nzenbiltzaten (You (plural) were walking)"
        },
        {
          "word": "in",
          "definition": "Inessive case\nNON case, not a word"
        },
        {
          "word": "Irun.",
          "definition": "Irun\nIrun (city)"
        }
      ],
      "chips": [
        "Gu",
        "orain",
        "Irunen",
        "gabiltza",
        "Orain",
        "ari",
        "naiz"
      ],
      "solutions": [
        [
          "Gu",
          "orain",
          "Irunen",
          "gabiltza"
        ],
        [
          "Orain",
          "Irunen",
          "gabiltza"
        ]
      ],
      "formattedSolution": "Gu orain Irunen gabiltza.",
      "id": "0d801ac6c372",
      "priority": 2,
      "group": "61b29aa04303"
    },
    {
      "type": "chips",
      "translatesToSourceLanguage": true,
      "phrase": [
        {
          "word": "Gu",
          "definition": "we"
        },
        {
          "word": "orain",
          "definition": "now"
        },
        {
          "word": "Irunen",
          "definition": "in Irun"
        },
        {
          "word": "gabiltza.",
          "definition": "we are walking"
        }
      ],
      "chips": [
        "We",
        "are",
        "now",
        "walking",
        "in",
        "Irun",
        "an",
        "on",
        "In",
        "or",
        "we"
      ],
      "solutions": [
        [
          "We",
          "are",
          "now",
          "walking",
          "in",
          "Irun"
        ]
      ],
      "formattedSolution": "We are now walking in Irun.",
      "id": "c0cb8b24cb3c",
      "priority": 2,
      "group": "61b29aa04303"
    },
    {
      "type": "options",
      "formInTargetLanguage": "Zuek zubian zabiltzate.",
      "meaningInSourceLanguage": "You all are walking on the bridge.",
      "id": "b0c81dc714bf",
      "priority": 0,
      "group": "c9e108356b69"
    },
    {
      "type": "chips",
      "translatesToSourceLanguage": false,
      "phrase": [
        {
          "word": "You",
          "definition": "zu\nzuek"
        },
        {
          "word": "all",
          "definition": "part of plural form of you\npart of you plural, you all"
        },
        {
          "word": "are",
          "definition": "daude\ndaude (egon)\ndaude (izan)\ndira\ndira (izan)\ngara\ngara (izan)\ngare\ngaude (egon)\nzara\nzara (izan)\nzarete\nzarete (izan)\nzaude  (egon)\nzaude (egon)\nzaudete (egon)"
        },
        {
          "word": "walking",
          "definition": "dabil (he/she/it is walking)\ndabiltza (they are walking)\ngabiltza (we are walking)\ngenbiltzan (We  were walking)\nibiltzen\nnabil (I am walking)\nnenbilen (I was walking)\nzabiltza (you are walking)\nzabiltzate (you (plural) are walking)\nzebilen (He/she/it was walking)\nzebiltzan (They were walking)\nzenbiltzan (You were walking)\nzenbiltzaten (You (plural) were walking)"
        },
        {
          "word": "on",
          "definition": "Inessive case\nNON case, not a word\ngainean\npart of phrase, not translated"
        },
        {
          "word": "the",
          "definition": "-a"
        },
        {
          "word": "bridge.",
          "definition": "zubi"
        }
      ],
      "chips": [
        "Zuek",
        "zubian",
        "zabiltzate",
        "Zubia",
        "Zubian"
      ],
      "solutions": [
        [
          "Zuek",
          "zubian",
          "zabiltzate"
        ],
        [
          "Zubian",
          "zabiltzate"
        ]
      ],
      "formattedSolution": "Zuek zubian zabiltzate.",
      "id": "53c87a812518",
      "priority": 2,
      "group": "c9e108356b69"
    },
    {
      "type": "chips",
      "translatesToSourceLanguage": true,
      "phrase": [
        {
          "word": "Zuek",
          "definition": "you\nyou all\nyou'll\nyou(plural)\nyour (plural)\nyour/you (plural)"
        },
        {
          "word": "zubian",
          "definition": "on the bridge"
        },
        {
          "word": "zabiltzate.",
          "definition": "you (plural) are walking\nyou all are walking"
        }
      ],
      "chips": [
        "You",
        "all",
        "are",
        "walking",
        "on",
        "the",
        "bridge",
        "one",
        "and",
        "an",
        "lie",
        "ate",
        "Are"
      ],
      "solutions": [
        [
          "You",
          "all",
          "are",
          "walking",
          "on",
          "the",
          "bridge"
        ],
        [
          "You",
          "plural",
          "are",
          "walking",
          "on",
          "the",
          "bridge"
        ],
        [
          "You'll",
          "are",
          "walking",
          "on",
          "the",
          "bridge"
        ],
        [
          "You",
          "are",
          "walking",
          "on",
          "the",
          "bridge"
        ]
      ],
      "formattedSolution": "You all are walking on the bridge.",
      "id": "ca8fdc2c0be6",
      "priority": 2,
      "group": "c9e108356b69"
    },
    {
      "type": "options",
      "formInTargetLanguage": "Gure amonak geltokian dabiltza.",
      "meaningInSourceLanguage": "Our grandmothers are walking in the station.",
      "id": "6b7a272edc4a",
      "priority": 0,
      "group": "a6e85fc98228"
    },
    {
      "type": "chips",
      "translatesToSourceLanguage": false,
      "phrase": [
        {
          "word": "Our",
          "definition": "gure"
        },
        {
          "word": "grandmothers",
          "definition": "amonak"
        },
        {
          "word": "are",
          "definition": "daude\ndaude (egon)\ndaude (izan)\ndira\ndira (izan)\ngara\ngara (izan)\ngare\ngaude (egon)\nzara\nzara (izan)\nzarete\nzarete (izan)\nzaude  (egon)\nzaude (egon)\nzaudete (egon)"
        },
        {
          "word": "walking",
          "definition": "dabil (he/she/it is walking)\ndabiltza (they are walking)\ngabiltza (we are walking)\ngenbiltzan (We  were walking)\nibiltzen\nnabil (I am walking)\nnenbilen (I was walking)\nzabiltza (you are walking)\nzabiltzate (you (plural) are walking)\nzebilen (He/she/it was walking)\nzebiltzan (They were walking)\nzenbiltzan (You were walking)\nzenbiltzaten (You (plural) were walking)"
        },
        {
          "word": "in",
          "definition": "Inessive case\nNON case, not a word"
        },
        {
          "word": "the",
          "definition": "-a"
        },
        {
          "word": "station.",
          "definition": "geltoki"
        }
      ],
      "chips": [
        "Gure",
        "amonak",
        "geltokian",
        "dabiltza",
        "altua",
        "altuak",
        "amona"
      ],
      "solutions": [
        [
          "Gure",
          "amonak",
          "geltokian",
          "dabiltza"
        ]
      ],
      "formattedSolution": "Gure amonak geltokian dabiltza.",
      "id": "b38d157ba0e3",
      "priority": 2,
      "group": "a6e85fc98228"
    },
    {
      "type": "chips",
      "translatesToSourceLanguage": true,
      "phrase": [
        {
          "word": "Gure",
          "definition": "our"
        },
        {
          "word": "amonak",
          "definition": "grandmothers"
        },
        {
          "word": "geltokian",
          "definition": "in the station"
        },
        {
          "word": "dabiltza.",
          "definition": "they are walking"
        }
      ],
      "chips": [
        "Our",
        "grandmothers",
        "are",
        "walking",
        "in",
        "the",
        "station",
        "an",
        "ate",
        "and",
        "ran",
        "man",
        "one"
      ],
      "solutions": [
        [
          "Our",
          "grandmothers",
          "are",
          "walking",
          "in",
          "the",
          "station"
        ]
      ],
      "formattedSolution": "Our grandmothers are walking in the station.",
      "id": "c6e5e83118e3",
      "priority": 2,
      "group": "a6e85fc98228"
    },
    {
      "type": "cards",
      "pictures": [
        "nothing.jpg",
        "nothing.jpg",
        "nothing.jpg"
      ],
      "formInTargetLanguage": "nabil",
      "meaningInSourceLanguage": "I am walking",
      "id": "3e52fccc9a34",
      "priority": 0,
      "group": "ea012310ae1d"
    },
    {
      "type": "shortInput",
      "pictures": [
        "nothing.jpg",
        "nothing.jpg",
        "nothing.jpg"
      ],
      "formInTargetLanguage": [
        "nabil"
      ],
      "phrase": [
        {
          "word": "I",
          "definition": "ni"
        },
        {
          "word": "am",
          "definition": "NORTAZ case\nnago (egon)\nnaiz\nnaiz (izan)"
        },
        {
          "word": "walking",
          "definition": "dabil (he/she/it is walking)\ndabiltza (they are walking)\ngabiltza (we are walking)\ngenbiltzan (We  were walking)\nibiltzen\nnabil (I am walking)\nnenbilen (I was walking)\nzabiltza (you are walking)\nzabiltzate (you (plural) are walking)\nzebilen (He/she/it was walking)\nzebiltzan (They were walking)\nzenbiltzan (You were walking)\nzenbiltzaten (You (plural) were walking)"
        }
      ],
      "id": "2ccf7bfb29f1",
      "priority": 1,
      "group": "ea012310ae1d"
    },
    {
      "type": "cards",
      "pictures": [
        "nothing.jpg",
        "nothing.jpg",
        "nothing.jpg"
      ],
      "formInTargetLanguage": "zabiltza",
      "meaningInSourceLanguage": "you are walking",
      "id": "95c8cded736e",
      "priority": 0,
      "group": "d731d3c23031"
    },
    {
      "type": "shortInput",
      "pictures": [
        "nothing.jpg",
        "nothing.jpg",
        "nothing.jpg"
      ],
      "formInTargetLanguage": [
        "zabiltza"
      ],
      "phrase": [
        {
          "word": "you",
          "definition": "zu\nzuek"
        },
        {
          "word": "are",
          "definition": "daude\ndaude (egon)\ndaude (izan)\ndira\ndira (izan)\ngara\ngara (izan)\ngare\ngaude (egon)\nzara\nzara (izan)\nzarete\nzarete (izan)\nzaude  (egon)\nzaude (egon)\nzaudete (egon)"
        },
        {
          "word": "walking",
          "definition": "dabil (he/she/it is walking)\ndabiltza (they are walking)\ngabiltza (we are walking)\ngenbiltzan (We  were walking)\nibiltzen\nnabil (I am walking)\nnenbilen (I was walking)\nzabiltza (you are walking)\nzabiltzate (you (plural) are walking)\nzebilen (He/she/it was walking)\nzebiltzan (They were walking)\nzenbiltzan (You were walking)\nzenbiltzaten (You (plural) were walking)"
        }
      ],
      "id": "08417f43b873",
      "priority": 1,
      "group": "d731d3c23031"
    },
    {
      "type": "cards",
      "pictures": [
        "nothing.jpg",
        "nothing.jpg",
        "nothing.jpg"
      ],
      "formInTargetLanguage": "dabil",
      "meaningInSourceLanguage": "he is walking",
      "id": "dd06fd81ed36",
      "priority": 0,
      "group": "0431dfd53e4d"
    },
    {
      "type": "shortInput",
      "pictures": [
        "nothing.jpg",
        "nothing.jpg",
        "nothing.jpg"
      ],
      "formInTargetLanguage": [
        "dabil"
      ],
      "phrase": [
        {
          "word": "he",
          "definition": "hura"
        },
        {
          "word": "is",
          "definition": "da\nda (izan)\ndago\ndago (egon)"
        },
        {
          "word": "walking",
          "definition": "dabil (he/she/it is walking)\ndabiltza (they are walking)\ngabiltza (we are walking)\ngenbiltzan (We  were walking)\nibiltzen\nnabil (I am walking)\nnenbilen (I was walking)\nzabiltza (you are walking)\nzabiltzate (you (plural) are walking)\nzebilen (He/she/it was walking)\nzebiltzan (They were walking)\nzenbiltzan (You were walking)\nzenbiltzaten (You (plural) were walking)"
        }
      ],
      "id": "d162ca27d2bd",
      "priority": 1,
      "group": "0431dfd53e4d"
    },
    {
      "type": "cards",
      "pictures": [
        "nothing.jpg",
        "nothing.jpg",
        "nothing.jpg"
      ],
      "formInTargetLanguage": "gabiltza",
      "meaningInSourceLanguage": "we are walking",
      "id": "5eef7908bff6",
      "priority": 0,
      "group": "507e4328c71b"
    },
    {
      "type": "shortInput",
      "pictures": [
        "nothing.jpg",
        "nothing.jpg",
        "nothing.jpg"
      ],
      "formInTargetLanguage": [
        "gabiltza"
      ],
      "phrase": [
        {
          "word": "we",
          "definition": "gu"
        },
        {
          "word": "are",
          "definition": "daude\ndaude (egon)\ndaude (izan)\ndira\ndira (izan)\ngara\ngara (izan)\ngare\ngaude (egon)\nzara\nzara (izan)\nzarete\nzarete (izan)\nzaude  (egon)\nzaude (egon)\nzaudete (egon)"
        },
        {
          "word": "walking",
          "definition": "dabil (he/she/it is walking)\ndabiltza (they are walking)\ngabiltza (we are walking)\ngenbiltzan (We  were walking)\nibiltzen\nnabil (I am walking)\nnenbilen (I was walking)\nzabiltza (you are walking)\nzabiltzate (you (plural) are walking)\nzebilen (He/she/it was walking)\nzebiltzan (They were walking)\nzenbiltzan (You were walking)\nzenbiltzaten (You (plural) were walking)"
        }
      ],
      "id": "83ce3d4188b2",
      "priority": 1,
      "group": "507e4328c71b"
    },
    {
      "type": "cards",
      "pictures": [
        "nothing.jpg",
        "nothing.jpg",
        "nothing.jpg"
      ],
      "formInTargetLanguage": "zabiltzate",
      "meaningInSourceLanguage": "you all are walking",
      "id": "71b9a527c130",
      "priority": 0,
      "group": "a52fdc59f53b"
    },
    {
      "type": "shortInput",
      "pictures": [
        "nothing.jpg",
        "nothing.jpg",
        "nothing.jpg"
      ],
      "formInTargetLanguage": [
        "zabiltzate"
      ],
      "phrase": [
        {
          "word": "you",
          "definition": "zu\nzuek"
        },
        {
          "word": "all",
          "definition": "part of plural form of you\npart of you plural, you all"
        },
        {
          "word": "are",
          "definition": "daude\ndaude (egon)\ndaude (izan)\ndira\ndira (izan)\ngara\ngara (izan)\ngare\ngaude (egon)\nzara\nzara (izan)\nzarete\nzarete (izan)\nzaude  (egon)\nzaude (egon)\nzaudete (egon)"
        },
        {
          "word": "walking",
          "definition": "dabil (he/she/it is walking)\ndabiltza (they are walking)\ngabiltza (we are walking)\ngenbiltzan (We  were walking)\nibiltzen\nnabil (I am walking)\nnenbilen (I was walking)\nzabiltza (you are walking)\nzabiltzate (you (plural) are walking)\nzebilen (He/she/it was walking)\nzebiltzan (They were walking)\nzenbiltzan (You were walking)\nzenbiltzaten (You (plural) were walking)"
        }
      ],
      "id": "0e90b6a5b821",
      "priority": 1,
      "group": "a52fdc59f53b"
    },
    {
      "type": "cards",
      "pictures": [
        "nothing.jpg",
        "nothing.jpg",
        "nothing.jpg"
      ],
      "formInTargetLanguage": "dabiltza",
      "meaningInSourceLanguage": "they are walking",
      "id": "902f20e794aa",
      "priority": 0,
      "group": "df850cb8459a"
    },
    {
      "type": "shortInput",
      "pictures": [
        "nothing.jpg",
        "nothing.jpg",
        "nothing.jpg"
      ],
      "formInTargetLanguage": [
        "dabiltza"
      ],
      "phrase": [
        {
          "word": "they",
          "definition": "haiek"
        },
        {
          "word": "are",
          "definition": "daude\ndaude (egon)\ndaude (izan)\ndira\ndira (izan)\ngara\ngara (izan)\ngare\ngaude (egon)\nzara\nzara (izan)\nzarete\nzarete (izan)\nzaude  (egon)\nzaude (egon)\nzaudete (egon)"
        },
        {
          "word": "walking",
          "definition": "dabil (he/she/it is walking)\ndabiltza (they are walking)\ngabiltza (we are walking)\ngenbiltzan (We  were walking)\nibiltzen\nnabil (I am walking)\nnenbilen (I was walking)\nzabiltza (you are walking)\nzabiltzate (you (plural) are walking)\nzebilen (He/she/it was walking)\nzebiltzan (They were walking)\nzenbiltzan (You were walking)\nzenbiltzaten (You (plural) were walking)"
        }
      ],
      "id": "7d9dda1f28b3",
      "priority": 1,
      "group": "df850cb8459a"
    },
    {
      "type": "cards",
      "pictures": [
        "nothing.jpg",
        "nothing.jpg",
        "nothing.jpg"
      ],
      "formInTargetLanguage": "normalean",
      "meaningInSourceLanguage": "normally",
      "id": "2cae26d5dd4d",
      "priority": 0,
      "group": "2df3d18a3b8e"
    },
    {
      "type": "shortInput",
      "pictures": [
        "nothing.jpg",
        "nothing.jpg",
        "nothing.jpg"
      ],
      "formInTargetLanguage": [
        "normalean"
      ],
      "phrase": [
        {
          "word": "normally",
          "definition": "normalean"
        }
      ],
      "id": "753d38bcf366",
      "priority": 1,
      "group": "2df3d18a3b8e"
    }
  ]
}