{
  "languageName": "German",
  "languageCode": "de",
  "uiLanguage": "en",
  "specialCharacters": [
    "Ä",
    "ä",
    "Ö",
    "ö",
    "Ü",
    "ü",
    "ß"
  ],
  "repositoryURL": "https://codeberg.org/Lamdarer/LibreLingo-DE-from-EN",
  "license": {
    "name": {
      "short": "CC BY 4.0",
      "full": "CC BY 4.0"
    },
    "link": "https://creativecommons.org/licenses/by/4.0/"
  },
  "modules": [
    {
      "title": "Basics",
      "skills": [
        {
          "imageSet": [
            "people1",
            "woman1",
            "man1"
          ],
          "introduction": "hello.md",
          "summary": [
            "der Mann",
            "die Frau",
            "Die Frau sagt hallo",
            "Der Mann sagt hallo",
            "Hallo"
          ],
          "practiceHref": "hello",
          "id": "380f3001d9ea",
          "title": "Hello",
          "levels": 2
        },
        {
          "imageSet": [
            "dog1",
            "duck1",
            "cat3"
          ],
          "summary": [
            "Hund",
            "Katze",
            "Bär",
            "Löwe",
            "Ente",
            "Pferd",
            "die Katze",
            "ein Bär",
            "ein Löwe",
            "die Ente",
            "ein Pferd",
            "der Hund",
            "Es ist ein Pferd",
            "Max ist ein Hund",
            "Eine Ente und ein Pferd"
          ],
          "practiceHref": "animals",
          "id": "38c2ea1c36d2",
          "title": "Animals",
          "levels": 3
        },
        {
          "imageSet": [
            "dress1",
            "t-shirt1",
            "hat3"
          ],
          "summary": [
            "Kleid",
            "T-Shirt",
            "Hut",
            "Schuhe",
            "Hemd",
            "Rock",
            "Socken",
            "das Kleid",
            "das T-Shirt",
            "ein Hut",
            "die Schuhe",
            "ein Hemd",
            "der Rock",
            "die Socken",
            "Ich mag es!",
            "Wie viel kostet es?",
            "Danke",
            "Das Kleid ist wunderschön",
            "Die Schuhe sind groß",
            "Das T-Shirt ist groß",
            "Der Rock ist klein"
          ],
          "practiceHref": "clothes",
          "id": "c097516da9d5",
          "title": "Clothes",
          "levels": 4
        },
        {
          "imageSet": [
            "bread2",
            "milk2",
            "pasta3"
          ],
          "summary": [
            "Brot",
            "Milch",
            "Nudeln",
            "Paar",
            "das Brot",
            "die Milch",
            "die Nudeln",
            "das Paar",
            "Guten Appetit!",
            "Bitte",
            "Brot, bitte",
            "Wasser, bitte",
            "Cäcilie trinkt Wasser",
            "Das Paar trinkt Bier",
            "Josef isst Brot",
            "Ich esse Nudeln"
          ],
          "practiceHref": "food",
          "id": "569673478a3d",
          "title": "Food",
          "levels": 4
        },
        {
          "imageSet": [
            "sky1",
            "river2",
            "sun3"
          ],
          "summary": [
            "Himmel",
            "Fluss",
            "Sonne",
            "Meer",
            "Berg",
            "See",
            "Strand",
            "der Himmel",
            "ein Fluss",
            "die Sonne",
            "das Meer",
            "der Berg",
            "ein See",
            "der Strand",
            "Gute Reise!",
            "Gehen wir an den Strand!",
            "Berge oder Meer?"
          ],
          "practiceHref": "nature",
          "id": "27a92ea694cb",
          "title": "Nature",
          "levels": 4
        },
        {
          "introduction": "plurals.md",
          "summary": [
            "Katzen",
            "Strände",
            "Enten",
            "Hemden",
            "Studenten",
            "Erdbeeren",
            "Brillen",
            "Ärzte",
            "die Katzen",
            "die Strände",
            "die Enten",
            "die Hemden",
            "die Studenten",
            "die Erdbeeren",
            "die Brillen",
            "die Ärzte",
            "Grüne Katzen",
            "Schöne Strände",
            "Die Hemden sind rot",
            "Die Katzen sind Studenten",
            "Die Brillen sind groß",
            "Die Enten sind Ärzte"
          ],
          "practiceHref": "plurals",
          "id": "76a6c8df6b2b",
          "title": "Plurals",
          "levels": 4
        }
      ]
    }
  ]
}